%!PS-Adobe-3.0 EPSF-3.0
%%Creator: MATLAB, The MathWorks, Inc. Version 7.14.0.739 (R2012a). Operating System: Linux 4.13.0-26-generic #29~16.04.2-Ubuntu SMP Tue Jan 9 22:00:44 UTC 2018 x86_64.
%%Title: /home/remoto/ruben.laso/Dropbox/M2i/1Curso/EDP/Analitica/Tema 3/Ejercicio/solucion/figuras/ap1a_2.eps
%%CreationDate: 01/20/2018  12:54:03
%%DocumentNeededFonts: Helvetica
%%DocumentProcessColors: Cyan Magenta Yellow Black
%%LanguageLevel: 2
%%Pages: 1
%%BoundingBox:   120   252   475   589
%%EndComments

%%BeginProlog
% MathWorks dictionary
/MathWorks 160 dict begin
% definition operators
/bdef {bind def} bind def
/ldef {load def} bind def
/xdef {exch def} bdef
/xstore {exch store} bdef
% operator abbreviations
/c  /clip ldef
/cc /concat ldef
/cp /closepath ldef
/gr /grestore ldef
/gs /gsave ldef
/mt /moveto ldef
/np /newpath ldef
/cm /currentmatrix ldef
/sm /setmatrix ldef
/rm /rmoveto ldef
/rl /rlineto ldef
/s {show newpath} bdef
/sc {setcmykcolor} bdef
/sr /setrgbcolor ldef
/sg /setgray ldef
/w /setlinewidth ldef
/j /setlinejoin ldef
/cap /setlinecap ldef
/rc {rectclip} bdef
/rf {rectfill} bdef
% page state control
/pgsv () def
/bpage {/pgsv save def} bdef
/epage {pgsv restore} bdef
/bplot /gsave ldef
/eplot {stroke grestore} bdef
% orientation switch
/portraitMode 0 def /landscapeMode 1 def /rotateMode 2 def
% coordinate system mappings
/dpi2point 0 def
% font control
/FontSize 0 def
/FMS {/FontSize xstore findfont [FontSize 0 0 FontSize neg 0 0]
  makefont setfont} bdef
/reencode {exch dup where {pop load} {pop StandardEncoding} ifelse
  exch dup 3 1 roll findfont dup length dict begin
  { 1 index /FID ne {def}{pop pop} ifelse } forall
  /Encoding exch def currentdict end definefont pop} bdef
/isroman {findfont /CharStrings get /Agrave known} bdef
/FMSR {3 1 roll 1 index dup isroman {reencode} {pop pop} ifelse
  exch FMS} bdef
/csm {1 dpi2point div -1 dpi2point div scale neg translate
 dup landscapeMode eq {pop -90 rotate}
  {rotateMode eq {90 rotate} if} ifelse} bdef
% line types: solid, dotted, dashed, dotdash
/SO { [] 0 setdash } bdef
/DO { [.5 dpi2point mul 4 dpi2point mul] 0 setdash } bdef
/DA { [6 dpi2point mul] 0 setdash } bdef
/DD { [.5 dpi2point mul 4 dpi2point mul 6 dpi2point mul 4
  dpi2point mul] 0 setdash } bdef
% macros for lines and objects
/L {lineto stroke} bdef
/MP {3 1 roll moveto 1 sub {rlineto} repeat} bdef
/AP {{rlineto} repeat} bdef
/PDlw -1 def
/W {/PDlw currentlinewidth def setlinewidth} def
/PP {closepath eofill} bdef
/DP {closepath stroke} bdef
/MR {4 -2 roll moveto dup  0 exch rlineto exch 0 rlineto
  neg 0 exch rlineto closepath} bdef
/FR {MR stroke} bdef
/PR {MR fill} bdef
/L1i {{currentfile picstr readhexstring pop} image} bdef
/tMatrix matrix def
/MakeOval {newpath tMatrix currentmatrix pop translate scale
0 0 1 0 360 arc tMatrix setmatrix} bdef
/FO {MakeOval stroke} bdef
/PO {MakeOval fill} bdef
/PD {currentlinewidth 2 div 0 360 arc fill
   PDlw -1 eq not {PDlw w /PDlw -1 def} if} def
/FA {newpath tMatrix currentmatrix pop translate scale
  0 0 1 5 -2 roll arc tMatrix setmatrix stroke} bdef
/PA {newpath tMatrix currentmatrix pop	translate 0 0 moveto scale
  0 0 1 5 -2 roll arc closepath tMatrix setmatrix fill} bdef
/FAn {newpath tMatrix currentmatrix pop translate scale
  0 0 1 5 -2 roll arcn tMatrix setmatrix stroke} bdef
/PAn {newpath tMatrix currentmatrix pop translate 0 0 moveto scale
  0 0 1 5 -2 roll arcn closepath tMatrix setmatrix fill} bdef
/vradius 0 def /hradius 0 def /lry 0 def
/lrx 0 def /uly 0 def /ulx 0 def /rad 0 def
/MRR {/vradius xdef /hradius xdef /lry xdef /lrx xdef /uly xdef
  /ulx xdef newpath tMatrix currentmatrix pop ulx hradius add uly
  vradius add translate hradius vradius scale 0 0 1 180 270 arc 
  tMatrix setmatrix lrx hradius sub uly vradius add translate
  hradius vradius scale 0 0 1 270 360 arc tMatrix setmatrix
  lrx hradius sub lry vradius sub translate hradius vradius scale
  0 0 1 0 90 arc tMatrix setmatrix ulx hradius add lry vradius sub
  translate hradius vradius scale 0 0 1 90 180 arc tMatrix setmatrix
  closepath} bdef
/FRR {MRR stroke } bdef
/PRR {MRR fill } bdef
/MlrRR {/lry xdef /lrx xdef /uly xdef /ulx xdef /rad lry uly sub 2 div def
  newpath tMatrix currentmatrix pop ulx rad add uly rad add translate
  rad rad scale 0 0 1 90 270 arc tMatrix setmatrix lrx rad sub lry rad
  sub translate rad rad scale 0 0 1 270 90 arc tMatrix setmatrix
  closepath} bdef
/FlrRR {MlrRR stroke } bdef
/PlrRR {MlrRR fill } bdef
/MtbRR {/lry xdef /lrx xdef /uly xdef /ulx xdef /rad lrx ulx sub 2 div def
  newpath tMatrix currentmatrix pop ulx rad add uly rad add translate
  rad rad scale 0 0 1 180 360 arc tMatrix setmatrix lrx rad sub lry rad
  sub translate rad rad scale 0 0 1 0 180 arc tMatrix setmatrix
  closepath} bdef
/FtbRR {MtbRR stroke } bdef
/PtbRR {MtbRR fill } bdef
/stri 6 array def /dtri 6 array def
/smat 6 array def /dmat 6 array def
/tmat1 6 array def /tmat2 6 array def /dif 3 array def
/asub {/ind2 exch def /ind1 exch def dup dup
  ind1 get exch ind2 get sub exch } bdef
/tri_to_matrix {
  2 0 asub 3 1 asub 4 0 asub 5 1 asub
  dup 0 get exch 1 get 7 -1 roll astore } bdef
/compute_transform {
  dmat dtri tri_to_matrix tmat1 invertmatrix 
  smat stri tri_to_matrix tmat2 concatmatrix } bdef
/ds {stri astore pop} bdef
/dt {dtri astore pop} bdef
/db {2 copy /cols xdef /rows xdef mul dup 3 mul string
  currentfile 
  3 index 0 eq {/ASCIIHexDecode filter}
  {/ASCII85Decode filter 3 index 2 eq {/RunLengthDecode filter} if }
  ifelse exch readstring pop
  dup 0 3 index getinterval /rbmap xdef
  dup 2 index dup getinterval /gbmap xdef
  1 index dup 2 mul exch getinterval /bbmap xdef pop pop}bdef
/it {gs np dtri aload pop moveto lineto lineto cp c
  cols rows 8 compute_transform 
  rbmap gbmap bbmap true 3 colorimage gr}bdef
/il {newpath moveto lineto stroke}bdef
currentdict end def
%%EndProlog

%%BeginSetup
MathWorks begin

0 cap

end
%%EndSetup

%%Page: 1 1
%%BeginPageSetup
%%PageBoundingBox:   120   252   475   589
MathWorks begin
bpage
%%EndPageSetup

%%BeginObject: obj1
bplot

/dpi2point 12 def
portraitMode 1440 7068 csm

    0     0  4263  4034 rc
85 dict begin %Colortable dictionary
/c0 { 0.000000 0.000000 0.000000 sr} bdef
/c1 { 1.000000 1.000000 1.000000 sr} bdef
/c2 { 0.900000 0.000000 0.000000 sr} bdef
/c3 { 0.000000 0.820000 0.000000 sr} bdef
/c4 { 0.000000 0.000000 0.800000 sr} bdef
/c5 { 0.910000 0.820000 0.320000 sr} bdef
/c6 { 1.000000 0.260000 0.820000 sr} bdef
/c7 { 0.000000 0.820000 0.820000 sr} bdef
c0
1 j
1 sg
   0    0 4264 4035 rf
6 w
0 1995 -1641 -404 0 -1995 3679 2892 4 MP
PP
1641 404 0 1995 -1641 -404 0 -1995 3679 2892 5 MP stroke
1641 404 1306 -507 -1641 -404 2373 3399 4 MP
PP
-1306 507 1641 404 1306 -507 -1641 -404 2373 3399 5 MP stroke
0 1995 1306 -507 0 -1995 732 2995 4 MP
PP
-1306 507 0 1995 1306 -507 0 -1995 732 2995 5 MP stroke
4 w
DO
0 sg
2373 3399 mt  732 2995 L
 732 2995 mt  732 1000 L
3026 3145 mt 1385 2742 L
1385 2742 mt 1385  747 L
3679 2892 mt 2038 2488 L
2038 2488 mt 2038  493 L
2373 3399 mt 3679 2892 L
3679 2892 mt 3679  897 L
1553 3197 mt 2858 2690 L
2858 2690 mt 2858  695 L
 732 2995 mt 2038 2488 L
2038 2488 mt 2038  493 L
 732 2993 mt 2038 2485 L
2038 2485 mt 3679 2889 L
 732 2594 mt 2038 2086 L
2038 2086 mt 3679 2490 L
 732 2195 mt 2038 1687 L
2038 1687 mt 3679 2091 L
 732 1796 mt 2038 1288 L
2038 1288 mt 3679 1692 L
 732 1397 mt 2038  889 L
2038  889 mt 3679 1293 L
SO
6 w
2373 3399 mt 3679 2892 L
2373 3399 mt  732 2995 L
 732 2995 mt  732 1000 L
2373 3399 mt 2422 3411 L
%%IncludeResource: font Helvetica
/Helvetica /ISOLatin1Encoding 120 FMSR

2455 3530 mt 
(0) s
3026 3145 mt 3075 3157 L
3108 3276 mt 
(0.5) s
3679 2892 mt 3728 2903 L
3761 3023 mt 
(1) s
2373 3399 mt 2327 3417 L
2229 3540 mt 
(0) s
1553 3197 mt 1506 3215 L
1308 3339 mt 
(0.5) s
 732 2995 mt  685 3013 L
 587 3137 mt 
(1) s
 732 2993 mt  683 2981 L
 584 3016 mt 
(0) s
 732 2594 mt  683 2582 L
 484 2617 mt 
(0.1) s
 732 2195 mt  683 2183 L
 484 2218 mt 
(0.2) s
 732 1796 mt  683 1784 L
 484 1819 mt 
(0.3) s
 732 1397 mt  683 1385 L
 484 1420 mt 
(0.4) s
gs 732 493 2948 2907 rc
/c8 { 0.000000 0.000000 0.562500 sr} bdef
c8
-86 -264 69 -26 3610 2915 3 MP
PP
0 sg
3610 2915 mt 3679 2889 L
3679 2889 mt 3593 2625 L
c8
-86 -263 68 -27 3542 2942 3 MP
PP
0 sg
3542 2942 mt 3610 2915 L
3610 2915 mt 3524 2652 L
c8
69 -27 -86 -263 3610 2915 3 MP
PP
0 sg
3610 2915 mt 3524 2652 L
3524 2652 mt 3593 2625 L
/c9 { 0.000000 0.000000 1.000000 sr} bdef
c9
-87 -240 69 -27 3524 2652 3 MP
PP
0 sg
3524 2652 mt 3593 2625 L
3593 2625 mt 3506 2385 L
c8
-87 -264 69 -27 3473 2969 3 MP
PP
0 sg
3473 2969 mt 3542 2942 L
3542 2942 mt 3455 2678 L
c8
69 -26 -87 -264 3542 2942 3 MP
PP
0 sg
3542 2942 mt 3455 2678 L
3455 2678 mt 3524 2652 L
c9
-86 -241 69 -26 3455 2678 3 MP
PP
0 sg
3455 2678 mt 3524 2652 L
3524 2652 mt 3438 2411 L
c9
68 -26 -86 -241 3524 2652 3 MP
PP
0 sg
3524 2652 mt 3438 2411 L
3438 2411 mt 3506 2385 L
/c10 { 0.000000 0.437500 1.000000 sr} bdef
c10
-86 -216 68 -26 3438 2411 3 MP
PP
0 sg
3438 2411 mt 3506 2385 L
3506 2385 mt 3420 2169 L
c8
-86 -264 69 -27 3404 2996 3 MP
PP
0 sg
3404 2996 mt 3473 2969 L
3473 2969 mt 3387 2705 L
c8
68 -27 -86 -264 3473 2969 3 MP
PP
0 sg
3473 2969 mt 3387 2705 L
3387 2705 mt 3455 2678 L
c9
-86 -240 68 -27 3387 2705 3 MP
PP
0 sg
3387 2705 mt 3455 2678 L
3455 2678 mt 3369 2438 L
c9
69 -27 -86 -240 3455 2678 3 MP
PP
0 sg
3455 2678 mt 3369 2438 L
3369 2438 mt 3438 2411 L
c10
-87 -215 69 -27 3369 2438 3 MP
PP
0 sg
3369 2438 mt 3438 2411 L
3438 2411 mt 3351 2196 L
c10
69 -27 -87 -215 3438 2411 3 MP
PP
0 sg
3438 2411 mt 3351 2196 L
3351 2196 mt 3420 2169 L
/c11 { 0.000000 0.875000 1.000000 sr} bdef
c11
-86 -190 69 -27 3351 2196 3 MP
PP
0 sg
3351 2196 mt 3420 2169 L
3420 2169 mt 3334 1979 L
c8
-86 -265 68 -26 3336 3022 3 MP
PP
0 sg
3336 3022 mt 3404 2996 L
3404 2996 mt 3318 2731 L
c8
69 -26 -86 -265 3404 2996 3 MP
PP
0 sg
3404 2996 mt 3318 2731 L
3318 2731 mt 3387 2705 L
c9
-87 -240 69 -26 3318 2731 3 MP
PP
0 sg
3318 2731 mt 3387 2705 L
3387 2705 mt 3300 2465 L
c9
69 -27 -87 -240 3387 2705 3 MP
PP
0 sg
3387 2705 mt 3300 2465 L
3300 2465 mt 3369 2438 L
c10
-86 -216 69 -27 3300 2465 3 MP
PP
0 sg
3300 2465 mt 3369 2438 L
3369 2438 mt 3283 2222 L
c10
68 -26 -86 -216 3369 2438 3 MP
PP
0 sg
3369 2438 mt 3283 2222 L
3283 2222 mt 3351 2196 L
c11
-86 -190 68 -26 3283 2222 3 MP
PP
0 sg
3283 2222 mt 3351 2196 L
3351 2196 mt 3265 2006 L
c11
69 -27 -86 -190 3351 2196 3 MP
PP
0 sg
3351 2196 mt 3265 2006 L
3265 2006 mt 3334 1979 L
c8
-87 -264 69 -27 3267 3049 3 MP
PP
0 sg
3267 3049 mt 3336 3022 L
3336 3022 mt 3249 2758 L
c8
69 -27 -87 -264 3336 3022 3 MP
PP
0 sg
3336 3022 mt 3249 2758 L
3249 2758 mt 3318 2731 L
/c12 { 0.187500 1.000000 0.812500 sr} bdef
c12
-87 -163 69 -27 3265 2006 3 MP
PP
0 sg
3265 2006 mt 3334 1979 L
3334 1979 mt 3247 1816 L
c9
-87 -240 69 -27 3249 2758 3 MP
PP
0 sg
3249 2758 mt 3318 2731 L
3318 2731 mt 3231 2491 L
c9
69 -26 -87 -240 3318 2731 3 MP
PP
0 sg
3318 2731 mt 3231 2491 L
3231 2491 mt 3300 2465 L
c10
-86 -216 69 -26 3231 2491 3 MP
PP
0 sg
3231 2491 mt 3300 2465 L
3300 2465 mt 3214 2249 L
c10
69 -27 -86 -216 3300 2465 3 MP
PP
0 sg
3300 2465 mt 3214 2249 L
3214 2249 mt 3283 2222 L
c11
-87 -190 69 -27 3214 2249 3 MP
PP
0 sg
3214 2249 mt 3283 2222 L
3283 2222 mt 3196 2032 L
c11
69 -26 -87 -190 3283 2222 3 MP
PP
0 sg
3283 2222 mt 3196 2032 L
3196 2032 mt 3265 2006 L
c8
-87 -264 69 -27 3198 3076 3 MP
PP
0 sg
3198 3076 mt 3267 3049 L
3267 3049 mt 3180 2785 L
c8
69 -27 -87 -264 3267 3049 3 MP
PP
0 sg
3267 3049 mt 3180 2785 L
3180 2785 mt 3249 2758 L
c12
-87 -164 69 -26 3196 2032 3 MP
PP
0 sg
3196 2032 mt 3265 2006 L
3265 2006 mt 3178 1842 L
c12
69 -26 -87 -164 3265 2006 3 MP
PP
0 sg
3265 2006 mt 3178 1842 L
3178 1842 mt 3247 1816 L
c9
-86 -241 69 -27 3180 2785 3 MP
PP
0 sg
3180 2785 mt 3249 2758 L
3249 2758 mt 3163 2517 L
c9
68 -26 -86 -241 3249 2758 3 MP
PP
0 sg
3249 2758 mt 3163 2517 L
3163 2517 mt 3231 2491 L
/c13 { 0.500000 1.000000 0.500000 sr} bdef
c13
-86 -136 69 -26 3178 1842 3 MP
PP
0 sg
3178 1842 mt 3247 1816 L
3247 1816 mt 3161 1680 L
c10
-86 -216 68 -26 3163 2517 3 MP
PP
0 sg
3163 2517 mt 3231 2491 L
3231 2491 mt 3145 2275 L
c10
69 -26 -86 -216 3231 2491 3 MP
PP
0 sg
3231 2491 mt 3145 2275 L
3145 2275 mt 3214 2249 L
c11
-87 -190 69 -26 3145 2275 3 MP
PP
0 sg
3145 2275 mt 3214 2249 L
3214 2249 mt 3127 2059 L
c11
69 -27 -87 -190 3214 2249 3 MP
PP
0 sg
3214 2249 mt 3127 2059 L
3127 2059 mt 3196 2032 L
c8
-86 -265 69 -26 3129 3102 3 MP
PP
0 sg
3129 3102 mt 3198 3076 L
3198 3076 mt 3112 2811 L
c8
68 -26 -86 -265 3198 3076 3 MP
PP
0 sg
3198 3076 mt 3112 2811 L
3112 2811 mt 3180 2785 L
c12
-86 -163 69 -27 3127 2059 3 MP
PP
0 sg
3127 2059 mt 3196 2032 L
3196 2032 mt 3110 1869 L
c12
68 -27 -86 -163 3196 2032 3 MP
PP
0 sg
3196 2032 mt 3110 1869 L
3110 1869 mt 3178 1842 L
c9
-86 -241 68 -26 3112 2811 3 MP
PP
0 sg
3112 2811 mt 3180 2785 L
3180 2785 mt 3094 2544 L
c9
69 -27 -86 -241 3180 2785 3 MP
PP
0 sg
3180 2785 mt 3094 2544 L
3094 2544 mt 3163 2517 L
c13
-86 -135 68 -27 3110 1869 3 MP
PP
0 sg
3110 1869 mt 3178 1842 L
3178 1842 mt 3092 1707 L
c13
69 -27 -86 -135 3178 1842 3 MP
PP
0 sg
3178 1842 mt 3092 1707 L
3092 1707 mt 3161 1680 L
c10
-87 -215 69 -27 3094 2544 3 MP
PP
0 sg
3094 2544 mt 3163 2517 L
3163 2517 mt 3076 2302 L
c10
69 -27 -87 -215 3163 2517 3 MP
PP
0 sg
3163 2517 mt 3076 2302 L
3076 2302 mt 3145 2275 L
/c14 { 0.687500 1.000000 0.312500 sr} bdef
c14
-87 -108 69 -27 3092 1707 3 MP
PP
0 sg
3092 1707 mt 3161 1680 L
3161 1680 mt 3074 1572 L
c11
-86 -190 69 -27 3076 2302 3 MP
PP
0 sg
3076 2302 mt 3145 2275 L
3145 2275 mt 3059 2085 L
c11
68 -26 -86 -190 3145 2275 3 MP
PP
0 sg
3145 2275 mt 3059 2085 L
3059 2085 mt 3127 2059 L
c8
-86 -265 68 -27 3061 3129 3 MP
PP
0 sg
3061 3129 mt 3129 3102 L
3129 3102 mt 3043 2837 L
c8
69 -26 -86 -265 3129 3102 3 MP
PP
0 sg
3129 3102 mt 3043 2837 L
3043 2837 mt 3112 2811 L
c12
-86 -164 68 -26 3059 2085 3 MP
PP
0 sg
3059 2085 mt 3127 2059 L
3127 2059 mt 3041 1895 L
c12
69 -26 -86 -164 3127 2059 3 MP
PP
0 sg
3127 2059 mt 3041 1895 L
3041 1895 mt 3110 1869 L
c9
-87 -241 69 -26 3043 2837 3 MP
PP
0 sg
3043 2837 mt 3112 2811 L
3112 2811 mt 3025 2570 L
c9
69 -26 -87 -241 3112 2811 3 MP
PP
0 sg
3112 2811 mt 3025 2570 L
3025 2570 mt 3094 2544 L
c13
-87 -136 69 -26 3041 1895 3 MP
PP
0 sg
3041 1895 mt 3110 1869 L
3110 1869 mt 3023 1733 L
c13
69 -26 -87 -136 3110 1869 3 MP
PP
0 sg
3110 1869 mt 3023 1733 L
3023 1733 mt 3092 1707 L
c10
-86 -216 69 -26 3025 2570 3 MP
PP
0 sg
3025 2570 mt 3094 2544 L
3094 2544 mt 3008 2328 L
c10
68 -26 -86 -216 3094 2544 3 MP
PP
0 sg
3094 2544 mt 3008 2328 L
3008 2328 mt 3076 2302 L
c14
-86 -108 69 -26 3023 1733 3 MP
PP
0 sg
3023 1733 mt 3092 1707 L
3092 1707 mt 3006 1599 L
c14
68 -27 -86 -108 3092 1707 3 MP
PP
0 sg
3092 1707 mt 3006 1599 L
3006 1599 mt 3074 1572 L
c11
-86 -191 68 -26 3008 2328 3 MP
PP
0 sg
3008 2328 mt 3076 2302 L
3076 2302 mt 2990 2111 L
c11
69 -26 -86 -191 3076 2302 3 MP
PP
0 sg
3076 2302 mt 2990 2111 L
2990 2111 mt 3059 2085 L
/c15 { 0.875000 1.000000 0.125000 sr} bdef
c15
-86 -79 68 -27 3006 1599 3 MP
PP
0 sg
3006 1599 mt 3074 1572 L
3074 1572 mt 2988 1493 L
c8
-87 -266 69 -27 2992 3156 3 MP
PP
0 sg
2992 3156 mt 3061 3129 L
3061 3129 mt 2974 2863 L
c8
69 -26 -87 -266 3061 3129 3 MP
PP
0 sg
3061 3129 mt 2974 2863 L
2974 2863 mt 3043 2837 L
c12
-87 -163 69 -26 2990 2111 3 MP
PP
0 sg
2990 2111 mt 3059 2085 L
3059 2085 mt 2972 1922 L
c12
69 -27 -87 -163 3059 2085 3 MP
PP
0 sg
3059 2085 mt 2972 1922 L
2972 1922 mt 3041 1895 L
c9
-86 -241 69 -26 2974 2863 3 MP
PP
0 sg
2974 2863 mt 3043 2837 L
3043 2837 mt 2957 2596 L
c9
68 -26 -86 -241 3043 2837 3 MP
PP
0 sg
3043 2837 mt 2957 2596 L
2957 2596 mt 3025 2570 L
c13
-86 -136 69 -27 2972 1922 3 MP
PP
0 sg
2972 1922 mt 3041 1895 L
3041 1895 mt 2955 1759 L
c13
68 -26 -86 -136 3041 1895 3 MP
PP
0 sg
3041 1895 mt 2955 1759 L
2955 1759 mt 3023 1733 L
c10
-86 -216 68 -26 2957 2596 3 MP
PP
0 sg
2957 2596 mt 3025 2570 L
3025 2570 mt 2939 2354 L
c10
69 -26 -86 -216 3025 2570 3 MP
PP
0 sg
3025 2570 mt 2939 2354 L
2939 2354 mt 3008 2328 L
c14
-86 -108 68 -26 2955 1759 3 MP
PP
0 sg
2955 1759 mt 3023 1733 L
3023 1733 mt 2937 1625 L
c14
69 -26 -86 -108 3023 1733 3 MP
PP
0 sg
3023 1733 mt 2937 1625 L
2937 1625 mt 3006 1599 L
c11
-87 -191 69 -26 2939 2354 3 MP
PP
0 sg
2939 2354 mt 3008 2328 L
3008 2328 mt 2921 2137 L
c11
69 -26 -87 -191 3008 2328 3 MP
PP
0 sg
3008 2328 mt 2921 2137 L
2921 2137 mt 2990 2111 L
c15
-87 -79 69 -26 2937 1625 3 MP
PP
0 sg
2937 1625 mt 3006 1599 L
3006 1599 mt 2919 1520 L
c15
69 -27 -87 -79 3006 1599 3 MP
PP
0 sg
3006 1599 mt 2919 1520 L
2919 1520 mt 2988 1493 L
c8
-86 -267 69 -26 2923 3182 3 MP
PP
0 sg
2923 3182 mt 2992 3156 L
2992 3156 mt 2906 2889 L
c8
68 -26 -86 -267 2992 3156 3 MP
PP
0 sg
2992 3156 mt 2906 2889 L
2906 2889 mt 2974 2863 L
c12
-86 -163 69 -26 2921 2137 3 MP
PP
0 sg
2921 2137 mt 2990 2111 L
2990 2111 mt 2904 1948 L
c12
68 -26 -86 -163 2990 2111 3 MP
PP
0 sg
2990 2111 mt 2904 1948 L
2904 1948 mt 2972 1922 L
/c16 { 1.000000 1.000000 0.000000 sr} bdef
c16
-86 -50 69 -27 2919 1520 3 MP
PP
0 sg
2919 1520 mt 2988 1493 L
2988 1493 mt 2902 1443 L
c9
-86 -242 68 -26 2906 2889 3 MP
PP
0 sg
2906 2889 mt 2974 2863 L
2974 2863 mt 2888 2621 L
c9
69 -25 -86 -242 2974 2863 3 MP
PP
0 sg
2974 2863 mt 2888 2621 L
2888 2621 mt 2957 2596 L
c13
-86 -136 68 -26 2904 1948 3 MP
PP
0 sg
2904 1948 mt 2972 1922 L
2972 1922 mt 2886 1786 L
c13
69 -27 -86 -136 2972 1922 3 MP
PP
0 sg
2972 1922 mt 2886 1786 L
2886 1786 mt 2955 1759 L
c10
-87 -217 69 -25 2888 2621 3 MP
PP
0 sg
2888 2621 mt 2957 2596 L
2957 2596 mt 2870 2379 L
c10
69 -25 -87 -217 2957 2596 3 MP
PP
0 sg
2957 2596 mt 2870 2379 L
2870 2379 mt 2939 2354 L
c14
-87 -107 69 -27 2886 1786 3 MP
PP
0 sg
2886 1786 mt 2955 1759 L
2955 1759 mt 2868 1652 L
c14
69 -27 -87 -107 2955 1759 3 MP
PP
0 sg
2955 1759 mt 2868 1652 L
2868 1652 mt 2937 1625 L
c11
-87 -191 69 -25 2870 2379 3 MP
PP
0 sg
2870 2379 mt 2939 2354 L
2939 2354 mt 2852 2163 L
c11
69 -26 -87 -191 2939 2354 3 MP
PP
0 sg
2939 2354 mt 2852 2163 L
2852 2163 mt 2921 2137 L
c15
-86 -79 69 -27 2868 1652 3 MP
PP
0 sg
2868 1652 mt 2937 1625 L
2937 1625 mt 2851 1546 L
c15
68 -26 -86 -79 2937 1625 3 MP
PP
0 sg
2937 1625 mt 2851 1546 L
2851 1546 mt 2919 1520 L
c8
-86 -268 69 -27 2854 3209 3 MP
PP
0 sg
2854 3209 mt 2923 3182 L
2923 3182 mt 2837 2914 L
c8
69 -25 -86 -268 2923 3182 3 MP
PP
0 sg
2923 3182 mt 2837 2914 L
2837 2914 mt 2906 2889 L
c12
-86 -163 69 -26 2852 2163 3 MP
PP
0 sg
2852 2163 mt 2921 2137 L
2921 2137 mt 2835 1974 L
c12
69 -26 -86 -163 2921 2137 3 MP
PP
0 sg
2921 2137 mt 2835 1974 L
2835 1974 mt 2904 1948 L
c16
-86 -51 68 -26 2851 1546 3 MP
PP
0 sg
2851 1546 mt 2919 1520 L
2919 1520 mt 2833 1469 L
c16
69 -26 -86 -51 2919 1520 3 MP
PP
0 sg
2919 1520 mt 2833 1469 L
2833 1469 mt 2902 1443 L
c9
-87 -243 69 -25 2837 2914 3 MP
PP
0 sg
2837 2914 mt 2906 2889 L
2906 2889 mt 2819 2646 L
c9
69 -25 -87 -243 2906 2889 3 MP
PP
0 sg
2906 2889 mt 2819 2646 L
2819 2646 mt 2888 2621 L
c13
-87 -136 69 -26 2835 1974 3 MP
PP
0 sg
2835 1974 mt 2904 1948 L
2904 1948 mt 2817 1812 L
c13
69 -26 -87 -136 2904 1948 3 MP
PP
0 sg
2904 1948 mt 2817 1812 L
2817 1812 mt 2886 1786 L
/c17 { 1.000000 0.937500 0.000000 sr} bdef
c17
-87 -21 69 -26 2833 1469 3 MP
PP
0 sg
2833 1469 mt 2902 1443 L
2902 1443 mt 2815 1422 L
/c18 { 0.000000 0.500000 1.000000 sr} bdef
c18
-87 -217 69 -25 2819 2646 3 MP
PP
0 sg
2819 2646 mt 2888 2621 L
2888 2621 mt 2801 2404 L
c10
69 -25 -87 -217 2888 2621 3 MP
PP
0 sg
2888 2621 mt 2801 2404 L
2801 2404 mt 2870 2379 L
c14
-87 -108 69 -26 2817 1812 3 MP
PP
0 sg
2817 1812 mt 2886 1786 L
2886 1786 mt 2799 1678 L
c14
69 -26 -87 -108 2886 1786 3 MP
PP
0 sg
2886 1786 mt 2799 1678 L
2799 1678 mt 2868 1652 L
c11
-86 -191 69 -25 2801 2404 3 MP
PP
0 sg
2801 2404 mt 2870 2379 L
2870 2379 mt 2784 2188 L
c11
68 -25 -86 -191 2870 2379 3 MP
PP
0 sg
2870 2379 mt 2784 2188 L
2784 2188 mt 2852 2163 L
c15
-86 -80 69 -26 2799 1678 3 MP
PP
0 sg
2799 1678 mt 2868 1652 L
2868 1652 mt 2782 1572 L
c15
69 -26 -86 -80 2868 1652 3 MP
PP
0 sg
2868 1652 mt 2782 1572 L
2782 1572 mt 2851 1546 L
c8
-86 -271 68 -27 2786 3236 3 MP
PP
0 sg
2786 3236 mt 2854 3209 L
2854 3209 mt 2768 2938 L
c8
69 -24 -86 -271 2854 3209 3 MP
PP
0 sg
2854 3209 mt 2768 2938 L
2768 2938 mt 2837 2914 L
c12
-86 -164 68 -25 2784 2188 3 MP
PP
0 sg
2784 2188 mt 2852 2163 L
2852 2163 mt 2766 1999 L
c12
69 -25 -86 -164 2852 2163 3 MP
PP
0 sg
2852 2163 mt 2766 1999 L
2766 1999 mt 2835 1974 L
c16
-87 -50 69 -26 2782 1572 3 MP
PP
0 sg
2782 1572 mt 2851 1546 L
2851 1546 mt 2764 1496 L
c16
69 -27 -87 -50 2851 1546 3 MP
PP
0 sg
2851 1546 mt 2764 1496 L
2764 1496 mt 2833 1469 L
/c19 { 0.000000 0.062500 1.000000 sr} bdef
c19
-87 -245 69 -24 2768 2938 3 MP
PP
0 sg
2768 2938 mt 2837 2914 L
2837 2914 mt 2750 2669 L
c9
69 -23 -87 -245 2837 2914 3 MP
PP
0 sg
2837 2914 mt 2750 2669 L
2750 2669 mt 2819 2646 L
c13
-87 -137 69 -25 2766 1999 3 MP
PP
0 sg
2766 1999 mt 2835 1974 L
2835 1974 mt 2748 1837 L
c13
69 -25 -87 -137 2835 1974 3 MP
PP
0 sg
2835 1974 mt 2748 1837 L
2748 1837 mt 2817 1812 L
c17
-87 -21 69 -27 2764 1496 3 MP
PP
0 sg
2764 1496 mt 2833 1469 L
2833 1469 mt 2746 1448 L
c17
69 -26 -87 -21 2833 1469 3 MP
PP
0 sg
2833 1469 mt 2746 1448 L
2746 1448 mt 2815 1422 L
c18
-86 -219 69 -23 2750 2669 3 MP
PP
0 sg
2750 2669 mt 2819 2646 L
2819 2646 mt 2733 2427 L
c18
68 -23 -86 -219 2819 2646 3 MP
PP
0 sg
2819 2646 mt 2733 2427 L
2733 2427 mt 2801 2404 L
c14
-86 -108 69 -25 2748 1837 3 MP
PP
0 sg
2748 1837 mt 2817 1812 L
2817 1812 mt 2731 1704 L
c14
68 -26 -86 -108 2817 1812 3 MP
PP
0 sg
2817 1812 mt 2731 1704 L
2731 1704 mt 2799 1678 L
c17
-86 7 69 -26 2746 1448 3 MP
PP
0 sg
2746 1448 mt 2815 1422 L
2815 1422 mt 2729 1429 L
c11
-86 -192 68 -23 2733 2427 3 MP
PP
0 sg
2733 2427 mt 2801 2404 L
2801 2404 mt 2715 2212 L
c11
69 -24 -86 -192 2801 2404 3 MP
PP
0 sg
2801 2404 mt 2715 2212 L
2715 2212 mt 2784 2188 L
c15
-86 -79 68 -26 2731 1704 3 MP
PP
0 sg
2731 1704 mt 2799 1678 L
2799 1678 mt 2713 1599 L
c15
69 -27 -86 -79 2799 1678 3 MP
PP
0 sg
2799 1678 mt 2713 1599 L
2713 1599 mt 2782 1572 L
c8
-87 -275 69 -27 2717 3263 3 MP
PP
0 sg
2717 3263 mt 2786 3236 L
2786 3236 mt 2699 2961 L
c8
69 -23 -87 -275 2786 3236 3 MP
PP
0 sg
2786 3236 mt 2699 2961 L
2699 2961 mt 2768 2938 L
c12
-87 -164 69 -24 2715 2212 3 MP
PP
0 sg
2715 2212 mt 2784 2188 L
2784 2188 mt 2697 2024 L
c12
69 -25 -87 -164 2784 2188 3 MP
PP
0 sg
2784 2188 mt 2697 2024 L
2697 2024 mt 2766 1999 L
c16
-87 -50 69 -27 2713 1599 3 MP
PP
0 sg
2713 1599 mt 2782 1572 L
2782 1572 mt 2695 1522 L
c16
69 -26 -87 -50 2782 1572 3 MP
PP
0 sg
2782 1572 mt 2695 1522 L
2695 1522 mt 2764 1496 L
c19
-86 -247 69 -23 2699 2961 3 MP
PP
0 sg
2699 2961 mt 2768 2938 L
2768 2938 mt 2682 2691 L
c19
68 -22 -86 -247 2768 2938 3 MP
PP
0 sg
2768 2938 mt 2682 2691 L
2682 2691 mt 2750 2669 L
c13
-86 -136 69 -25 2697 2024 3 MP
PP
0 sg
2697 2024 mt 2766 1999 L
2766 1999 mt 2680 1863 L
c13
68 -26 -86 -136 2766 1999 3 MP
PP
0 sg
2766 1999 mt 2680 1863 L
2680 1863 mt 2748 1837 L
c17
-86 -21 69 -26 2695 1522 3 MP
PP
0 sg
2695 1522 mt 2764 1496 L
2764 1496 mt 2678 1475 L
c17
68 -27 -86 -21 2764 1496 3 MP
PP
0 sg
2764 1496 mt 2678 1475 L
2678 1475 mt 2746 1448 L
c18
-86 -219 68 -22 2682 2691 3 MP
PP
0 sg
2682 2691 mt 2750 2669 L
2750 2669 mt 2664 2450 L
c18
69 -23 -86 -219 2750 2669 3 MP
PP
0 sg
2750 2669 mt 2664 2450 L
2664 2450 mt 2733 2427 L
c14
-86 -108 68 -26 2680 1863 3 MP
PP
0 sg
2680 1863 mt 2748 1837 L
2748 1837 mt 2662 1729 L
c14
69 -25 -86 -108 2748 1837 3 MP
PP
0 sg
2748 1837 mt 2662 1729 L
2662 1729 mt 2731 1704 L
c16
-87 37 69 -27 2660 1456 3 MP
PP
0 sg
2660 1456 mt 2729 1429 L
2729 1429 mt 2642 1466 L
c17
-86 8 68 -27 2678 1475 3 MP
PP
0 sg
2678 1475 mt 2746 1448 L
2746 1448 mt 2660 1456 L
c17
69 -27 -86 8 2746 1448 3 MP
PP
0 sg
2746 1448 mt 2660 1456 L
2660 1456 mt 2729 1429 L
c11
-87 -192 69 -23 2664 2450 3 MP
PP
0 sg
2664 2450 mt 2733 2427 L
2733 2427 mt 2646 2235 L
c11
69 -23 -87 -192 2733 2427 3 MP
PP
0 sg
2733 2427 mt 2646 2235 L
2646 2235 mt 2715 2212 L
c15
-87 -79 69 -25 2662 1729 3 MP
PP
0 sg
2662 1729 mt 2731 1704 L
2731 1704 mt 2644 1625 L
c15
69 -26 -87 -79 2731 1704 3 MP
PP
0 sg
2731 1704 mt 2644 1625 L
2644 1625 mt 2713 1599 L
c8
-86 -280 69 -26 2648 3289 3 MP
PP
0 sg
2648 3289 mt 2717 3263 L
2717 3263 mt 2631 2983 L
c8
68 -22 -86 -280 2717 3263 3 MP
PP
0 sg
2717 3263 mt 2631 2983 L
2631 2983 mt 2699 2961 L
c12
-86 -165 69 -23 2646 2235 3 MP
PP
0 sg
2646 2235 mt 2715 2212 L
2715 2212 mt 2629 2047 L
c12
68 -23 -86 -165 2715 2212 3 MP
PP
0 sg
2715 2212 mt 2629 2047 L
2629 2047 mt 2697 2024 L
c16
-86 -51 69 -26 2644 1625 3 MP
PP
0 sg
2644 1625 mt 2713 1599 L
2713 1599 mt 2627 1548 L
c16
68 -26 -86 -51 2713 1599 3 MP
PP
0 sg
2713 1599 mt 2627 1548 L
2627 1548 mt 2695 1522 L
c19
-86 -250 68 -22 2631 2983 3 MP
PP
0 sg
2631 2983 mt 2699 2961 L
2699 2961 mt 2613 2711 L
c19
69 -20 -86 -250 2699 2961 3 MP
PP
0 sg
2699 2961 mt 2613 2711 L
2613 2711 mt 2682 2691 L
c13
-86 -137 68 -23 2629 2047 3 MP
PP
0 sg
2629 2047 mt 2697 2024 L
2697 2024 mt 2611 1887 L
c13
69 -24 -86 -137 2697 2024 3 MP
PP
0 sg
2697 2024 mt 2611 1887 L
2611 1887 mt 2680 1863 L
c17
-86 -21 68 -26 2627 1548 3 MP
PP
0 sg
2627 1548 mt 2695 1522 L
2695 1522 mt 2609 1501 L
c17
69 -26 -86 -21 2695 1522 3 MP
PP
0 sg
2695 1522 mt 2609 1501 L
2609 1501 mt 2678 1475 L
c18
-87 -222 69 -20 2613 2711 3 MP
PP
0 sg
2613 2711 mt 2682 2691 L
2682 2691 mt 2595 2469 L
c18
69 -19 -87 -222 2682 2691 3 MP
PP
0 sg
2682 2691 mt 2595 2469 L
2595 2469 mt 2664 2450 L
c14
-87 -109 69 -24 2611 1887 3 MP
PP
0 sg
2611 1887 mt 2680 1863 L
2680 1863 mt 2593 1754 L
c14
69 -25 -87 -109 2680 1863 3 MP
PP
0 sg
2680 1863 mt 2593 1754 L
2593 1754 mt 2662 1729 L
c15
-86 65 68 -27 2574 1493 3 MP
PP
0 sg
2574 1493 mt 2642 1466 L
2642 1466 mt 2556 1531 L
c16
68 -27 -86 37 2660 1456 3 MP
PP
0 sg
2660 1456 mt 2574 1493 L
2574 1493 mt 2642 1466 L
c16
-86 37 69 -26 2591 1482 3 MP
PP
0 sg
2591 1482 mt 2660 1456 L
2660 1456 mt 2574 1493 L
c17
-87 7 69 -26 2609 1501 3 MP
PP
0 sg
2609 1501 mt 2678 1475 L
2678 1475 mt 2591 1482 L
c17
69 -26 -87 7 2678 1475 3 MP
PP
0 sg
2678 1475 mt 2591 1482 L
2591 1482 mt 2660 1456 L
c11
-86 -194 69 -19 2595 2469 3 MP
PP
0 sg
2595 2469 mt 2664 2450 L
2664 2450 mt 2578 2256 L
c11
68 -21 -86 -194 2664 2450 3 MP
PP
0 sg
2664 2450 mt 2578 2256 L
2578 2256 mt 2646 2235 L
c15
-86 -79 69 -25 2593 1754 3 MP
PP
0 sg
2593 1754 mt 2662 1729 L
2662 1729 mt 2576 1650 L
c15
68 -25 -86 -79 2662 1729 3 MP
PP
0 sg
2662 1729 mt 2576 1650 L
2576 1650 mt 2644 1625 L
c8
-86 -288 68 -27 2580 3316 3 MP
PP
0 sg
2580 3316 mt 2648 3289 L
2648 3289 mt 2562 3001 L
c8
69 -18 -86 -288 2648 3289 3 MP
PP
0 sg
2648 3289 mt 2562 3001 L
2562 3001 mt 2631 2983 L
/c20 { 0.250000 1.000000 0.750000 sr} bdef
c20
-86 -166 68 -21 2578 2256 3 MP
PP
0 sg
2578 2256 mt 2646 2235 L
2646 2235 mt 2560 2069 L
c12
69 -22 -86 -166 2646 2235 3 MP
PP
0 sg
2646 2235 mt 2560 2069 L
2560 2069 mt 2629 2047 L
c16
-86 -51 68 -25 2576 1650 3 MP
PP
0 sg
2576 1650 mt 2644 1625 L
2644 1625 mt 2558 1574 L
c16
69 -26 -86 -51 2644 1625 3 MP
PP
0 sg
2644 1625 mt 2558 1574 L
2558 1574 mt 2627 1548 L
c19
-87 -256 69 -18 2562 3001 3 MP
PP
0 sg
2562 3001 mt 2631 2983 L
2631 2983 mt 2544 2727 L
c19
69 -16 -87 -256 2631 2983 3 MP
PP
0 sg
2631 2983 mt 2544 2727 L
2544 2727 mt 2613 2711 L
c13
-87 -137 69 -22 2560 2069 3 MP
PP
0 sg
2560 2069 mt 2629 2047 L
2629 2047 mt 2542 1910 L
c13
69 -23 -87 -137 2629 2047 3 MP
PP
0 sg
2629 2047 mt 2542 1910 L
2542 1910 mt 2611 1887 L
c14
-86 94 69 -27 2487 1558 3 MP
PP
0 sg
2487 1558 mt 2556 1531 L
2556 1531 mt 2470 1625 L
c15
69 -27 -87 65 2574 1493 3 MP
PP
0 sg
2574 1493 mt 2487 1558 L
2487 1558 mt 2556 1531 L
c17
-87 -21 69 -26 2558 1574 3 MP
PP
0 sg
2558 1574 mt 2627 1548 L
2627 1548 mt 2540 1527 L
c17
69 -26 -87 -21 2627 1548 3 MP
PP
0 sg
2627 1548 mt 2540 1527 L
2540 1527 mt 2609 1501 L
c18
-86 -225 69 -16 2544 2727 3 MP
PP
0 sg
2544 2727 mt 2613 2711 L
2613 2711 mt 2527 2486 L
c18
68 -17 -86 -225 2613 2711 3 MP
PP
0 sg
2613 2711 mt 2527 2486 L
2527 2486 mt 2595 2469 L
/c21 { 0.750000 1.000000 0.250000 sr} bdef
c21
-86 -108 69 -23 2542 1910 3 MP
PP
0 sg
2542 1910 mt 2611 1887 L
2611 1887 mt 2525 1779 L
c14
68 -25 -86 -108 2611 1887 3 MP
PP
0 sg
2611 1887 mt 2525 1779 L
2525 1779 mt 2593 1754 L
c15
-87 65 69 -26 2505 1519 3 MP
PP
0 sg
2505 1519 mt 2574 1493 L
2574 1493 mt 2487 1558 L
c16
69 -26 -86 37 2591 1482 3 MP
PP
0 sg
2591 1482 mt 2505 1519 L
2505 1519 mt 2574 1493 L
c16
-86 37 68 -27 2523 1509 3 MP
PP
0 sg
2523 1509 mt 2591 1482 L
2591 1482 mt 2505 1519 L
c17
-86 8 69 -26 2540 1527 3 MP
PP
0 sg
2540 1527 mt 2609 1501 L
2609 1501 mt 2523 1509 L
c17
68 -27 -86 8 2609 1501 3 MP
PP
0 sg
2609 1501 mt 2523 1509 L
2523 1509 mt 2591 1482 L
/c22 { 0.000000 0.937500 1.000000 sr} bdef
c22
-86 -195 68 -17 2527 2486 3 MP
PP
0 sg
2527 2486 mt 2595 2469 L
2595 2469 mt 2509 2274 L
c11
69 -18 -86 -195 2595 2469 3 MP
PP
0 sg
2595 2469 mt 2509 2274 L
2509 2274 mt 2578 2256 L
c15
-86 -79 68 -25 2525 1779 3 MP
PP
0 sg
2525 1779 mt 2593 1754 L
2593 1754 mt 2507 1675 L
c15
69 -25 -86 -79 2593 1754 3 MP
PP
0 sg
2593 1754 mt 2507 1675 L
2507 1675 mt 2576 1650 L
c8
-87 -300 69 -27 2511 3343 3 MP
PP
0 sg
2511 3343 mt 2580 3316 L
2580 3316 mt 2493 3016 L
c8
69 -15 -87 -300 2580 3316 3 MP
PP
0 sg
2580 3316 mt 2493 3016 L
2493 3016 mt 2562 3001 L
c20
-87 -167 69 -18 2509 2274 3 MP
PP
0 sg
2509 2274 mt 2578 2256 L
2578 2256 mt 2491 2089 L
c20
69 -20 -87 -167 2578 2256 3 MP
PP
0 sg
2578 2256 mt 2491 2089 L
2491 2089 mt 2560 2069 L
c16
-87 -50 69 -25 2507 1675 3 MP
PP
0 sg
2507 1675 mt 2576 1650 L
2576 1650 mt 2489 1600 L
c16
69 -26 -87 -50 2576 1650 3 MP
PP
0 sg
2576 1650 mt 2489 1600 L
2489 1600 mt 2558 1574 L
c19
-87 -263 69 -15 2493 3016 3 MP
PP
0 sg
2493 3016 mt 2562 3001 L
2562 3001 mt 2475 2738 L
c19
69 -11 -87 -263 2562 3001 3 MP
PP
0 sg
2562 3001 mt 2475 2738 L
2475 2738 mt 2544 2727 L
c13
-86 -137 69 -20 2491 2089 3 MP
PP
0 sg
2491 2089 mt 2560 2069 L
2560 2069 mt 2474 1932 L
c13
68 -22 -86 -137 2560 2069 3 MP
PP
0 sg
2560 2069 mt 2474 1932 L
2474 1932 mt 2542 1910 L
c14
69 -26 -86 93 2487 1558 3 MP
PP
0 sg
2487 1558 mt 2401 1651 L
2401 1651 mt 2470 1625 L
c14
-86 93 68 -26 2419 1584 3 MP
PP
0 sg
2419 1584 mt 2487 1558 L
2487 1558 mt 2401 1651 L
c15
68 -26 -86 65 2505 1519 3 MP
PP
0 sg
2505 1519 mt 2419 1584 L
2419 1584 mt 2487 1558 L
c17
-86 -21 69 -26 2489 1600 3 MP
PP
0 sg
2489 1600 mt 2558 1574 L
2558 1574 mt 2472 1553 L
c17
68 -26 -86 -21 2558 1574 3 MP
PP
0 sg
2558 1574 mt 2472 1553 L
2472 1553 mt 2540 1527 L
/c23 { 0.000000 0.562500 1.000000 sr} bdef
c23
-86 -230 69 -11 2475 2738 3 MP
PP
0 sg
2475 2738 mt 2544 2727 L
2544 2727 mt 2458 2497 L
c18
69 -11 -86 -230 2544 2727 3 MP
PP
0 sg
2544 2727 mt 2458 2497 L
2458 2497 mt 2527 2486 L
c21
-86 -108 68 -22 2474 1932 3 MP
PP
0 sg
2474 1932 mt 2542 1910 L
2542 1910 mt 2456 1802 L
c21
69 -23 -86 -108 2542 1910 3 MP
PP
0 sg
2542 1910 mt 2456 1802 L
2456 1802 mt 2525 1779 L
c15
-86 65 69 -26 2436 1545 3 MP
PP
0 sg
2436 1545 mt 2505 1519 L
2505 1519 mt 2419 1584 L
c16
69 -26 -87 36 2523 1509 3 MP
PP
0 sg
2523 1509 mt 2436 1545 L
2436 1545 mt 2505 1519 L
c16
-87 36 69 -26 2454 1535 3 MP
PP
0 sg
2454 1535 mt 2523 1509 L
2523 1509 mt 2436 1545 L
c17
-86 8 68 -26 2472 1553 3 MP
PP
0 sg
2472 1553 mt 2540 1527 L
2540 1527 mt 2454 1535 L
c17
69 -26 -86 8 2540 1527 3 MP
PP
0 sg
2540 1527 mt 2454 1535 L
2454 1535 mt 2523 1509 L
c22
-87 -199 69 -11 2458 2497 3 MP
PP
0 sg
2458 2497 mt 2527 2486 L
2527 2486 mt 2440 2287 L
c22
69 -13 -87 -199 2527 2486 3 MP
PP
0 sg
2527 2486 mt 2440 2287 L
2440 2287 mt 2509 2274 L
c15
-87 -80 69 -23 2456 1802 3 MP
PP
0 sg
2456 1802 mt 2525 1779 L
2525 1779 mt 2438 1699 L
c15
69 -24 -87 -80 2525 1779 3 MP
PP
0 sg
2525 1779 mt 2438 1699 L
2438 1699 mt 2507 1675 L
c8
-87 -319 69 -26 2442 3369 3 MP
PP
0 sg
2442 3369 mt 2511 3343 L
2511 3343 mt 2424 3024 L
c8
69 -8 -87 -319 2511 3343 3 MP
PP
0 sg
2511 3343 mt 2424 3024 L
2424 3024 mt 2493 3016 L
c20
-87 -169 69 -13 2440 2287 3 MP
PP
0 sg
2440 2287 mt 2509 2274 L
2509 2274 mt 2422 2105 L
c20
69 -16 -87 -169 2509 2274 3 MP
PP
0 sg
2509 2274 mt 2422 2105 L
2422 2105 mt 2491 2089 L
c13
-87 120 69 -26 2401 1651 3 MP
PP
0 sg
2401 1651 mt 2470 1625 L
2470 1625 mt 2383 1745 L
c16
-86 -50 69 -24 2438 1699 3 MP
PP
0 sg
2438 1699 mt 2507 1675 L
2507 1675 mt 2421 1625 L
c16
68 -25 -86 -50 2507 1675 3 MP
PP
0 sg
2507 1675 mt 2421 1625 L
2421 1625 mt 2489 1600 L
/c24 { 0.000000 0.125000 1.000000 sr} bdef
c24
-86 -276 69 -8 2424 3024 3 MP
PP
0 sg
2424 3024 mt 2493 3016 L
2493 3016 mt 2407 2740 L
c19
68 -2 -86 -276 2493 3016 3 MP
PP
0 sg
2493 3016 mt 2407 2740 L
2407 2740 mt 2475 2738 L
/c25 { 0.562500 1.000000 0.437500 sr} bdef
c25
-86 -138 69 -16 2422 2105 3 MP
PP
0 sg
2422 2105 mt 2491 2089 L
2491 2089 mt 2405 1951 L
c13
69 -19 -86 -138 2491 2089 3 MP
PP
0 sg
2491 2089 mt 2405 1951 L
2405 1951 mt 2474 1932 L
c14
69 -27 -87 94 2419 1584 3 MP
PP
0 sg
2419 1584 mt 2332 1678 L
2332 1678 mt 2401 1651 L
c14
-87 94 69 -27 2350 1611 3 MP
PP
0 sg
2350 1611 mt 2419 1584 L
2419 1584 mt 2332 1678 L
c15
69 -27 -86 66 2436 1545 3 MP
PP
0 sg
2436 1545 mt 2350 1611 L
2350 1611 mt 2419 1584 L
c17
-86 -21 68 -25 2421 1625 3 MP
PP
0 sg
2421 1625 mt 2489 1600 L
2489 1600 mt 2403 1579 L
c17
69 -26 -86 -21 2489 1600 3 MP
PP
0 sg
2489 1600 mt 2403 1579 L
2403 1579 mt 2472 1553 L
/c26 { 0.000000 0.625000 1.000000 sr} bdef
c26
-86 -238 68 -2 2407 2740 3 MP
PP
0 sg
2407 2740 mt 2475 2738 L
2475 2738 mt 2389 2500 L
c23
69 -3 -86 -238 2475 2738 3 MP
PP
0 sg
2475 2738 mt 2389 2500 L
2389 2500 mt 2458 2497 L
c21
-87 -109 69 -19 2405 1951 3 MP
PP
0 sg
2405 1951 mt 2474 1932 L
2474 1932 mt 2387 1823 L
c21
69 -21 -87 -109 2474 1932 3 MP
PP
0 sg
2474 1932 mt 2387 1823 L
2387 1823 mt 2456 1802 L
c15
-86 66 69 -27 2367 1572 3 MP
PP
0 sg
2367 1572 mt 2436 1545 L
2436 1545 mt 2350 1611 L
c16
69 -27 -87 37 2454 1535 3 MP
PP
0 sg
2454 1535 mt 2367 1572 L
2367 1572 mt 2436 1545 L
c16
-87 37 69 -26 2385 1561 3 MP
PP
0 sg
2385 1561 mt 2454 1535 L
2454 1535 mt 2367 1572 L
c17
-87 8 69 -26 2403 1579 3 MP
PP
0 sg
2403 1579 mt 2472 1553 L
2472 1553 mt 2385 1561 L
c17
69 -26 -87 8 2472 1553 3 MP
PP
0 sg
2472 1553 mt 2385 1561 L
2385 1561 mt 2454 1535 L
/c27 { 0.000000 1.000000 1.000000 sr} bdef
c27
-87 -203 69 -3 2389 2500 3 MP
PP
0 sg
2389 2500 mt 2458 2497 L
2458 2497 mt 2371 2294 L
c22
69 -7 -87 -203 2458 2497 3 MP
PP
0 sg
2458 2497 mt 2371 2294 L
2371 2294 mt 2440 2287 L
c12
-86 148 69 -27 2314 1772 3 MP
PP
0 sg
2314 1772 mt 2383 1745 L
2383 1745 mt 2297 1893 L
c13
69 -27 -87 121 2401 1651 3 MP
PP
0 sg
2401 1651 mt 2314 1772 L
2314 1772 mt 2383 1745 L
/c28 { 0.937500 1.000000 0.062500 sr} bdef
c28
-87 -80 69 -21 2387 1823 3 MP
PP
0 sg
2387 1823 mt 2456 1802 L
2456 1802 mt 2369 1722 L
c15
69 -23 -87 -80 2456 1802 3 MP
PP
0 sg
2456 1802 mt 2369 1722 L
2369 1722 mt 2438 1699 L
c8
-86 -347 69 -27 2373 3396 3 MP
PP
0 sg
2373 3396 mt 2442 3369 L
2442 3369 mt 2356 3022 L
c8
68 2 -86 -347 2442 3369 3 MP
PP
0 sg
2442 3369 mt 2356 3022 L
2356 3022 mt 2424 3024 L
/c29 { 0.312500 1.000000 0.687500 sr} bdef
c29
-86 -171 69 -7 2371 2294 3 MP
PP
0 sg
2371 2294 mt 2440 2287 L
2440 2287 mt 2354 2116 L
c20
68 -11 -86 -171 2440 2287 3 MP
PP
0 sg
2440 2287 mt 2354 2116 L
2354 2116 mt 2422 2105 L
c13
-87 121 69 -27 2332 1678 3 MP
PP
0 sg
2332 1678 mt 2401 1651 L
2401 1651 mt 2314 1772 L
c16
-86 -50 69 -23 2369 1722 3 MP
PP
0 sg
2369 1722 mt 2438 1699 L
2438 1699 mt 2352 1649 L
c16
69 -24 -86 -50 2438 1699 3 MP
PP
0 sg
2438 1699 mt 2352 1649 L
2352 1649 mt 2421 1625 L
/c30 { 0.000000 0.187500 1.000000 sr} bdef
c30
-86 -294 68 2 2356 3022 3 MP
PP
0 sg
2356 3022 mt 2424 3024 L
2424 3024 mt 2338 2730 L
c24
69 10 -86 -294 2424 3024 3 MP
PP
0 sg
2424 3024 mt 2338 2730 L
2338 2730 mt 2407 2740 L
c25
-86 -140 68 -11 2354 2116 3 MP
PP
0 sg
2354 2116 mt 2422 2105 L
2422 2105 mt 2336 1965 L
c25
69 -14 -86 -140 2422 2105 3 MP
PP
0 sg
2422 2105 mt 2336 1965 L
2336 1965 mt 2405 1951 L
c14
69 -26 -87 93 2350 1611 3 MP
PP
0 sg
2350 1611 mt 2263 1704 L
2263 1704 mt 2332 1678 L
c14
-87 93 69 -26 2281 1637 3 MP
PP
0 sg
2281 1637 mt 2350 1611 L
2350 1611 mt 2263 1704 L
c15
69 -26 -86 65 2367 1572 3 MP
PP
0 sg
2367 1572 mt 2281 1637 L
2281 1637 mt 2350 1611 L
c17
-87 -22 69 -24 2352 1649 3 MP
PP
0 sg
2352 1649 mt 2421 1625 L
2421 1625 mt 2334 1603 L
c17
69 -24 -87 -22 2421 1625 3 MP
PP
0 sg
2421 1625 mt 2334 1603 L
2334 1603 mt 2403 1579 L
/c31 { 0.000000 0.687500 1.000000 sr} bdef
c31
-87 -249 69 10 2338 2730 3 MP
PP
0 sg
2338 2730 mt 2407 2740 L
2407 2740 mt 2320 2491 L
c26
69 9 -87 -249 2407 2740 3 MP
PP
0 sg
2407 2740 mt 2320 2491 L
2320 2491 mt 2389 2500 L
c21
-87 -110 69 -14 2336 1965 3 MP
PP
0 sg
2336 1965 mt 2405 1951 L
2405 1951 mt 2318 1841 L
c21
69 -18 -87 -110 2405 1951 3 MP
PP
0 sg
2405 1951 mt 2318 1841 L
2318 1841 mt 2387 1823 L
c15
-86 65 68 -26 2299 1598 3 MP
PP
0 sg
2299 1598 mt 2367 1572 L
2367 1572 mt 2281 1637 L
c16
68 -26 -86 37 2385 1561 3 MP
PP
0 sg
2385 1561 mt 2299 1598 L
2299 1598 mt 2367 1572 L
c16
-86 37 69 -25 2316 1586 3 MP
PP
0 sg
2316 1586 mt 2385 1561 L
2385 1561 mt 2299 1598 L
c17
-87 7 69 -24 2334 1603 3 MP
PP
0 sg
2334 1603 mt 2403 1579 L
2403 1579 mt 2316 1586 L
c17
69 -25 -87 7 2403 1579 3 MP
PP
0 sg
2403 1579 mt 2316 1586 L
2316 1586 mt 2385 1561 L
/c32 { 0.062500 1.000000 0.937500 sr} bdef
c32
-86 -210 69 9 2320 2491 3 MP
PP
0 sg
2320 2491 mt 2389 2500 L
2389 2500 mt 2303 2290 L
c27
68 4 -86 -210 2389 2500 3 MP
PP
0 sg
2389 2500 mt 2303 2290 L
2303 2290 mt 2371 2294 L
c12
69 -27 -86 148 2314 1772 3 MP
PP
0 sg
2314 1772 mt 2228 1920 L
2228 1920 mt 2297 1893 L
c12
-86 148 68 -27 2246 1799 3 MP
PP
0 sg
2246 1799 mt 2314 1772 L
2314 1772 mt 2228 1920 L
c13
68 -27 -86 121 2332 1678 3 MP
PP
0 sg
2332 1678 mt 2246 1799 L
2246 1799 mt 2314 1772 L
c28
-86 -81 69 -18 2318 1841 3 MP
PP
0 sg
2318 1841 mt 2387 1823 L
2387 1823 mt 2301 1742 L
c28
68 -20 -86 -81 2387 1823 3 MP
PP
0 sg
2387 1823 mt 2301 1742 L
2301 1742 mt 2369 1722 L
c8
69 45 -86 -419 2373 3396 3 MP
PP
0 sg
2373 3396 mt 2287 2977 L
2287 2977 mt 2356 3022 L
/c33 { 0.375000 1.000000 0.625000 sr} bdef
c33
-86 -175 68 4 2303 2290 3 MP
PP
0 sg
2303 2290 mt 2371 2294 L
2371 2294 mt 2285 2119 L
c29
69 -3 -86 -175 2371 2294 3 MP
PP
0 sg
2371 2294 mt 2285 2119 L
2285 2119 mt 2354 2116 L
c13
-86 121 69 -26 2263 1704 3 MP
PP
0 sg
2263 1704 mt 2332 1678 L
2332 1678 mt 2246 1799 L
c17
-86 -51 68 -20 2301 1742 3 MP
PP
0 sg
2301 1742 mt 2369 1722 L
2369 1722 mt 2283 1671 L
c16
69 -22 -86 -51 2369 1722 3 MP
PP
0 sg
2369 1722 mt 2283 1671 L
2283 1671 mt 2352 1649 L
/c34 { 0.000000 0.312500 1.000000 sr} bdef
c34
-87 -322 69 45 2287 2977 3 MP
PP
0 sg
2287 2977 mt 2356 3022 L
2356 3022 mt 2269 2700 L
c30
69 30 -87 -322 2356 3022 3 MP
PP
0 sg
2356 3022 mt 2269 2700 L
2269 2700 mt 2338 2730 L
/c35 { 0.625000 1.000000 0.375000 sr} bdef
c35
-87 -142 69 -3 2285 2119 3 MP
PP
0 sg
2285 2119 mt 2354 2116 L
2354 2116 mt 2267 1974 L
c25
69 -9 -87 -142 2354 2116 3 MP
PP
0 sg
2354 2116 mt 2267 1974 L
2267 1974 mt 2336 1965 L
c14
68 -26 -86 93 2281 1637 3 MP
PP
0 sg
2281 1637 mt 2195 1730 L
2195 1730 mt 2263 1704 L
c14
-86 93 69 -26 2212 1663 3 MP
PP
0 sg
2212 1663 mt 2281 1637 L
2281 1637 mt 2195 1730 L
c15
69 -26 -87 65 2299 1598 3 MP
PP
0 sg
2299 1598 mt 2212 1663 L
2212 1663 mt 2281 1637 L
c17
-87 -22 69 -22 2283 1671 3 MP
PP
0 sg
2283 1671 mt 2352 1649 L
2352 1649 mt 2265 1627 L
c17
69 -24 -87 -22 2352 1649 3 MP
PP
0 sg
2352 1649 mt 2265 1627 L
2265 1627 mt 2334 1603 L
/c36 { 0.000000 0.812500 1.000000 sr} bdef
c36
-86 -267 69 30 2269 2700 3 MP
PP
0 sg
2269 2700 mt 2338 2730 L
2338 2730 mt 2252 2463 L
c31
68 28 -86 -267 2338 2730 3 MP
PP
0 sg
2338 2730 mt 2252 2463 L
2252 2463 mt 2320 2491 L
c11
-87 173 69 -27 2228 1920 3 MP
PP
0 sg
2228 1920 mt 2297 1893 L
2297 1893 mt 2210 2066 L
/c37 { 0.812500 1.000000 0.187500 sr} bdef
c37
-86 -111 69 -9 2267 1974 3 MP
PP
0 sg
2267 1974 mt 2336 1965 L
2336 1965 mt 2250 1854 L
c21
68 -13 -86 -111 2336 1965 3 MP
PP
0 sg
2336 1965 mt 2250 1854 L
2250 1854 mt 2318 1841 L
c15
-87 65 69 -25 2230 1623 3 MP
PP
0 sg
2230 1623 mt 2299 1598 L
2299 1598 mt 2212 1663 L
c16
69 -25 -86 37 2316 1586 3 MP
PP
0 sg
2316 1586 mt 2230 1623 L
2230 1623 mt 2299 1598 L
c16
-86 37 68 -25 2248 1611 3 MP
PP
0 sg
2248 1611 mt 2316 1586 L
2316 1586 mt 2230 1623 L
c17
-86 8 69 -24 2265 1627 3 MP
PP
0 sg
2265 1627 mt 2334 1603 L
2334 1603 mt 2248 1611 L
c17
68 -25 -86 8 2334 1603 3 MP
PP
0 sg
2334 1603 mt 2248 1611 L
2248 1611 mt 2316 1586 L
c12
-86 -221 68 28 2252 2463 3 MP
PP
0 sg
2252 2463 mt 2320 2491 L
2320 2491 mt 2234 2270 L
c32
69 20 -86 -221 2320 2491 3 MP
PP
0 sg
2320 2491 mt 2234 2270 L
2234 2270 mt 2303 2290 L
c12
69 -26 -87 147 2246 1799 3 MP
PP
0 sg
2246 1799 mt 2159 1946 L
2159 1946 mt 2228 1920 L
c12
-87 147 69 -26 2177 1825 3 MP
PP
0 sg
2177 1825 mt 2246 1799 L
2246 1799 mt 2159 1946 L
c13
69 -26 -86 121 2263 1704 3 MP
PP
0 sg
2263 1704 mt 2177 1825 L
2177 1825 mt 2246 1799 L
c28
-86 -81 68 -13 2250 1854 3 MP
PP
0 sg
2250 1854 mt 2318 1841 L
2318 1841 mt 2232 1760 L
c28
69 -18 -86 -81 2318 1841 3 MP
PP
0 sg
2318 1841 mt 2232 1760 L
2232 1760 mt 2301 1742 L
/c38 { 0.437500 1.000000 0.562500 sr} bdef
c38
-87 -181 69 20 2234 2270 3 MP
PP
0 sg
2234 2270 mt 2303 2290 L
2303 2290 mt 2216 2109 L
c33
69 10 -87 -181 2303 2290 3 MP
PP
0 sg
2303 2290 mt 2216 2109 L
2216 2109 mt 2285 2119 L
c13
-86 121 68 -26 2195 1730 3 MP
PP
0 sg
2195 1730 mt 2263 1704 L
2263 1704 mt 2177 1825 L
c17
-87 -50 69 -18 2232 1760 3 MP
PP
0 sg
2232 1760 mt 2301 1742 L
2301 1742 mt 2214 1692 L
c17
69 -21 -87 -50 2301 1742 3 MP
PP
0 sg
2301 1742 mt 2214 1692 L
2214 1692 mt 2283 1671 L
c34
68 98 -86 -375 2287 2977 3 MP
PP
0 sg
2287 2977 mt 2201 2602 L
2201 2602 mt 2269 2700 L
c11
68 -27 -86 173 2228 1920 3 MP
PP
0 sg
2228 1920 mt 2142 2093 L
2142 2093 mt 2210 2066 L
c11
-86 173 69 -26 2159 1946 3 MP
PP
0 sg
2159 1946 mt 2228 1920 L
2228 1920 mt 2142 2093 L
c14
-86 -146 69 10 2216 2109 3 MP
PP
0 sg
2216 2109 mt 2285 2119 L
2285 2119 mt 2199 1973 L
c35
68 1 -86 -146 2285 2119 3 MP
PP
0 sg
2285 2119 mt 2199 1973 L
2199 1973 mt 2267 1974 L
c14
69 -27 -86 94 2212 1663 3 MP
PP
0 sg
2212 1663 mt 2126 1757 L
2126 1757 mt 2195 1730 L
c14
-86 94 68 -26 2144 1689 3 MP
PP
0 sg
2144 1689 mt 2212 1663 L
2212 1663 mt 2126 1757 L
c15
68 -26 -86 66 2230 1623 3 MP
PP
0 sg
2230 1623 mt 2144 1689 L
2144 1689 mt 2212 1663 L
c17
-86 -21 69 -21 2214 1692 3 MP
PP
0 sg
2214 1692 mt 2283 1671 L
2283 1671 mt 2197 1650 L
c17
68 -23 -86 -21 2283 1671 3 MP
PP
0 sg
2283 1671 mt 2197 1650 L
2197 1650 mt 2265 1627 L
c32
-86 -292 68 98 2201 2602 3 MP
PP
0 sg
2201 2602 mt 2269 2700 L
2269 2700 mt 2183 2408 L
c36
69 55 -86 -292 2269 2700 3 MP
PP
0 sg
2269 2700 mt 2183 2408 L
2183 2408 mt 2252 2463 L
c15
-86 -113 68 1 2199 1973 3 MP
PP
0 sg
2199 1973 mt 2267 1974 L
2267 1974 mt 2181 1861 L
c37
69 -7 -86 -113 2267 1974 3 MP
PP
0 sg
2267 1974 mt 2181 1861 L
2181 1861 mt 2250 1854 L
c15
-86 66 69 -25 2161 1648 3 MP
PP
0 sg
2161 1648 mt 2230 1623 L
2230 1623 mt 2144 1689 L
c16
69 -25 -87 37 2248 1611 3 MP
PP
0 sg
2248 1611 mt 2161 1648 L
2161 1648 mt 2230 1623 L
c16
-87 37 69 -24 2179 1635 3 MP
PP
0 sg
2179 1635 mt 2248 1611 L
2248 1611 mt 2161 1648 L
c17
-86 8 68 -23 2197 1650 3 MP
PP
0 sg
2197 1650 mt 2265 1627 L
2265 1627 mt 2179 1635 L
c17
69 -24 -86 8 2265 1627 3 MP
PP
0 sg
2265 1627 mt 2179 1635 L
2179 1635 mt 2248 1611 L
c29
-87 -236 69 55 2183 2408 3 MP
PP
0 sg
2183 2408 mt 2252 2463 L
2252 2463 mt 2165 2227 L
c12
69 43 -87 -236 2252 2463 3 MP
PP
0 sg
2252 2463 mt 2165 2227 L
2165 2227 mt 2234 2270 L
c12
68 -27 -86 148 2177 1825 3 MP
PP
0 sg
2177 1825 mt 2091 1973 L
2091 1973 mt 2159 1946 L
c12
-86 148 69 -26 2108 1851 3 MP
PP
0 sg
2108 1851 mt 2177 1825 L
2177 1825 mt 2091 1973 L
c13
69 -26 -87 121 2195 1730 3 MP
PP
0 sg
2195 1730 mt 2108 1851 L
2108 1851 mt 2177 1825 L
c13
-87 121 69 -27 2126 1757 3 MP
PP
0 sg
2126 1757 mt 2195 1730 L
2195 1730 mt 2108 1851 L
c16
-87 -81 69 -7 2181 1861 3 MP
PP
0 sg
2181 1861 mt 2250 1854 L
2250 1854 mt 2163 1773 L
c28
69 -13 -87 -81 2250 1854 3 MP
PP
0 sg
2250 1854 mt 2163 1773 L
2163 1773 mt 2232 1760 L
c10
-86 198 68 -27 2142 2093 3 MP
PP
0 sg
2142 2093 mt 2210 2066 L
2210 2066 mt 2124 2264 L
c35
-86 -190 69 43 2165 2227 3 MP
PP
0 sg
2165 2227 mt 2234 2270 L
2234 2270 mt 2148 2080 L
c38
68 29 -86 -190 2234 2270 3 MP
PP
0 sg
2234 2270 mt 2148 2080 L
2148 2080 mt 2216 2109 L
c17
-86 -51 69 -13 2163 1773 3 MP
PP
0 sg
2163 1773 mt 2232 1760 L
2232 1760 mt 2146 1709 L
c17
68 -17 -86 -51 2232 1760 3 MP
PP
0 sg
2232 1760 mt 2146 1709 L
2146 1709 mt 2214 1692 L
c11
69 -26 -86 173 2159 1946 3 MP
PP
0 sg
2159 1946 mt 2073 2119 L
2073 2119 mt 2142 2093 L
c11
-86 173 68 -27 2091 1973 3 MP
PP
0 sg
2091 1973 mt 2159 1946 L
2159 1946 mt 2073 2119 L
c37
-86 -151 68 29 2148 2080 3 MP
PP
0 sg
2148 2080 mt 2216 2109 L
2216 2109 mt 2130 1958 L
c14
69 15 -86 -151 2216 2109 3 MP
PP
0 sg
2216 2109 mt 2130 1958 L
2130 1958 mt 2199 1973 L
c14
69 -25 -87 93 2144 1689 3 MP
PP
0 sg
2144 1689 mt 2057 1782 L
2057 1782 mt 2126 1757 L
c14
-87 93 69 -25 2075 1714 3 MP
PP
0 sg
2075 1714 mt 2144 1689 L
2144 1689 mt 2057 1782 L
c15
69 -25 -86 66 2161 1648 3 MP
PP
0 sg
2161 1648 mt 2075 1714 L
2075 1714 mt 2144 1689 L
c15
-86 66 68 -25 2093 1673 3 MP
PP
0 sg
2093 1673 mt 2161 1648 L
2161 1648 mt 2075 1714 L
/c39 { 1.000000 0.875000 0.000000 sr} bdef
c39
-86 -22 68 -17 2146 1709 3 MP
PP
0 sg
2146 1709 mt 2214 1692 L
2214 1692 mt 2128 1670 L
c17
69 -20 -86 -22 2214 1692 3 MP
PP
0 sg
2214 1692 mt 2128 1670 L
2128 1670 mt 2197 1650 L
c9
-86 221 69 -27 2055 2291 3 MP
PP
0 sg
2055 2291 mt 2124 2264 L
2124 2264 mt 2038 2485 L
c32
69 137 -87 -331 2201 2602 3 MP
PP
0 sg
2201 2602 mt 2114 2271 L
2114 2271 mt 2183 2408 L
c28
-87 -115 69 15 2130 1958 3 MP
PP
0 sg
2130 1958 mt 2199 1973 L
2199 1973 mt 2112 1858 L
c15
69 3 -87 -115 2199 1973 3 MP
PP
0 sg
2199 1973 mt 2112 1858 L
2112 1858 mt 2181 1861 L
c16
68 -25 -86 38 2179 1635 3 MP
PP
0 sg
2179 1635 mt 2093 1673 L
2093 1673 mt 2161 1648 L
c16
-86 38 69 -23 2110 1658 3 MP
PP
0 sg
2110 1658 mt 2179 1635 L
2179 1635 mt 2093 1673 L
c17
-87 8 69 -20 2128 1670 3 MP
PP
0 sg
2128 1670 mt 2197 1650 L
2197 1650 mt 2110 1658 L
c17
69 -23 -87 8 2197 1650 3 MP
PP
0 sg
2197 1650 mt 2110 1658 L
2110 1658 mt 2179 1635 L
c10
69 -27 -87 198 2142 2093 3 MP
PP
0 sg
2142 2093 mt 2055 2291 L
2055 2291 mt 2124 2264 L
c10
-87 198 69 -26 2073 2119 3 MP
PP
0 sg
2073 2119 mt 2142 2093 L
2142 2093 mt 2055 2291 L
c14
-86 -260 69 137 2114 2271 3 MP
PP
0 sg
2114 2271 mt 2183 2408 L
2183 2408 mt 2097 2148 L
c29
68 79 -86 -260 2183 2408 3 MP
PP
0 sg
2183 2408 mt 2097 2148 L
2097 2148 mt 2165 2227 L
c13
68 -27 -86 121 2126 1757 3 MP
PP
0 sg
2126 1757 mt 2040 1878 L
2040 1878 mt 2108 1851 L
c13
-86 121 69 -25 2057 1782 3 MP
PP
0 sg
2057 1782 mt 2126 1757 L
2126 1757 mt 2040 1878 L
c17
-86 -83 69 3 2112 1858 3 MP
PP
0 sg
2112 1858 mt 2181 1861 L
2181 1861 mt 2095 1778 L
c16
68 -5 -86 -83 2181 1861 3 MP
PP
0 sg
2181 1861 mt 2095 1778 L
2095 1778 mt 2163 1773 L
c11
69 -27 -87 173 2091 1973 3 MP
PP
0 sg
2091 1973 mt 2004 2146 L
2004 2146 mt 2073 2119 L
c37
-86 -204 68 79 2097 2148 3 MP
PP
0 sg
2097 2148 mt 2165 2227 L
2165 2227 mt 2079 2023 L
c35
69 57 -86 -204 2165 2227 3 MP
PP
0 sg
2165 2227 mt 2079 2023 L
2079 2023 mt 2148 2080 L
c39
-86 -52 68 -5 2095 1778 3 MP
PP
0 sg
2095 1778 mt 2163 1773 L
2163 1773 mt 2077 1721 L
c17
69 -12 -86 -52 2163 1773 3 MP
PP
0 sg
2163 1773 mt 2077 1721 L
2077 1721 mt 2146 1709 L
c11
-87 173 69 -26 2022 1999 3 MP
PP
0 sg
2022 1999 mt 2091 1973 L
2091 1973 mt 2004 2146 L
c12
69 -26 -86 148 2108 1851 3 MP
PP
0 sg
2108 1851 mt 2022 1999 L
2022 1999 mt 2091 1973 L
c12
-86 148 68 -27 2040 1878 3 MP
PP
0 sg
2040 1878 mt 2108 1851 L
2108 1851 mt 2022 1999 L
c16
-87 -158 69 57 2079 2023 3 MP
PP
0 sg
2079 2023 mt 2148 2080 L
2148 2080 mt 2061 1922 L
c37
69 36 -87 -158 2148 2080 3 MP
PP
0 sg
2148 2080 mt 2061 1922 L
2061 1922 mt 2130 1958 L
c14
68 -26 -86 94 2075 1714 3 MP
PP
0 sg
2075 1714 mt 1989 1808 L
1989 1808 mt 2057 1782 L
c14
-86 94 69 -24 2006 1738 3 MP
PP
0 sg
2006 1738 mt 2075 1714 L
2075 1714 mt 1989 1808 L
c15
69 -24 -87 65 2093 1673 3 MP
PP
0 sg
2093 1673 mt 2006 1738 L
2006 1738 mt 2075 1714 L
c15
-87 65 69 -22 2024 1695 3 MP
PP
0 sg
2024 1695 mt 2093 1673 L
2093 1673 mt 2006 1738 L
c39
-87 -21 69 -12 2077 1721 3 MP
PP
0 sg
2077 1721 mt 2146 1709 L
2146 1709 mt 2059 1688 L
c39
69 -18 -87 -21 2146 1709 3 MP
PP
0 sg
2146 1709 mt 2059 1688 L
2059 1688 mt 2128 1670 L
c13
69 -26 -86 122 2057 1782 3 MP
PP
0 sg
2057 1782 mt 1971 1904 L
1971 1904 mt 2040 1878 L
c17
-86 -119 69 36 2061 1922 3 MP
PP
0 sg
2061 1922 mt 2130 1958 L
2130 1958 mt 2044 1839 L
c28
68 19 -86 -119 2130 1958 3 MP
PP
0 sg
2130 1958 mt 2044 1839 L
2044 1839 mt 2112 1858 L
c16
69 -22 -86 37 2110 1658 3 MP
PP
0 sg
2110 1658 mt 2024 1695 L
2024 1695 mt 2093 1673 L
c17
-86 37 68 -21 2042 1679 3 MP
PP
0 sg
2042 1679 mt 2110 1658 L
2110 1658 mt 2024 1695 L
c39
-86 9 69 -18 2059 1688 3 MP
PP
0 sg
2059 1688 mt 2128 1670 L
2128 1670 mt 2042 1679 L
c17
68 -21 -86 9 2128 1670 3 MP
PP
0 sg
2128 1670 mt 2042 1679 L
2042 1679 mt 2110 1658 L
c10
68 -26 -86 198 2073 2119 3 MP
PP
0 sg
2073 2119 mt 1987 2317 L
1987 2317 mt 2055 2291 L
c10
-86 198 69 -27 2004 2146 3 MP
PP
0 sg
2004 2146 mt 2073 2119 L
2073 2119 mt 1987 2317 L
c14
69 163 -86 -286 2114 2271 3 MP
PP
0 sg
2114 2271 mt 2028 1985 L
2028 1985 mt 2097 2148 L
c13
-86 122 68 -26 1989 1808 3 MP
PP
0 sg
1989 1808 mt 2057 1782 L
2057 1782 mt 1971 1904 L
c39
-86 -85 68 19 2044 1839 3 MP
PP
0 sg
2044 1839 mt 2112 1858 L
2112 1858 mt 2026 1773 L
c17
69 5 -86 -85 2112 1858 3 MP
PP
0 sg
2112 1858 mt 2026 1773 L
2026 1773 mt 2095 1778 L
c12
69 -27 -87 148 2040 1878 3 MP
PP
0 sg
2040 1878 mt 1953 2026 L
1953 2026 mt 2022 1999 L
c12
-87 148 69 -26 1971 1904 3 MP
PP
0 sg
1971 1904 mt 2040 1878 L
2040 1878 mt 1953 2026 L
/c40 { 1.000000 0.812500 0.000000 sr} bdef
c40
-87 -225 69 163 2028 1985 3 MP
PP
0 sg
2028 1985 mt 2097 2148 L
2097 2148 mt 2010 1923 L
c37
69 100 -87 -225 2097 2148 3 MP
PP
0 sg
2097 2148 mt 2010 1923 L
2010 1923 mt 2079 2023 L
c15
69 -24 -87 67 2024 1695 3 MP
PP
0 sg
2024 1695 mt 1937 1762 L
1937 1762 mt 2006 1738 L
c40
-87 -52 69 5 2026 1773 3 MP
PP
0 sg
2026 1773 mt 2095 1778 L
2095 1778 mt 2008 1726 L
c39
69 -5 -87 -52 2095 1778 3 MP
PP
0 sg
2095 1778 mt 2008 1726 L
2008 1726 mt 2077 1721 L
/c41 { 1.000000 0.750000 0.000000 sr} bdef
c41
-87 -170 69 100 2010 1923 3 MP
PP
0 sg
2010 1923 mt 2079 2023 L
2079 2023 mt 1992 1853 L
c16
69 69 -87 -170 2079 2023 3 MP
PP
0 sg
2079 2023 mt 1992 1853 L
1992 1853 mt 2061 1922 L
c28
-87 67 69 -21 1955 1716 3 MP
PP
0 sg
1955 1716 mt 2024 1695 L
2024 1695 mt 1937 1762 L
c17
69 -21 -87 37 2042 1679 3 MP
PP
0 sg
2042 1679 mt 1955 1716 L
1955 1716 mt 2024 1695 L
c17
-87 37 69 -17 1973 1696 3 MP
PP
0 sg
1973 1696 mt 2042 1679 L
2042 1679 mt 1955 1716 L
c40
-87 -21 69 -5 2008 1726 3 MP
PP
0 sg
2008 1726 mt 2077 1721 L
2077 1721 mt 1990 1700 L
c39
69 -12 -87 -21 2077 1721 3 MP
PP
0 sg
2077 1721 mt 1990 1700 L
1990 1700 mt 2059 1688 L
c13
69 -25 -87 121 1989 1808 3 MP
PP
0 sg
1989 1808 mt 1902 1929 L
1902 1929 mt 1971 1904 L
c13
-87 121 69 -24 1920 1832 3 MP
PP
0 sg
1920 1832 mt 1989 1808 L
1989 1808 mt 1902 1929 L
c14
69 -24 -86 94 2006 1738 3 MP
PP
0 sg
2006 1738 mt 1920 1832 L
1920 1832 mt 1989 1808 L
c41
-86 -125 69 69 1992 1853 3 MP
PP
0 sg
1992 1853 mt 2061 1922 L
2061 1922 mt 1975 1797 L
c17
69 42 -86 -125 2061 1922 3 MP
PP
0 sg
2061 1922 mt 1975 1797 L
1975 1797 mt 2044 1839 L
c39
-86 8 69 -12 1990 1700 3 MP
PP
0 sg
1990 1700 mt 2059 1688 L
2059 1688 mt 1973 1696 L
c39
69 -17 -86 8 2059 1688 3 MP
PP
0 sg
2059 1688 mt 1973 1696 L
1973 1696 mt 2042 1679 L
c9
-86 221 68 -26 1987 2317 3 MP
PP
0 sg
1987 2317 mt 2055 2291 L
2055 2291 mt 1969 2512 L
c9
69 -27 -86 221 2055 2291 3 MP
PP
0 sg
2055 2291 mt 1969 2512 L
1969 2512 mt 2038 2485 L
c21
-86 94 69 -24 1937 1762 3 MP
PP
0 sg
1937 1762 mt 2006 1738 L
2006 1738 mt 1920 1832 L
/c42 { 1.000000 0.687500 0.000000 sr} bdef
c42
-87 -87 69 42 1975 1797 3 MP
PP
0 sg
1975 1797 mt 2044 1839 L
2044 1839 mt 1957 1752 L
c39
69 21 -87 -87 2044 1839 3 MP
PP
0 sg
2044 1839 mt 1957 1752 L
1957 1752 mt 2026 1773 L
c28
68 -21 -86 67 1955 1716 3 MP
PP
0 sg
1955 1716 mt 1869 1783 L
1869 1783 mt 1937 1762 L
c17
68 -14 -86 39 1904 1709 3 MP
PP
0 sg
1904 1709 mt 1818 1748 L
1818 1748 mt 1886 1734 L
c39
-86 39 69 -6 1835 1715 3 MP
PP
0 sg
1835 1715 mt 1904 1709 L
1904 1709 mt 1818 1748 L
c40
69 -6 -87 10 1922 1705 3 MP
PP
0 sg
1922 1705 mt 1835 1715 L
1835 1715 mt 1904 1709 L
c41
-87 10 69 6 1853 1699 3 MP
PP
0 sg
1853 1699 mt 1922 1705 L
1922 1705 mt 1835 1715 L
c17
69 -18 -87 38 1973 1696 3 MP
PP
0 sg
1973 1696 mt 1886 1734 L
1886 1734 mt 1955 1716 L
c17
-87 38 69 -13 1904 1709 3 MP
PP
0 sg
1904 1709 mt 1973 1696 L
1973 1696 mt 1886 1734 L
c39
69 -13 -86 9 1990 1700 3 MP
PP
0 sg
1990 1700 mt 1904 1709 L
1904 1709 mt 1973 1696 L
c40
-86 9 68 -5 1922 1705 3 MP
PP
0 sg
1922 1705 mt 1990 1700 L
1990 1700 mt 1904 1709 L
c41
69 6 -86 -21 1939 1720 3 MP
PP
0 sg
1939 1720 mt 1853 1699 L
1853 1699 mt 1922 1705 L
/c43 { 1.000000 0.625000 0.000000 sr} bdef
c43
-86 -21 68 22 1871 1698 3 MP
PP
0 sg
1871 1698 mt 1939 1720 L
1939 1720 mt 1853 1699 L
c28
-86 67 69 -18 1886 1734 3 MP
PP
0 sg
1886 1734 mt 1955 1716 L
1955 1716 mt 1869 1783 L
c41
68 22 -86 -54 1957 1752 3 MP
PP
0 sg
1957 1752 mt 1871 1698 L
1871 1698 mt 1939 1720 L
/c44 { 1.000000 0.562500 0.000000 sr} bdef
c44
-86 -54 69 46 1888 1706 3 MP
PP
0 sg
1888 1706 mt 1957 1752 L
1957 1752 mt 1871 1698 L
c42
69 46 -87 -91 1975 1797 3 MP
PP
0 sg
1975 1797 mt 1888 1706 L
1888 1706 mt 1957 1752 L
/c45 { 1.000000 0.500000 0.000000 sr} bdef
c45
-87 -91 69 78 1906 1719 3 MP
PP
0 sg
1906 1719 mt 1975 1797 L
1975 1797 mt 1888 1706 L
c21
69 -24 -86 94 1937 1762 3 MP
PP
0 sg
1937 1762 mt 1851 1856 L
1851 1856 mt 1920 1832 L
c21
-86 94 68 -21 1869 1783 3 MP
PP
0 sg
1869 1783 mt 1937 1762 L
1937 1762 mt 1851 1856 L
c41
69 78 -86 -134 1992 1853 3 MP
PP
0 sg
1992 1853 mt 1906 1719 L
1906 1719 mt 1975 1797 L
/c46 { 1.000000 0.437500 0.000000 sr} bdef
c46
-86 -134 68 117 1924 1736 3 MP
PP
0 sg
1924 1736 mt 1992 1853 L
1992 1853 mt 1906 1719 L
c41
68 117 -86 -187 2010 1923 3 MP
PP
0 sg
2010 1923 mt 1924 1736 L
1924 1736 mt 1992 1853 L
/c47 { 1.000000 0.375000 0.000000 sr} bdef
c47
-86 -187 69 180 1941 1743 3 MP
PP
0 sg
1941 1743 mt 2010 1923 L
2010 1923 mt 1924 1736 L
c40
69 180 -87 -242 2028 1985 3 MP
PP
0 sg
2028 1985 mt 1941 1743 L
1941 1743 mt 2010 1923 L
c41
-87 -53 69 21 1957 1752 3 MP
PP
0 sg
1957 1752 mt 2026 1773 L
2026 1773 mt 1939 1720 L
c40
69 6 -87 -53 2026 1773 3 MP
PP
0 sg
2026 1773 mt 1939 1720 L
1939 1720 mt 2008 1726 L
c11
-86 173 69 -27 1953 2026 3 MP
PP
0 sg
1953 2026 mt 2022 1999 L
2022 1999 mt 1936 2172 L
c11
68 -26 -86 173 2022 1999 3 MP
PP
0 sg
2022 1999 mt 1936 2172 L
1936 2172 mt 2004 2146 L
c41
-86 -21 69 6 1939 1720 3 MP
PP
0 sg
1939 1720 mt 2008 1726 L
2008 1726 mt 1922 1705 L
c40
68 -5 -86 -21 2008 1726 3 MP
PP
0 sg
2008 1726 mt 1922 1705 L
1922 1705 mt 1990 1700 L
c10
-86 198 68 -26 1936 2172 3 MP
PP
0 sg
1936 2172 mt 2004 2146 L
2004 2146 mt 1918 2344 L
c10
69 -27 -86 198 2004 2146 3 MP
PP
0 sg
2004 2146 mt 1918 2344 L
1918 2344 mt 1987 2317 L
c9
-87 222 69 -27 1918 2344 3 MP
PP
0 sg
1918 2344 mt 1987 2317 L
1987 2317 mt 1900 2539 L
c9
69 -27 -87 222 1987 2317 3 MP
PP
0 sg
1987 2317 mt 1900 2539 L
1900 2539 mt 1969 2512 L
c12
-87 148 69 -25 1902 1929 3 MP
PP
0 sg
1902 1929 mt 1971 1904 L
1971 1904 mt 1884 2052 L
c12
69 -26 -87 148 1971 1904 3 MP
PP
0 sg
1971 1904 mt 1884 2052 L
1884 2052 mt 1953 2026 L
c11
-86 173 69 -26 1884 2052 3 MP
PP
0 sg
1884 2052 mt 1953 2026 L
1953 2026 mt 1867 2199 L
c11
69 -27 -86 173 1953 2026 3 MP
PP
0 sg
1953 2026 mt 1867 2199 L
1867 2199 mt 1936 2172 L
c47
69 191 -86 -198 1941 1743 3 MP
PP
0 sg
1941 1743 mt 1855 1545 L
1855 1545 mt 1924 1736 L
c10
-87 198 69 -27 1867 2199 3 MP
PP
0 sg
1867 2199 mt 1936 2172 L
1936 2172 mt 1849 2370 L
c10
69 -26 -87 198 1936 2172 3 MP
PP
0 sg
1936 2172 mt 1849 2370 L
1849 2370 mt 1918 2344 L
/c48 { 1.000000 0.000000 0.000000 sr} bdef
c48
-87 -147 69 191 1855 1545 3 MP
PP
0 sg
1855 1545 mt 1924 1736 L
1924 1736 mt 1837 1589 L
c46
69 130 -87 -147 1924 1736 3 MP
PP
0 sg
1924 1736 mt 1837 1589 L
1837 1589 mt 1906 1719 L
c13
-87 122 69 -24 1851 1856 3 MP
PP
0 sg
1851 1856 mt 1920 1832 L
1920 1832 mt 1833 1954 L
c13
69 -25 -87 122 1920 1832 3 MP
PP
0 sg
1920 1832 mt 1833 1954 L
1833 1954 mt 1902 1929 L
c9
-87 221 69 -26 1849 2370 3 MP
PP
0 sg
1849 2370 mt 1918 2344 L
1918 2344 mt 1831 2565 L
c9
69 -26 -87 221 1918 2344 3 MP
PP
0 sg
1918 2344 mt 1831 2565 L
1831 2565 mt 1900 2539 L
/c49 { 1.000000 0.187500 0.000000 sr} bdef
c49
-86 -97 69 130 1837 1589 3 MP
PP
0 sg
1837 1589 mt 1906 1719 L
1906 1719 mt 1820 1622 L
c45
68 84 -86 -97 1906 1719 3 MP
PP
0 sg
1906 1719 mt 1820 1622 L
1820 1622 mt 1888 1706 L
c12
-86 148 69 -25 1833 1954 3 MP
PP
0 sg
1833 1954 mt 1902 1929 L
1902 1929 mt 1816 2077 L
c12
68 -25 -86 148 1902 1929 3 MP
PP
0 sg
1902 1929 mt 1816 2077 L
1816 2077 mt 1884 2052 L
c47
-86 -57 68 84 1820 1622 3 MP
PP
0 sg
1820 1622 mt 1888 1706 L
1888 1706 mt 1802 1649 L
c44
69 49 -86 -57 1888 1706 3 MP
PP
0 sg
1888 1706 mt 1802 1649 L
1802 1649 mt 1871 1698 L
c28
-86 68 68 -14 1818 1748 3 MP
PP
0 sg
1818 1748 mt 1886 1734 L
1886 1734 mt 1800 1802 L
c28
69 -19 -86 68 1886 1734 3 MP
PP
0 sg
1886 1734 mt 1800 1802 L
1800 1802 mt 1869 1783 L
c11
-86 173 68 -25 1816 2077 3 MP
PP
0 sg
1816 2077 mt 1884 2052 L
1884 2052 mt 1798 2225 L
c11
69 -26 -86 173 1884 2052 3 MP
PP
0 sg
1884 2052 mt 1798 2225 L
1798 2225 mt 1867 2199 L
c45
-87 -22 69 49 1802 1649 3 MP
PP
0 sg
1802 1649 mt 1871 1698 L
1871 1698 mt 1784 1676 L
c43
69 23 -87 -22 1871 1698 3 MP
PP
0 sg
1871 1698 mt 1784 1676 L
1784 1676 mt 1853 1699 L
c21
-87 95 69 -19 1800 1802 3 MP
PP
0 sg
1800 1802 mt 1869 1783 L
1869 1783 mt 1782 1878 L
c21
69 -22 -87 95 1869 1783 3 MP
PP
0 sg
1869 1783 mt 1782 1878 L
1782 1878 mt 1851 1856 L
c10
-87 198 69 -26 1798 2225 3 MP
PP
0 sg
1798 2225 mt 1867 2199 L
1867 2199 mt 1780 2397 L
c10
69 -27 -87 198 1867 2199 3 MP
PP
0 sg
1867 2199 mt 1780 2397 L
1780 2397 mt 1849 2370 L
c48
68 198 -86 -154 1855 1545 3 MP
PP
0 sg
1855 1545 mt 1769 1391 L
1769 1391 mt 1837 1589 L
c43
-86 11 69 23 1784 1676 3 MP
PP
0 sg
1784 1676 mt 1853 1699 L
1853 1699 mt 1767 1710 L
c41
68 5 -86 11 1853 1699 3 MP
PP
0 sg
1853 1699 mt 1767 1710 L
1767 1710 mt 1835 1715 L
c13
-86 122 69 -22 1782 1878 3 MP
PP
0 sg
1782 1878 mt 1851 1856 L
1851 1856 mt 1765 1978 L
c13
68 -24 -86 122 1851 1856 3 MP
PP
0 sg
1851 1856 mt 1765 1978 L
1765 1978 mt 1833 1954 L
c9
-86 222 69 -27 1780 2397 3 MP
PP
0 sg
1780 2397 mt 1849 2370 L
1849 2370 mt 1763 2592 L
c9
68 -27 -86 222 1849 2370 3 MP
PP
0 sg
1849 2370 mt 1763 2592 L
1763 2592 mt 1831 2565 L
/c50 { 0.750000 0.000000 0.000000 sr} bdef
c50
-86 -107 68 198 1769 1391 3 MP
PP
0 sg
1769 1391 mt 1837 1589 L
1837 1589 mt 1751 1482 L
c49
69 140 -86 -107 1837 1589 3 MP
PP
0 sg
1837 1589 mt 1751 1482 L
1751 1482 mt 1820 1622 L
c40
-86 40 68 5 1767 1710 3 MP
PP
0 sg
1767 1710 mt 1835 1715 L
1835 1715 mt 1749 1755 L
c39
69 -7 -86 40 1835 1715 3 MP
PP
0 sg
1835 1715 mt 1749 1755 L
1749 1755 mt 1818 1748 L
c12
-86 149 68 -24 1765 1978 3 MP
PP
0 sg
1765 1978 mt 1833 1954 L
1833 1954 mt 1747 2103 L
c12
69 -26 -86 149 1833 1954 3 MP
PP
0 sg
1833 1954 mt 1747 2103 L
1747 2103 mt 1816 2077 L
c48
-87 -59 69 140 1751 1482 3 MP
PP
0 sg
1751 1482 mt 1820 1622 L
1820 1622 mt 1733 1563 L
c47
69 86 -87 -59 1820 1622 3 MP
PP
0 sg
1820 1622 mt 1733 1563 L
1733 1563 mt 1802 1649 L
c16
-87 69 69 -7 1749 1755 3 MP
PP
0 sg
1749 1755 mt 1818 1748 L
1818 1748 mt 1731 1817 L
c28
69 -15 -87 69 1818 1748 3 MP
PP
0 sg
1818 1748 mt 1731 1817 L
1731 1817 mt 1800 1802 L
c11
-87 174 69 -26 1747 2103 3 MP
PP
0 sg
1747 2103 mt 1816 2077 L
1816 2077 mt 1729 2251 L
c11
69 -26 -87 174 1816 2077 3 MP
PP
0 sg
1816 2077 mt 1729 2251 L
1729 2251 mt 1798 2225 L
/c51 { 1.000000 0.250000 0.000000 sr} bdef
c51
-86 -21 69 86 1733 1563 3 MP
PP
0 sg
1733 1563 mt 1802 1649 L
1802 1649 mt 1716 1628 L
c45
68 48 -86 -21 1802 1649 3 MP
PP
0 sg
1802 1649 mt 1716 1628 L
1716 1628 mt 1784 1676 L
c21
-86 96 69 -15 1731 1817 3 MP
PP
0 sg
1731 1817 mt 1800 1802 L
1800 1802 mt 1714 1898 L
c21
68 -20 -86 96 1800 1802 3 MP
PP
0 sg
1800 1802 mt 1714 1898 L
1714 1898 mt 1782 1878 L
c10
-86 199 69 -26 1729 2251 3 MP
PP
0 sg
1729 2251 mt 1798 2225 L
1798 2225 mt 1712 2424 L
c10
68 -27 -86 199 1798 2225 3 MP
PP
0 sg
1798 2225 mt 1712 2424 L
1712 2424 mt 1780 2397 L
c45
-86 12 68 48 1716 1628 3 MP
PP
0 sg
1716 1628 mt 1784 1676 L
1784 1676 mt 1698 1688 L
c43
69 22 -86 12 1784 1676 3 MP
PP
0 sg
1784 1676 mt 1698 1688 L
1698 1688 mt 1767 1710 L
c13
-86 123 68 -20 1714 1898 3 MP
PP
0 sg
1714 1898 mt 1782 1878 L
1782 1878 mt 1696 2001 L
c13
69 -23 -86 123 1782 1878 3 MP
PP
0 sg
1782 1878 mt 1696 2001 L
1696 2001 mt 1765 1978 L
c9
-86 222 68 -27 1712 2424 3 MP
PP
0 sg
1712 2424 mt 1780 2397 L
1780 2397 mt 1694 2619 L
c9
69 -27 -86 222 1780 2397 3 MP
PP
0 sg
1780 2397 mt 1694 2619 L
1694 2619 mt 1763 2592 L
c50
69 201 -87 -110 1769 1391 3 MP
PP
0 sg
1769 1391 mt 1682 1281 L
1682 1281 mt 1751 1482 L
c41
-87 41 69 22 1698 1688 3 MP
PP
0 sg
1698 1688 mt 1767 1710 L
1767 1710 mt 1680 1751 L
c40
69 4 -87 41 1767 1710 3 MP
PP
0 sg
1767 1710 mt 1680 1751 L
1680 1751 mt 1749 1755 L
c12
-87 150 69 -23 1696 2001 3 MP
PP
0 sg
1696 2001 mt 1765 1978 L
1765 1978 mt 1678 2128 L
c12
69 -25 -87 150 1765 1978 3 MP
PP
0 sg
1765 1978 mt 1678 2128 L
1678 2128 mt 1747 2103 L
/c52 { 0.562500 0.000000 0.000000 sr} bdef
c52
-86 -64 69 201 1682 1281 3 MP
PP
0 sg
1682 1281 mt 1751 1482 L
1751 1482 mt 1665 1418 L
c48
68 145 -86 -64 1751 1482 3 MP
PP
0 sg
1751 1482 mt 1665 1418 L
1665 1418 mt 1733 1563 L
c17
-86 70 69 4 1680 1751 3 MP
PP
0 sg
1680 1751 mt 1749 1755 L
1749 1755 mt 1663 1825 L
c16
68 -8 -86 70 1749 1755 3 MP
PP
0 sg
1749 1755 mt 1663 1825 L
1663 1825 mt 1731 1817 L
c11
-86 174 69 -25 1678 2128 3 MP
PP
0 sg
1678 2128 mt 1747 2103 L
1747 2103 mt 1661 2277 L
c11
68 -26 -86 174 1747 2103 3 MP
PP
0 sg
1747 2103 mt 1661 2277 L
1661 2277 mt 1729 2251 L
/c53 { 0.937500 0.000000 0.000000 sr} bdef
c53
-86 -21 68 145 1665 1418 3 MP
PP
0 sg
1665 1418 mt 1733 1563 L
1733 1563 mt 1647 1542 L
c51
69 86 -86 -21 1733 1563 3 MP
PP
0 sg
1733 1563 mt 1647 1542 L
1647 1542 mt 1716 1628 L
c37
-86 97 68 -8 1663 1825 3 MP
PP
0 sg
1663 1825 mt 1731 1817 L
1731 1817 mt 1645 1914 L
c21
69 -16 -86 97 1731 1817 3 MP
PP
0 sg
1731 1817 mt 1645 1914 L
1645 1914 mt 1714 1898 L
c10
-86 199 68 -26 1661 2277 3 MP
PP
0 sg
1661 2277 mt 1729 2251 L
1729 2251 mt 1643 2450 L
c10
69 -26 -86 199 1729 2251 3 MP
PP
0 sg
1729 2251 mt 1643 2450 L
1643 2450 mt 1712 2424 L
c51
-87 14 69 86 1647 1542 3 MP
PP
0 sg
1647 1542 mt 1716 1628 L
1716 1628 mt 1629 1642 L
c45
69 46 -87 14 1716 1628 3 MP
PP
0 sg
1716 1628 mt 1629 1642 L
1629 1642 mt 1698 1688 L
c25
-87 124 69 -16 1645 1914 3 MP
PP
0 sg
1645 1914 mt 1714 1898 L
1714 1898 mt 1627 2022 L
c13
69 -21 -87 124 1714 1898 3 MP
PP
0 sg
1714 1898 mt 1627 2022 L
1627 2022 mt 1696 2001 L
c9
-87 221 69 -26 1643 2450 3 MP
PP
0 sg
1643 2450 mt 1712 2424 L
1712 2424 mt 1625 2645 L
c9
69 -26 -87 221 1712 2424 3 MP
PP
0 sg
1712 2424 mt 1625 2645 L
1625 2645 mt 1694 2619 L
c44
-86 45 69 46 1629 1642 3 MP
PP
0 sg
1629 1642 mt 1698 1688 L
1698 1688 mt 1612 1733 L
c41
68 18 -86 45 1698 1688 3 MP
PP
0 sg
1698 1688 mt 1612 1733 L
1612 1733 mt 1680 1751 L
c20
-86 150 69 -21 1627 2022 3 MP
PP
0 sg
1627 2022 mt 1696 2001 L
1696 2001 mt 1610 2151 L
c12
68 -23 -86 150 1696 2001 3 MP
PP
0 sg
1696 2001 mt 1610 2151 L
1610 2151 mt 1678 2128 L
c52
69 202 -86 -65 1682 1281 3 MP
PP
0 sg
1682 1281 mt 1596 1216 L
1596 1216 mt 1665 1418 L
c39
-86 73 68 18 1612 1733 3 MP
PP
0 sg
1612 1733 mt 1680 1751 L
1680 1751 mt 1594 1824 L
c17
69 1 -86 73 1680 1751 3 MP
PP
0 sg
1680 1751 mt 1594 1824 L
1594 1824 mt 1663 1825 L
c11
-86 175 68 -23 1610 2151 3 MP
PP
0 sg
1610 2151 mt 1678 2128 L
1678 2128 mt 1592 2303 L
c11
69 -26 -86 175 1678 2128 3 MP
PP
0 sg
1678 2128 mt 1592 2303 L
1592 2303 mt 1661 2277 L
/c54 { 0.500000 0.000000 0.000000 sr} bdef
c54
-87 -21 69 202 1596 1216 3 MP
PP
0 sg
1596 1216 mt 1665 1418 L
1665 1418 mt 1578 1397 L
c53
69 145 -87 -21 1665 1418 3 MP
PP
0 sg
1665 1418 mt 1578 1397 L
1578 1397 mt 1647 1542 L
c15
-87 100 69 1 1594 1824 3 MP
PP
0 sg
1594 1824 mt 1663 1825 L
1663 1825 mt 1576 1925 L
c37
69 -11 -87 100 1663 1825 3 MP
PP
0 sg
1663 1825 mt 1576 1925 L
1576 1925 mt 1645 1914 L
c10
-87 199 69 -26 1592 2303 3 MP
PP
0 sg
1592 2303 mt 1661 2277 L
1661 2277 mt 1574 2476 L
c10
69 -26 -87 199 1661 2277 3 MP
PP
0 sg
1661 2277 mt 1574 2476 L
1574 2476 mt 1643 2450 L
c53
-87 16 69 145 1578 1397 3 MP
PP
0 sg
1578 1397 mt 1647 1542 L
1647 1542 mt 1560 1558 L
c51
69 84 -87 16 1647 1542 3 MP
PP
0 sg
1647 1542 mt 1560 1558 L
1560 1558 mt 1629 1642 L
c25
-86 126 69 -11 1576 1925 3 MP
PP
0 sg
1576 1925 mt 1645 1914 L
1645 1914 mt 1559 2040 L
c25
68 -18 -86 126 1645 1914 3 MP
PP
0 sg
1645 1914 mt 1559 2040 L
1559 2040 mt 1627 2022 L
c9
-86 222 69 -26 1574 2476 3 MP
PP
0 sg
1574 2476 mt 1643 2450 L
1643 2450 mt 1557 2672 L
c9
68 -27 -86 222 1643 2450 3 MP
PP
0 sg
1643 2450 mt 1557 2672 L
1557 2672 mt 1625 2645 L
c47
-86 49 69 84 1560 1558 3 MP
PP
0 sg
1560 1558 mt 1629 1642 L
1629 1642 mt 1543 1691 L
c44
69 42 -86 49 1629 1642 3 MP
PP
0 sg
1629 1642 mt 1543 1691 L
1543 1691 mt 1612 1733 L
c20
-86 152 68 -18 1559 2040 3 MP
PP
0 sg
1559 2040 mt 1627 2022 L
1627 2022 mt 1541 2174 L
c20
69 -23 -86 152 1627 2022 3 MP
PP
0 sg
1627 2022 mt 1541 2174 L
1541 2174 mt 1610 2151 L
c42
-87 76 69 42 1543 1691 3 MP
PP
0 sg
1543 1691 mt 1612 1733 L
1612 1733 mt 1525 1809 L
c39
69 15 -87 76 1612 1733 3 MP
PP
0 sg
1612 1733 mt 1525 1809 L
1525 1809 mt 1594 1824 L
c11
-87 176 69 -23 1541 2174 3 MP
PP
0 sg
1541 2174 mt 1610 2151 L
1610 2151 mt 1523 2327 L
c11
69 -24 -87 176 1610 2151 3 MP
PP
0 sg
1610 2151 mt 1523 2327 L
1523 2327 mt 1592 2303 L
c54
69 203 -87 -22 1596 1216 3 MP
PP
0 sg
1596 1216 mt 1509 1194 L
1509 1194 mt 1578 1397 L
c28
-87 103 69 15 1525 1809 3 MP
PP
0 sg
1525 1809 mt 1594 1824 L
1594 1824 mt 1507 1927 L
c15
69 -2 -87 103 1594 1824 3 MP
PP
0 sg
1594 1824 mt 1507 1927 L
1507 1927 mt 1576 1925 L
c18
-87 199 69 -24 1523 2327 3 MP
PP
0 sg
1523 2327 mt 1592 2303 L
1592 2303 mt 1505 2502 L
c10
69 -26 -87 199 1592 2303 3 MP
PP
0 sg
1592 2303 mt 1505 2502 L
1505 2502 mt 1574 2476 L
c54
-86 22 69 203 1509 1194 3 MP
PP
0 sg
1509 1194 mt 1578 1397 L
1578 1397 mt 1492 1419 L
c53
68 139 -86 22 1578 1397 3 MP
PP
0 sg
1578 1397 mt 1492 1419 L
1492 1419 mt 1560 1558 L
c35
-86 128 69 -2 1507 1927 3 MP
PP
0 sg
1507 1927 mt 1576 1925 L
1576 1925 mt 1490 2053 L
c25
69 -13 -86 128 1576 1925 3 MP
PP
0 sg
1576 1925 mt 1490 2053 L
1490 2053 mt 1559 2040 L
c9
-86 223 69 -26 1505 2502 3 MP
PP
0 sg
1505 2502 mt 1574 2476 L
1574 2476 mt 1488 2699 L
c9
69 -27 -86 223 1574 2476 3 MP
PP
0 sg
1574 2476 mt 1488 2699 L
1488 2699 mt 1557 2672 L
c48
-86 55 68 139 1492 1419 3 MP
PP
0 sg
1492 1419 mt 1560 1558 L
1560 1558 mt 1474 1613 L
c47
69 78 -86 55 1560 1558 3 MP
PP
0 sg
1560 1558 mt 1474 1613 L
1474 1613 mt 1543 1691 L
c20
-87 153 69 -13 1490 2053 3 MP
PP
0 sg
1490 2053 mt 1559 2040 L
1559 2040 mt 1472 2193 L
c20
69 -19 -87 153 1559 2040 3 MP
PP
0 sg
1559 2040 mt 1472 2193 L
1472 2193 mt 1541 2174 L
c45
-87 82 69 78 1474 1613 3 MP
PP
0 sg
1474 1613 mt 1543 1691 L
1543 1691 mt 1456 1773 L
c42
69 36 -87 82 1543 1691 3 MP
PP
0 sg
1543 1691 mt 1456 1773 L
1456 1773 mt 1525 1809 L
c11
-87 177 69 -19 1472 2193 3 MP
PP
0 sg
1472 2193 mt 1541 2174 L
1541 2174 mt 1454 2351 L
c11
69 -24 -87 177 1541 2174 3 MP
PP
0 sg
1541 2174 mt 1454 2351 L
1454 2351 mt 1523 2327 L
c17
-86 109 69 36 1456 1773 3 MP
PP
0 sg
1456 1773 mt 1525 1809 L
1525 1809 mt 1439 1918 L
c28
68 9 -86 109 1525 1809 3 MP
PP
0 sg
1525 1809 mt 1439 1918 L
1439 1918 mt 1507 1927 L
c18
-86 201 69 -24 1454 2351 3 MP
PP
0 sg
1454 2351 mt 1523 2327 L
1523 2327 mt 1437 2528 L
c18
68 -26 -86 201 1523 2327 3 MP
PP
0 sg
1523 2327 mt 1437 2528 L
1437 2528 mt 1505 2502 L
c54
69 202 -86 23 1509 1194 3 MP
PP
0 sg
1509 1194 mt 1423 1217 L
1423 1217 mt 1492 1419 L
c14
-86 133 68 9 1439 1918 3 MP
PP
0 sg
1439 1918 mt 1507 1927 L
1507 1927 mt 1421 2060 L
c35
69 -7 -86 133 1507 1927 3 MP
PP
0 sg
1507 1927 mt 1421 2060 L
1421 2060 mt 1490 2053 L
c9
-86 224 68 -26 1437 2528 3 MP
PP
0 sg
1437 2528 mt 1505 2502 L
1505 2502 mt 1419 2726 L
c9
69 -27 -86 224 1505 2502 3 MP
PP
0 sg
1505 2502 mt 1419 2726 L
1419 2726 mt 1488 2699 L
c52
-87 63 69 202 1423 1217 3 MP
PP
0 sg
1423 1217 mt 1492 1419 L
1492 1419 mt 1405 1482 L
c48
69 131 -87 63 1492 1419 3 MP
PP
0 sg
1492 1419 mt 1405 1482 L
1405 1482 mt 1474 1613 L
c29
-87 157 69 -7 1421 2060 3 MP
PP
0 sg
1421 2060 mt 1490 2053 L
1490 2053 mt 1403 2210 L
c20
69 -17 -87 157 1490 2053 3 MP
PP
0 sg
1490 2053 mt 1403 2210 L
1403 2210 mt 1472 2193 L
c49
-86 92 69 131 1405 1482 3 MP
PP
0 sg
1405 1482 mt 1474 1613 L
1474 1613 mt 1388 1705 L
c45
68 68 -86 92 1474 1613 3 MP
PP
0 sg
1474 1613 mt 1388 1705 L
1388 1705 mt 1456 1773 L
c22
-86 180 69 -17 1403 2210 3 MP
PP
0 sg
1403 2210 mt 1472 2193 L
1472 2193 mt 1386 2373 L
c11
68 -22 -86 180 1472 2193 3 MP
PP
0 sg
1472 2193 mt 1386 2373 L
1386 2373 mt 1454 2351 L
c41
-86 116 68 68 1388 1705 3 MP
PP
0 sg
1388 1705 mt 1456 1773 L
1456 1773 mt 1370 1889 L
c17
69 29 -86 116 1456 1773 3 MP
PP
0 sg
1456 1773 mt 1370 1889 L
1370 1889 mt 1439 1918 L
c18
-86 202 68 -22 1386 2373 3 MP
PP
0 sg
1386 2373 mt 1454 2351 L
1454 2351 mt 1368 2553 L
c18
69 -25 -86 202 1454 2351 3 MP
PP
0 sg
1454 2351 mt 1368 2553 L
1368 2553 mt 1437 2528 L
c37
-87 138 69 29 1370 1889 3 MP
PP
0 sg
1370 1889 mt 1439 1918 L
1439 1918 mt 1352 2056 L
c14
69 4 -87 138 1439 1918 3 MP
PP
0 sg
1439 1918 mt 1352 2056 L
1352 2056 mt 1421 2060 L
c9
-87 224 69 -25 1368 2553 3 MP
PP
0 sg
1368 2553 mt 1437 2528 L
1437 2528 mt 1350 2752 L
c9
69 -26 -87 224 1437 2528 3 MP
PP
0 sg
1437 2528 mt 1350 2752 L
1350 2752 mt 1419 2726 L
c52
68 198 -86 67 1423 1217 3 MP
PP
0 sg
1423 1217 mt 1337 1284 L
1337 1284 mt 1405 1482 L
c33
-86 161 69 4 1352 2056 3 MP
PP
0 sg
1352 2056 mt 1421 2060 L
1421 2060 mt 1335 2221 L
c29
68 -11 -86 161 1421 2060 3 MP
PP
0 sg
1421 2060 mt 1335 2221 L
1335 2221 mt 1403 2210 L
c50
-86 105 68 198 1337 1284 3 MP
PP
0 sg
1337 1284 mt 1405 1482 L
1405 1482 mt 1319 1587 L
c49
69 118 -86 105 1405 1482 3 MP
PP
0 sg
1405 1482 mt 1319 1587 L
1319 1587 mt 1388 1705 L
c22
-86 182 68 -11 1335 2221 3 MP
PP
0 sg
1335 2221 mt 1403 2210 L
1403 2210 mt 1317 2392 L
c22
69 -19 -86 182 1403 2210 3 MP
PP
0 sg
1403 2210 mt 1317 2392 L
1317 2392 mt 1386 2373 L
c46
-87 127 69 118 1319 1587 3 MP
PP
0 sg
1319 1587 mt 1388 1705 L
1388 1705 mt 1301 1832 L
c41
69 57 -87 127 1388 1705 3 MP
PP
0 sg
1388 1705 mt 1301 1832 L
1301 1832 mt 1370 1889 L
c18
-87 204 69 -19 1317 2392 3 MP
PP
0 sg
1317 2392 mt 1386 2373 L
1386 2373 mt 1299 2577 L
c18
69 -24 -87 204 1386 2373 3 MP
PP
0 sg
1386 2373 mt 1299 2577 L
1299 2577 mt 1368 2553 L
c16
-86 148 69 57 1301 1832 3 MP
PP
0 sg
1301 1832 mt 1370 1889 L
1370 1889 mt 1284 2037 L
c37
68 19 -86 148 1370 1889 3 MP
PP
0 sg
1370 1889 mt 1284 2037 L
1284 2037 mt 1352 2056 L
c19
-86 226 69 -24 1299 2577 3 MP
PP
0 sg
1299 2577 mt 1368 2553 L
1368 2553 mt 1282 2779 L
c9
68 -27 -86 226 1368 2553 3 MP
PP
0 sg
1368 2553 mt 1282 2779 L
1282 2779 mt 1350 2752 L
c38
-86 168 68 19 1284 2037 3 MP
PP
0 sg
1284 2037 mt 1352 2056 L
1352 2056 mt 1266 2224 L
c33
69 -3 -86 168 1352 2056 3 MP
PP
0 sg
1352 2056 mt 1266 2224 L
1266 2224 mt 1335 2221 L
c50
69 191 -87 112 1337 1284 3 MP
PP
0 sg
1337 1284 mt 1250 1396 L
1250 1396 mt 1319 1587 L
c27
-87 188 69 -3 1266 2224 3 MP
PP
0 sg
1266 2224 mt 1335 2221 L
1335 2221 mt 1248 2409 L
c22
69 -17 -87 188 1335 2221 3 MP
PP
0 sg
1335 2221 mt 1248 2409 L
1248 2409 mt 1317 2392 L
c48
-86 145 69 191 1250 1396 3 MP
PP
0 sg
1250 1396 mt 1319 1587 L
1319 1587 mt 1233 1732 L
c46
68 100 -86 145 1319 1587 3 MP
PP
0 sg
1319 1587 mt 1233 1732 L
1233 1732 mt 1301 1832 L
c18
-86 208 69 -17 1248 2409 3 MP
PP
0 sg
1248 2409 mt 1317 2392 L
1317 2392 mt 1231 2600 L
c18
68 -23 -86 208 1317 2392 3 MP
PP
0 sg
1317 2392 mt 1231 2600 L
1231 2600 mt 1299 2577 L
c41
-86 162 68 100 1233 1732 3 MP
PP
0 sg
1233 1732 mt 1301 1832 L
1301 1832 mt 1215 1994 L
c16
69 43 -86 162 1301 1832 3 MP
PP
0 sg
1301 1832 mt 1215 1994 L
1215 1994 mt 1284 2037 L
c19
-86 229 68 -23 1231 2600 3 MP
PP
0 sg
1231 2600 mt 1299 2577 L
1299 2577 mt 1213 2806 L
c19
69 -27 -86 229 1299 2577 3 MP
PP
0 sg
1299 2577 mt 1213 2806 L
1213 2806 mt 1282 2779 L
c35
-87 178 69 43 1215 1994 3 MP
PP
0 sg
1215 1994 mt 1284 2037 L
1284 2037 mt 1197 2215 L
c38
69 9 -87 178 1284 2037 3 MP
PP
0 sg
1284 2037 mt 1197 2215 L
1197 2215 mt 1266 2224 L
c32
-86 195 69 9 1197 2215 3 MP
PP
0 sg
1197 2215 mt 1266 2224 L
1266 2224 mt 1180 2419 L
c27
68 -10 -86 195 1266 2224 3 MP
PP
0 sg
1266 2224 mt 1180 2419 L
1180 2419 mt 1248 2409 L
c48
69 181 -86 155 1250 1396 3 MP
PP
0 sg
1250 1396 mt 1164 1551 L
1164 1551 mt 1233 1732 L
c23
-86 213 68 -10 1180 2419 3 MP
PP
0 sg
1180 2419 mt 1248 2409 L
1248 2409 mt 1162 2622 L
c18
69 -22 -86 213 1248 2409 3 MP
PP
0 sg
1248 2409 mt 1162 2622 L
1162 2622 mt 1231 2600 L
c47
-87 182 69 181 1164 1551 3 MP
PP
0 sg
1164 1551 mt 1233 1732 L
1233 1732 mt 1146 1914 L
c41
69 80 -87 182 1233 1732 3 MP
PP
0 sg
1233 1732 mt 1146 1914 L
1146 1914 mt 1215 1994 L
c19
-87 232 69 -22 1162 2622 3 MP
PP
0 sg
1162 2622 mt 1231 2600 L
1231 2600 mt 1144 2832 L
c19
69 -26 -87 232 1231 2600 3 MP
PP
0 sg
1231 2600 mt 1144 2832 L
1144 2832 mt 1213 2806 L
c37
-87 193 69 80 1146 1914 3 MP
PP
0 sg
1146 1914 mt 1215 1994 L
1215 1994 mt 1128 2187 L
c35
69 28 -87 193 1215 1994 3 MP
PP
0 sg
1215 1994 mt 1128 2187 L
1128 2187 mt 1197 2215 L
c12
-86 206 69 28 1128 2187 3 MP
PP
0 sg
1128 2187 mt 1197 2215 L
1197 2215 mt 1111 2421 L
c32
69 -2 -86 206 1197 2215 3 MP
PP
0 sg
1197 2215 mt 1111 2421 L
1111 2421 mt 1180 2419 L
c26
-87 221 69 -2 1111 2421 3 MP
PP
0 sg
1111 2421 mt 1180 2419 L
1180 2419 mt 1093 2640 L
c23
69 -18 -87 221 1180 2419 3 MP
PP
0 sg
1180 2419 mt 1093 2640 L
1093 2640 mt 1162 2622 L
c47
69 163 -87 200 1164 1551 3 MP
PP
0 sg
1164 1551 mt 1077 1751 L
1077 1751 mt 1146 1914 L
c19
-87 237 69 -18 1093 2640 3 MP
PP
0 sg
1093 2640 mt 1162 2622 L
1162 2622 mt 1075 2859 L
c19
69 -27 -87 237 1162 2622 3 MP
PP
0 sg
1162 2622 mt 1075 2859 L
1075 2859 mt 1144 2832 L
c40
-86 218 69 163 1077 1751 3 MP
PP
0 sg
1077 1751 mt 1146 1914 L
1146 1914 mt 1060 2132 L
c37
68 55 -86 218 1146 1914 3 MP
PP
0 sg
1146 1914 mt 1060 2132 L
1060 2132 mt 1128 2187 L
c29
-86 224 68 55 1060 2132 3 MP
PP
0 sg
1060 2132 mt 1128 2187 L
1128 2187 mt 1042 2411 L
c12
69 10 -86 224 1128 2187 3 MP
PP
0 sg
1128 2187 mt 1042 2411 L
1042 2411 mt 1111 2421 L
c31
-87 234 69 10 1042 2411 3 MP
PP
0 sg
1042 2411 mt 1111 2421 L
1111 2421 mt 1024 2655 L
c26
69 -15 -87 234 1111 2421 3 MP
PP
0 sg
1111 2421 mt 1024 2655 L
1024 2655 mt 1093 2640 L
c19
-86 246 69 -15 1024 2655 3 MP
PP
0 sg
1024 2655 mt 1093 2640 L
1093 2640 mt 1007 2886 L
c19
68 -27 -86 246 1093 2640 3 MP
PP
0 sg
1093 2640 mt 1007 2886 L
1007 2886 mt 1075 2859 L
c40
69 137 -86 244 1077 1751 3 MP
PP
0 sg
1077 1751 mt  991 1995 L
 991 1995 mt 1060 2132 L
c14
-87 250 69 137 991 1995 3 MP
PP
0 sg
 991 1995 mt 1060 2132 L
1060 2132 mt  973 2382 L
c29
69 29 -87 250 1060 2132 3 MP
PP
0 sg
1060 2132 mt  973 2382 L
 973 2382 mt 1042 2411 L
c36
-86 252 69 29 973 2382 3 MP
PP
0 sg
 973 2382 mt 1042 2411 L
1042 2411 mt  956 2663 L
c31
68 -8 -86 252 1042 2411 3 MP
PP
0 sg
1042 2411 mt  956 2663 L
 956 2663 mt 1024 2655 L
c24
-86 257 68 -8 956 2663 3 MP
PP
0 sg
 956 2663 mt 1024 2655 L
1024 2655 mt  938 2912 L
c19
69 -26 -86 257 1024 2655 3 MP
PP
0 sg
1024 2655 mt  938 2912 L
 938 2912 mt 1007 2886 L
c14
68 99 -86 288 991 1995 3 MP
PP
0 sg
 991 1995 mt  905 2283 L
 905 2283 mt  973 2382 L
c32
-86 279 68 99 905 2283 3 MP
PP
0 sg
 905 2283 mt  973 2382 L
 973 2382 mt  887 2661 L
c36
69 2 -86 279 973 2382 3 MP
PP
0 sg
 973 2382 mt  887 2661 L
 887 2661 mt  956 2663 L
c30
-87 276 69 2 887 2661 3 MP
PP
0 sg
 887 2661 mt  956 2663 L
 956 2663 mt  869 2939 L
c24
69 -27 -87 276 956 2663 3 MP
PP
0 sg
 956 2663 mt  869 2939 L
 869 2939 mt  938 2912 L
c32
69 45 -87 333 905 2283 3 MP
PP
0 sg
 905 2283 mt  818 2616 L
 818 2616 mt  887 2661 L
c34
-86 305 69 45 818 2616 3 MP
PP
0 sg
 818 2616 mt  887 2661 L
 887 2661 mt  801 2966 L
c30
68 -27 -86 305 887 2661 3 MP
PP
0 sg
 887 2661 mt  801 2966 L
 801 2966 mt  869 2939 L
c34
69 -27 -86 377 818 2616 3 MP
PP
0 sg
 818 2616 mt  732 2993 L
 732 2993 mt  801 2966 L
gr


end %%Color Dict

eplot
%%EndObject

epage
end

showpage

%%Trailer
%%EOF
