%!PS-Adobe-3.0 EPSF-3.0
%%Creator: MATLAB, The MathWorks, Inc. Version 7.14.0.739 (R2012a). Operating System: Linux 4.13.0-26-generic #29~16.04.2-Ubuntu SMP Tue Jan 9 22:00:44 UTC 2018 x86_64.
%%Title: /home/remoto/ruben.laso/Dropbox/M2i/1Curso/EDP/Analitica/Tema 3/Ejercicio/solucion/figuras/ap1a_3.eps
%%CreationDate: 01/20/2018  12:53:47
%%DocumentNeededFonts: Helvetica
%%DocumentProcessColors: Cyan Magenta Yellow Black
%%LanguageLevel: 2
%%Pages: 1
%%BoundingBox:   120   252   475   589
%%EndComments

%%BeginProlog
% MathWorks dictionary
/MathWorks 160 dict begin
% definition operators
/bdef {bind def} bind def
/ldef {load def} bind def
/xdef {exch def} bdef
/xstore {exch store} bdef
% operator abbreviations
/c  /clip ldef
/cc /concat ldef
/cp /closepath ldef
/gr /grestore ldef
/gs /gsave ldef
/mt /moveto ldef
/np /newpath ldef
/cm /currentmatrix ldef
/sm /setmatrix ldef
/rm /rmoveto ldef
/rl /rlineto ldef
/s {show newpath} bdef
/sc {setcmykcolor} bdef
/sr /setrgbcolor ldef
/sg /setgray ldef
/w /setlinewidth ldef
/j /setlinejoin ldef
/cap /setlinecap ldef
/rc {rectclip} bdef
/rf {rectfill} bdef
% page state control
/pgsv () def
/bpage {/pgsv save def} bdef
/epage {pgsv restore} bdef
/bplot /gsave ldef
/eplot {stroke grestore} bdef
% orientation switch
/portraitMode 0 def /landscapeMode 1 def /rotateMode 2 def
% coordinate system mappings
/dpi2point 0 def
% font control
/FontSize 0 def
/FMS {/FontSize xstore findfont [FontSize 0 0 FontSize neg 0 0]
  makefont setfont} bdef
/reencode {exch dup where {pop load} {pop StandardEncoding} ifelse
  exch dup 3 1 roll findfont dup length dict begin
  { 1 index /FID ne {def}{pop pop} ifelse } forall
  /Encoding exch def currentdict end definefont pop} bdef
/isroman {findfont /CharStrings get /Agrave known} bdef
/FMSR {3 1 roll 1 index dup isroman {reencode} {pop pop} ifelse
  exch FMS} bdef
/csm {1 dpi2point div -1 dpi2point div scale neg translate
 dup landscapeMode eq {pop -90 rotate}
  {rotateMode eq {90 rotate} if} ifelse} bdef
% line types: solid, dotted, dashed, dotdash
/SO { [] 0 setdash } bdef
/DO { [.5 dpi2point mul 4 dpi2point mul] 0 setdash } bdef
/DA { [6 dpi2point mul] 0 setdash } bdef
/DD { [.5 dpi2point mul 4 dpi2point mul 6 dpi2point mul 4
  dpi2point mul] 0 setdash } bdef
% macros for lines and objects
/L {lineto stroke} bdef
/MP {3 1 roll moveto 1 sub {rlineto} repeat} bdef
/AP {{rlineto} repeat} bdef
/PDlw -1 def
/W {/PDlw currentlinewidth def setlinewidth} def
/PP {closepath eofill} bdef
/DP {closepath stroke} bdef
/MR {4 -2 roll moveto dup  0 exch rlineto exch 0 rlineto
  neg 0 exch rlineto closepath} bdef
/FR {MR stroke} bdef
/PR {MR fill} bdef
/L1i {{currentfile picstr readhexstring pop} image} bdef
/tMatrix matrix def
/MakeOval {newpath tMatrix currentmatrix pop translate scale
0 0 1 0 360 arc tMatrix setmatrix} bdef
/FO {MakeOval stroke} bdef
/PO {MakeOval fill} bdef
/PD {currentlinewidth 2 div 0 360 arc fill
   PDlw -1 eq not {PDlw w /PDlw -1 def} if} def
/FA {newpath tMatrix currentmatrix pop translate scale
  0 0 1 5 -2 roll arc tMatrix setmatrix stroke} bdef
/PA {newpath tMatrix currentmatrix pop	translate 0 0 moveto scale
  0 0 1 5 -2 roll arc closepath tMatrix setmatrix fill} bdef
/FAn {newpath tMatrix currentmatrix pop translate scale
  0 0 1 5 -2 roll arcn tMatrix setmatrix stroke} bdef
/PAn {newpath tMatrix currentmatrix pop translate 0 0 moveto scale
  0 0 1 5 -2 roll arcn closepath tMatrix setmatrix fill} bdef
/vradius 0 def /hradius 0 def /lry 0 def
/lrx 0 def /uly 0 def /ulx 0 def /rad 0 def
/MRR {/vradius xdef /hradius xdef /lry xdef /lrx xdef /uly xdef
  /ulx xdef newpath tMatrix currentmatrix pop ulx hradius add uly
  vradius add translate hradius vradius scale 0 0 1 180 270 arc 
  tMatrix setmatrix lrx hradius sub uly vradius add translate
  hradius vradius scale 0 0 1 270 360 arc tMatrix setmatrix
  lrx hradius sub lry vradius sub translate hradius vradius scale
  0 0 1 0 90 arc tMatrix setmatrix ulx hradius add lry vradius sub
  translate hradius vradius scale 0 0 1 90 180 arc tMatrix setmatrix
  closepath} bdef
/FRR {MRR stroke } bdef
/PRR {MRR fill } bdef
/MlrRR {/lry xdef /lrx xdef /uly xdef /ulx xdef /rad lry uly sub 2 div def
  newpath tMatrix currentmatrix pop ulx rad add uly rad add translate
  rad rad scale 0 0 1 90 270 arc tMatrix setmatrix lrx rad sub lry rad
  sub translate rad rad scale 0 0 1 270 90 arc tMatrix setmatrix
  closepath} bdef
/FlrRR {MlrRR stroke } bdef
/PlrRR {MlrRR fill } bdef
/MtbRR {/lry xdef /lrx xdef /uly xdef /ulx xdef /rad lrx ulx sub 2 div def
  newpath tMatrix currentmatrix pop ulx rad add uly rad add translate
  rad rad scale 0 0 1 180 360 arc tMatrix setmatrix lrx rad sub lry rad
  sub translate rad rad scale 0 0 1 0 180 arc tMatrix setmatrix
  closepath} bdef
/FtbRR {MtbRR stroke } bdef
/PtbRR {MtbRR fill } bdef
/stri 6 array def /dtri 6 array def
/smat 6 array def /dmat 6 array def
/tmat1 6 array def /tmat2 6 array def /dif 3 array def
/asub {/ind2 exch def /ind1 exch def dup dup
  ind1 get exch ind2 get sub exch } bdef
/tri_to_matrix {
  2 0 asub 3 1 asub 4 0 asub 5 1 asub
  dup 0 get exch 1 get 7 -1 roll astore } bdef
/compute_transform {
  dmat dtri tri_to_matrix tmat1 invertmatrix 
  smat stri tri_to_matrix tmat2 concatmatrix } bdef
/ds {stri astore pop} bdef
/dt {dtri astore pop} bdef
/db {2 copy /cols xdef /rows xdef mul dup 3 mul string
  currentfile 
  3 index 0 eq {/ASCIIHexDecode filter}
  {/ASCII85Decode filter 3 index 2 eq {/RunLengthDecode filter} if }
  ifelse exch readstring pop
  dup 0 3 index getinterval /rbmap xdef
  dup 2 index dup getinterval /gbmap xdef
  1 index dup 2 mul exch getinterval /bbmap xdef pop pop}bdef
/it {gs np dtri aload pop moveto lineto lineto cp c
  cols rows 8 compute_transform 
  rbmap gbmap bbmap true 3 colorimage gr}bdef
/il {newpath moveto lineto stroke}bdef
currentdict end def
%%EndProlog

%%BeginSetup
MathWorks begin

0 cap

end
%%EndSetup

%%Page: 1 1
%%BeginPageSetup
%%PageBoundingBox:   120   252   475   589
MathWorks begin
bpage
%%EndPageSetup

%%BeginObject: obj1
bplot

/dpi2point 12 def
portraitMode 1440 7068 csm

    0     0  4263  4034 rc
85 dict begin %Colortable dictionary
/c0 { 0.000000 0.000000 0.000000 sr} bdef
/c1 { 1.000000 1.000000 1.000000 sr} bdef
/c2 { 0.900000 0.000000 0.000000 sr} bdef
/c3 { 0.000000 0.820000 0.000000 sr} bdef
/c4 { 0.000000 0.000000 0.800000 sr} bdef
/c5 { 0.910000 0.820000 0.320000 sr} bdef
/c6 { 1.000000 0.260000 0.820000 sr} bdef
/c7 { 0.000000 0.820000 0.820000 sr} bdef
c0
1 j
1 sg
   0    0 4264 4035 rf
6 w
0 2026 -1707 -316 0 -2026 3668 2896 4 MP
PP
1707 316 0 2026 -1707 -316 0 -2026 3668 2896 5 MP stroke
1707 316 1218 -442 -1707 -316 2450 3338 4 MP
PP
-1218 442 1707 316 1218 -442 -1707 -316 2450 3338 5 MP stroke
0 2026 1218 -442 0 -2026 743 3022 4 MP
PP
-1218 442 0 2026 1218 -442 0 -2026 743 3022 5 MP stroke
4 w
DO
0 sg
2450 3338 mt  743 3022 L
 743 3022 mt  743  996 L
3059 3117 mt 1352 2801 L
1352 2801 mt 1352  775 L
3668 2896 mt 1961 2580 L
1961 2580 mt 1961  554 L
2450 3338 mt 3668 2896 L
3668 2896 mt 3668  870 L
1596 3180 mt 2815 2738 L
2815 2738 mt 2815  712 L
 743 3022 mt 1961 2580 L
1961 2580 mt 1961  554 L
 743 3020 mt 1961 2578 L
1961 2578 mt 3668 2893 L
 743 2614 mt 1961 2172 L
1961 2172 mt 3668 2488 L
 743 2209 mt 1961 1767 L
1961 1767 mt 3668 2082 L
 743 1804 mt 1961 1362 L
1961 1362 mt 3668 1677 L
 743 1399 mt 1961  957 L
1961  957 mt 3668 1272 L
SO
6 w
2450 3338 mt 3668 2896 L
2450 3338 mt  743 3022 L
 743 3022 mt  743  996 L
2450 3338 mt 2500 3347 L
%%IncludeResource: font Helvetica
/Helvetica /ISOLatin1Encoding 120 FMSR

2534 3464 mt 
(0) s
3059 3117 mt 3109 3126 L
3143 3243 mt 
(0.5) s
3668 2896 mt 3718 2905 L
3752 3022 mt 
(1) s
2450 3338 mt 2403 3355 L
2304 3478 mt 
(0) s
1596 3180 mt 1549 3197 L
1350 3320 mt 
(0.5) s
 743 3022 mt  695 3040 L
 597 3162 mt 
(1) s
 743 3020 mt  693 3010 L
 593 3048 mt 
(0) s
 743 2614 mt  693 2605 L
 593 2643 mt 
(1) s
 743 2209 mt  693 2200 L
 593 2238 mt 
(2) s
 743 1804 mt  693 1795 L
 593 1832 mt 
(3) s
 743 1399 mt  693 1390 L
 593 1427 mt 
(4) s
gs 743 554 2926 2785 rc
/c8 { 0.000000 0.000000 0.562500 sr} bdef
c8
-90 -42 64 -23 3604 2916 3 MP
PP
0 sg
3604 2916 mt 3668 2893 L
3668 2893 mt 3578 2851 L
c8
-90 -41 64 -23 3540 2939 3 MP
PP
0 sg
3540 2939 mt 3604 2916 L
3604 2916 mt 3514 2875 L
c8
64 -24 -90 -41 3604 2916 3 MP
PP
0 sg
3604 2916 mt 3514 2875 L
3514 2875 mt 3578 2851 L
c8
-89 -38 64 -24 3514 2875 3 MP
PP
0 sg
3514 2875 mt 3578 2851 L
3578 2851 mt 3489 2813 L
c8
-90 -41 64 -24 3476 2963 3 MP
PP
0 sg
3476 2963 mt 3540 2939 L
3540 2939 mt 3450 2898 L
c8
64 -23 -90 -41 3540 2939 3 MP
PP
0 sg
3540 2939 mt 3450 2898 L
3450 2898 mt 3514 2875 L
c8
-90 -39 64 -23 3450 2898 3 MP
PP
0 sg
3450 2898 mt 3514 2875 L
3514 2875 mt 3424 2836 L
c8
65 -23 -90 -39 3514 2875 3 MP
PP
0 sg
3514 2875 mt 3424 2836 L
3424 2836 mt 3489 2813 L
/c9 { 0.000000 0.000000 0.625000 sr} bdef
c9
-90 -37 65 -23 3424 2836 3 MP
PP
0 sg
3424 2836 mt 3489 2813 L
3489 2813 mt 3399 2776 L
c8
-90 -42 64 -23 3412 2986 3 MP
PP
0 sg
3412 2986 mt 3476 2963 L
3476 2963 mt 3386 2921 L
c8
64 -23 -90 -42 3476 2963 3 MP
PP
0 sg
3476 2963 mt 3386 2921 L
3386 2921 mt 3450 2898 L
c8
-90 -39 64 -23 3386 2921 3 MP
PP
0 sg
3386 2921 mt 3450 2898 L
3450 2898 mt 3360 2859 L
c8
64 -23 -90 -39 3450 2898 3 MP
PP
0 sg
3450 2898 mt 3360 2859 L
3360 2859 mt 3424 2836 L
c9
-89 -37 64 -23 3360 2859 3 MP
PP
0 sg
3360 2859 mt 3424 2836 L
3424 2836 mt 3335 2799 L
c9
64 -23 -89 -37 3424 2836 3 MP
PP
0 sg
3424 2836 mt 3335 2799 L
3335 2799 mt 3399 2776 L
c8
-90 -42 64 -23 3348 3009 3 MP
PP
0 sg
3348 3009 mt 3412 2986 L
3412 2986 mt 3322 2944 L
c8
64 -23 -90 -42 3412 2986 3 MP
PP
0 sg
3412 2986 mt 3322 2944 L
3322 2944 mt 3386 2921 L
/c10 { 0.000000 0.000000 0.687500 sr} bdef
c10
-90 -34 64 -23 3335 2799 3 MP
PP
0 sg
3335 2799 mt 3399 2776 L
3399 2776 mt 3309 2742 L
c8
-90 -39 64 -23 3322 2944 3 MP
PP
0 sg
3322 2944 mt 3386 2921 L
3386 2921 mt 3296 2882 L
c8
64 -23 -90 -39 3386 2921 3 MP
PP
0 sg
3386 2921 mt 3296 2882 L
3296 2882 mt 3360 2859 L
c9
-90 -37 64 -23 3296 2882 3 MP
PP
0 sg
3296 2882 mt 3360 2859 L
3360 2859 mt 3270 2822 L
c9
65 -23 -90 -37 3360 2859 3 MP
PP
0 sg
3360 2859 mt 3270 2822 L
3270 2822 mt 3335 2799 L
c8
-90 -42 64 -23 3284 3032 3 MP
PP
0 sg
3284 3032 mt 3348 3009 L
3348 3009 mt 3258 2967 L
c8
64 -23 -90 -42 3348 3009 3 MP
PP
0 sg
3348 3009 mt 3258 2967 L
3258 2967 mt 3322 2944 L
c10
-90 -34 65 -23 3270 2822 3 MP
PP
0 sg
3270 2822 mt 3335 2799 L
3335 2799 mt 3245 2765 L
c10
64 -23 -90 -34 3335 2799 3 MP
PP
0 sg
3335 2799 mt 3245 2765 L
3245 2765 mt 3309 2742 L
c8
-90 -39 64 -23 3258 2967 3 MP
PP
0 sg
3258 2967 mt 3322 2944 L
3322 2944 mt 3232 2905 L
c8
64 -23 -90 -39 3322 2944 3 MP
PP
0 sg
3322 2944 mt 3232 2905 L
3232 2905 mt 3296 2882 L
c10
-90 -31 64 -23 3245 2765 3 MP
PP
0 sg
3245 2765 mt 3309 2742 L
3309 2742 mt 3219 2711 L
c9
-90 -37 64 -23 3232 2905 3 MP
PP
0 sg
3232 2905 mt 3296 2882 L
3296 2882 mt 3206 2845 L
c9
64 -23 -90 -37 3296 2882 3 MP
PP
0 sg
3296 2882 mt 3206 2845 L
3206 2845 mt 3270 2822 L
c8
-90 -42 64 -24 3220 3056 3 MP
PP
0 sg
3220 3056 mt 3284 3032 L
3284 3032 mt 3194 2990 L
c8
64 -23 -90 -42 3284 3032 3 MP
PP
0 sg
3284 3032 mt 3194 2990 L
3194 2990 mt 3258 2967 L
c10
-89 -34 64 -23 3206 2845 3 MP
PP
0 sg
3206 2845 mt 3270 2822 L
3270 2822 mt 3181 2788 L
c10
64 -23 -89 -34 3270 2822 3 MP
PP
0 sg
3270 2822 mt 3181 2788 L
3181 2788 mt 3245 2765 L
c8
-90 -40 64 -23 3194 2990 3 MP
PP
0 sg
3194 2990 mt 3258 2967 L
3258 2967 mt 3168 2927 L
c8
64 -22 -90 -40 3258 2967 3 MP
PP
0 sg
3258 2967 mt 3168 2927 L
3168 2927 mt 3232 2905 L
c10
-90 -31 64 -23 3181 2788 3 MP
PP
0 sg
3181 2788 mt 3245 2765 L
3245 2765 mt 3155 2734 L
c10
64 -23 -90 -31 3245 2765 3 MP
PP
0 sg
3245 2765 mt 3155 2734 L
3155 2734 mt 3219 2711 L
c9
-90 -37 64 -22 3168 2927 3 MP
PP
0 sg
3168 2927 mt 3232 2905 L
3232 2905 mt 3142 2868 L
c9
64 -23 -90 -37 3232 2905 3 MP
PP
0 sg
3232 2905 mt 3142 2868 L
3142 2868 mt 3206 2845 L
c8
-90 -44 65 -23 3155 3079 3 MP
PP
0 sg
3155 3079 mt 3220 3056 L
3220 3056 mt 3130 3012 L
c8
64 -22 -90 -44 3220 3056 3 MP
PP
0 sg
3220 3056 mt 3130 3012 L
3130 3012 mt 3194 2990 L
/c11 { 0.000000 0.000000 0.750000 sr} bdef
c11
-90 -28 64 -23 3155 2734 3 MP
PP
0 sg
3155 2734 mt 3219 2711 L
3219 2711 mt 3129 2683 L
c10
-89 -34 64 -23 3142 2868 3 MP
PP
0 sg
3142 2868 mt 3206 2845 L
3206 2845 mt 3117 2811 L
c10
64 -23 -89 -34 3206 2845 3 MP
PP
0 sg
3206 2845 mt 3117 2811 L
3117 2811 mt 3181 2788 L
c8
-90 -41 64 -22 3130 3012 3 MP
PP
0 sg
3130 3012 mt 3194 2990 L
3194 2990 mt 3104 2949 L
c8
64 -22 -90 -41 3194 2990 3 MP
PP
0 sg
3194 2990 mt 3104 2949 L
3104 2949 mt 3168 2927 L
c10
-90 -31 64 -23 3117 2811 3 MP
PP
0 sg
3117 2811 mt 3181 2788 L
3181 2788 mt 3091 2757 L
c10
64 -23 -90 -31 3181 2788 3 MP
PP
0 sg
3181 2788 mt 3091 2757 L
3091 2757 mt 3155 2734 L
c9
-90 -37 64 -22 3104 2949 3 MP
PP
0 sg
3104 2949 mt 3168 2927 L
3168 2927 mt 3078 2890 L
c9
64 -22 -90 -37 3168 2927 3 MP
PP
0 sg
3168 2927 mt 3078 2890 L
3078 2890 mt 3142 2868 L
c8
-89 -45 64 -23 3091 3102 3 MP
PP
0 sg
3091 3102 mt 3155 3079 L
3155 3079 mt 3066 3034 L
c8
64 -22 -89 -45 3155 3079 3 MP
PP
0 sg
3155 3079 mt 3066 3034 L
3066 3034 mt 3130 3012 L
c11
-90 -28 64 -23 3091 2757 3 MP
PP
0 sg
3091 2757 mt 3155 2734 L
3155 2734 mt 3065 2706 L
c11
64 -23 -90 -28 3155 2734 3 MP
PP
0 sg
3155 2734 mt 3065 2706 L
3065 2706 mt 3129 2683 L
c10
-90 -35 64 -22 3078 2890 3 MP
PP
0 sg
3078 2890 mt 3142 2868 L
3142 2868 mt 3052 2833 L
c10
65 -22 -90 -35 3142 2868 3 MP
PP
0 sg
3142 2868 mt 3052 2833 L
3052 2833 mt 3117 2811 L
c8
-90 -41 64 -22 3066 3034 3 MP
PP
0 sg
3066 3034 mt 3130 3012 L
3130 3012 mt 3040 2971 L
c8
64 -22 -90 -41 3130 3012 3 MP
PP
0 sg
3130 3012 mt 3040 2971 L
3040 2971 mt 3104 2949 L
c11
-90 -26 64 -23 3065 2706 3 MP
PP
0 sg
3065 2706 mt 3129 2683 L
3129 2683 mt 3039 2657 L
c10
-90 -31 65 -22 3052 2833 3 MP
PP
0 sg
3052 2833 mt 3117 2811 L
3117 2811 mt 3027 2780 L
c10
64 -23 -90 -31 3117 2811 3 MP
PP
0 sg
3117 2811 mt 3027 2780 L
3027 2780 mt 3091 2757 L
c9
-90 -37 64 -22 3040 2971 3 MP
PP
0 sg
3040 2971 mt 3104 2949 L
3104 2949 mt 3014 2912 L
c9
64 -22 -90 -37 3104 2949 3 MP
PP
0 sg
3104 2949 mt 3014 2912 L
3014 2912 mt 3078 2890 L
c8
-90 -46 64 -23 3027 3125 3 MP
PP
0 sg
3027 3125 mt 3091 3102 L
3091 3102 mt 3001 3056 L
c8
65 -22 -90 -46 3091 3102 3 MP
PP
0 sg
3091 3102 mt 3001 3056 L
3001 3056 mt 3066 3034 L
c11
-90 -28 64 -23 3027 2780 3 MP
PP
0 sg
3027 2780 mt 3091 2757 L
3091 2757 mt 3001 2729 L
c11
64 -23 -90 -28 3091 2757 3 MP
PP
0 sg
3091 2757 mt 3001 2729 L
3001 2729 mt 3065 2706 L
c10
-90 -35 64 -22 3014 2912 3 MP
PP
0 sg
3014 2912 mt 3078 2890 L
3078 2890 mt 2988 2855 L
c10
64 -22 -90 -35 3078 2890 3 MP
PP
0 sg
3078 2890 mt 2988 2855 L
2988 2855 mt 3052 2833 L
c8
-90 -42 65 -22 3001 3056 3 MP
PP
0 sg
3001 3056 mt 3066 3034 L
3066 3034 mt 2976 2992 L
c8
64 -21 -90 -42 3066 3034 3 MP
PP
0 sg
3066 3034 mt 2976 2992 L
2976 2992 mt 3040 2971 L
c11
-90 -26 64 -23 3001 2729 3 MP
PP
0 sg
3001 2729 mt 3065 2706 L
3065 2706 mt 2975 2680 L
c11
64 -23 -90 -26 3065 2706 3 MP
PP
0 sg
3065 2706 mt 2975 2680 L
2975 2680 mt 3039 2657 L
c10
-89 -31 64 -22 2988 2855 3 MP
PP
0 sg
2988 2855 mt 3052 2833 L
3052 2833 mt 2963 2802 L
c10
64 -22 -89 -31 3052 2833 3 MP
PP
0 sg
3052 2833 mt 2963 2802 L
2963 2802 mt 3027 2780 L
c9
-90 -38 64 -21 2976 2992 3 MP
PP
0 sg
2976 2992 mt 3040 2971 L
3040 2971 mt 2950 2933 L
c9
64 -21 -90 -38 3040 2971 3 MP
PP
0 sg
3040 2971 mt 2950 2933 L
2950 2933 mt 3014 2912 L
c11
-90 -22 64 -23 2975 2680 3 MP
PP
0 sg
2975 2680 mt 3039 2657 L
3039 2657 mt 2949 2635 L
c8
-90 -49 64 -24 2963 3149 3 MP
PP
0 sg
2963 3149 mt 3027 3125 L
3027 3125 mt 2937 3076 L
c8
64 -20 -90 -49 3027 3125 3 MP
PP
0 sg
3027 3125 mt 2937 3076 L
2937 3076 mt 3001 3056 L
c11
-90 -29 64 -22 2963 2802 3 MP
PP
0 sg
2963 2802 mt 3027 2780 L
3027 2780 mt 2937 2751 L
c11
64 -22 -90 -29 3027 2780 3 MP
PP
0 sg
3027 2780 mt 2937 2751 L
2937 2751 mt 3001 2729 L
c10
-90 -35 64 -21 2950 2933 3 MP
PP
0 sg
2950 2933 mt 3014 2912 L
3014 2912 mt 2924 2877 L
c10
64 -22 -90 -35 3014 2912 3 MP
PP
0 sg
3014 2912 mt 2924 2877 L
2924 2877 mt 2988 2855 L
c9
-89 -44 64 -20 2937 3076 3 MP
PP
0 sg
2937 3076 mt 3001 3056 L
3001 3056 mt 2912 3012 L
c8
64 -20 -89 -44 3001 3056 3 MP
PP
0 sg
3001 3056 mt 2912 3012 L
2912 3012 mt 2976 2992 L
c11
-90 -26 64 -22 2937 2751 3 MP
PP
0 sg
2937 2751 mt 3001 2729 L
3001 2729 mt 2911 2703 L
c11
64 -23 -90 -26 3001 2729 3 MP
PP
0 sg
3001 2729 mt 2911 2703 L
2911 2703 mt 2975 2680 L
c10
-90 -31 64 -22 2924 2877 3 MP
PP
0 sg
2924 2877 mt 2988 2855 L
2988 2855 mt 2898 2824 L
c10
65 -22 -90 -31 2988 2855 3 MP
PP
0 sg
2988 2855 mt 2898 2824 L
2898 2824 mt 2963 2802 L
c9
-90 -39 64 -20 2912 3012 3 MP
PP
0 sg
2912 3012 mt 2976 2992 L
2976 2992 mt 2886 2953 L
c9
64 -20 -90 -39 2976 2992 3 MP
PP
0 sg
2976 2992 mt 2886 2953 L
2886 2953 mt 2950 2933 L
c11
-90 -22 64 -23 2911 2703 3 MP
PP
0 sg
2911 2703 mt 2975 2680 L
2975 2680 mt 2885 2658 L
c11
64 -23 -90 -22 2975 2680 3 MP
PP
0 sg
2975 2680 mt 2885 2658 L
2885 2658 mt 2949 2635 L
c8
-90 -53 64 -23 2899 3172 3 MP
PP
0 sg
2899 3172 mt 2963 3149 L
2963 3149 mt 2873 3096 L
c8
64 -20 -90 -53 2963 3149 3 MP
PP
0 sg
2963 3149 mt 2873 3096 L
2873 3096 mt 2937 3076 L
c11
-90 -29 65 -22 2898 2824 3 MP
PP
0 sg
2898 2824 mt 2963 2802 L
2963 2802 mt 2873 2773 L
c11
64 -22 -90 -29 2963 2802 3 MP
PP
0 sg
2963 2802 mt 2873 2773 L
2873 2773 mt 2937 2751 L
c10
-90 -36 64 -20 2886 2953 3 MP
PP
0 sg
2886 2953 mt 2950 2933 L
2950 2933 mt 2860 2897 L
c10
64 -20 -90 -36 2950 2933 3 MP
PP
0 sg
2950 2933 mt 2860 2897 L
2860 2897 mt 2924 2877 L
c11
-90 -20 64 -23 2885 2658 3 MP
PP
0 sg
2885 2658 mt 2949 2635 L
2949 2635 mt 2859 2615 L
c9
-89 -46 64 -20 2873 3096 3 MP
PP
0 sg
2873 3096 mt 2937 3076 L
2937 3076 mt 2848 3030 L
c9
64 -18 -89 -46 2937 3076 3 MP
PP
0 sg
2937 3076 mt 2848 3030 L
2848 3030 mt 2912 3012 L
c11
-90 -25 64 -22 2873 2773 3 MP
PP
0 sg
2873 2773 mt 2937 2751 L
2937 2751 mt 2847 2726 L
c11
64 -23 -90 -25 2937 2751 3 MP
PP
0 sg
2937 2751 mt 2847 2726 L
2847 2726 mt 2911 2703 L
c10
-90 -32 64 -20 2860 2897 3 MP
PP
0 sg
2860 2897 mt 2924 2877 L
2924 2877 mt 2834 2845 L
c10
64 -21 -90 -32 2924 2877 3 MP
PP
0 sg
2924 2877 mt 2834 2845 L
2834 2845 mt 2898 2824 L
c9
-90 -41 64 -18 2848 3030 3 MP
PP
0 sg
2848 3030 mt 2912 3012 L
2912 3012 mt 2822 2971 L
c9
64 -18 -90 -41 2912 3012 3 MP
PP
0 sg
2912 3012 mt 2822 2971 L
2822 2971 mt 2886 2953 L
c11
-90 -23 64 -23 2847 2726 3 MP
PP
0 sg
2847 2726 mt 2911 2703 L
2911 2703 mt 2821 2680 L
c11
64 -22 -90 -23 2911 2703 3 MP
PP
0 sg
2911 2703 mt 2821 2680 L
2821 2680 mt 2885 2658 L
c8
-90 -59 64 -23 2835 3195 3 MP
PP
0 sg
2835 3195 mt 2899 3172 L
2899 3172 mt 2809 3113 L
c8
64 -17 -90 -59 2899 3172 3 MP
PP
0 sg
2899 3172 mt 2809 3113 L
2809 3113 mt 2873 3096 L
c11
-89 -29 64 -21 2834 2845 3 MP
PP
0 sg
2834 2845 mt 2898 2824 L
2898 2824 mt 2809 2795 L
c11
64 -22 -89 -29 2898 2824 3 MP
PP
0 sg
2898 2824 mt 2809 2795 L
2809 2795 mt 2873 2773 L
c10
-90 -37 64 -18 2822 2971 3 MP
PP
0 sg
2822 2971 mt 2886 2953 L
2886 2953 mt 2796 2916 L
c10
64 -19 -90 -37 2886 2953 3 MP
PP
0 sg
2886 2953 mt 2796 2916 L
2796 2916 mt 2860 2897 L
c11
-90 -20 64 -22 2821 2680 3 MP
PP
0 sg
2821 2680 mt 2885 2658 L
2885 2658 mt 2795 2638 L
c11
64 -23 -90 -20 2885 2658 3 MP
PP
0 sg
2885 2658 mt 2795 2638 L
2795 2638 mt 2859 2615 L
c9
-90 -50 64 -17 2809 3113 3 MP
PP
0 sg
2809 3113 mt 2873 3096 L
2873 3096 mt 2783 3046 L
c9
65 -16 -90 -50 2873 3096 3 MP
PP
0 sg
2873 3096 mt 2783 3046 L
2783 3046 mt 2848 3030 L
c11
-90 -25 64 -22 2809 2795 3 MP
PP
0 sg
2809 2795 mt 2873 2773 L
2873 2773 mt 2783 2748 L
c11
64 -22 -90 -25 2873 2773 3 MP
PP
0 sg
2873 2773 mt 2783 2748 L
2783 2748 mt 2847 2726 L
c11
-90 -32 64 -19 2796 2916 3 MP
PP
0 sg
2796 2916 mt 2860 2897 L
2860 2897 mt 2770 2865 L
c10
64 -20 -90 -32 2860 2897 3 MP
PP
0 sg
2860 2897 mt 2770 2865 L
2770 2865 mt 2834 2845 L
/c12 { 0.000000 0.000000 0.812500 sr} bdef
c12
-89 -16 64 -23 2795 2638 3 MP
PP
0 sg
2795 2638 mt 2859 2615 L
2859 2615 mt 2770 2599 L
c10
-90 -43 65 -16 2783 3046 3 MP
PP
0 sg
2783 3046 mt 2848 3030 L
2848 3030 mt 2758 2987 L
c9
64 -16 -90 -43 2848 3030 3 MP
PP
0 sg
2848 3030 mt 2758 2987 L
2758 2987 mt 2822 2971 L
c11
-90 -23 64 -22 2783 2748 3 MP
PP
0 sg
2783 2748 mt 2847 2726 L
2847 2726 mt 2757 2703 L
c11
64 -23 -90 -23 2847 2726 3 MP
PP
0 sg
2847 2726 mt 2757 2703 L
2757 2703 mt 2821 2680 L
c8
-90 -68 64 -24 2771 3219 3 MP
PP
0 sg
2771 3219 mt 2835 3195 L
2835 3195 mt 2745 3127 L
c8
64 -14 -90 -68 2835 3195 3 MP
PP
0 sg
2835 3195 mt 2745 3127 L
2745 3127 mt 2809 3113 L
c11
-90 -29 64 -20 2770 2865 3 MP
PP
0 sg
2770 2865 mt 2834 2845 L
2834 2845 mt 2744 2816 L
c11
65 -21 -90 -29 2834 2845 3 MP
PP
0 sg
2834 2845 mt 2744 2816 L
2744 2816 mt 2809 2795 L
c10
-90 -38 64 -16 2758 2987 3 MP
PP
0 sg
2758 2987 mt 2822 2971 L
2822 2971 mt 2732 2933 L
c10
64 -17 -90 -38 2822 2971 3 MP
PP
0 sg
2822 2971 mt 2732 2933 L
2732 2933 mt 2796 2916 L
c12
-90 -19 64 -23 2757 2703 3 MP
PP
0 sg
2757 2703 mt 2821 2680 L
2821 2680 mt 2731 2661 L
c11
64 -23 -90 -19 2821 2680 3 MP
PP
0 sg
2821 2680 mt 2731 2661 L
2731 2661 mt 2795 2638 L
c9
-90 -56 64 -14 2745 3127 3 MP
PP
0 sg
2745 3127 mt 2809 3113 L
2809 3113 mt 2719 3057 L
c9
64 -11 -90 -56 2809 3113 3 MP
PP
0 sg
2809 3113 mt 2719 3057 L
2719 3057 mt 2783 3046 L
c11
-90 -26 65 -21 2744 2816 3 MP
PP
0 sg
2744 2816 mt 2809 2795 L
2809 2795 mt 2719 2769 L
c11
64 -21 -90 -26 2809 2795 3 MP
PP
0 sg
2809 2795 mt 2719 2769 L
2719 2769 mt 2783 2748 L
c11
-90 -33 64 -17 2732 2933 3 MP
PP
0 sg
2732 2933 mt 2796 2916 L
2796 2916 mt 2706 2883 L
c11
64 -18 -90 -33 2796 2916 3 MP
PP
0 sg
2796 2916 mt 2706 2883 L
2706 2883 mt 2770 2865 L
c12
-90 -16 64 -23 2731 2661 3 MP
PP
0 sg
2731 2661 mt 2795 2638 L
2795 2638 mt 2705 2622 L
c12
65 -23 -90 -16 2795 2638 3 MP
PP
0 sg
2795 2638 mt 2705 2622 L
2705 2622 mt 2770 2599 L
c10
-89 -48 64 -11 2719 3057 3 MP
PP
0 sg
2719 3057 mt 2783 3046 L
2783 3046 mt 2694 2998 L
c10
64 -11 -89 -48 2783 3046 3 MP
PP
0 sg
2783 3046 mt 2694 2998 L
2694 2998 mt 2758 2987 L
c11
-90 -23 64 -21 2719 2769 3 MP
PP
0 sg
2719 2769 mt 2783 2748 L
2783 2748 mt 2693 2725 L
c11
64 -22 -90 -23 2783 2748 3 MP
PP
0 sg
2783 2748 mt 2693 2725 L
2693 2725 mt 2757 2703 L
c8
-90 -82 64 -23 2707 3242 3 MP
PP
0 sg
2707 3242 mt 2771 3219 L
2771 3219 mt 2681 3137 L
c8
64 -10 -90 -82 2771 3219 3 MP
PP
0 sg
2771 3219 mt 2681 3137 L
2681 3137 mt 2745 3127 L
c11
-90 -30 64 -18 2706 2883 3 MP
PP
0 sg
2706 2883 mt 2770 2865 L
2770 2865 mt 2680 2835 L
c11
64 -19 -90 -30 2770 2865 3 MP
PP
0 sg
2770 2865 mt 2680 2835 L
2680 2835 mt 2744 2816 L
c12
-90 -14 65 -23 2705 2622 3 MP
PP
0 sg
2705 2622 mt 2770 2599 L
2770 2599 mt 2680 2585 L
c11
-90 -41 64 -11 2694 2998 3 MP
PP
0 sg
2694 2998 mt 2758 2987 L
2758 2987 mt 2668 2946 L
c10
64 -13 -90 -41 2758 2987 3 MP
PP
0 sg
2758 2987 mt 2668 2946 L
2668 2946 mt 2732 2933 L
c12
-90 -20 64 -22 2693 2725 3 MP
PP
0 sg
2693 2725 mt 2757 2703 L
2757 2703 mt 2667 2683 L
c12
64 -22 -90 -20 2757 2703 3 MP
PP
0 sg
2757 2703 mt 2667 2683 L
2667 2683 mt 2731 2661 L
c10
-90 -65 64 -10 2681 3137 3 MP
PP
0 sg
2681 3137 mt 2745 3127 L
2745 3127 mt 2655 3062 L
c9
64 -5 -90 -65 2745 3127 3 MP
PP
0 sg
2745 3127 mt 2655 3062 L
2655 3062 mt 2719 3057 L
c11
-89 -27 64 -19 2680 2835 3 MP
PP
0 sg
2680 2835 mt 2744 2816 L
2744 2816 mt 2655 2789 L
c11
64 -20 -89 -27 2744 2816 3 MP
PP
0 sg
2744 2816 mt 2655 2789 L
2655 2789 mt 2719 2769 L
c11
-90 -35 64 -13 2668 2946 3 MP
PP
0 sg
2668 2946 mt 2732 2933 L
2732 2933 mt 2642 2898 L
c11
64 -15 -90 -35 2732 2933 3 MP
PP
0 sg
2732 2933 mt 2642 2898 L
2642 2898 mt 2706 2883 L
c12
-90 -17 64 -22 2667 2683 3 MP
PP
0 sg
2667 2683 mt 2731 2661 L
2731 2661 mt 2641 2644 L
c12
64 -22 -90 -17 2731 2661 3 MP
PP
0 sg
2731 2661 mt 2641 2644 L
2641 2644 mt 2705 2622 L
c11
-90 -53 64 -5 2655 3062 3 MP
PP
0 sg
2655 3062 mt 2719 3057 L
2719 3057 mt 2629 3004 L
c10
65 -6 -90 -53 2719 3057 3 MP
PP
0 sg
2719 3057 mt 2629 3004 L
2629 3004 mt 2694 2998 L
c12
-90 -23 64 -20 2655 2789 3 MP
PP
0 sg
2655 2789 mt 2719 2769 L
2719 2769 mt 2629 2746 L
c11
64 -21 -90 -23 2719 2769 3 MP
PP
0 sg
2719 2769 mt 2629 2746 L
2629 2746 mt 2693 2725 L
c8
-90 -103 64 -23 2643 3265 3 MP
PP
0 sg
2643 3265 mt 2707 3242 L
2707 3242 mt 2617 3139 L
c8
64 -2 -90 -103 2707 3242 3 MP
PP
0 sg
2707 3242 mt 2617 3139 L
2617 3139 mt 2681 3137 L
c11
-90 -31 64 -15 2642 2898 3 MP
PP
0 sg
2642 2898 mt 2706 2883 L
2706 2883 mt 2616 2852 L
c11
64 -17 -90 -31 2706 2883 3 MP
PP
0 sg
2706 2883 mt 2616 2852 L
2616 2852 mt 2680 2835 L
c12
-89 -14 64 -22 2641 2644 3 MP
PP
0 sg
2641 2644 mt 2705 2622 L
2705 2622 mt 2616 2608 L
c12
64 -23 -89 -14 2705 2622 3 MP
PP
0 sg
2705 2622 mt 2616 2608 L
2616 2608 mt 2680 2585 L
c11
-90 -43 65 -6 2629 3004 3 MP
PP
0 sg
2629 3004 mt 2694 2998 L
2694 2998 mt 2604 2955 L
c11
64 -9 -90 -43 2694 2998 3 MP
PP
0 sg
2694 2998 mt 2604 2955 L
2604 2955 mt 2668 2946 L
c12
-90 -20 64 -21 2629 2746 3 MP
PP
0 sg
2629 2746 mt 2693 2725 L
2693 2725 mt 2603 2705 L
c12
64 -22 -90 -20 2693 2725 3 MP
PP
0 sg
2693 2725 mt 2603 2705 L
2603 2705 mt 2667 2683 L
c10
-90 -79 64 -2 2617 3139 3 MP
PP
0 sg
2617 3139 mt 2681 3137 L
2681 3137 mt 2591 3058 L
c10
64 4 -90 -79 2681 3137 3 MP
PP
0 sg
2681 3137 mt 2591 3058 L
2591 3058 mt 2655 3062 L
c12
-90 -27 64 -17 2616 2852 3 MP
PP
0 sg
2616 2852 mt 2680 2835 L
2680 2835 mt 2590 2808 L
c11
65 -19 -90 -27 2680 2835 3 MP
PP
0 sg
2680 2835 mt 2590 2808 L
2590 2808 mt 2655 2789 L
c11
-90 -11 64 -23 2616 2608 3 MP
PP
0 sg
2616 2608 mt 2680 2585 L
2680 2585 mt 2590 2574 L
c12
-90 -36 64 -9 2604 2955 3 MP
PP
0 sg
2604 2955 mt 2668 2946 L
2668 2946 mt 2578 2910 L
c11
64 -12 -90 -36 2668 2946 3 MP
PP
0 sg
2668 2946 mt 2578 2910 L
2578 2910 mt 2642 2898 L
c12
-90 -16 64 -22 2603 2705 3 MP
PP
0 sg
2603 2705 mt 2667 2683 L
2667 2683 mt 2577 2667 L
c12
64 -23 -90 -16 2667 2683 3 MP
PP
0 sg
2667 2683 mt 2577 2667 L
2577 2667 mt 2641 2644 L
c12
-90 -61 64 4 2591 3058 3 MP
PP
0 sg
2591 3058 mt 2655 3062 L
2655 3062 mt 2565 3001 L
c11
64 3 -90 -61 2655 3062 3 MP
PP
0 sg
2655 3062 mt 2565 3001 L
2565 3001 mt 2629 3004 L
c12
-90 -23 65 -19 2590 2808 3 MP
PP
0 sg
2590 2808 mt 2655 2789 L
2655 2789 mt 2565 2766 L
c12
64 -20 -90 -23 2655 2789 3 MP
PP
0 sg
2655 2789 mt 2565 2766 L
2565 2766 mt 2629 2746 L
c8
-90 -134 64 -23 2579 3288 3 MP
PP
0 sg
2579 3288 mt 2643 3265 L
2643 3265 mt 2553 3131 L
c8
64 8 -90 -134 2643 3265 3 MP
PP
0 sg
2643 3265 mt 2553 3131 L
2553 3131 mt 2617 3139 L
c12
-90 -31 64 -12 2578 2910 3 MP
PP
0 sg
2578 2910 mt 2642 2898 L
2642 2898 mt 2552 2867 L
c11
64 -15 -90 -31 2642 2898 3 MP
PP
0 sg
2642 2898 mt 2552 2867 L
2552 2867 mt 2616 2852 L
c12
-90 -13 64 -23 2577 2667 3 MP
PP
0 sg
2577 2667 mt 2641 2644 L
2641 2644 mt 2551 2631 L
c12
65 -23 -90 -13 2641 2644 3 MP
PP
0 sg
2641 2644 mt 2551 2631 L
2551 2631 mt 2616 2608 L
c12
-89 -48 64 3 2565 3001 3 MP
PP
0 sg
2565 3001 mt 2629 3004 L
2629 3004 mt 2540 2956 L
c11
64 -1 -89 -48 2629 3004 3 MP
PP
0 sg
2629 3004 mt 2540 2956 L
2540 2956 mt 2604 2955 L
c12
-90 -20 64 -20 2565 2766 3 MP
PP
0 sg
2565 2766 mt 2629 2746 L
2629 2746 mt 2539 2726 L
c12
64 -21 -90 -20 2629 2746 3 MP
PP
0 sg
2629 2746 mt 2539 2726 L
2539 2726 mt 2603 2705 L
c11
-90 -99 64 8 2553 3131 3 MP
PP
0 sg
2553 3131 mt 2617 3139 L
2617 3139 mt 2527 3040 L
c10
64 18 -90 -99 2617 3139 3 MP
PP
0 sg
2617 3139 mt 2527 3040 L
2527 3040 mt 2591 3058 L
c12
-90 -27 64 -15 2552 2867 3 MP
PP
0 sg
2552 2867 mt 2616 2852 L
2616 2852 mt 2526 2825 L
c12
64 -17 -90 -27 2616 2852 3 MP
PP
0 sg
2616 2852 mt 2526 2825 L
2526 2825 mt 2590 2808 L
c11
-90 -11 65 -23 2551 2631 3 MP
PP
0 sg
2551 2631 mt 2616 2608 L
2616 2608 mt 2526 2597 L
c11
64 -23 -90 -11 2616 2608 3 MP
PP
0 sg
2616 2608 mt 2526 2597 L
2526 2597 mt 2590 2574 L
c12
-90 -40 64 -1 2540 2956 3 MP
PP
0 sg
2540 2956 mt 2604 2955 L
2604 2955 mt 2514 2915 L
c12
64 -5 -90 -40 2604 2955 3 MP
PP
0 sg
2604 2955 mt 2514 2915 L
2514 2915 mt 2578 2910 L
c12
-90 -16 64 -21 2539 2726 3 MP
PP
0 sg
2539 2726 mt 2603 2705 L
2603 2705 mt 2513 2689 L
c12
64 -22 -90 -16 2603 2705 3 MP
PP
0 sg
2603 2705 mt 2513 2689 L
2513 2689 mt 2577 2667 L
/c13 { 0.000000 0.000000 0.875000 sr} bdef
c13
-90 -73 64 18 2527 3040 3 MP
PP
0 sg
2527 3040 mt 2591 3058 L
2591 3058 mt 2501 2985 L
c12
64 16 -90 -73 2591 3058 3 MP
PP
0 sg
2591 3058 mt 2501 2985 L
2501 2985 mt 2565 3001 L
c12
-89 -23 64 -17 2526 2825 3 MP
PP
0 sg
2526 2825 mt 2590 2808 L
2590 2808 mt 2501 2785 L
c12
64 -19 -89 -23 2590 2808 3 MP
PP
0 sg
2590 2808 mt 2501 2785 L
2501 2785 mt 2565 2766 L
c11
-90 -7 64 -23 2526 2597 3 MP
PP
0 sg
2526 2597 mt 2590 2574 L
2590 2574 mt 2500 2567 L
c8
-90 -182 65 -24 2514 3312 3 MP
PP
0 sg
2514 3312 mt 2579 3288 L
2579 3288 mt 2489 3106 L
c8
64 25 -90 -182 2579 3288 3 MP
PP
0 sg
2579 3288 mt 2489 3106 L
2489 3106 mt 2553 3131 L
c12
-90 -33 64 -5 2514 2915 3 MP
PP
0 sg
2514 2915 mt 2578 2910 L
2578 2910 mt 2488 2877 L
c12
64 -10 -90 -33 2578 2910 3 MP
PP
0 sg
2578 2910 mt 2488 2877 L
2488 2877 mt 2552 2867 L
c12
-90 -14 64 -22 2513 2689 3 MP
PP
0 sg
2513 2689 mt 2577 2667 L
2577 2667 mt 2487 2653 L
c12
64 -22 -90 -14 2577 2667 3 MP
PP
0 sg
2577 2667 mt 2487 2653 L
2487 2653 mt 2551 2631 L
c13
-90 -56 64 16 2501 2985 3 MP
PP
0 sg
2501 2985 mt 2565 3001 L
2565 3001 mt 2475 2945 L
c12
65 11 -90 -56 2565 3001 3 MP
PP
0 sg
2565 3001 mt 2475 2945 L
2475 2945 mt 2540 2956 L
c12
-90 -19 64 -19 2501 2785 3 MP
PP
0 sg
2501 2785 mt 2565 2766 L
2565 2766 mt 2475 2747 L
c12
64 -21 -90 -19 2565 2766 3 MP
PP
0 sg
2565 2766 mt 2475 2747 L
2475 2747 mt 2539 2726 L
c13
-90 -130 64 25 2489 3106 3 MP
PP
0 sg
2489 3106 mt 2553 3131 L
2553 3131 mt 2463 3001 L
c11
64 39 -90 -130 2553 3131 3 MP
PP
0 sg
2553 3131 mt 2463 3001 L
2463 3001 mt 2527 3040 L
c12
-90 -28 64 -10 2488 2877 3 MP
PP
0 sg
2488 2877 mt 2552 2867 L
2552 2867 mt 2462 2839 L
c12
64 -14 -90 -28 2552 2867 3 MP
PP
0 sg
2552 2867 mt 2462 2839 L
2462 2839 mt 2526 2825 L
c12
-89 -11 64 -22 2487 2653 3 MP
PP
0 sg
2487 2653 mt 2551 2631 L
2551 2631 mt 2462 2620 L
c11
64 -23 -89 -11 2551 2631 3 MP
PP
0 sg
2551 2631 mt 2462 2620 L
2462 2620 mt 2526 2597 L
c13
-90 -45 65 11 2475 2945 3 MP
PP
0 sg
2475 2945 mt 2540 2956 L
2540 2956 mt 2450 2911 L
c12
64 4 -90 -45 2540 2956 3 MP
PP
0 sg
2540 2956 mt 2450 2911 L
2450 2911 mt 2514 2915 L
c12
-90 -16 64 -21 2475 2747 3 MP
PP
0 sg
2475 2747 mt 2539 2726 L
2539 2726 mt 2449 2710 L
c12
64 -21 -90 -16 2539 2726 3 MP
PP
0 sg
2539 2726 mt 2449 2710 L
2449 2710 mt 2513 2689 L
/c14 { 0.000000 0.000000 1.000000 sr} bdef
c14
-90 -93 64 39 2463 3001 3 MP
PP
0 sg
2463 3001 mt 2527 3040 L
2527 3040 mt 2437 2947 L
c13
64 38 -90 -93 2527 3040 3 MP
PP
0 sg
2527 3040 mt 2437 2947 L
2437 2947 mt 2501 2985 L
c12
-90 -23 64 -14 2462 2839 3 MP
PP
0 sg
2462 2839 mt 2526 2825 L
2526 2825 mt 2436 2802 L
c12
65 -17 -90 -23 2526 2825 3 MP
PP
0 sg
2526 2825 mt 2436 2802 L
2436 2802 mt 2501 2785 L
c11
-90 -7 64 -23 2462 2620 3 MP
PP
0 sg
2462 2620 mt 2526 2597 L
2526 2597 mt 2436 2590 L
c11
64 -23 -90 -7 2526 2597 3 MP
PP
0 sg
2526 2597 mt 2436 2590 L
2436 2590 mt 2500 2567 L
c8
-89 -255 64 -23 2450 3335 3 MP
PP
0 sg
2450 3335 mt 2514 3312 L
2514 3312 mt 2425 3057 L
c8
64 49 -89 -255 2514 3312 3 MP
PP
0 sg
2514 3312 mt 2425 3057 L
2425 3057 mt 2489 3106 L
c13
-90 -35 64 4 2450 2911 3 MP
PP
0 sg
2450 2911 mt 2514 2915 L
2514 2915 mt 2424 2880 L
c12
64 -3 -90 -35 2514 2915 3 MP
PP
0 sg
2514 2915 mt 2424 2880 L
2424 2880 mt 2488 2877 L
c12
-90 -14 64 -21 2449 2710 3 MP
PP
0 sg
2449 2710 mt 2513 2689 L
2513 2689 mt 2423 2675 L
c12
64 -22 -90 -14 2513 2689 3 MP
PP
0 sg
2513 2689 mt 2423 2675 L
2423 2675 mt 2487 2653 L
c14
-90 -68 64 38 2437 2947 3 MP
PP
0 sg
2437 2947 mt 2501 2985 L
2501 2985 mt 2411 2917 L
c13
64 28 -90 -68 2501 2985 3 MP
PP
0 sg
2501 2985 mt 2411 2917 L
2411 2917 mt 2475 2945 L
c12
-90 -20 65 -17 2436 2802 3 MP
PP
0 sg
2436 2802 mt 2501 2785 L
2501 2785 mt 2411 2765 L
c12
64 -18 -90 -20 2501 2785 3 MP
PP
0 sg
2501 2785 mt 2411 2765 L
2411 2765 mt 2475 2747 L
c11
-90 -5 64 -23 2436 2590 3 MP
PP
0 sg
2436 2590 mt 2500 2567 L
2500 2567 mt 2410 2562 L
c14
-90 -176 64 49 2425 3057 3 MP
PP
0 sg
2425 3057 mt 2489 3106 L
2489 3106 mt 2399 2930 L
c13
64 71 -90 -176 2489 3106 3 MP
PP
0 sg
2489 3106 mt 2399 2930 L
2399 2930 mt 2463 3001 L
c13
-90 -29 64 -3 2424 2880 3 MP
PP
0 sg
2424 2880 mt 2488 2877 L
2488 2877 mt 2398 2848 L
c12
64 -9 -90 -29 2488 2877 3 MP
PP
0 sg
2488 2877 mt 2398 2848 L
2398 2848 mt 2462 2839 L
c12
-89 -10 64 -22 2423 2675 3 MP
PP
0 sg
2423 2675 mt 2487 2653 L
2487 2653 mt 2398 2643 L
c12
64 -23 -89 -10 2487 2653 3 MP
PP
0 sg
2487 2653 mt 2398 2643 L
2398 2643 mt 2462 2620 L
c14
-89 -51 64 28 2411 2917 3 MP
PP
0 sg
2411 2917 mt 2475 2945 L
2475 2945 mt 2386 2894 L
c13
64 17 -89 -51 2475 2945 3 MP
PP
0 sg
2475 2945 mt 2386 2894 L
2386 2894 mt 2450 2911 L
c12
-90 -17 64 -18 2411 2765 3 MP
PP
0 sg
2411 2765 mt 2475 2747 L
2475 2747 mt 2385 2730 L
c12
64 -20 -90 -17 2475 2747 3 MP
PP
0 sg
2475 2747 mt 2385 2730 L
2385 2730 mt 2449 2710 L
/c15 { 0.000000 0.000000 0.937500 sr} bdef
c15
64 23 -90 -45 2386 2894 3 MP
PP
0 sg
2386 2894 mt 2296 2849 L
2296 2849 mt 2360 2872 L
c15
64 11 -90 -34 2360 2872 3 MP
PP
0 sg
2360 2872 mt 2270 2838 L
2270 2838 mt 2334 2849 L
c14
-90 -34 64 23 2296 2849 3 MP
PP
0 sg
2296 2849 mt 2360 2872 L
2360 2872 mt 2270 2838 L
/c16 { 0.000000 0.062500 1.000000 sr} bdef
c16
-90 -45 65 38 2321 2856 3 MP
PP
0 sg
2321 2856 mt 2386 2894 L
2386 2894 mt 2296 2849 L
c14
65 38 -90 -61 2411 2917 3 MP
PP
0 sg
2411 2917 mt 2321 2856 L
2321 2856 mt 2386 2894 L
/c17 { 0.000000 0.125000 1.000000 sr} bdef
c17
-90 -61 64 55 2347 2862 3 MP
PP
0 sg
2347 2862 mt 2411 2917 L
2411 2917 mt 2321 2856 L
c14
64 55 -90 -85 2437 2947 3 MP
PP
0 sg
2437 2947 mt 2347 2862 L
2347 2862 mt 2411 2917 L
c15
-90 -31 64 8 2360 2872 3 MP
PP
0 sg
2360 2872 mt 2424 2880 L
2424 2880 mt 2334 2849 L
c13
64 8 -90 -39 2450 2911 3 MP
PP
0 sg
2450 2911 mt 2360 2872 L
2360 2872 mt 2424 2880 L
c15
-90 -39 64 17 2386 2894 3 MP
PP
0 sg
2386 2894 mt 2450 2911 L
2450 2911 mt 2360 2872 L
/c18 { 0.000000 0.187500 1.000000 sr} bdef
c18
-90 -85 64 68 2373 2879 3 MP
PP
0 sg
2373 2879 mt 2437 2947 L
2437 2947 mt 2347 2862 L
c18
-90 -122 64 71 2399 2930 3 MP
PP
0 sg
2399 2930 mt 2463 3001 L
2463 3001 mt 2373 2879 L
c14
64 68 -90 -122 2463 3001 3 MP
PP
0 sg
2463 3001 mt 2373 2879 L
2373 2879 mt 2437 2947 L
c13
-90 -24 64 -9 2398 2848 3 MP
PP
0 sg
2398 2848 mt 2462 2839 L
2462 2839 mt 2372 2815 L
c12
64 -13 -90 -24 2462 2839 3 MP
PP
0 sg
2462 2839 mt 2372 2815 L
2372 2815 mt 2436 2802 L
c11
-90 -8 64 -23 2398 2643 3 MP
PP
0 sg
2398 2643 mt 2462 2620 L
2462 2620 mt 2372 2612 L
c11
64 -22 -90 -8 2462 2620 3 MP
PP
0 sg
2462 2620 mt 2372 2612 L
2372 2612 mt 2436 2590 L
c8
65 143 -90 -421 2450 3335 3 MP
PP
0 sg
2450 3335 mt 2360 2914 L
2360 2914 mt 2425 3057 L
c12
-90 -14 64 -20 2385 2730 3 MP
PP
0 sg
2385 2730 mt 2449 2710 L
2449 2710 mt 2359 2696 L
c12
64 -21 -90 -14 2449 2710 3 MP
PP
0 sg
2449 2710 mt 2359 2696 L
2359 2696 mt 2423 2675 L
c12
-89 -20 64 -13 2372 2815 3 MP
PP
0 sg
2372 2815 mt 2436 2802 L
2436 2802 mt 2347 2782 L
c12
64 -17 -89 -20 2436 2802 3 MP
PP
0 sg
2436 2802 mt 2347 2782 L
2347 2782 mt 2411 2765 L
c11
-90 -5 64 -22 2372 2612 3 MP
PP
0 sg
2372 2612 mt 2436 2590 L
2436 2590 mt 2346 2585 L
c11
64 -23 -90 -5 2436 2590 3 MP
PP
0 sg
2436 2590 mt 2346 2585 L
2346 2585 mt 2410 2562 L
c13
-90 -21 64 -8 2308 2823 3 MP
PP
0 sg
2308 2823 mt 2372 2815 L
2372 2815 mt 2282 2794 L
c12
64 -16 -90 -17 2347 2782 3 MP
PP
0 sg
2347 2782 mt 2257 2765 L
2257 2765 mt 2321 2749 L
c13
-90 -17 65 -12 2282 2794 3 MP
PP
0 sg
2282 2794 mt 2347 2782 L
2347 2782 mt 2257 2765 L
c12
65 -12 -90 -21 2372 2815 3 MP
PP
0 sg
2372 2815 mt 2282 2794 L
2282 2794 mt 2347 2782 L
c13
64 -8 -90 -25 2398 2848 3 MP
PP
0 sg
2398 2848 mt 2308 2823 L
2308 2823 mt 2372 2815 L
c13
-90 -25 64 -1 2334 2849 3 MP
PP
0 sg
2334 2849 mt 2398 2848 L
2398 2848 mt 2308 2823 L
c13
64 -1 -90 -31 2424 2880 3 MP
PP
0 sg
2424 2880 mt 2334 2849 L
2334 2849 mt 2398 2848 L
c18
64 95 -90 -112 2373 2879 3 MP
PP
0 sg
2373 2879 mt 2283 2767 L
2283 2767 mt 2347 2862 L
/c19 { 0.000000 0.500000 1.000000 sr} bdef
c19
-90 -112 64 115 2309 2764 3 MP
PP
0 sg
2309 2764 mt 2373 2879 L
2373 2879 mt 2283 2767 L
c18
64 115 -90 -166 2399 2930 3 MP
PP
0 sg
2399 2930 mt 2309 2764 L
2309 2764 mt 2373 2879 L
/c20 { 0.000000 0.437500 1.000000 sr} bdef
c20
-90 -166 64 120 2335 2810 3 MP
PP
0 sg
2335 2810 mt 2399 2930 L
2399 2930 mt 2309 2764 L
/c21 { 0.000000 0.312500 1.000000 sr} bdef
c21
-90 -247 65 143 2360 2914 3 MP
PP
0 sg
2360 2914 mt 2425 3057 L
2425 3057 mt 2335 2810 L
c14
64 120 -90 -247 2425 3057 3 MP
PP
0 sg
2425 3057 mt 2335 2810 L
2335 2810 mt 2399 2930 L
c12
-90 -10 64 -21 2359 2696 3 MP
PP
0 sg
2359 2696 mt 2423 2675 L
2423 2675 mt 2333 2665 L
c12
65 -22 -90 -10 2423 2675 3 MP
PP
0 sg
2423 2675 mt 2333 2665 L
2333 2665 mt 2398 2643 L
c12
-90 -16 64 -17 2347 2782 3 MP
PP
0 sg
2347 2782 mt 2411 2765 L
2411 2765 mt 2321 2749 L
c12
64 -19 -90 -16 2411 2765 3 MP
PP
0 sg
2411 2765 mt 2321 2749 L
2321 2749 mt 2385 2730 L
c11
-90 -2 64 -23 2346 2585 3 MP
PP
0 sg
2346 2585 mt 2410 2562 L
2410 2562 mt 2320 2560 L
c11
-90 -8 65 -22 2333 2665 3 MP
PP
0 sg
2333 2665 mt 2398 2643 L
2398 2643 mt 2308 2635 L
c11
64 -23 -90 -8 2398 2643 3 MP
PP
0 sg
2398 2643 mt 2308 2635 L
2308 2635 mt 2372 2612 L
c12
-90 -13 64 -19 2321 2749 3 MP
PP
0 sg
2321 2749 mt 2385 2730 L
2385 2730 mt 2295 2717 L
c12
64 -21 -90 -13 2385 2730 3 MP
PP
0 sg
2385 2730 mt 2295 2717 L
2295 2717 mt 2359 2696 L
c11
-90 -4 64 -23 2308 2635 3 MP
PP
0 sg
2308 2635 mt 2372 2612 L
2372 2612 mt 2282 2608 L
c11
64 -23 -90 -4 2372 2612 3 MP
PP
0 sg
2372 2612 mt 2282 2608 L
2282 2608 mt 2346 2585 L
c11
64 -22 -90 -5 2308 2635 3 MP
PP
0 sg
2308 2635 mt 2218 2630 L
2218 2630 mt 2282 2608 L
c11
-90 -5 64 -22 2244 2657 3 MP
PP
0 sg
2244 2657 mt 2308 2635 L
2308 2635 mt 2218 2630 L
c10
-90 0 64 -23 2256 2583 3 MP
PP
0 sg
2256 2583 mt 2320 2560 L
2320 2560 mt 2230 2560 L
c12
64 -19 -90 -13 2321 2749 3 MP
PP
0 sg
2321 2749 mt 2231 2736 L
2231 2736 mt 2295 2717 L
c12
-90 -13 64 -16 2257 2765 3 MP
PP
0 sg
2257 2765 mt 2321 2749 L
2321 2749 mt 2231 2736 L
c11
64 -22 -89 -8 2333 2665 3 MP
PP
0 sg
2333 2665 mt 2244 2657 L
2244 2657 mt 2308 2635 L
c11
-89 -8 64 -21 2269 2686 3 MP
PP
0 sg
2269 2686 mt 2333 2665 L
2333 2665 mt 2244 2657 L
c11
64 -23 -90 -2 2346 2585 3 MP
PP
0 sg
2346 2585 mt 2256 2583 L
2256 2583 mt 2320 2560 L
c11
-90 -2 64 -23 2282 2608 3 MP
PP
0 sg
2282 2608 mt 2346 2585 L
2346 2585 mt 2256 2583 L
c12
64 -21 -90 -10 2359 2696 3 MP
PP
0 sg
2359 2696 mt 2269 2686 L
2269 2686 mt 2333 2665 L
c12
-90 -10 64 -21 2295 2717 3 MP
PP
0 sg
2295 2717 mt 2359 2696 L
2359 2696 mt 2269 2686 L
c21
64 272 -89 -376 2360 2914 3 MP
PP
0 sg
2360 2914 mt 2271 2538 L
2271 2538 mt 2335 2810 L
c13
64 -13 -89 -16 2282 2794 3 MP
PP
0 sg
2282 2794 mt 2193 2778 L
2193 2778 mt 2257 2765 L
c13
-89 -16 64 -8 2218 2802 3 MP
PP
0 sg
2218 2802 mt 2282 2794 L
2282 2794 mt 2193 2778 L
c13
64 -8 -90 -21 2308 2823 3 MP
PP
0 sg
2308 2823 mt 2218 2802 L
2218 2802 mt 2282 2794 L
c15
-90 -21 64 1 2244 2822 3 MP
PP
0 sg
2244 2822 mt 2308 2823 L
2308 2823 mt 2218 2802 L
c13
64 1 -90 -27 2334 2849 3 MP
PP
0 sg
2334 2849 mt 2244 2822 L
2244 2822 mt 2308 2823 L
c15
-90 -27 64 11 2270 2838 3 MP
PP
0 sg
2270 2838 mt 2334 2849 L
2334 2849 mt 2244 2822 L
/c22 { 0.000000 0.375000 1.000000 sr} bdef
c22
-90 -76 64 95 2283 2767 3 MP
PP
0 sg
2283 2767 mt 2347 2862 L
2347 2862 mt 2257 2786 L
c17
64 70 -90 -76 2347 2862 3 MP
PP
0 sg
2347 2862 mt 2257 2786 L
2257 2786 mt 2321 2856 L
c10
64 -23 -90 0 2256 2583 3 MP
PP
0 sg
2256 2583 mt 2166 2583 L
2166 2583 mt 2230 2560 L
c10
-90 0 64 -23 2192 2606 3 MP
PP
0 sg
2192 2606 mt 2256 2583 L
2256 2583 mt 2166 2583 L
c11
64 -23 -90 -2 2282 2608 3 MP
PP
0 sg
2282 2608 mt 2192 2606 L
2192 2606 mt 2256 2583 L
c11
-90 -2 64 -22 2218 2630 3 MP
PP
0 sg
2218 2630 mt 2282 2608 L
2282 2608 mt 2192 2606 L
/c23 { 0.062500 1.000000 0.937500 sr} bdef
c23
-90 -232 64 272 2271 2538 3 MP
PP
0 sg
2271 2538 mt 2335 2810 L
2335 2810 mt 2245 2578 L
c12
64 -20 -90 -11 2295 2717 3 MP
PP
0 sg
2295 2717 mt 2205 2706 L
2205 2706 mt 2269 2686 L
c12
-90 -11 64 -19 2231 2736 3 MP
PP
0 sg
2231 2736 mt 2295 2717 L
2295 2717 mt 2205 2706 L
c20
64 186 -90 -232 2335 2810 3 MP
PP
0 sg
2335 2810 mt 2245 2578 L
2245 2578 mt 2309 2764 L
/c24 { 0.000000 0.250000 1.000000 sr} bdef
c24
-89 -54 64 70 2257 2786 3 MP
PP
0 sg
2257 2786 mt 2321 2856 L
2321 2856 mt 2232 2802 L
c16
64 47 -89 -54 2321 2856 3 MP
PP
0 sg
2321 2856 mt 2232 2802 L
2232 2802 mt 2296 2849 L
c11
65 -22 -90 -7 2269 2686 3 MP
PP
0 sg
2269 2686 mt 2179 2679 L
2179 2679 mt 2244 2657 L
c12
-90 -7 64 -20 2205 2706 3 MP
PP
0 sg
2205 2706 mt 2269 2686 L
2269 2686 mt 2179 2679 L
/c25 { 0.000000 0.875000 1.000000 sr} bdef
c25
-90 -152 64 186 2245 2578 3 MP
PP
0 sg
2245 2578 mt 2309 2764 L
2309 2764 mt 2219 2612 L
c11
64 -23 -90 -4 2244 2657 3 MP
PP
0 sg
2244 2657 mt 2154 2653 L
2154 2653 mt 2218 2630 L
c11
-90 -4 65 -22 2179 2679 3 MP
PP
0 sg
2179 2679 mt 2244 2657 L
2244 2657 mt 2154 2653 L
c19
64 155 -90 -152 2309 2764 3 MP
PP
0 sg
2309 2764 mt 2219 2612 L
2219 2612 mt 2283 2767 L
c15
64 1 -90 -21 2244 2822 3 MP
PP
0 sg
2244 2822 mt 2154 2801 L
2154 2801 mt 2218 2802 L
c14
-90 -21 64 12 2180 2810 3 MP
PP
0 sg
2180 2810 mt 2244 2822 L
2244 2822 mt 2154 2801 L
c15
64 12 -90 -28 2270 2838 3 MP
PP
0 sg
2270 2838 mt 2180 2810 L
2180 2810 mt 2244 2822 L
c18
-90 -38 64 47 2232 2802 3 MP
PP
0 sg
2232 2802 mt 2296 2849 L
2296 2849 mt 2206 2811 L
c14
64 27 -90 -38 2296 2849 3 MP
PP
0 sg
2296 2849 mt 2206 2811 L
2206 2811 mt 2270 2838 L
c11
64 -22 -90 -2 2218 2630 3 MP
PP
0 sg
2218 2630 mt 2128 2628 L
2128 2628 mt 2192 2606 L
c11
-90 -2 64 -23 2154 2653 3 MP
PP
0 sg
2154 2653 mt 2218 2630 L
2218 2630 mt 2128 2628 L
/c26 { 0.000000 0.750000 1.000000 sr} bdef
c26
-90 -99 64 155 2219 2612 3 MP
PP
0 sg
2219 2612 mt 2283 2767 L
2283 2767 mt 2193 2668 L
c12
64 -20 -90 -10 2231 2736 3 MP
PP
0 sg
2231 2736 mt 2141 2726 L
2141 2726 mt 2205 2706 L
c12
-90 -10 64 -16 2167 2752 3 MP
PP
0 sg
2167 2752 mt 2231 2736 L
2231 2736 mt 2141 2726 L
c12
64 -16 -90 -13 2257 2765 3 MP
PP
0 sg
2257 2765 mt 2167 2752 L
2167 2752 mt 2231 2736 L
c13
-90 -13 64 -13 2193 2778 3 MP
PP
0 sg
2193 2778 mt 2257 2765 L
2257 2765 mt 2167 2752 L
c22
64 118 -90 -99 2283 2767 3 MP
PP
0 sg
2283 2767 mt 2193 2668 L
2193 2668 mt 2257 2786 L
c23
64 370 -90 -330 2271 2538 3 MP
PP
0 sg
2271 2538 mt 2181 2208 L
2181 2208 mt 2245 2578 L
c16
-90 -28 64 27 2206 2811 3 MP
PP
0 sg
2206 2811 mt 2270 2838 L
2270 2838 mt 2180 2810 L
c12
64 -20 -90 -7 2205 2706 3 MP
PP
0 sg
2205 2706 mt 2115 2699 L
2115 2699 mt 2179 2679 L
c12
-90 -7 64 -20 2141 2726 3 MP
PP
0 sg
2141 2726 mt 2205 2706 L
2205 2706 mt 2115 2699 L
/c27 { 0.000000 0.562500 1.000000 sr} bdef
c27
-90 -67 64 118 2193 2668 3 MP
PP
0 sg
2193 2668 mt 2257 2786 L
2257 2786 mt 2167 2719 L
c24
65 83 -90 -67 2257 2786 3 MP
PP
0 sg
2257 2786 mt 2167 2719 L
2167 2719 mt 2232 2802 L
/c28 { 0.687500 1.000000 0.312500 sr} bdef
c28
-90 -213 64 370 2181 2208 3 MP
PP
0 sg
2181 2208 mt 2245 2578 L
2245 2578 mt 2155 2365 L
c10
-90 4 64 -23 2166 2583 3 MP
PP
0 sg
2166 2583 mt 2230 2560 L
2230 2560 mt 2140 2564 L
c25
64 247 -90 -213 2245 2578 3 MP
PP
0 sg
2245 2578 mt 2155 2365 L
2155 2365 mt 2219 2612 L
c12
64 -16 -90 -10 2167 2752 3 MP
PP
0 sg
2167 2752 mt 2077 2742 L
2077 2742 mt 2141 2726 L
c12
-90 -10 64 -13 2103 2765 3 MP
PP
0 sg
2103 2765 mt 2167 2752 L
2167 2752 mt 2077 2742 L
c13
64 -13 -90 -13 2193 2778 3 MP
PP
0 sg
2193 2778 mt 2103 2765 L
2103 2765 mt 2167 2752 L
c13
-90 -13 64 -7 2129 2785 3 MP
PP
0 sg
2129 2785 mt 2193 2778 L
2193 2778 mt 2103 2765 L
c13
64 -7 -89 -17 2218 2802 3 MP
PP
0 sg
2218 2802 mt 2129 2785 L
2129 2785 mt 2193 2778 L
c22
-90 -44 65 83 2167 2719 3 MP
PP
0 sg
2167 2719 mt 2232 2802 L
2232 2802 mt 2142 2758 L
c15
-89 -17 64 1 2154 2801 3 MP
PP
0 sg
2154 2801 mt 2218 2802 L
2218 2802 mt 2129 2785 L
c18
64 53 -90 -44 2232 2802 3 MP
PP
0 sg
2232 2802 mt 2142 2758 L
2142 2758 mt 2206 2811 L
/c29 { 0.250000 1.000000 0.750000 sr} bdef
c29
-90 -135 64 247 2155 2365 3 MP
PP
0 sg
2155 2365 mt 2219 2612 L
2219 2612 mt 2129 2477 L
c10
64 -23 -90 4 2166 2583 3 MP
PP
0 sg
2166 2583 mt 2076 2587 L
2076 2587 mt 2140 2564 L
c10
-90 4 64 -23 2102 2606 3 MP
PP
0 sg
2102 2606 mt 2166 2583 L
2166 2583 mt 2076 2587 L
c10
64 -23 -90 0 2192 2606 3 MP
PP
0 sg
2192 2606 mt 2102 2606 L
2102 2606 mt 2166 2583 L
c10
-90 0 64 -22 2128 2628 3 MP
PP
0 sg
2128 2628 mt 2192 2606 L
2192 2606 mt 2102 2606 L
c26
64 191 -90 -135 2219 2612 3 MP
PP
0 sg
2219 2612 mt 2129 2477 L
2129 2477 mt 2193 2668 L
c13
64 -8 -90 -12 2129 2785 3 MP
PP
0 sg
2129 2785 mt 2039 2773 L
2039 2773 mt 2103 2765 L
c18
-90 -31 64 53 2142 2758 3 MP
PP
0 sg
2142 2758 mt 2206 2811 L
2206 2811 mt 2116 2780 L
c15
-90 -12 65 1 2064 2784 3 MP
PP
0 sg
2064 2784 mt 2129 2785 L
2129 2785 mt 2039 2773 L
c15
65 1 -90 -17 2154 2801 3 MP
PP
0 sg
2154 2801 mt 2064 2784 L
2064 2784 mt 2129 2785 L
c16
64 30 -90 -31 2206 2811 3 MP
PP
0 sg
2206 2811 mt 2116 2780 L
2116 2780 mt 2180 2810 L
c9
-89 5 64 -23 2076 2587 3 MP
PP
0 sg
2076 2587 mt 2140 2564 L
2140 2564 mt 2051 2569 L
/c30 { 0.000000 1.000000 1.000000 sr} bdef
c30
-90 -86 64 191 2129 2477 3 MP
PP
0 sg
2129 2477 mt 2193 2668 L
2193 2668 mt 2103 2582 L
c10
64 -23 -90 1 2128 2628 3 MP
PP
0 sg
2128 2628 mt 2038 2629 L
2038 2629 mt 2102 2606 L
c10
-90 1 64 -23 2064 2651 3 MP
PP
0 sg
2064 2651 mt 2128 2628 L
2128 2628 mt 2038 2629 L
c11
64 -23 -90 -2 2154 2653 3 MP
PP
0 sg
2154 2653 mt 2064 2651 L
2064 2651 mt 2128 2628 L
c11
-90 -2 64 -21 2090 2674 3 MP
PP
0 sg
2090 2674 mt 2154 2653 L
2154 2653 mt 2064 2651 L
c11
64 -21 -89 -5 2179 2679 3 MP
PP
0 sg
2179 2679 mt 2090 2674 L
2090 2674 mt 2154 2653 L
c11
-89 -5 64 -20 2115 2699 3 MP
PP
0 sg
2115 2699 mt 2179 2679 L
2179 2679 mt 2090 2674 L
c27
64 137 -90 -86 2193 2668 3 MP
PP
0 sg
2193 2668 mt 2103 2582 L
2103 2582 mt 2167 2719 L
c28
64 444 -90 -287 2181 2208 3 MP
PP
0 sg
2181 2208 mt 2091 1921 L
2091 1921 mt 2155 2365 L
c14
-90 -17 64 13 2090 2788 3 MP
PP
0 sg
2090 2788 mt 2154 2801 L
2154 2801 mt 2064 2784 L
c14
64 13 -90 -22 2180 2810 3 MP
PP
0 sg
2180 2810 mt 2090 2788 L
2090 2788 mt 2154 2801 L
c16
-90 -22 64 30 2116 2780 3 MP
PP
0 sg
2116 2780 mt 2180 2810 L
2180 2810 mt 2090 2788 L
c11
64 -22 -90 -1 2090 2674 3 MP
PP
0 sg
2090 2674 mt 2000 2673 L
2000 2673 mt 2064 2651 L
c10
64 -23 -90 4 2102 2606 3 MP
PP
0 sg
2102 2606 mt 2012 2610 L
2012 2610 mt 2076 2587 L
c10
-90 4 64 -23 2038 2629 3 MP
PP
0 sg
2038 2629 mt 2102 2606 L
2102 2606 mt 2012 2610 L
/c31 { 0.000000 0.687500 1.000000 sr} bdef
c31
-89 -54 64 137 2103 2582 3 MP
PP
0 sg
2103 2582 mt 2167 2719 L
2167 2719 mt 2078 2665 L
c11
-90 -1 65 -21 2025 2695 3 MP
PP
0 sg
2025 2695 mt 2090 2674 L
2090 2674 mt 2000 2673 L
c11
65 -21 -90 -4 2115 2699 3 MP
PP
0 sg
2115 2699 mt 2025 2695 L
2025 2695 mt 2090 2674 L
c11
-90 -4 64 -20 2051 2719 3 MP
PP
0 sg
2051 2719 mt 2115 2699 L
2115 2699 mt 2025 2695 L
c12
64 -20 -90 -7 2141 2726 3 MP
PP
0 sg
2141 2726 mt 2051 2719 L
2051 2719 mt 2115 2699 L
c12
-90 -7 64 -16 2077 2742 3 MP
PP
0 sg
2077 2742 mt 2141 2726 L
2141 2726 mt 2051 2719 L
c22
64 93 -89 -54 2167 2719 3 MP
PP
0 sg
2167 2719 mt 2078 2665 L
2078 2665 mt 2142 2758 L
/c32 { 1.000000 0.812500 0.000000 sr} bdef
c32
-90 -188 64 444 2091 1921 3 MP
PP
0 sg
2091 1921 mt 2155 2365 L
2155 2365 mt 2065 2177 L
c29
64 300 -90 -188 2155 2365 3 MP
PP
0 sg
2155 2365 mt 2065 2177 L
2065 2177 mt 2129 2477 L
c12
64 -17 -90 -6 2077 2742 3 MP
PP
0 sg
2077 2742 mt 1987 2736 L
1987 2736 mt 2051 2719 L
c20
-90 -36 64 93 2078 2665 3 MP
PP
0 sg
2078 2665 mt 2142 2758 L
2142 2758 mt 2052 2722 L
c12
-90 -6 64 -14 2013 2756 3 MP
PP
0 sg
2013 2756 mt 2077 2742 L
2077 2742 mt 1987 2736 L
c12
64 -14 -90 -9 2103 2765 3 MP
PP
0 sg
2103 2765 mt 2013 2756 L
2013 2756 mt 2077 2742 L
c13
-90 -9 64 -8 2039 2773 3 MP
PP
0 sg
2039 2773 mt 2103 2765 L
2103 2765 mt 2013 2756 L
c18
64 58 -90 -36 2142 2758 3 MP
PP
0 sg
2142 2758 mt 2052 2722 L
2052 2722 mt 2116 2780 L
/c33 { 0.625000 1.000000 0.375000 sr} bdef
c33
-90 -115 64 300 2065 2177 3 MP
PP
0 sg
2065 2177 mt 2129 2477 L
2129 2477 mt 2039 2362 L
c30
64 220 -90 -115 2129 2477 3 MP
PP
0 sg
2129 2477 mt 2039 2362 L
2039 2362 mt 2103 2582 L
c24
-90 -24 64 58 2052 2722 3 MP
PP
0 sg
2052 2722 mt 2116 2780 L
2116 2780 mt 2026 2756 L
c16
64 32 -90 -24 2116 2780 3 MP
PP
0 sg
2116 2780 mt 2026 2756 L
2026 2756 mt 2090 2788 L
/c34 { 0.187500 1.000000 0.812500 sr} bdef
c34
-90 -70 64 220 2039 2362 3 MP
PP
0 sg
2039 2362 mt 2103 2582 L
2103 2582 mt 2013 2512 L
c8
-90 9 65 -24 1986 2593 3 MP
PP
0 sg
1986 2593 mt 2051 2569 L
2051 2569 mt 1961 2578 L
c9
65 -24 -90 6 2076 2587 3 MP
PP
0 sg
2076 2587 mt 1986 2593 L
1986 2593 mt 2051 2569 L
c9
-90 6 64 -23 2012 2610 3 MP
PP
0 sg
2012 2610 mt 2076 2587 L
2076 2587 mt 1986 2593 L
c31
65 153 -90 -70 2103 2582 3 MP
PP
0 sg
2103 2582 mt 2013 2512 L
2013 2512 mt 2078 2665 L
c32
64 497 -90 -241 2091 1921 3 MP
PP
0 sg
2091 1921 mt 2001 1680 L
2001 1680 mt 2065 2177 L
c13
64 -9 -90 -8 2039 2773 3 MP
PP
0 sg
2039 2773 mt 1949 2765 L
1949 2765 mt 2013 2756 L
c15
-90 -8 64 0 1975 2773 3 MP
PP
0 sg
1975 2773 mt 2039 2773 L
2039 2773 mt 1949 2765 L
c15
64 0 -89 -11 2064 2784 3 MP
PP
0 sg
2064 2784 mt 1975 2773 L
1975 2773 mt 2039 2773 L
c17
-90 -17 64 32 2026 2756 3 MP
PP
0 sg
2026 2756 mt 2090 2788 L
2090 2788 mt 2000 2771 L
c14
64 13 -90 -17 2090 2788 3 MP
PP
0 sg
2090 2788 mt 2000 2771 L
2000 2771 mt 2064 2784 L
c9
64 -23 -90 6 2012 2610 3 MP
PP
0 sg
2012 2610 mt 1922 2616 L
1922 2616 mt 1986 2593 L
c9
-90 6 64 -23 1948 2633 3 MP
PP
0 sg
1948 2633 mt 2012 2610 L
2012 2610 mt 1922 2616 L
c10
64 -23 -90 4 2038 2629 3 MP
PP
0 sg
2038 2629 mt 1948 2633 L
1948 2633 mt 2012 2610 L
c10
-90 4 64 -23 1974 2652 3 MP
PP
0 sg
1974 2652 mt 2038 2629 L
2038 2629 mt 1948 2633 L
c10
64 -23 -90 1 2064 2651 3 MP
PP
0 sg
2064 2651 mt 1974 2652 L
1974 2652 mt 2038 2629 L
c10
-90 1 64 -22 2000 2673 3 MP
PP
0 sg
2000 2673 mt 2064 2651 L
2064 2651 mt 1974 2652 L
/c35 { 0.000000 0.812500 1.000000 sr} bdef
c35
-90 -43 65 153 2013 2512 3 MP
PP
0 sg
2013 2512 mt 2078 2665 L
2078 2665 mt 1988 2622 L
c11
64 -20 -90 -4 2051 2719 3 MP
PP
0 sg
2051 2719 mt 1961 2715 L
1961 2715 mt 2025 2695 L
c12
-90 -4 64 -17 1987 2736 3 MP
PP
0 sg
1987 2736 mt 2051 2719 L
2051 2719 mt 1961 2715 L
c20
64 100 -90 -43 2078 2665 3 MP
PP
0 sg
2078 2665 mt 1988 2622 L
1988 2622 mt 2052 2722 L
/c36 { 1.000000 0.375000 0.000000 sr} bdef
c36
-90 -159 64 497 2001 1680 3 MP
PP
0 sg
2001 1680 mt 2065 2177 L
2065 2177 mt 1975 2018 L
c33
64 344 -90 -159 2065 2177 3 MP
PP
0 sg
2065 2177 mt 1975 2018 L
1975 2018 mt 2039 2362 L
c14
-89 -11 64 13 2000 2771 3 MP
PP
0 sg
2000 2771 mt 2064 2784 L
2064 2784 mt 1975 2773 L
c10
64 -22 -90 1 2000 2673 3 MP
PP
0 sg
2000 2673 mt 1910 2674 L
1910 2674 mt 1974 2652 L
c10
-90 1 64 -21 1936 2694 3 MP
PP
0 sg
1936 2694 mt 2000 2673 L
2000 2673 mt 1910 2674 L
c11
64 -21 -89 -1 2025 2695 3 MP
PP
0 sg
2025 2695 mt 1936 2694 L
1936 2694 mt 2000 2673 L
c11
-89 -1 64 -20 1961 2715 3 MP
PP
0 sg
1961 2715 mt 2025 2695 L
2025 2695 mt 1936 2694 L
c19
-90 -26 64 100 1988 2622 3 MP
PP
0 sg
1988 2622 mt 2052 2722 L
2052 2722 mt 1962 2696 L
c24
64 60 -90 -26 2052 2722 3 MP
PP
0 sg
2052 2722 mt 1962 2696 L
1962 2696 mt 2026 2756 L
/c37 { 0.875000 1.000000 0.125000 sr} bdef
c37
-90 -92 64 344 1975 2018 3 MP
PP
0 sg
1975 2018 mt 2039 2362 L
2039 2362 mt 1949 2270 L
c34
64 242 -90 -92 2039 2362 3 MP
PP
0 sg
2039 2362 mt 1949 2270 L
1949 2270 mt 2013 2512 L
c11
65 -21 -90 0 1961 2715 3 MP
PP
0 sg
1961 2715 mt 1871 2715 L
1871 2715 mt 1936 2694 L
c11
-90 0 64 -18 1897 2733 3 MP
PP
0 sg
1897 2733 mt 1961 2715 L
1961 2715 mt 1871 2715 L
c12
64 -18 -90 -3 1987 2736 3 MP
PP
0 sg
1987 2736 mt 1897 2733 L
1897 2733 mt 1961 2715 L
c12
-90 -3 64 -15 1923 2751 3 MP
PP
0 sg
1923 2751 mt 1987 2736 L
1987 2736 mt 1897 2733 L
c12
64 -15 -90 -5 2013 2756 3 MP
PP
0 sg
2013 2756 mt 1923 2751 L
1923 2751 mt 1987 2736 L
c24
-90 -17 64 60 1962 2696 3 MP
PP
0 sg
1962 2696 mt 2026 2756 L
2026 2756 mt 1936 2739 L
c13
-90 -5 64 -9 1949 2765 3 MP
PP
0 sg
1949 2765 mt 2013 2756 L
2013 2756 mt 1923 2751 L
c17
64 32 -90 -17 2026 2756 3 MP
PP
0 sg
2026 2756 mt 1936 2739 L
1936 2739 mt 2000 2771 L
/c38 { 0.312500 1.000000 0.687500 sr} bdef
c38
-89 -53 64 242 1949 2270 3 MP
PP
0 sg
1949 2270 mt 2013 2512 L
2013 2512 mt 1924 2459 L
c8
64 -23 -89 8 1986 2593 3 MP
PP
0 sg
1986 2593 mt 1897 2601 L
1897 2601 mt 1961 2578 L
c8
-89 8 64 -23 1922 2616 3 MP
PP
0 sg
1922 2616 mt 1986 2593 L
1986 2593 mt 1897 2601 L
c35
64 163 -89 -53 2013 2512 3 MP
PP
0 sg
2013 2512 mt 1924 2459 L
1924 2459 mt 1988 2622 L
c36
64 534 -90 -196 2001 1680 3 MP
PP
0 sg
2001 1680 mt 1911 1484 L
1911 1484 mt 1975 2018 L
c12
64 -16 -90 -2 1923 2751 3 MP
PP
0 sg
1923 2751 mt 1833 2749 L
1833 2749 mt 1897 2733 L
c12
-90 -2 64 -10 1859 2761 3 MP
PP
0 sg
1859 2761 mt 1923 2751 L
1923 2751 mt 1833 2749 L
c13
64 -10 -90 -4 1949 2765 3 MP
PP
0 sg
1949 2765 mt 1859 2761 L
1859 2761 mt 1923 2751 L
c13
-90 -4 64 -1 1885 2766 3 MP
PP
0 sg
1885 2766 mt 1949 2765 L
1949 2765 mt 1859 2761 L
c15
64 -1 -90 -7 1975 2773 3 MP
PP
0 sg
1975 2773 mt 1885 2766 L
1885 2766 mt 1949 2765 L
c17
-90 -11 64 32 1936 2739 3 MP
PP
0 sg
1936 2739 mt 2000 2771 L
2000 2771 mt 1910 2760 L
c14
65 13 -90 -11 2000 2771 3 MP
PP
0 sg
2000 2771 mt 1910 2760 L
1910 2760 mt 1975 2773 L
c25
-90 -30 64 163 1924 2459 3 MP
PP
0 sg
1924 2459 mt 1988 2622 L
1988 2622 mt 1898 2592 L
c8
65 -23 -90 8 1922 2616 3 MP
PP
0 sg
1922 2616 mt 1832 2624 L
1832 2624 mt 1897 2601 L
c8
-90 8 64 -23 1858 2639 3 MP
PP
0 sg
1858 2639 mt 1922 2616 L
1922 2616 mt 1832 2624 L
c9
64 -23 -90 6 1948 2633 3 MP
PP
0 sg
1948 2633 mt 1858 2639 L
1858 2639 mt 1922 2616 L
c9
-90 6 64 -23 1884 2656 3 MP
PP
0 sg
1884 2656 mt 1948 2633 L
1948 2633 mt 1858 2639 L
c10
64 -23 -90 4 1974 2652 3 MP
PP
0 sg
1974 2652 mt 1884 2656 L
1884 2656 mt 1948 2633 L
c10
-90 4 64 -22 1910 2674 3 MP
PP
0 sg
1910 2674 mt 1974 2652 L
1974 2652 mt 1884 2656 L
c19
64 104 -90 -30 1988 2622 3 MP
PP
0 sg
1988 2622 mt 1898 2592 L
1898 2592 mt 1962 2696 L
/c39 { 1.000000 0.000000 0.000000 sr} bdef
c39
-90 -127 64 534 1911 1484 3 MP
PP
0 sg
1911 1484 mt 1975 2018 L
1975 2018 mt 1885 1891 L
c37
64 379 -90 -127 1975 2018 3 MP
PP
0 sg
1975 2018 mt 1885 1891 L
1885 1891 mt 1949 2270 L
c14
-90 -7 65 13 1910 2760 3 MP
PP
0 sg
1910 2760 mt 1975 2773 L
1975 2773 mt 1885 2766 L
c9
64 -23 -90 6 1884 2656 3 MP
PP
0 sg
1884 2656 mt 1794 2662 L
1794 2662 mt 1858 2639 L
c9
-90 6 64 -22 1820 2678 3 MP
PP
0 sg
1820 2678 mt 1884 2656 L
1884 2656 mt 1794 2662 L
c10
64 -22 -90 4 1910 2674 3 MP
PP
0 sg
1910 2674 mt 1820 2678 L
1820 2678 mt 1884 2656 L
c10
-90 4 64 -22 1846 2696 3 MP
PP
0 sg
1846 2696 mt 1910 2674 L
1910 2674 mt 1820 2678 L
c10
64 -22 -90 2 1936 2694 3 MP
PP
0 sg
1936 2694 mt 1846 2696 L
1846 2696 mt 1910 2674 L
c19
-90 -17 64 104 1898 2592 3 MP
PP
0 sg
1898 2592 mt 1962 2696 L
1962 2696 mt 1872 2679 L
c10
-90 2 65 -21 1871 2715 3 MP
PP
0 sg
1871 2715 mt 1936 2694 L
1936 2694 mt 1846 2696 L
c24
64 60 -90 -17 1962 2696 3 MP
PP
0 sg
1962 2696 mt 1872 2679 L
1872 2679 mt 1936 2739 L
/c40 { 1.000000 0.875000 0.000000 sr} bdef
c40
-89 -69 64 379 1885 1891 3 MP
PP
0 sg
1885 1891 mt 1949 2270 L
1949 2270 mt 1860 2201 L
c38
64 258 -89 -69 1949 2270 3 MP
PP
0 sg
1949 2270 mt 1860 2201 L
1860 2201 mt 1924 2459 L
c10
64 -21 -89 2 1871 2715 3 MP
PP
0 sg
1871 2715 mt 1782 2717 L
1782 2717 mt 1846 2696 L
c11
-89 2 64 -19 1807 2734 3 MP
PP
0 sg
1807 2734 mt 1871 2715 L
1871 2715 mt 1782 2717 L
c11
64 -19 -90 1 1897 2733 3 MP
PP
0 sg
1897 2733 mt 1807 2734 L
1807 2734 mt 1871 2715 L
c11
-90 1 64 -16 1833 2749 3 MP
PP
0 sg
1833 2749 mt 1897 2733 L
1897 2733 mt 1807 2734 L
c24
-90 -9 64 60 1872 2679 3 MP
PP
0 sg
1872 2679 mt 1936 2739 L
1936 2739 mt 1846 2730 L
c17
64 30 -90 -9 1936 2739 3 MP
PP
0 sg
1936 2739 mt 1846 2730 L
1846 2730 mt 1910 2760 L
/c41 { 0.437500 1.000000 0.562500 sr} bdef
c41
-90 -34 64 258 1860 2201 3 MP
PP
0 sg
1860 2201 mt 1924 2459 L
1924 2459 mt 1834 2425 L
c25
64 167 -90 -34 1924 2459 3 MP
PP
0 sg
1924 2459 mt 1834 2425 L
1834 2425 mt 1898 2592 L
c39
64 558 -90 -151 1911 1484 3 MP
PP
0 sg
1911 1484 mt 1821 1333 L
1821 1333 mt 1885 1891 L
c11
64 -16 -90 1 1833 2749 3 MP
PP
0 sg
1833 2749 mt 1743 2750 L
1743 2750 mt 1807 2734 L
c12
-90 1 64 -11 1769 2760 3 MP
PP
0 sg
1769 2760 mt 1833 2749 L
1833 2749 mt 1743 2750 L
c12
64 -11 -90 -1 1859 2761 3 MP
PP
0 sg
1859 2761 mt 1769 2760 L
1769 2760 mt 1833 2749 L
c16
-89 -5 64 30 1846 2730 3 MP
PP
0 sg
1846 2730 mt 1910 2760 L
1910 2760 mt 1821 2755 L
c13
-90 -1 64 -3 1795 2764 3 MP
PP
0 sg
1795 2764 mt 1859 2761 L
1859 2761 mt 1769 2760 L
c13
64 -3 -90 -2 1885 2766 3 MP
PP
0 sg
1885 2766 mt 1795 2764 L
1795 2764 mt 1859 2761 L
c14
64 11 -89 -5 1910 2760 3 MP
PP
0 sg
1910 2760 mt 1821 2755 L
1821 2755 mt 1885 2766 L
c25
-90 -16 64 167 1834 2425 3 MP
PP
0 sg
1834 2425 mt 1898 2592 L
1898 2592 mt 1808 2576 L
c8
64 -23 -90 8 1858 2639 3 MP
PP
0 sg
1858 2639 mt 1768 2647 L
1768 2647 mt 1832 2624 L
c8
-90 8 64 -23 1794 2662 3 MP
PP
0 sg
1794 2662 mt 1858 2639 L
1858 2639 mt 1768 2647 L
c19
64 103 -90 -16 1898 2592 3 MP
PP
0 sg
1898 2592 mt 1808 2576 L
1808 2576 mt 1872 2679 L
/c42 { 0.750000 0.000000 0.000000 sr} bdef
c42
-90 -92 64 558 1821 1333 3 MP
PP
0 sg
1821 1333 mt 1885 1891 L
1885 1891 mt 1795 1799 L
c40
65 402 -90 -92 1885 1891 3 MP
PP
0 sg
1885 1891 mt 1795 1799 L
1795 1799 mt 1860 2201 L
c15
-90 -2 64 11 1821 2755 3 MP
PP
0 sg
1821 2755 mt 1885 2766 L
1885 2766 mt 1795 2764 L
c8
64 -24 -90 9 1794 2662 3 MP
PP
0 sg
1794 2662 mt 1704 2671 L
1704 2671 mt 1768 2647 L
c8
-90 9 64 -23 1730 2685 3 MP
PP
0 sg
1730 2685 mt 1794 2662 L
1794 2662 mt 1704 2671 L
c9
64 -23 -90 7 1820 2678 3 MP
PP
0 sg
1820 2678 mt 1730 2685 L
1730 2685 mt 1794 2662 L
c19
-90 -7 64 103 1808 2576 3 MP
PP
0 sg
1808 2576 mt 1872 2679 L
1872 2679 mt 1782 2672 L
c9
-90 7 64 -23 1756 2701 3 MP
PP
0 sg
1756 2701 mt 1820 2678 L
1820 2678 mt 1730 2685 L
c10
64 -23 -90 5 1846 2696 3 MP
PP
0 sg
1846 2696 mt 1756 2701 L
1756 2701 mt 1820 2678 L
c10
-90 5 64 -21 1782 2717 3 MP
PP
0 sg
1782 2717 mt 1846 2696 L
1846 2696 mt 1756 2701 L
c24
64 58 -90 -7 1872 2679 3 MP
PP
0 sg
1872 2679 mt 1782 2672 L
1782 2672 mt 1846 2730 L
/c43 { 1.000000 0.750000 0.000000 sr} bdef
c43
-90 -43 65 402 1795 1799 3 MP
PP
0 sg
1795 1799 mt 1860 2201 L
1860 2201 mt 1770 2158 L
c41
64 267 -90 -43 1860 2201 3 MP
PP
0 sg
1860 2201 mt 1770 2158 L
1770 2158 mt 1834 2425 L
c10
64 -21 -90 5 1782 2717 3 MP
PP
0 sg
1782 2717 mt 1692 2722 L
1692 2722 mt 1756 2701 L
c10
-90 5 65 -20 1717 2737 3 MP
PP
0 sg
1717 2737 mt 1782 2717 L
1782 2717 mt 1692 2722 L
c11
65 -20 -90 3 1807 2734 3 MP
PP
0 sg
1807 2734 mt 1717 2737 L
1717 2737 mt 1782 2717 L
c24
-90 -2 64 58 1782 2672 3 MP
PP
0 sg
1782 2672 mt 1846 2730 L
1846 2730 mt 1756 2728 L
c11
-90 3 64 -16 1743 2750 3 MP
PP
0 sg
1743 2750 mt 1807 2734 L
1807 2734 mt 1717 2737 L
c16
65 27 -90 -2 1846 2730 3 MP
PP
0 sg
1846 2730 mt 1756 2728 L
1756 2728 mt 1821 2755 L
/c44 { 0.500000 1.000000 0.500000 sr} bdef
c44
-90 -17 64 267 1770 2158 3 MP
PP
0 sg
1770 2158 mt 1834 2425 L
1834 2425 mt 1744 2408 L
c25
64 168 -90 -17 1834 2425 3 MP
PP
0 sg
1834 2425 mt 1744 2408 L
1744 2408 mt 1808 2576 L
c42
64 573 -90 -107 1821 1333 3 MP
PP
0 sg
1821 1333 mt 1731 1226 L
1731 1226 mt 1795 1799 L
c11
64 -18 -90 5 1743 2750 3 MP
PP
0 sg
1743 2750 mt 1653 2755 L
1653 2755 mt 1717 2737 L
c11
-90 5 64 -14 1679 2764 3 MP
PP
0 sg
1679 2764 mt 1743 2750 L
1743 2750 mt 1653 2755 L
c12
64 -14 -90 4 1769 2760 3 MP
PP
0 sg
1769 2760 mt 1679 2764 L
1679 2764 mt 1743 2750 L
c16
-90 1 65 27 1756 2728 3 MP
PP
0 sg
1756 2728 mt 1821 2755 L
1821 2755 mt 1731 2756 L
c12
-90 4 64 -6 1705 2766 3 MP
PP
0 sg
1705 2766 mt 1769 2760 L
1769 2760 mt 1679 2764 L
c13
64 -6 -90 2 1795 2764 3 MP
PP
0 sg
1795 2764 mt 1705 2766 L
1705 2766 mt 1769 2760 L
c15
64 8 -90 1 1821 2755 3 MP
PP
0 sg
1821 2755 mt 1731 2756 L
1731 2756 mt 1795 2764 L
c25
-90 -4 64 168 1744 2408 3 MP
PP
0 sg
1744 2408 mt 1808 2576 L
1808 2576 mt 1718 2572 L
c19
64 100 -90 -4 1808 2576 3 MP
PP
0 sg
1808 2576 mt 1718 2572 L
1718 2572 mt 1782 2672 L
/c45 { 0.562500 0.000000 0.000000 sr} bdef
c45
-89 -54 64 573 1731 1226 3 MP
PP
0 sg
1731 1226 mt 1795 1799 L
1795 1799 mt 1706 1745 L
c43
64 413 -89 -54 1795 1799 3 MP
PP
0 sg
1795 1799 mt 1706 1745 L
1706 1745 mt 1770 2158 L
c15
-90 2 64 8 1731 2756 3 MP
PP
0 sg
1731 2756 mt 1795 2764 L
1795 2764 mt 1705 2766 L
c8
64 -23 -90 9 1730 2685 3 MP
PP
0 sg
1730 2685 mt 1640 2694 L
1640 2694 mt 1704 2671 L
c19
-90 3 64 100 1718 2572 3 MP
PP
0 sg
1718 2572 mt 1782 2672 L
1782 2672 mt 1692 2675 L
c8
-90 9 64 -23 1666 2708 3 MP
PP
0 sg
1666 2708 mt 1730 2685 L
1730 2685 mt 1640 2694 L
c9
64 -23 -90 7 1756 2701 3 MP
PP
0 sg
1756 2701 mt 1666 2708 L
1666 2708 mt 1730 2685 L
c9
-90 7 64 -21 1692 2722 3 MP
PP
0 sg
1692 2722 mt 1756 2701 L
1756 2701 mt 1666 2708 L
c24
64 53 -90 3 1782 2672 3 MP
PP
0 sg
1782 2672 mt 1692 2675 L
1692 2675 mt 1756 2728 L
/c46 { 1.000000 0.687500 0.000000 sr} bdef
c46
-90 -16 64 413 1706 1745 3 MP
PP
0 sg
1706 1745 mt 1770 2158 L
1770 2158 mt 1680 2142 L
c44
64 266 -90 -16 1770 2158 3 MP
PP
0 sg
1770 2158 mt 1680 2142 L
1680 2142 mt 1744 2408 L
c9
64 -22 -90 8 1692 2722 3 MP
PP
0 sg
1692 2722 mt 1602 2730 L
1602 2730 mt 1666 2708 L
c9
-90 8 64 -21 1628 2743 3 MP
PP
0 sg
1628 2743 mt 1692 2722 L
1692 2722 mt 1602 2730 L
c10
64 -21 -89 6 1717 2737 3 MP
PP
0 sg
1717 2737 mt 1628 2743 L
1628 2743 mt 1692 2722 L
c18
-89 5 64 53 1692 2675 3 MP
PP
0 sg
1692 2675 mt 1756 2728 L
1756 2728 mt 1667 2733 L
c10
-89 6 64 -18 1653 2755 3 MP
PP
0 sg
1653 2755 mt 1717 2737 L
1717 2737 mt 1628 2743 L
c16
64 23 -89 5 1756 2728 3 MP
PP
0 sg
1756 2728 mt 1667 2733 L
1667 2733 mt 1731 2756 L
c44
-90 2 64 266 1680 2142 3 MP
PP
0 sg
1680 2142 mt 1744 2408 L
1744 2408 mt 1654 2410 L
c25
64 162 -90 2 1744 2408 3 MP
PP
0 sg
1744 2408 mt 1654 2410 L
1654 2410 mt 1718 2572 L
c45
65 580 -90 -61 1731 1226 3 MP
PP
0 sg
1731 1226 mt 1641 1165 L
1641 1165 mt 1706 1745 L
c10
65 -20 -90 8 1653 2755 3 MP
PP
0 sg
1653 2755 mt 1563 2763 L
1563 2763 mt 1628 2743 L
c10
-90 8 64 -16 1589 2771 3 MP
PP
0 sg
1589 2771 mt 1653 2755 L
1653 2755 mt 1563 2763 L
c11
64 -16 -90 7 1679 2764 3 MP
PP
0 sg
1679 2764 mt 1589 2771 L
1589 2771 mt 1653 2755 L
c14
-90 6 64 23 1667 2733 3 MP
PP
0 sg
1667 2733 mt 1731 2756 L
1731 2756 mt 1641 2762 L
c12
-90 7 64 -8 1615 2772 3 MP
PP
0 sg
1615 2772 mt 1679 2764 L
1679 2764 mt 1589 2771 L
c12
64 -8 -90 6 1705 2766 3 MP
PP
0 sg
1705 2766 mt 1615 2772 L
1615 2772 mt 1679 2764 L
c15
64 4 -90 6 1731 2756 3 MP
PP
0 sg
1731 2756 mt 1641 2762 L
1641 2762 mt 1705 2766 L
c25
-90 10 64 162 1654 2410 3 MP
PP
0 sg
1654 2410 mt 1718 2572 L
1718 2572 mt 1628 2582 L
c19
64 93 -90 10 1718 2572 3 MP
PP
0 sg
1718 2572 mt 1628 2582 L
1628 2582 mt 1692 2675 L
/c47 { 0.500000 0.000000 0.000000 sr} bdef
c47
-90 -17 65 580 1641 1165 3 MP
PP
0 sg
1641 1165 mt 1706 1745 L
1706 1745 mt 1616 1728 L
c46
64 414 -90 -17 1706 1745 3 MP
PP
0 sg
1706 1745 mt 1616 1728 L
1616 1728 mt 1680 2142 L
c13
-90 6 64 4 1641 2762 3 MP
PP
0 sg
1641 2762 mt 1705 2766 L
1705 2766 mt 1615 2772 L
c20
-90 11 64 93 1628 2582 3 MP
PP
0 sg
1628 2582 mt 1692 2675 L
1692 2675 mt 1602 2686 L
c8
64 -23 -90 9 1666 2708 3 MP
PP
0 sg
1666 2708 mt 1576 2717 L
1576 2717 mt 1640 2694 L
c8
-90 9 64 -22 1602 2730 3 MP
PP
0 sg
1602 2730 mt 1666 2708 L
1666 2708 mt 1576 2717 L
c18
65 47 -90 11 1692 2675 3 MP
PP
0 sg
1692 2675 mt 1602 2686 L
1602 2686 mt 1667 2733 L
c46
-90 10 64 414 1616 1728 3 MP
PP
0 sg
1616 1728 mt 1680 2142 L
1680 2142 mt 1590 2152 L
c44
64 258 -90 10 1680 2142 3 MP
PP
0 sg
1680 2142 mt 1590 2152 L
1590 2152 mt 1654 2410 L
c8
64 -23 -90 10 1602 2730 3 MP
PP
0 sg
1602 2730 mt 1512 2740 L
1512 2740 mt 1576 2717 L
c8
-90 10 64 -22 1538 2752 3 MP
PP
0 sg
1538 2752 mt 1602 2730 L
1602 2730 mt 1512 2740 L
c9
64 -22 -90 9 1628 2743 3 MP
PP
0 sg
1628 2743 mt 1538 2752 L
1538 2752 mt 1602 2730 L
c18
-90 12 65 47 1602 2686 3 MP
PP
0 sg
1602 2686 mt 1667 2733 L
1667 2733 mt 1577 2745 L
c9
-90 9 65 -20 1563 2763 3 MP
PP
0 sg
1563 2763 mt 1628 2743 L
1628 2743 mt 1538 2752 L
c14
64 17 -90 12 1667 2733 3 MP
PP
0 sg
1667 2733 mt 1577 2745 L
1577 2745 mt 1641 2762 L
c41
-90 19 64 258 1590 2152 3 MP
PP
0 sg
1590 2152 mt 1654 2410 L
1654 2410 mt 1564 2429 L
c25
64 153 -90 19 1654 2410 3 MP
PP
0 sg
1654 2410 mt 1564 2429 L
1564 2429 mt 1628 2582 L
c47
64 580 -89 -17 1641 1165 3 MP
PP
0 sg
1641 1165 mt 1552 1148 L
1552 1148 mt 1616 1728 L
c9
64 -22 -89 11 1563 2763 3 MP
PP
0 sg
1563 2763 mt 1474 2774 L
1474 2774 mt 1538 2752 L
c9
-89 11 64 -18 1499 2781 3 MP
PP
0 sg
1499 2781 mt 1563 2763 L
1563 2763 mt 1474 2774 L
c10
64 -18 -90 10 1589 2771 3 MP
PP
0 sg
1589 2771 mt 1499 2781 L
1499 2781 mt 1563 2763 L
c15
-90 11 64 17 1577 2745 3 MP
PP
0 sg
1577 2745 mt 1641 2762 L
1641 2762 mt 1551 2773 L
c11
-90 10 64 -12 1525 2783 3 MP
PP
0 sg
1525 2783 mt 1589 2771 L
1589 2771 mt 1499 2781 L
c12
64 -12 -90 11 1615 2772 3 MP
PP
0 sg
1615 2772 mt 1525 2783 L
1525 2783 mt 1589 2771 L
c13
64 -1 -90 11 1641 2762 3 MP
PP
0 sg
1641 2762 mt 1551 2773 L
1551 2773 mt 1615 2772 L
c35
-90 21 64 153 1564 2429 3 MP
PP
0 sg
1564 2429 mt 1628 2582 L
1628 2582 mt 1538 2603 L
c20
64 83 -90 21 1628 2582 3 MP
PP
0 sg
1628 2582 mt 1538 2603 L
1538 2603 mt 1602 2686 L
c47
-90 22 64 580 1552 1148 3 MP
PP
0 sg
1552 1148 mt 1616 1728 L
1616 1728 mt 1526 1750 L
c46
64 402 -90 22 1616 1728 3 MP
PP
0 sg
1616 1728 mt 1526 1750 L
1526 1750 mt 1590 2152 L
c12
-90 11 64 -1 1551 2773 3 MP
PP
0 sg
1551 2773 mt 1615 2772 L
1615 2772 mt 1525 2783 L
c22
-89 20 64 83 1538 2603 3 MP
PP
0 sg
1538 2603 mt 1602 2686 L
1602 2686 mt 1513 2706 L
c18
64 39 -89 20 1602 2686 3 MP
PP
0 sg
1602 2686 mt 1513 2706 L
1513 2706 mt 1577 2745 L
c43
-90 35 64 402 1526 1750 3 MP
PP
0 sg
1526 1750 mt 1590 2152 L
1590 2152 mt 1500 2187 L
c41
64 242 -90 35 1590 2152 3 MP
PP
0 sg
1590 2152 mt 1500 2187 L
1500 2187 mt 1564 2429 L
c8
64 -24 -90 12 1538 2752 3 MP
PP
0 sg
1538 2752 mt 1448 2764 L
1448 2764 mt 1512 2740 L
c8
-90 12 64 -22 1474 2774 3 MP
PP
0 sg
1474 2774 mt 1538 2752 L
1538 2752 mt 1448 2764 L
c16
-90 17 64 39 1513 2706 3 MP
PP
0 sg
1513 2706 mt 1577 2745 L
1577 2745 mt 1487 2762 L
c15
64 11 -90 17 1577 2745 3 MP
PP
0 sg
1577 2745 mt 1487 2762 L
1487 2762 mt 1551 2773 L
c38
-90 37 64 242 1500 2187 3 MP
PP
0 sg
1500 2187 mt 1564 2429 L
1564 2429 mt 1474 2466 L
c35
64 137 -90 37 1564 2429 3 MP
PP
0 sg
1564 2429 mt 1474 2466 L
1474 2466 mt 1538 2603 L
c47
64 573 -90 29 1552 1148 3 MP
PP
0 sg
1552 1148 mt 1462 1177 L
1462 1177 mt 1526 1750 L
c9
64 -20 -89 13 1499 2781 3 MP
PP
0 sg
1499 2781 mt 1410 2794 L
1410 2794 mt 1474 2774 L
c10
-89 13 64 -16 1435 2797 3 MP
PP
0 sg
1435 2797 mt 1499 2781 L
1499 2781 mt 1410 2794 L
c11
64 -16 -90 14 1525 2783 3 MP
PP
0 sg
1525 2783 mt 1435 2797 L
1435 2797 mt 1499 2781 L
c13
-90 16 64 11 1487 2762 3 MP
PP
0 sg
1487 2762 mt 1551 2773 L
1551 2773 mt 1461 2789 L
c12
64 -6 -90 16 1551 2773 3 MP
PP
0 sg
1551 2773 mt 1461 2789 L
1461 2789 mt 1525 2783 L
c31
-90 33 64 137 1474 2466 3 MP
PP
0 sg
1474 2466 mt 1538 2603 L
1538 2603 mt 1448 2636 L
c22
65 70 -90 33 1538 2603 3 MP
PP
0 sg
1538 2603 mt 1448 2636 L
1448 2636 mt 1513 2706 L
c45
-90 58 64 573 1462 1177 3 MP
PP
0 sg
1462 1177 mt 1526 1750 L
1526 1750 mt 1436 1808 L
c43
64 379 -90 58 1526 1750 3 MP
PP
0 sg
1526 1750 mt 1436 1808 L
1436 1808 mt 1500 2187 L
c11
-90 14 64 -6 1461 2789 3 MP
PP
0 sg
1461 2789 mt 1525 2783 L
1525 2783 mt 1435 2797 L
c24
-90 28 65 70 1448 2636 3 MP
PP
0 sg
1448 2636 mt 1513 2706 L
1513 2706 mt 1423 2734 L
c16
64 28 -90 28 1513 2706 3 MP
PP
0 sg
1513 2706 mt 1423 2734 L
1423 2734 mt 1487 2762 L
c40
-90 59 64 379 1436 1808 3 MP
PP
0 sg
1436 1808 mt 1500 2187 L
1500 2187 mt 1410 2246 L
c38
64 220 -90 59 1500 2187 3 MP
PP
0 sg
1500 2187 mt 1410 2246 L
1410 2246 mt 1474 2466 L
c8
64 -23 -90 13 1474 2774 3 MP
PP
0 sg
1474 2774 mt 1384 2787 L
1384 2787 mt 1448 2764 L
c9
-90 13 64 -20 1410 2794 3 MP
PP
0 sg
1410 2794 mt 1474 2774 L
1474 2774 mt 1384 2787 L
c14
-90 23 64 28 1423 2734 3 MP
PP
0 sg
1423 2734 mt 1487 2762 L
1487 2762 mt 1397 2785 L
c13
64 4 -90 23 1487 2762 3 MP
PP
0 sg
1487 2762 mt 1397 2785 L
1397 2785 mt 1461 2789 L
c34
-90 52 64 220 1410 2246 3 MP
PP
0 sg
1410 2246 mt 1474 2466 L
1474 2466 mt 1384 2518 L
c31
64 118 -90 52 1474 2466 3 MP
PP
0 sg
1474 2466 mt 1384 2518 L
1384 2518 mt 1448 2636 L
c45
64 558 -90 73 1462 1177 3 MP
PP
0 sg
1462 1177 mt 1372 1250 L
1372 1250 mt 1436 1808 L
c9
64 -23 -90 16 1410 2794 3 MP
PP
0 sg
1410 2794 mt 1320 2810 L
1320 2810 mt 1384 2787 L
c9
-90 16 65 -20 1345 2814 3 MP
PP
0 sg
1345 2814 mt 1410 2794 L
1410 2794 mt 1320 2810 L
c10
65 -20 -90 17 1435 2797 3 MP
PP
0 sg
1435 2797 mt 1345 2814 L
1345 2814 mt 1410 2794 L
c12
-90 19 64 4 1397 2785 3 MP
PP
0 sg
1397 2785 mt 1461 2789 L
1461 2789 mt 1371 2808 L
c11
64 -11 -90 19 1461 2789 3 MP
PP
0 sg
1461 2789 mt 1371 2808 L
1371 2808 mt 1435 2797 L
c27
-89 44 64 118 1384 2518 3 MP
PP
0 sg
1384 2518 mt 1448 2636 L
1448 2636 mt 1359 2680 L
c24
64 54 -89 44 1448 2636 3 MP
PP
0 sg
1448 2636 mt 1359 2680 L
1359 2680 mt 1423 2734 L
c42
-90 94 64 558 1372 1250 3 MP
PP
0 sg
1372 1250 mt 1436 1808 L
1436 1808 mt 1346 1902 L
c40
64 344 -90 94 1436 1808 3 MP
PP
0 sg
1436 1808 mt 1346 1902 L
1346 1902 mt 1410 2246 L
c10
-90 17 64 -11 1371 2808 3 MP
PP
0 sg
1371 2808 mt 1435 2797 L
1435 2797 mt 1345 2814 L
c17
-90 35 64 54 1359 2680 3 MP
PP
0 sg
1359 2680 mt 1423 2734 L
1423 2734 mt 1333 2769 L
c14
64 16 -90 35 1423 2734 3 MP
PP
0 sg
1423 2734 mt 1333 2769 L
1333 2769 mt 1397 2785 L
c37
-90 82 64 344 1346 1902 3 MP
PP
0 sg
1346 1902 mt 1410 2246 L
1410 2246 mt 1320 2328 L
c34
64 190 -90 82 1410 2246 3 MP
PP
0 sg
1410 2246 mt 1320 2328 L
1320 2328 mt 1384 2518 L
c13
-90 28 64 16 1333 2769 3 MP
PP
0 sg
1333 2769 mt 1397 2785 L
1397 2785 mt 1307 2813 L
c9
64 -23 -89 19 1345 2814 3 MP
PP
0 sg
1345 2814 mt 1256 2833 L
1256 2833 mt 1320 2810 L
c12
64 -5 -90 28 1397 2785 3 MP
PP
0 sg
1397 2785 mt 1307 2813 L
1307 2813 mt 1371 2808 L
c30
-90 67 64 190 1320 2328 3 MP
PP
0 sg
1320 2328 mt 1384 2518 L
1384 2518 mt 1294 2585 L
c27
65 95 -90 67 1384 2518 3 MP
PP
0 sg
1384 2518 mt 1294 2585 L
1294 2585 mt 1359 2680 L
c42
64 534 -90 118 1372 1250 3 MP
PP
0 sg
1372 1250 mt 1282 1368 L
1282 1368 mt 1346 1902 L
c9
-89 19 64 -17 1281 2831 3 MP
PP
0 sg
1281 2831 mt 1345 2814 L
1345 2814 mt 1256 2833 L
c10
64 -17 -90 23 1371 2808 3 MP
PP
0 sg
1371 2808 mt 1281 2831 L
1281 2831 mt 1345 2814 L
c11
-90 23 64 -5 1307 2813 3 MP
PP
0 sg
1307 2813 mt 1371 2808 L
1371 2808 mt 1281 2831 L
c22
-90 52 65 95 1294 2585 3 MP
PP
0 sg
1294 2585 mt 1359 2680 L
1359 2680 mt 1269 2732 L
c17
64 37 -90 52 1359 2680 3 MP
PP
0 sg
1359 2680 mt 1269 2732 L
1269 2732 mt 1333 2769 L
c39
-90 126 64 534 1282 1368 3 MP
PP
0 sg
1282 1368 mt 1346 1902 L
1346 1902 mt 1256 2028 L
c37
64 300 -90 126 1346 1902 3 MP
PP
0 sg
1346 1902 mt 1256 2028 L
1256 2028 mt 1320 2328 L
c14
-90 40 64 37 1269 2732 3 MP
PP
0 sg
1269 2732 mt 1333 2769 L
1333 2769 mt 1243 2809 L
c13
64 4 -90 40 1333 2769 3 MP
PP
0 sg
1333 2769 mt 1243 2809 L
1243 2809 mt 1307 2813 L
c33
-90 102 64 300 1256 2028 3 MP
PP
0 sg
1256 2028 mt 1320 2328 L
1320 2328 mt 1230 2430 L
c30
64 155 -90 102 1320 2328 3 MP
PP
0 sg
1320 2328 mt 1230 2430 L
1230 2430 mt 1294 2585 L
c12
-90 32 64 4 1243 2809 3 MP
PP
0 sg
1243 2809 mt 1307 2813 L
1307 2813 mt 1217 2845 L
c9
65 -24 -90 26 1281 2831 3 MP
PP
0 sg
1281 2831 mt 1191 2857 L
1191 2857 mt 1256 2833 L
c11
64 -14 -90 32 1307 2813 3 MP
PP
0 sg
1307 2813 mt 1217 2845 L
1217 2845 mt 1281 2831 L
c26
-89 79 64 155 1230 2430 3 MP
PP
0 sg
1230 2430 mt 1294 2585 L
1294 2585 mt 1205 2664 L
c22
64 68 -89 79 1294 2585 3 MP
PP
0 sg
1294 2585 mt 1205 2664 L
1205 2664 mt 1269 2732 L
c39
64 497 -90 163 1282 1368 3 MP
PP
0 sg
1282 1368 mt 1192 1531 L
1192 1531 mt 1256 2028 L
c9
-90 26 64 -14 1217 2845 3 MP
PP
0 sg
1217 2845 mt 1281 2831 L
1281 2831 mt 1191 2857 L
c18
-90 59 64 68 1205 2664 3 MP
PP
0 sg
1205 2664 mt 1269 2732 L
1269 2732 mt 1179 2791 L
c14
64 18 -90 59 1269 2732 3 MP
PP
0 sg
1269 2732 mt 1179 2791 L
1179 2791 mt 1243 2809 L
c36
-90 155 64 497 1192 1531 3 MP
PP
0 sg
1192 1531 mt 1256 2028 L
1256 2028 mt 1166 2183 L
c33
64 247 -90 155 1256 2028 3 MP
PP
0 sg
1256 2028 mt 1166 2183 L
1166 2183 mt 1230 2430 L
c13
-90 46 64 18 1179 2791 3 MP
PP
0 sg
1179 2791 mt 1243 2809 L
1243 2809 mt 1153 2855 L
c12
64 -10 -90 46 1243 2809 3 MP
PP
0 sg
1243 2809 mt 1153 2855 L
1153 2855 mt 1217 2845 L
c29
-89 119 64 247 1166 2183 3 MP
PP
0 sg
1166 2183 mt 1230 2430 L
1230 2430 mt 1141 2549 L
c26
64 115 -89 119 1230 2430 3 MP
PP
0 sg
1230 2430 mt 1141 2549 L
1141 2549 mt 1205 2664 L
c10
-90 35 64 -10 1153 2855 3 MP
PP
0 sg
1153 2855 mt 1217 2845 L
1217 2845 mt 1127 2880 L
c9
64 -23 -90 35 1217 2845 3 MP
PP
0 sg
1217 2845 mt 1127 2880 L
1127 2880 mt 1191 2857 L
c19
-90 88 64 115 1141 2549 3 MP
PP
0 sg
1141 2549 mt 1205 2664 L
1205 2664 mt 1115 2752 L
c18
64 39 -90 88 1205 2664 3 MP
PP
0 sg
1205 2664 mt 1115 2752 L
1115 2752 mt 1179 2791 L
c36
64 444 -90 208 1192 1531 3 MP
PP
0 sg
1192 1531 mt 1102 1739 L
1102 1739 mt 1166 2183 L
c14
-90 66 64 39 1115 2752 3 MP
PP
0 sg
1115 2752 mt 1179 2791 L
1179 2791 mt 1089 2857 L
c13
64 -2 -90 66 1179 2791 3 MP
PP
0 sg
1179 2791 mt 1089 2857 L
1089 2857 mt 1153 2855 L
c32
-90 179 64 444 1102 1739 3 MP
PP
0 sg
1102 1739 mt 1166 2183 L
1166 2183 mt 1076 2362 L
c29
65 187 -90 179 1166 2183 3 MP
PP
0 sg
1166 2183 mt 1076 2362 L
1076 2362 mt 1141 2549 L
c10
-90 48 64 -2 1089 2857 3 MP
PP
0 sg
1089 2857 mt 1153 2855 L
1153 2855 mt 1063 2903 L
c10
64 -23 -90 48 1153 2855 3 MP
PP
0 sg
1153 2855 mt 1063 2903 L
1063 2903 mt 1127 2880 L
c25
-90 132 65 187 1076 2362 3 MP
PP
0 sg
1076 2362 mt 1141 2549 L
1141 2549 mt 1051 2681 L
c19
64 71 -90 132 1141 2549 3 MP
PP
0 sg
1141 2549 mt 1051 2681 L
1051 2681 mt 1115 2752 L
c18
-90 97 64 71 1051 2681 3 MP
PP
0 sg
1051 2681 mt 1115 2752 L
1115 2752 mt 1025 2849 L
c14
64 8 -90 97 1115 2752 3 MP
PP
0 sg
1115 2752 mt 1025 2849 L
1025 2849 mt 1089 2857 L
c32
64 370 -90 253 1102 1739 3 MP
PP
0 sg
1102 1739 mt 1012 1992 L
1012 1992 mt 1076 2362 L
c11
-90 70 64 8 1025 2849 3 MP
PP
0 sg
1025 2849 mt 1089 2857 L
1089 2857 mt  999 2927 L
c10
64 -24 -90 70 1089 2857 3 MP
PP
0 sg
1089 2857 mt  999 2927 L
 999 2927 mt 1063 2903 L
c28
-89 199 64 370 1012 1992 3 MP
PP
0 sg
1012 1992 mt 1076 2362 L
1076 2362 mt  987 2561 L
c25
64 120 -89 199 1076 2362 3 MP
PP
0 sg
1076 2362 mt  987 2561 L
 987 2561 mt 1051 2681 L
c20
-90 143 64 120 987 2561 3 MP
PP
0 sg
 987 2561 mt 1051 2681 L
1051 2681 mt  961 2824 L
c18
64 25 -90 143 1051 2681 3 MP
PP
0 sg
1051 2681 mt  961 2824 L
 961 2824 mt 1025 2849 L
c13
-90 101 64 25 961 2824 3 MP
PP
0 sg
 961 2824 mt 1025 2849 L
1025 2849 mt  935 2950 L
c11
64 -23 -90 101 1025 2849 3 MP
PP
0 sg
1025 2849 mt  935 2950 L
 935 2950 mt  999 2927 L
c28
65 272 -90 297 1012 1992 3 MP
PP
0 sg
1012 1992 mt  922 2289 L
 922 2289 mt  987 2561 L
c23
-90 214 65 272 922 2289 3 MP
PP
0 sg
 922 2289 mt  987 2561 L
 987 2561 mt  897 2775 L
c20
64 49 -90 214 987 2561 3 MP
PP
0 sg
 987 2561 mt  897 2775 L
 897 2775 mt  961 2824 L
c14
-90 149 64 49 897 2775 3 MP
PP
0 sg
 897 2775 mt  961 2824 L
 961 2824 mt  871 2973 L
c13
64 -23 -90 149 961 2824 3 MP
PP
0 sg
 961 2824 mt  871 2973 L
 871 2973 mt  935 2950 L
c23
64 143 -89 343 922 2289 3 MP
PP
0 sg
 922 2289 mt  833 2632 L
 833 2632 mt  897 2775 L
c21
-90 221 64 143 833 2632 3 MP
PP
0 sg
 833 2632 mt  897 2775 L
 897 2775 mt  807 2996 L
c14
64 -23 -90 221 897 2775 3 MP
PP
0 sg
 897 2775 mt  807 2996 L
 807 2996 mt  871 2973 L
c21
64 -24 -90 388 833 2632 3 MP
PP
0 sg
 833 2632 mt  743 3020 L
 743 3020 mt  807 2996 L
gr


end %%Color Dict

eplot
%%EndObject

epage
end

showpage

%%Trailer
%%EOF
