%!PS-Adobe-3.0 EPSF-3.0
%%Creator: MATLAB, The MathWorks, Inc. Version 7.14.0.739 (R2012a). Operating System: Linux 4.13.0-26-generic #29~16.04.2-Ubuntu SMP Tue Jan 9 22:00:44 UTC 2018 x86_64.
%%Title: /home/remoto/ruben.laso/Dropbox/M2i/1Curso/EDP/Analitica/Tema 3/Ejercicio/solucion/figuras/ap1a_1.eps
%%CreationDate: 01/20/2018  12:40:18
%%DocumentNeededFonts: Helvetica
%%DocumentProcessColors: Cyan Magenta Yellow Black
%%LanguageLevel: 2
%%Pages: 1
%%BoundingBox:   113   252   480   589
%%EndComments

%%BeginProlog
% MathWorks dictionary
/MathWorks 160 dict begin
% definition operators
/bdef {bind def} bind def
/ldef {load def} bind def
/xdef {exch def} bdef
/xstore {exch store} bdef
% operator abbreviations
/c  /clip ldef
/cc /concat ldef
/cp /closepath ldef
/gr /grestore ldef
/gs /gsave ldef
/mt /moveto ldef
/np /newpath ldef
/cm /currentmatrix ldef
/sm /setmatrix ldef
/rm /rmoveto ldef
/rl /rlineto ldef
/s {show newpath} bdef
/sc {setcmykcolor} bdef
/sr /setrgbcolor ldef
/sg /setgray ldef
/w /setlinewidth ldef
/j /setlinejoin ldef
/cap /setlinecap ldef
/rc {rectclip} bdef
/rf {rectfill} bdef
% page state control
/pgsv () def
/bpage {/pgsv save def} bdef
/epage {pgsv restore} bdef
/bplot /gsave ldef
/eplot {stroke grestore} bdef
% orientation switch
/portraitMode 0 def /landscapeMode 1 def /rotateMode 2 def
% coordinate system mappings
/dpi2point 0 def
% font control
/FontSize 0 def
/FMS {/FontSize xstore findfont [FontSize 0 0 FontSize neg 0 0]
  makefont setfont} bdef
/reencode {exch dup where {pop load} {pop StandardEncoding} ifelse
  exch dup 3 1 roll findfont dup length dict begin
  { 1 index /FID ne {def}{pop pop} ifelse } forall
  /Encoding exch def currentdict end definefont pop} bdef
/isroman {findfont /CharStrings get /Agrave known} bdef
/FMSR {3 1 roll 1 index dup isroman {reencode} {pop pop} ifelse
  exch FMS} bdef
/csm {1 dpi2point div -1 dpi2point div scale neg translate
 dup landscapeMode eq {pop -90 rotate}
  {rotateMode eq {90 rotate} if} ifelse} bdef
% line types: solid, dotted, dashed, dotdash
/SO { [] 0 setdash } bdef
/DO { [.5 dpi2point mul 4 dpi2point mul] 0 setdash } bdef
/DA { [6 dpi2point mul] 0 setdash } bdef
/DD { [.5 dpi2point mul 4 dpi2point mul 6 dpi2point mul 4
  dpi2point mul] 0 setdash } bdef
% macros for lines and objects
/L {lineto stroke} bdef
/MP {3 1 roll moveto 1 sub {rlineto} repeat} bdef
/AP {{rlineto} repeat} bdef
/PDlw -1 def
/W {/PDlw currentlinewidth def setlinewidth} def
/PP {closepath eofill} bdef
/DP {closepath stroke} bdef
/MR {4 -2 roll moveto dup  0 exch rlineto exch 0 rlineto
  neg 0 exch rlineto closepath} bdef
/FR {MR stroke} bdef
/PR {MR fill} bdef
/L1i {{currentfile picstr readhexstring pop} image} bdef
/tMatrix matrix def
/MakeOval {newpath tMatrix currentmatrix pop translate scale
0 0 1 0 360 arc tMatrix setmatrix} bdef
/FO {MakeOval stroke} bdef
/PO {MakeOval fill} bdef
/PD {currentlinewidth 2 div 0 360 arc fill
   PDlw -1 eq not {PDlw w /PDlw -1 def} if} def
/FA {newpath tMatrix currentmatrix pop translate scale
  0 0 1 5 -2 roll arc tMatrix setmatrix stroke} bdef
/PA {newpath tMatrix currentmatrix pop	translate 0 0 moveto scale
  0 0 1 5 -2 roll arc closepath tMatrix setmatrix fill} bdef
/FAn {newpath tMatrix currentmatrix pop translate scale
  0 0 1 5 -2 roll arcn tMatrix setmatrix stroke} bdef
/PAn {newpath tMatrix currentmatrix pop translate 0 0 moveto scale
  0 0 1 5 -2 roll arcn closepath tMatrix setmatrix fill} bdef
/vradius 0 def /hradius 0 def /lry 0 def
/lrx 0 def /uly 0 def /ulx 0 def /rad 0 def
/MRR {/vradius xdef /hradius xdef /lry xdef /lrx xdef /uly xdef
  /ulx xdef newpath tMatrix currentmatrix pop ulx hradius add uly
  vradius add translate hradius vradius scale 0 0 1 180 270 arc 
  tMatrix setmatrix lrx hradius sub uly vradius add translate
  hradius vradius scale 0 0 1 270 360 arc tMatrix setmatrix
  lrx hradius sub lry vradius sub translate hradius vradius scale
  0 0 1 0 90 arc tMatrix setmatrix ulx hradius add lry vradius sub
  translate hradius vradius scale 0 0 1 90 180 arc tMatrix setmatrix
  closepath} bdef
/FRR {MRR stroke } bdef
/PRR {MRR fill } bdef
/MlrRR {/lry xdef /lrx xdef /uly xdef /ulx xdef /rad lry uly sub 2 div def
  newpath tMatrix currentmatrix pop ulx rad add uly rad add translate
  rad rad scale 0 0 1 90 270 arc tMatrix setmatrix lrx rad sub lry rad
  sub translate rad rad scale 0 0 1 270 90 arc tMatrix setmatrix
  closepath} bdef
/FlrRR {MlrRR stroke } bdef
/PlrRR {MlrRR fill } bdef
/MtbRR {/lry xdef /lrx xdef /uly xdef /ulx xdef /rad lrx ulx sub 2 div def
  newpath tMatrix currentmatrix pop ulx rad add uly rad add translate
  rad rad scale 0 0 1 180 360 arc tMatrix setmatrix lrx rad sub lry rad
  sub translate rad rad scale 0 0 1 0 180 arc tMatrix setmatrix
  closepath} bdef
/FtbRR {MtbRR stroke } bdef
/PtbRR {MtbRR fill } bdef
/stri 6 array def /dtri 6 array def
/smat 6 array def /dmat 6 array def
/tmat1 6 array def /tmat2 6 array def /dif 3 array def
/asub {/ind2 exch def /ind1 exch def dup dup
  ind1 get exch ind2 get sub exch } bdef
/tri_to_matrix {
  2 0 asub 3 1 asub 4 0 asub 5 1 asub
  dup 0 get exch 1 get 7 -1 roll astore } bdef
/compute_transform {
  dmat dtri tri_to_matrix tmat1 invertmatrix 
  smat stri tri_to_matrix tmat2 concatmatrix } bdef
/ds {stri astore pop} bdef
/dt {dtri astore pop} bdef
/db {2 copy /cols xdef /rows xdef mul dup 3 mul string
  currentfile 
  3 index 0 eq {/ASCIIHexDecode filter}
  {/ASCII85Decode filter 3 index 2 eq {/RunLengthDecode filter} if }
  ifelse exch readstring pop
  dup 0 3 index getinterval /rbmap xdef
  dup 2 index dup getinterval /gbmap xdef
  1 index dup 2 mul exch getinterval /bbmap xdef pop pop}bdef
/it {gs np dtri aload pop moveto lineto lineto cp c
  cols rows 8 compute_transform 
  rbmap gbmap bbmap true 3 colorimage gr}bdef
/il {newpath moveto lineto stroke}bdef
currentdict end def
%%EndProlog

%%BeginSetup
MathWorks begin

0 cap

end
%%EndSetup

%%Page: 1 1
%%BeginPageSetup
%%PageBoundingBox:   113   252   480   589
MathWorks begin
bpage
%%EndPageSetup

%%BeginObject: obj1
bplot

/dpi2point 12 def
portraitMode 1356 7068 csm

    0     0  4407  4034 rc
85 dict begin %Colortable dictionary
/c0 { 0.000000 0.000000 0.000000 sr} bdef
/c1 { 1.000000 1.000000 1.000000 sr} bdef
/c2 { 0.900000 0.000000 0.000000 sr} bdef
/c3 { 0.000000 0.820000 0.000000 sr} bdef
/c4 { 0.000000 0.000000 0.800000 sr} bdef
/c5 { 0.910000 0.820000 0.320000 sr} bdef
/c6 { 1.000000 0.260000 0.820000 sr} bdef
/c7 { 0.000000 0.820000 0.820000 sr} bdef
c0
1 j
1 sg
   0    0 4408 4035 rf
6 w
0 1816 -1276 -832 0 -1816 3750 2951 4 MP
PP
1276 832 0 1816 -1276 -832 0 -1816 3750 2951 5 MP stroke
1276 832 1664 -638 -1276 -832 2086 3589 4 MP
PP
-1664 638 1276 832 1664 -638 -1276 -832 2086 3589 5 MP stroke
0 1816 1664 -638 0 -1816 810 2757 4 MP
PP
-1664 638 0 1816 1664 -638 0 -1816 810 2757 5 MP stroke
4 w
DO
0 sg
2086 3589 mt  810 2757 L
 810 2757 mt  810  941 L
2918 3270 mt 1642 2438 L
1642 2438 mt 1642  622 L
3750 2951 mt 2474 2119 L
2474 2119 mt 2474  303 L
2086 3589 mt 3750 2951 L
3750 2951 mt 3750 1135 L
1831 3423 mt 3495 2785 L
3495 2785 mt 3495  968 L
1576 3257 mt 3240 2618 L
3240 2618 mt 3240  802 L
1320 3090 mt 2984 2452 L
2984 2452 mt 2984  635 L
1065 2924 mt 2729 2285 L
2729 2285 mt 2729  469 L
 810 2757 mt 2474 2119 L
2474 2119 mt 2474  303 L
 810 2420 mt 2474 1782 L
2474 1782 mt 3750 2614 L
 810 2057 mt 2474 1418 L
2474 1418 mt 3750 2250 L
 810 1694 mt 2474 1055 L
2474 1055 mt 3750 1887 L
 810 1330 mt 2474  692 L
2474  692 mt 3750 1524 L
 810  967 mt 2474  329 L
2474  329 mt 3750 1161 L
SO
6 w
2086 3589 mt 3750 2951 L
2086 3589 mt  810 2757 L
 810 2757 mt  810  941 L
2086 3589 mt 2124 3614 L
%%IncludeResource: font Helvetica
/Helvetica /ISOLatin1Encoding 120 FMSR

2153 3744 mt 
(0) s
2918 3270 mt 2957 3295 L
2985 3425 mt 
(0.5) s
3750 2951 mt 3789 2976 L
3818 3106 mt 
(1) s
2086 3589 mt 2044 3606 L
1946 3729 mt 
(0) s
1831 3423 mt 1789 3439 L
1590 3563 mt 
(0.2) s
1576 3257 mt 1533 3273 L
1335 3396 mt 
(0.4) s
1320 3090 mt 1278 3107 L
1080 3230 mt 
(0.6) s
1065 2924 mt 1022 2940 L
 824 3064 mt 
(0.8) s
 810 2757 mt  767 2774 L
 669 2897 mt 
(1) s
 810 2420 mt  771 2395 L
 676 2421 mt 
(0) s
 810 2057 mt  771 2032 L
 576 2057 mt 
(0.1) s
 810 1694 mt  771 1669 L
 576 1694 mt 
(0.2) s
 810 1330 mt  771 1305 L
 576 1331 mt 
(0.3) s
 810  967 mt  771  942 L
 576  967 mt 
(0.4) s
gs 810 303 2941 3287 rc
/c8 { 0.000000 0.000000 0.562500 sr} bdef
c8
-67 -265 87 -33 3663 2647 3 MP
PP
0 sg
3663 2647 mt 3750 2614 L
3750 2614 mt 3683 2349 L
c8
87 -34 -67 -264 3663 2647 3 MP
PP
0 sg
3663 2647 mt 3596 2383 L
3596 2383 mt 3683 2349 L
/c9 { 0.000000 0.312500 1.000000 sr} bdef
c9
-67 -243 87 -34 3596 2383 3 MP
PP
0 sg
3596 2383 mt 3683 2349 L
3683 2349 mt 3616 2106 L
c8
-67 -264 88 -34 3575 2681 3 MP
PP
0 sg
3575 2681 mt 3663 2647 L
3663 2647 mt 3596 2383 L
c9
88 -34 -68 -243 3596 2383 3 MP
PP
0 sg
3596 2383 mt 3528 2140 L
3528 2140 mt 3616 2106 L
/c10 { 0.000000 1.000000 1.000000 sr} bdef
c10
-67 -221 88 -34 3528 2140 3 MP
PP
0 sg
3528 2140 mt 3616 2106 L
3616 2106 mt 3549 1885 L
c8
88 -33 -67 -265 3575 2681 3 MP
PP
0 sg
3575 2681 mt 3508 2416 L
3508 2416 mt 3596 2383 L
c9
-68 -243 88 -33 3508 2416 3 MP
PP
0 sg
3508 2416 mt 3596 2383 L
3596 2383 mt 3528 2140 L
c8
-67 -265 87 -34 3488 2715 3 MP
PP
0 sg
3488 2715 mt 3575 2681 L
3575 2681 mt 3508 2416 L
c10
88 -34 -67 -221 3528 2140 3 MP
PP
0 sg
3528 2140 mt 3461 1919 L
3461 1919 mt 3549 1885 L
/c11 { 0.625000 1.000000 0.375000 sr} bdef
c11
-67 -197 88 -34 3461 1919 3 MP
PP
0 sg
3461 1919 mt 3549 1885 L
3549 1885 mt 3482 1688 L
c9
87 -33 -67 -243 3508 2416 3 MP
PP
0 sg
3508 2416 mt 3441 2173 L
3441 2173 mt 3528 2140 L
c10
-67 -221 87 -33 3441 2173 3 MP
PP
0 sg
3441 2173 mt 3528 2140 L
3528 2140 mt 3461 1919 L
c8
87 -34 -67 -265 3488 2715 3 MP
PP
0 sg
3488 2715 mt 3421 2450 L
3421 2450 mt 3508 2416 L
c9
-67 -243 87 -34 3421 2450 3 MP
PP
0 sg
3421 2450 mt 3508 2416 L
3508 2416 mt 3441 2173 L
c8
-67 -265 88 -33 3400 2748 3 MP
PP
0 sg
3400 2748 mt 3488 2715 L
3488 2715 mt 3421 2450 L
c11
88 -34 -67 -197 3461 1919 3 MP
PP
0 sg
3461 1919 mt 3394 1722 L
3394 1722 mt 3482 1688 L
/c12 { 1.000000 0.812500 0.000000 sr} bdef
c12
-68 -173 88 -34 3394 1722 3 MP
PP
0 sg
3394 1722 mt 3482 1688 L
3482 1688 mt 3414 1515 L
c10
87 -34 -67 -220 3441 2173 3 MP
PP
0 sg
3441 2173 mt 3374 1953 L
3374 1953 mt 3461 1919 L
c11
-67 -197 87 -34 3374 1953 3 MP
PP
0 sg
3374 1953 mt 3461 1919 L
3461 1919 mt 3394 1722 L
c9
88 -34 -68 -243 3421 2450 3 MP
PP
0 sg
3421 2450 mt 3353 2207 L
3353 2207 mt 3441 2173 L
c10
-67 -220 88 -34 3353 2207 3 MP
PP
0 sg
3353 2207 mt 3441 2173 L
3441 2173 mt 3374 1953 L
c8
88 -34 -67 -264 3400 2748 3 MP
PP
0 sg
3400 2748 mt 3333 2484 L
3333 2484 mt 3421 2450 L
c9
-68 -243 88 -34 3333 2484 3 MP
PP
0 sg
3333 2484 mt 3421 2450 L
3421 2450 mt 3353 2207 L
c12
87 -34 -67 -173 3394 1722 3 MP
PP
0 sg
3394 1722 mt 3327 1549 L
3327 1549 mt 3414 1515 L
/c13 { 1.000000 0.375000 0.000000 sr} bdef
c13
-67 -148 87 -34 3327 1549 3 MP
PP
0 sg
3327 1549 mt 3414 1515 L
3414 1515 mt 3347 1367 L
c8
-67 -264 87 -34 3313 2782 3 MP
PP
0 sg
3313 2782 mt 3400 2748 L
3400 2748 mt 3333 2484 L
c11
87 -34 -67 -197 3374 1953 3 MP
PP
0 sg
3374 1953 mt 3307 1756 L
3307 1756 mt 3394 1722 L
c12
-67 -173 87 -34 3307 1756 3 MP
PP
0 sg
3307 1756 mt 3394 1722 L
3394 1722 mt 3327 1549 L
c10
88 -34 -67 -220 3353 2207 3 MP
PP
0 sg
3353 2207 mt 3286 1987 L
3286 1987 mt 3374 1953 L
c11
-67 -197 88 -34 3286 1987 3 MP
PP
0 sg
3286 1987 mt 3374 1953 L
3374 1953 mt 3307 1756 L
c9
87 -34 -67 -243 3333 2484 3 MP
PP
0 sg
3333 2484 mt 3266 2241 L
3266 2241 mt 3353 2207 L
c10
-67 -220 87 -34 3266 2241 3 MP
PP
0 sg
3266 2241 mt 3353 2207 L
3353 2207 mt 3286 1987 L
c13
87 -34 -67 -148 3327 1549 3 MP
PP
0 sg
3327 1549 mt 3260 1401 L
3260 1401 mt 3347 1367 L
/c14 { 1.000000 0.000000 0.000000 sr} bdef
c14
-67 -123 87 -34 3260 1401 3 MP
PP
0 sg
3260 1401 mt 3347 1367 L
3347 1367 mt 3280 1244 L
c8
88 -34 -68 -264 3313 2782 3 MP
PP
0 sg
3313 2782 mt 3245 2518 L
3245 2518 mt 3333 2484 L
c9
-67 -243 88 -34 3245 2518 3 MP
PP
0 sg
3245 2518 mt 3333 2484 L
3333 2484 mt 3266 2241 L
c12
88 -34 -68 -173 3307 1756 3 MP
PP
0 sg
3307 1756 mt 3239 1583 L
3239 1583 mt 3327 1549 L
c13
-67 -148 88 -34 3239 1583 3 MP
PP
0 sg
3239 1583 mt 3327 1549 L
3327 1549 mt 3260 1401 L
c8
-68 -264 88 -33 3225 2815 3 MP
PP
0 sg
3225 2815 mt 3313 2782 L
3313 2782 mt 3245 2518 L
c11
88 -34 -67 -197 3286 1987 3 MP
PP
0 sg
3286 1987 mt 3219 1790 L
3219 1790 mt 3307 1756 L
c12
-68 -173 88 -34 3219 1790 3 MP
PP
0 sg
3219 1790 mt 3307 1756 L
3307 1756 mt 3239 1583 L
c10
87 -34 -67 -220 3266 2241 3 MP
PP
0 sg
3266 2241 mt 3199 2021 L
3199 2021 mt 3286 1987 L
c11
-67 -197 87 -34 3199 2021 3 MP
PP
0 sg
3199 2021 mt 3286 1987 L
3286 1987 mt 3219 1790 L
c14
88 -34 -68 -123 3260 1401 3 MP
PP
0 sg
3260 1401 mt 3192 1278 L
3192 1278 mt 3280 1244 L
/c15 { 0.750000 0.000000 0.000000 sr} bdef
c15
-67 -96 88 -34 3192 1278 3 MP
PP
0 sg
3192 1278 mt 3280 1244 L
3280 1244 mt 3213 1148 L
c9
88 -34 -67 -243 3245 2518 3 MP
PP
0 sg
3245 2518 mt 3178 2275 L
3178 2275 mt 3266 2241 L
c10
-67 -220 88 -34 3178 2275 3 MP
PP
0 sg
3178 2275 mt 3266 2241 L
3266 2241 mt 3199 2021 L
c13
88 -34 -67 -148 3239 1583 3 MP
PP
0 sg
3239 1583 mt 3172 1435 L
3172 1435 mt 3260 1401 L
c14
-68 -123 88 -34 3172 1435 3 MP
PP
0 sg
3172 1435 mt 3260 1401 L
3260 1401 mt 3192 1278 L
c8
87 -34 -67 -263 3225 2815 3 MP
PP
0 sg
3225 2815 mt 3158 2552 L
3158 2552 mt 3245 2518 L
c9
-67 -243 87 -34 3158 2552 3 MP
PP
0 sg
3158 2552 mt 3245 2518 L
3245 2518 mt 3178 2275 L
c12
87 -34 -67 -173 3219 1790 3 MP
PP
0 sg
3219 1790 mt 3152 1617 L
3152 1617 mt 3239 1583 L
c13
-67 -148 87 -34 3152 1617 3 MP
PP
0 sg
3152 1617 mt 3239 1583 L
3239 1583 mt 3172 1435 L
c8
-67 -263 88 -34 3137 2849 3 MP
PP
0 sg
3137 2849 mt 3225 2815 L
3225 2815 mt 3158 2552 L
c11
88 -34 -68 -197 3199 2021 3 MP
PP
0 sg
3199 2021 mt 3131 1824 L
3131 1824 mt 3219 1790 L
c12
-67 -173 88 -34 3131 1824 3 MP
PP
0 sg
3131 1824 mt 3219 1790 L
3219 1790 mt 3152 1617 L
c15
88 -34 -67 -96 3192 1278 3 MP
PP
0 sg
3192 1278 mt 3125 1182 L
3125 1182 mt 3213 1148 L
/c16 { 0.562500 0.000000 0.000000 sr} bdef
c16
-67 -70 88 -34 3125 1182 3 MP
PP
0 sg
3125 1182 mt 3213 1148 L
3213 1148 mt 3146 1078 L
c10
88 -34 -67 -220 3178 2275 3 MP
PP
0 sg
3178 2275 mt 3111 2055 L
3111 2055 mt 3199 2021 L
c11
-68 -197 88 -34 3111 2055 3 MP
PP
0 sg
3111 2055 mt 3199 2021 L
3199 2021 mt 3131 1824 L
c14
87 -34 -67 -123 3172 1435 3 MP
PP
0 sg
3172 1435 mt 3105 1312 L
3105 1312 mt 3192 1278 L
c15
-67 -96 87 -34 3105 1312 3 MP
PP
0 sg
3105 1312 mt 3192 1278 L
3192 1278 mt 3125 1182 L
c9
87 -34 -67 -243 3158 2552 3 MP
PP
0 sg
3158 2552 mt 3091 2309 L
3091 2309 mt 3178 2275 L
c10
-67 -220 87 -34 3091 2309 3 MP
PP
0 sg
3091 2309 mt 3178 2275 L
3178 2275 mt 3111 2055 L
c13
87 -34 -67 -148 3152 1617 3 MP
PP
0 sg
3152 1617 mt 3085 1469 L
3085 1469 mt 3172 1435 L
c14
-67 -123 87 -34 3085 1469 3 MP
PP
0 sg
3085 1469 mt 3172 1435 L
3172 1435 mt 3105 1312 L
c8
88 -34 -67 -263 3137 2849 3 MP
PP
0 sg
3137 2849 mt 3070 2586 L
3070 2586 mt 3158 2552 L
c9
-67 -243 88 -34 3070 2586 3 MP
PP
0 sg
3070 2586 mt 3158 2552 L
3158 2552 mt 3091 2309 L
c12
88 -34 -67 -173 3131 1824 3 MP
PP
0 sg
3131 1824 mt 3064 1651 L
3064 1651 mt 3152 1617 L
c13
-67 -148 88 -34 3064 1651 3 MP
PP
0 sg
3064 1651 mt 3152 1617 L
3152 1617 mt 3085 1469 L
c16
88 -34 -67 -70 3125 1182 3 MP
PP
0 sg
3125 1182 mt 3058 1112 L
3058 1112 mt 3146 1078 L
/c17 { 0.500000 0.000000 0.000000 sr} bdef
c17
-68 -44 88 -34 3058 1112 3 MP
PP
0 sg
3058 1112 mt 3146 1078 L
3146 1078 mt 3078 1034 L
c8
-67 -263 87 -34 3050 2883 3 MP
PP
0 sg
3050 2883 mt 3137 2849 L
3137 2849 mt 3070 2586 L
c11
87 -34 -67 -197 3111 2055 3 MP
PP
0 sg
3111 2055 mt 3044 1858 L
3044 1858 mt 3131 1824 L
/c18 { 1.000000 0.875000 0.000000 sr} bdef
c18
-67 -173 87 -34 3044 1858 3 MP
PP
0 sg
3044 1858 mt 3131 1824 L
3131 1824 mt 3064 1651 L
c15
87 -34 -67 -96 3105 1312 3 MP
PP
0 sg
3105 1312 mt 3038 1216 L
3038 1216 mt 3125 1182 L
c16
-67 -70 87 -34 3038 1216 3 MP
PP
0 sg
3038 1216 mt 3125 1182 L
3125 1182 mt 3058 1112 L
c10
88 -34 -68 -220 3091 2309 3 MP
PP
0 sg
3091 2309 mt 3023 2089 L
3023 2089 mt 3111 2055 L
c11
-67 -197 88 -34 3023 2089 3 MP
PP
0 sg
3023 2089 mt 3111 2055 L
3111 2055 mt 3044 1858 L
c14
88 -34 -68 -123 3085 1469 3 MP
PP
0 sg
3085 1469 mt 3017 1346 L
3017 1346 mt 3105 1312 L
c15
-67 -96 88 -34 3017 1346 3 MP
PP
0 sg
3017 1346 mt 3105 1312 L
3105 1312 mt 3038 1216 L
c9
88 -35 -67 -242 3070 2586 3 MP
PP
0 sg
3070 2586 mt 3003 2344 L
3003 2344 mt 3091 2309 L
c10
-68 -220 88 -35 3003 2344 3 MP
PP
0 sg
3003 2344 mt 3091 2309 L
3091 2309 mt 3023 2089 L
c13
88 -34 -67 -148 3064 1651 3 MP
PP
0 sg
3064 1651 mt 2997 1503 L
2997 1503 mt 3085 1469 L
c14
-68 -123 88 -34 2997 1503 3 MP
PP
0 sg
2997 1503 mt 3085 1469 L
3085 1469 mt 3017 1346 L
c17
87 -34 -67 -44 3058 1112 3 MP
PP
0 sg
3058 1112 mt 2991 1068 L
2991 1068 mt 3078 1034 L
c17
-67 -18 87 -34 2991 1068 3 MP
PP
0 sg
2991 1068 mt 3078 1034 L
3078 1034 mt 3011 1016 L
c8
87 -34 -67 -263 3050 2883 3 MP
PP
0 sg
3050 2883 mt 2983 2620 L
2983 2620 mt 3070 2586 L
c9
-67 -242 87 -34 2983 2620 3 MP
PP
0 sg
2983 2620 mt 3070 2586 L
3070 2586 mt 3003 2344 L
c18
87 -34 -67 -173 3044 1858 3 MP
PP
0 sg
3044 1858 mt 2977 1685 L
2977 1685 mt 3064 1651 L
c13
-67 -148 87 -34 2977 1685 3 MP
PP
0 sg
2977 1685 mt 3064 1651 L
3064 1651 mt 2997 1503 L
c16
88 -33 -68 -71 3038 1216 3 MP
PP
0 sg
3038 1216 mt 2970 1145 L
2970 1145 mt 3058 1112 L
c17
-67 -44 88 -33 2970 1145 3 MP
PP
0 sg
2970 1145 mt 3058 1112 L
3058 1112 mt 2991 1068 L
c8
-67 -263 88 -33 2962 2916 3 MP
PP
0 sg
2962 2916 mt 3050 2883 L
3050 2883 mt 2983 2620 L
c11
88 -35 -67 -196 3023 2089 3 MP
PP
0 sg
3023 2089 mt 2956 1893 L
2956 1893 mt 3044 1858 L
c18
-67 -173 88 -35 2956 1893 3 MP
PP
0 sg
2956 1893 mt 3044 1858 L
3044 1858 mt 2977 1685 L
c15
88 -34 -67 -96 3017 1346 3 MP
PP
0 sg
3017 1346 mt 2950 1250 L
2950 1250 mt 3038 1216 L
c16
-68 -71 88 -34 2950 1250 3 MP
PP
0 sg
2950 1250 mt 3038 1216 L
3038 1216 mt 2970 1145 L
c10
87 -35 -67 -220 3003 2344 3 MP
PP
0 sg
3003 2344 mt 2936 2124 L
2936 2124 mt 3023 2089 L
c11
-67 -196 87 -35 2936 2124 3 MP
PP
0 sg
2936 2124 mt 3023 2089 L
3023 2089 mt 2956 1893 L
c14
87 -35 -67 -122 2997 1503 3 MP
PP
0 sg
2997 1503 mt 2930 1381 L
2930 1381 mt 3017 1346 L
c15
-67 -96 87 -35 2930 1381 3 MP
PP
0 sg
2930 1381 mt 3017 1346 L
3017 1346 mt 2950 1250 L
c17
87 -34 -67 -18 2991 1068 3 MP
PP
0 sg
2991 1068 mt 2924 1050 L
2924 1050 mt 3011 1016 L
c16
-67 9 87 -34 2924 1050 3 MP
PP
0 sg
2924 1050 mt 3011 1016 L
3011 1016 mt 2944 1025 L
c9
88 -35 -68 -241 2983 2620 3 MP
PP
0 sg
2983 2620 mt 2915 2379 L
2915 2379 mt 3003 2344 L
c10
-67 -220 88 -35 2915 2379 3 MP
PP
0 sg
2915 2379 mt 3003 2344 L
3003 2344 mt 2936 2124 L
c13
88 -35 -68 -147 2977 1685 3 MP
PP
0 sg
2977 1685 mt 2909 1538 L
2909 1538 mt 2997 1503 L
c14
-67 -122 88 -35 2909 1538 3 MP
PP
0 sg
2909 1538 mt 2997 1503 L
2997 1503 mt 2930 1381 L
c17
88 -34 -67 -43 2970 1145 3 MP
PP
0 sg
2970 1145 mt 2903 1102 L
2903 1102 mt 2991 1068 L
c17
-67 -18 88 -34 2903 1102 3 MP
PP
0 sg
2903 1102 mt 2991 1068 L
2991 1068 mt 2924 1050 L
c8
88 -35 -67 -261 2962 2916 3 MP
PP
0 sg
2962 2916 mt 2895 2655 L
2895 2655 mt 2983 2620 L
c9
-68 -241 88 -35 2895 2655 3 MP
PP
0 sg
2895 2655 mt 2983 2620 L
2983 2620 mt 2915 2379 L
c18
88 -35 -67 -173 2956 1893 3 MP
PP
0 sg
2956 1893 mt 2889 1720 L
2889 1720 mt 2977 1685 L
c13
-68 -147 88 -35 2889 1720 3 MP
PP
0 sg
2889 1720 mt 2977 1685 L
2977 1685 mt 2909 1538 L
c16
87 -35 -67 -70 2950 1250 3 MP
PP
0 sg
2950 1250 mt 2883 1180 L
2883 1180 mt 2970 1145 L
c17
-67 -43 87 -35 2883 1180 3 MP
PP
0 sg
2883 1180 mt 2970 1145 L
2970 1145 mt 2903 1102 L
c8
-67 -261 87 -34 2875 2950 3 MP
PP
0 sg
2875 2950 mt 2962 2916 L
2962 2916 mt 2895 2655 L
c11
87 -35 -67 -196 2936 2124 3 MP
PP
0 sg
2936 2124 mt 2869 1928 L
2869 1928 mt 2956 1893 L
c18
-67 -173 87 -35 2869 1928 3 MP
PP
0 sg
2869 1928 mt 2956 1893 L
2956 1893 mt 2889 1720 L
c15
87 -34 -67 -97 2930 1381 3 MP
PP
0 sg
2930 1381 mt 2863 1284 L
2863 1284 mt 2950 1250 L
c16
-67 -70 87 -34 2863 1284 3 MP
PP
0 sg
2863 1284 mt 2950 1250 L
2950 1250 mt 2883 1180 L
c15
-67 35 88 -34 2856 1059 3 MP
PP
0 sg
2856 1059 mt 2944 1025 L
2944 1025 mt 2877 1060 L
c16
88 -34 -68 9 2924 1050 3 MP
PP
0 sg
2924 1050 mt 2856 1059 L
2856 1059 mt 2944 1025 L
c10
88 -36 -67 -219 2915 2379 3 MP
PP
0 sg
2915 2379 mt 2848 2160 L
2848 2160 mt 2936 2124 L
c11
-67 -196 88 -36 2848 2160 3 MP
PP
0 sg
2848 2160 mt 2936 2124 L
2936 2124 mt 2869 1928 L
c14
88 -34 -67 -123 2909 1538 3 MP
PP
0 sg
2909 1538 mt 2842 1415 L
2842 1415 mt 2930 1381 L
c15
-67 -97 88 -34 2842 1415 3 MP
PP
0 sg
2842 1415 mt 2930 1381 L
2930 1381 mt 2863 1284 L
c14
-67 61 88 -34 2789 1094 3 MP
PP
0 sg
2789 1094 mt 2877 1060 L
2877 1060 mt 2810 1121 L
c17
88 -34 -67 -18 2903 1102 3 MP
PP
0 sg
2903 1102 mt 2836 1084 L
2836 1084 mt 2924 1050 L
c15
88 -34 -67 35 2856 1059 3 MP
PP
0 sg
2856 1059 mt 2789 1094 L
2789 1094 mt 2877 1060 L
c16
-68 9 88 -34 2836 1084 3 MP
PP
0 sg
2836 1084 mt 2924 1050 L
2924 1050 mt 2856 1059 L
c9
87 -35 -67 -241 2895 2655 3 MP
PP
0 sg
2895 2655 mt 2828 2414 L
2828 2414 mt 2915 2379 L
c10
-67 -219 87 -35 2828 2414 3 MP
PP
0 sg
2828 2414 mt 2915 2379 L
2915 2379 mt 2848 2160 L
c13
87 -35 -67 -147 2889 1720 3 MP
PP
0 sg
2889 1720 mt 2822 1573 L
2822 1573 mt 2909 1538 L
/c19 { 1.000000 0.062500 0.000000 sr} bdef
c19
-67 -123 87 -35 2822 1573 3 MP
PP
0 sg
2822 1573 mt 2909 1538 L
2909 1538 mt 2842 1415 L
c17
87 -34 -67 -44 2883 1180 3 MP
PP
0 sg
2883 1180 mt 2816 1136 L
2816 1136 mt 2903 1102 L
c17
-67 -18 87 -34 2816 1136 3 MP
PP
0 sg
2816 1136 mt 2903 1102 L
2903 1102 mt 2836 1084 L
c8
88 -35 -68 -260 2875 2950 3 MP
PP
0 sg
2875 2950 mt 2807 2690 L
2807 2690 mt 2895 2655 L
c9
-67 -241 88 -35 2807 2690 3 MP
PP
0 sg
2807 2690 mt 2895 2655 L
2895 2655 mt 2828 2414 L
c18
88 -36 -68 -172 2869 1928 3 MP
PP
0 sg
2869 1928 mt 2801 1756 L
2801 1756 mt 2889 1720 L
/c20 { 1.000000 0.437500 0.000000 sr} bdef
c20
-67 -147 88 -36 2801 1756 3 MP
PP
0 sg
2801 1756 mt 2889 1720 L
2889 1720 mt 2822 1573 L
c16
88 -34 -68 -70 2863 1284 3 MP
PP
0 sg
2863 1284 mt 2795 1214 L
2795 1214 mt 2883 1180 L
c17
-67 -44 88 -34 2795 1214 3 MP
PP
0 sg
2795 1214 mt 2883 1180 L
2883 1180 mt 2816 1136 L
c8
-68 -260 88 -33 2787 2983 3 MP
PP
0 sg
2787 2983 mt 2875 2950 L
2875 2950 mt 2807 2690 L
c11
88 -36 -67 -196 2848 2160 3 MP
PP
0 sg
2848 2160 mt 2781 1964 L
2781 1964 mt 2869 1928 L
c18
-68 -172 88 -36 2781 1964 3 MP
PP
0 sg
2781 1964 mt 2869 1928 L
2869 1928 mt 2801 1756 L
c15
88 -35 -67 -96 2842 1415 3 MP
PP
0 sg
2842 1415 mt 2775 1319 L
2775 1319 mt 2863 1284 L
c16
-68 -70 88 -35 2775 1319 3 MP
PP
0 sg
2775 1319 mt 2863 1284 L
2863 1284 mt 2795 1214 L
c15
-67 35 87 -34 2769 1093 3 MP
PP
0 sg
2769 1093 mt 2856 1059 L
2856 1059 mt 2789 1094 L
c16
87 -34 -67 9 2836 1084 3 MP
PP
0 sg
2836 1084 mt 2769 1093 L
2769 1093 mt 2856 1059 L
c10
87 -36 -67 -218 2828 2414 3 MP
PP
0 sg
2828 2414 mt 2761 2196 L
2761 2196 mt 2848 2160 L
/c21 { 0.562500 1.000000 0.437500 sr} bdef
c21
-67 -196 87 -36 2761 2196 3 MP
PP
0 sg
2761 2196 mt 2848 2160 L
2848 2160 mt 2781 1964 L
c19
87 -36 -67 -122 2822 1573 3 MP
PP
0 sg
2822 1573 mt 2755 1451 L
2755 1451 mt 2842 1415 L
c15
-67 -96 87 -36 2755 1451 3 MP
PP
0 sg
2755 1451 mt 2842 1415 L
2842 1415 mt 2775 1319 L
c14
-67 61 87 -34 2702 1128 3 MP
PP
0 sg
2702 1128 mt 2789 1094 L
2789 1094 mt 2722 1155 L
c13
-68 85 88 -34 2722 1155 3 MP
PP
0 sg
2722 1155 mt 2810 1121 L
2810 1121 mt 2742 1206 L
c14
88 -34 -67 61 2789 1094 3 MP
PP
0 sg
2789 1094 mt 2722 1155 L
2722 1155 mt 2810 1121 L
c17
88 -34 -68 -18 2816 1136 3 MP
PP
0 sg
2816 1136 mt 2748 1118 L
2748 1118 mt 2836 1084 L
c15
87 -34 -67 35 2769 1093 3 MP
PP
0 sg
2769 1093 mt 2702 1128 L
2702 1128 mt 2789 1094 L
c16
-67 9 88 -34 2748 1118 3 MP
PP
0 sg
2748 1118 mt 2836 1084 L
2836 1084 mt 2769 1093 L
c9
88 -37 -67 -239 2807 2690 3 MP
PP
0 sg
2807 2690 mt 2740 2451 L
2740 2451 mt 2828 2414 L
c10
-67 -218 88 -37 2740 2451 3 MP
PP
0 sg
2740 2451 mt 2828 2414 L
2828 2414 mt 2761 2196 L
c20
88 -36 -67 -147 2801 1756 3 MP
PP
0 sg
2801 1756 mt 2734 1609 L
2734 1609 mt 2822 1573 L
c19
-67 -122 88 -36 2734 1609 3 MP
PP
0 sg
2734 1609 mt 2822 1573 L
2822 1573 mt 2755 1451 L
c13
87 -34 -67 85 2722 1155 3 MP
PP
0 sg
2722 1155 mt 2655 1240 L
2655 1240 mt 2742 1206 L
c17
88 -34 -67 -44 2795 1214 3 MP
PP
0 sg
2795 1214 mt 2728 1170 L
2728 1170 mt 2816 1136 L
c17
-68 -18 88 -34 2728 1170 3 MP
PP
0 sg
2728 1170 mt 2816 1136 L
2816 1136 mt 2748 1118 L
c8
87 -36 -67 -257 2787 2983 3 MP
PP
0 sg
2787 2983 mt 2720 2726 L
2720 2726 mt 2807 2690 L
/c22 { 0.000000 0.250000 1.000000 sr} bdef
c22
-67 -239 87 -36 2720 2726 3 MP
PP
0 sg
2720 2726 mt 2807 2690 L
2807 2690 mt 2740 2451 L
c18
87 -37 -67 -171 2781 1964 3 MP
PP
0 sg
2781 1964 mt 2714 1793 L
2714 1793 mt 2801 1756 L
c20
-67 -147 87 -37 2714 1793 3 MP
PP
0 sg
2714 1793 mt 2801 1756 L
2801 1756 mt 2734 1609 L
c12
-67 110 87 -34 2655 1240 3 MP
PP
0 sg
2655 1240 mt 2742 1206 L
2742 1206 mt 2675 1316 L
c16
87 -35 -67 -70 2775 1319 3 MP
PP
0 sg
2775 1319 mt 2708 1249 L
2708 1249 mt 2795 1214 L
c17
-67 -44 87 -35 2708 1249 3 MP
PP
0 sg
2708 1249 mt 2795 1214 L
2795 1214 mt 2728 1170 L
c8
-67 -257 88 -34 2699 3017 3 MP
PP
0 sg
2699 3017 mt 2787 2983 L
2787 2983 mt 2720 2726 L
c21
88 -38 -68 -194 2761 2196 3 MP
PP
0 sg
2761 2196 mt 2693 2002 L
2693 2002 mt 2781 1964 L
c18
-67 -171 88 -38 2693 2002 3 MP
PP
0 sg
2693 2002 mt 2781 1964 L
2781 1964 mt 2714 1793 L
c15
88 -35 -68 -97 2755 1451 3 MP
PP
0 sg
2755 1451 mt 2687 1354 L
2687 1354 mt 2775 1319 L
c16
-67 -70 88 -35 2687 1354 3 MP
PP
0 sg
2687 1354 mt 2775 1319 L
2775 1319 mt 2708 1249 L
c15
-67 35 88 -34 2681 1127 3 MP
PP
0 sg
2681 1127 mt 2769 1093 L
2769 1093 mt 2702 1128 L
c16
88 -34 -67 9 2748 1118 3 MP
PP
0 sg
2748 1118 mt 2681 1127 L
2681 1127 mt 2769 1093 L
c10
88 -39 -67 -216 2740 2451 3 MP
PP
0 sg
2740 2451 mt 2673 2235 L
2673 2235 mt 2761 2196 L
c21
-68 -194 88 -39 2673 2235 3 MP
PP
0 sg
2673 2235 mt 2761 2196 L
2761 2196 mt 2693 2002 L
c19
88 -36 -67 -122 2734 1609 3 MP
PP
0 sg
2734 1609 mt 2667 1487 L
2667 1487 mt 2755 1451 L
c15
-68 -97 88 -36 2667 1487 3 MP
PP
0 sg
2667 1487 mt 2755 1451 L
2755 1451 mt 2687 1354 L
c14
-68 60 88 -34 2614 1162 3 MP
PP
0 sg
2614 1162 mt 2702 1128 L
2702 1128 mt 2634 1188 L
c13
-67 85 88 -33 2634 1188 3 MP
PP
0 sg
2634 1188 mt 2722 1155 L
2722 1155 mt 2655 1240 L
c14
88 -33 -68 60 2702 1128 3 MP
PP
0 sg
2702 1128 mt 2634 1188 L
2634 1188 mt 2722 1155 L
c17
87 -35 -67 -17 2728 1170 3 MP
PP
0 sg
2728 1170 mt 2661 1153 L
2661 1153 mt 2748 1118 L
c15
88 -34 -67 35 2681 1127 3 MP
PP
0 sg
2681 1127 mt 2614 1162 L
2614 1162 mt 2702 1128 L
c16
-67 9 87 -35 2661 1153 3 MP
PP
0 sg
2661 1153 mt 2748 1118 L
2748 1118 mt 2681 1127 L
c22
87 -38 -67 -237 2720 2726 3 MP
PP
0 sg
2720 2726 mt 2653 2489 L
2653 2489 mt 2740 2451 L
/c23 { 0.000000 0.937500 1.000000 sr} bdef
c23
-67 -216 87 -38 2653 2489 3 MP
PP
0 sg
2653 2489 mt 2740 2451 L
2740 2451 mt 2673 2235 L
c20
87 -37 -67 -147 2714 1793 3 MP
PP
0 sg
2714 1793 mt 2647 1646 L
2647 1646 mt 2734 1609 L
c19
-67 -122 87 -37 2647 1646 3 MP
PP
0 sg
2647 1646 mt 2734 1609 L
2734 1609 mt 2667 1487 L
c13
88 -34 -67 86 2634 1188 3 MP
PP
0 sg
2634 1188 mt 2567 1274 L
2567 1274 mt 2655 1240 L
c17
87 -35 -67 -44 2708 1249 3 MP
PP
0 sg
2708 1249 mt 2641 1205 L
2641 1205 mt 2728 1170 L
c17
-67 -17 87 -35 2641 1205 3 MP
PP
0 sg
2641 1205 mt 2728 1170 L
2728 1170 mt 2661 1153 L
c8
88 -37 -67 -254 2699 3017 3 MP
PP
0 sg
2699 3017 mt 2632 2763 L
2632 2763 mt 2720 2726 L
c22
-67 -237 88 -37 2632 2763 3 MP
PP
0 sg
2632 2763 mt 2720 2726 L
2720 2726 mt 2653 2489 L
c18
88 -38 -67 -171 2693 2002 3 MP
PP
0 sg
2693 2002 mt 2626 1831 L
2626 1831 mt 2714 1793 L
c20
-67 -147 88 -38 2626 1831 3 MP
PP
0 sg
2626 1831 mt 2714 1793 L
2714 1793 mt 2647 1646 L
c12
-67 110 88 -34 2567 1274 3 MP
PP
0 sg
2567 1274 mt 2655 1240 L
2655 1240 mt 2588 1350 L
c11
-67 133 87 -34 2588 1350 3 MP
PP
0 sg
2588 1350 mt 2675 1316 L
2675 1316 mt 2608 1449 L
c12
87 -34 -67 110 2655 1240 3 MP
PP
0 sg
2655 1240 mt 2588 1350 L
2588 1350 mt 2675 1316 L
c16
88 -35 -67 -70 2687 1354 3 MP
PP
0 sg
2687 1354 mt 2620 1284 L
2620 1284 mt 2708 1249 L
c17
-67 -44 88 -35 2620 1284 3 MP
PP
0 sg
2620 1284 mt 2708 1249 L
2708 1249 mt 2641 1205 L
c8
-67 -254 87 -34 2612 3051 3 MP
PP
0 sg
2612 3051 mt 2699 3017 L
2699 3017 mt 2632 2763 L
c21
87 -39 -67 -194 2673 2235 3 MP
PP
0 sg
2673 2235 mt 2606 2041 L
2606 2041 mt 2693 2002 L
c18
-67 -171 87 -39 2606 2041 3 MP
PP
0 sg
2606 2041 mt 2693 2002 L
2693 2002 mt 2626 1831 L
c15
87 -37 -67 -96 2667 1487 3 MP
PP
0 sg
2667 1487 mt 2600 1391 L
2600 1391 mt 2687 1354 L
c16
-67 -70 87 -37 2600 1391 3 MP
PP
0 sg
2600 1391 mt 2687 1354 L
2687 1354 mt 2620 1284 L
c15
-67 35 87 -35 2594 1162 3 MP
PP
0 sg
2594 1162 mt 2681 1127 L
2681 1127 mt 2614 1162 L
c16
87 -35 -67 9 2661 1153 3 MP
PP
0 sg
2661 1153 mt 2594 1162 L
2594 1162 mt 2681 1127 L
c23
88 -40 -68 -214 2653 2489 3 MP
PP
0 sg
2653 2489 mt 2585 2275 L
2585 2275 mt 2673 2235 L
c21
-67 -194 88 -40 2585 2275 3 MP
PP
0 sg
2585 2275 mt 2673 2235 L
2673 2235 mt 2606 2041 L
c19
88 -37 -68 -122 2647 1646 3 MP
PP
0 sg
2647 1646 mt 2579 1524 L
2579 1524 mt 2667 1487 L
c10
-67 156 88 -34 2520 1483 3 MP
PP
0 sg
2520 1483 mt 2608 1449 L
2608 1449 mt 2541 1605 L
c11
88 -34 -68 133 2588 1350 3 MP
PP
0 sg
2588 1350 mt 2520 1483 L
2520 1483 mt 2608 1449 L
/c24 { 0.812500 0.000000 0.000000 sr} bdef
c24
-67 -96 88 -37 2579 1524 3 MP
PP
0 sg
2579 1524 mt 2667 1487 L
2667 1487 mt 2600 1391 L
c14
-67 60 88 -34 2526 1196 3 MP
PP
0 sg
2526 1196 mt 2614 1162 L
2614 1162 mt 2547 1222 L
c13
-67 86 87 -34 2547 1222 3 MP
PP
0 sg
2547 1222 mt 2634 1188 L
2634 1188 mt 2567 1274 L
c14
87 -34 -67 60 2614 1162 3 MP
PP
0 sg
2614 1162 mt 2547 1222 L
2547 1222 mt 2634 1188 L
c17
88 -35 -68 -17 2641 1205 3 MP
PP
0 sg
2641 1205 mt 2573 1188 L
2573 1188 mt 2661 1153 L
c15
88 -34 -68 34 2594 1162 3 MP
PP
0 sg
2594 1162 mt 2526 1196 L
2526 1196 mt 2614 1162 L
c16
-67 9 88 -35 2573 1188 3 MP
PP
0 sg
2573 1188 mt 2661 1153 L
2661 1153 mt 2594 1162 L
c22
88 -41 -67 -233 2632 2763 3 MP
PP
0 sg
2632 2763 mt 2565 2530 L
2565 2530 mt 2653 2489 L
c23
-68 -214 88 -41 2565 2530 3 MP
PP
0 sg
2565 2530 mt 2653 2489 L
2653 2489 mt 2585 2275 L
c20
88 -39 -67 -146 2626 1831 3 MP
PP
0 sg
2626 1831 mt 2559 1685 L
2559 1685 mt 2647 1646 L
c19
-68 -122 88 -39 2559 1685 3 MP
PP
0 sg
2559 1685 mt 2647 1646 L
2647 1646 mt 2579 1524 L
c13
87 -34 -67 86 2547 1222 3 MP
PP
0 sg
2547 1222 mt 2480 1308 L
2480 1308 mt 2567 1274 L
c17
88 -35 -67 -44 2620 1284 3 MP
PP
0 sg
2620 1284 mt 2553 1240 L
2553 1240 mt 2641 1205 L
c17
-68 -17 88 -35 2553 1240 3 MP
PP
0 sg
2553 1240 mt 2641 1205 L
2641 1205 mt 2573 1188 L
c8
87 -39 -67 -249 2612 3051 3 MP
PP
0 sg
2612 3051 mt 2545 2802 L
2545 2802 mt 2632 2763 L
c22
-67 -233 87 -39 2545 2802 3 MP
PP
0 sg
2545 2802 mt 2632 2763 L
2632 2763 mt 2565 2530 L
c18
87 -40 -67 -170 2606 2041 3 MP
PP
0 sg
2606 2041 mt 2539 1871 L
2539 1871 mt 2626 1831 L
c20
-67 -146 87 -40 2539 1871 3 MP
PP
0 sg
2539 1871 mt 2626 1831 L
2626 1831 mt 2559 1685 L
c12
-67 110 87 -34 2480 1308 3 MP
PP
0 sg
2480 1308 mt 2567 1274 L
2567 1274 mt 2500 1384 L
c11
-68 133 88 -34 2500 1384 3 MP
PP
0 sg
2500 1384 mt 2588 1350 L
2588 1350 mt 2520 1483 L
c12
88 -34 -67 110 2567 1274 3 MP
PP
0 sg
2567 1274 mt 2500 1384 L
2500 1384 mt 2588 1350 L
c16
87 -37 -67 -70 2600 1391 3 MP
PP
0 sg
2600 1391 mt 2533 1321 L
2533 1321 mt 2620 1284 L
c17
-67 -44 87 -37 2533 1321 3 MP
PP
0 sg
2533 1321 mt 2620 1284 L
2620 1284 mt 2553 1240 L
c8
-67 -249 88 -33 2524 3084 3 MP
PP
0 sg
2524 3084 mt 2612 3051 L
2612 3051 mt 2545 2802 L
c21
88 -43 -67 -191 2585 2275 3 MP
PP
0 sg
2585 2275 mt 2518 2084 L
2518 2084 mt 2606 2041 L
/c25 { 1.000000 0.937500 0.000000 sr} bdef
c25
-67 -170 88 -43 2518 2084 3 MP
PP
0 sg
2518 2084 mt 2606 2041 L
2606 2041 mt 2539 1871 L
c24
88 -37 -67 -96 2579 1524 3 MP
PP
0 sg
2579 1524 mt 2512 1428 L
2512 1428 mt 2600 1391 L
/c26 { 0.625000 0.000000 0.000000 sr} bdef
c26
-67 -70 88 -37 2512 1428 3 MP
PP
0 sg
2512 1428 mt 2600 1391 L
2600 1391 mt 2533 1321 L
c15
-68 34 88 -34 2506 1196 3 MP
PP
0 sg
2506 1196 mt 2594 1162 L
2594 1162 mt 2526 1196 L
c16
88 -34 -67 8 2573 1188 3 MP
PP
0 sg
2573 1188 mt 2506 1196 L
2506 1196 mt 2594 1162 L
c23
87 -44 -67 -211 2565 2530 3 MP
PP
0 sg
2565 2530 mt 2498 2319 L
2498 2319 mt 2585 2275 L
/c27 { 0.500000 1.000000 0.500000 sr} bdef
c27
-67 -191 87 -44 2498 2319 3 MP
PP
0 sg
2498 2319 mt 2585 2275 L
2585 2275 mt 2518 2084 L
c9
-67 177 88 -33 2453 1638 3 MP
PP
0 sg
2453 1638 mt 2541 1605 L
2541 1605 mt 2474 1782 L
c10
88 -33 -67 155 2520 1483 3 MP
PP
0 sg
2520 1483 mt 2453 1638 L
2453 1638 mt 2541 1605 L
c19
87 -40 -67 -121 2559 1685 3 MP
PP
0 sg
2559 1685 mt 2492 1564 L
2492 1564 mt 2579 1524 L
c10
-67 155 87 -34 2433 1517 3 MP
PP
0 sg
2433 1517 mt 2520 1483 L
2520 1483 mt 2453 1638 L
c11
87 -34 -67 133 2500 1384 3 MP
PP
0 sg
2500 1384 mt 2433 1517 L
2433 1517 mt 2520 1483 L
c24
-67 -96 87 -40 2492 1564 3 MP
PP
0 sg
2492 1564 mt 2579 1524 L
2579 1524 mt 2512 1428 L
c14
-67 61 87 -35 2439 1231 3 MP
PP
0 sg
2439 1231 mt 2526 1196 L
2526 1196 mt 2459 1257 L
c13
-67 86 88 -35 2459 1257 3 MP
PP
0 sg
2459 1257 mt 2547 1222 L
2547 1222 mt 2480 1308 L
c14
88 -35 -67 61 2526 1196 3 MP
PP
0 sg
2526 1196 mt 2459 1257 L
2459 1257 mt 2547 1222 L
c17
87 -35 -67 -17 2553 1240 3 MP
PP
0 sg
2553 1240 mt 2486 1223 L
2486 1223 mt 2573 1188 L
c15
87 -35 -67 35 2506 1196 3 MP
PP
0 sg
2506 1196 mt 2439 1231 L
2439 1231 mt 2526 1196 L
c16
-67 8 87 -35 2486 1223 3 MP
PP
0 sg
2486 1223 mt 2573 1188 L
2573 1188 mt 2506 1196 L
c22
88 -45 -68 -227 2545 2802 3 MP
PP
0 sg
2545 2802 mt 2477 2575 L
2477 2575 mt 2565 2530 L
/c28 { 0.000000 0.875000 1.000000 sr} bdef
c28
-67 -211 88 -45 2477 2575 3 MP
PP
0 sg
2477 2575 mt 2565 2530 L
2565 2530 mt 2498 2319 L
c20
88 -41 -68 -145 2539 1871 3 MP
PP
0 sg
2539 1871 mt 2471 1726 L
2471 1726 mt 2559 1685 L
/c29 { 1.000000 0.125000 0.000000 sr} bdef
c29
-67 -121 88 -41 2471 1726 3 MP
PP
0 sg
2471 1726 mt 2559 1685 L
2559 1685 mt 2492 1564 L
c13
88 -34 -67 85 2459 1257 3 MP
PP
0 sg
2459 1257 mt 2392 1342 L
2392 1342 mt 2480 1308 L
c17
88 -37 -68 -44 2533 1321 3 MP
PP
0 sg
2533 1321 mt 2465 1277 L
2465 1277 mt 2553 1240 L
c17
-67 -17 88 -37 2465 1277 3 MP
PP
0 sg
2465 1277 mt 2553 1240 L
2553 1240 mt 2486 1223 L
c8
88 -42 -67 -240 2524 3084 3 MP
PP
0 sg
2524 3084 mt 2457 2844 L
2457 2844 mt 2545 2802 L
c22
-68 -227 88 -42 2457 2844 3 MP
PP
0 sg
2457 2844 mt 2545 2802 L
2545 2802 mt 2477 2575 L
c25
88 -45 -67 -168 2518 2084 3 MP
PP
0 sg
2518 2084 mt 2451 1916 L
2451 1916 mt 2539 1871 L
c9
88 -33 -67 177 2453 1638 3 MP
PP
0 sg
2453 1638 mt 2386 1815 L
2386 1815 mt 2474 1782 L
/c30 { 1.000000 0.500000 0.000000 sr} bdef
c30
-68 -145 88 -45 2451 1916 3 MP
PP
0 sg
2451 1916 mt 2539 1871 L
2539 1871 mt 2471 1726 L
c12
-68 109 88 -34 2392 1342 3 MP
PP
0 sg
2392 1342 mt 2480 1308 L
2480 1308 mt 2412 1417 L
c11
-67 133 88 -33 2412 1417 3 MP
PP
0 sg
2412 1417 mt 2500 1384 L
2500 1384 mt 2433 1517 L
c12
88 -33 -68 109 2480 1308 3 MP
PP
0 sg
2480 1308 mt 2412 1417 L
2412 1417 mt 2500 1384 L
c26
88 -37 -67 -70 2512 1428 3 MP
PP
0 sg
2512 1428 mt 2445 1358 L
2445 1358 mt 2533 1321 L
c17
-68 -44 88 -37 2445 1358 3 MP
PP
0 sg
2445 1358 mt 2533 1321 L
2533 1321 mt 2465 1277 L
c8
-67 -240 87 -34 2437 3118 3 MP
PP
0 sg
2437 3118 mt 2524 3084 L
2524 3084 mt 2457 2844 L
c27
87 -47 -67 -188 2498 2319 3 MP
PP
0 sg
2498 2319 mt 2431 2131 L
2431 2131 mt 2518 2084 L
/c31 { 1.000000 1.000000 0.000000 sr} bdef
c31
-67 -168 87 -47 2431 2131 3 MP
PP
0 sg
2431 2131 mt 2518 2084 L
2518 2084 mt 2451 1916 L
c24
87 -40 -67 -96 2492 1564 3 MP
PP
0 sg
2492 1564 mt 2425 1468 L
2425 1468 mt 2512 1428 L
c26
-67 -70 87 -40 2425 1468 3 MP
PP
0 sg
2425 1468 mt 2512 1428 L
2512 1428 mt 2445 1358 L
c15
-67 35 87 -36 2419 1232 3 MP
PP
0 sg
2419 1232 mt 2506 1196 L
2506 1196 mt 2439 1231 L
c16
87 -36 -67 9 2486 1223 3 MP
PP
0 sg
2486 1223 mt 2419 1232 L
2419 1232 mt 2506 1196 L
c28
88 -50 -67 -206 2477 2575 3 MP
PP
0 sg
2477 2575 mt 2410 2369 L
2410 2369 mt 2498 2319 L
/c32 { 0.437500 1.000000 0.562500 sr} bdef
c32
-67 -188 88 -50 2410 2369 3 MP
PP
0 sg
2410 2369 mt 2498 2319 L
2498 2319 mt 2431 2131 L
c9
-67 177 87 -34 2366 1672 3 MP
PP
0 sg
2366 1672 mt 2453 1638 L
2453 1638 mt 2386 1815 L
c10
87 -34 -67 155 2433 1517 3 MP
PP
0 sg
2433 1517 mt 2366 1672 L
2366 1672 mt 2453 1638 L
c29
88 -42 -67 -120 2471 1726 3 MP
PP
0 sg
2471 1726 mt 2404 1606 L
2404 1606 mt 2492 1564 L
c10
-67 155 88 -33 2345 1550 3 MP
PP
0 sg
2345 1550 mt 2433 1517 L
2433 1517 mt 2366 1672 L
c11
88 -33 -67 133 2412 1417 3 MP
PP
0 sg
2412 1417 mt 2345 1550 L
2345 1550 mt 2433 1517 L
c24
-67 -96 88 -42 2404 1606 3 MP
PP
0 sg
2404 1606 mt 2492 1564 L
2492 1564 mt 2425 1468 L
c19
-67 60 88 -35 2351 1266 3 MP
PP
0 sg
2351 1266 mt 2439 1231 L
2439 1231 mt 2372 1291 L
c13
-67 85 87 -34 2372 1291 3 MP
PP
0 sg
2372 1291 mt 2459 1257 L
2459 1257 mt 2392 1342 L
c14
87 -34 -67 60 2439 1231 3 MP
PP
0 sg
2439 1231 mt 2372 1291 L
2372 1291 mt 2459 1257 L
c17
88 -36 -67 -18 2465 1277 3 MP
PP
0 sg
2465 1277 mt 2398 1259 L
2398 1259 mt 2486 1223 L
c15
88 -35 -68 34 2419 1232 3 MP
PP
0 sg
2419 1232 mt 2351 1266 L
2351 1266 mt 2439 1231 L
c16
-67 9 88 -36 2398 1259 3 MP
PP
0 sg
2398 1259 mt 2486 1223 L
2486 1223 mt 2419 1232 L
c22
87 -49 -67 -220 2457 2844 3 MP
PP
0 sg
2457 2844 mt 2390 2624 L
2390 2624 mt 2477 2575 L
/c33 { 0.000000 0.812500 1.000000 sr} bdef
c33
-67 -206 87 -49 2390 2624 3 MP
PP
0 sg
2390 2624 mt 2477 2575 L
2477 2575 mt 2410 2369 L
c30
87 -46 -67 -144 2451 1916 3 MP
PP
0 sg
2451 1916 mt 2384 1772 L
2384 1772 mt 2471 1726 L
c29
-67 -120 87 -46 2384 1772 3 MP
PP
0 sg
2384 1772 mt 2471 1726 L
2471 1726 mt 2404 1606 L
c13
88 -34 -68 85 2372 1291 3 MP
PP
0 sg
2372 1291 mt 2304 1376 L
2304 1376 mt 2392 1342 L
c17
87 -38 -67 -43 2445 1358 3 MP
PP
0 sg
2445 1358 mt 2378 1315 L
2378 1315 mt 2465 1277 L
c17
-67 -18 87 -38 2378 1315 3 MP
PP
0 sg
2378 1315 mt 2465 1277 L
2465 1277 mt 2398 1259 L
c8
87 -46 -67 -228 2437 3118 3 MP
PP
0 sg
2437 3118 mt 2370 2890 L
2370 2890 mt 2457 2844 L
/c34 { 0.000000 0.187500 1.000000 sr} bdef
c34
-67 -220 87 -46 2370 2890 3 MP
PP
0 sg
2370 2890 mt 2457 2844 L
2457 2844 mt 2390 2624 L
c31
88 -49 -68 -166 2431 2131 3 MP
PP
0 sg
2431 2131 mt 2363 1965 L
2363 1965 mt 2451 1916 L
c9
88 -34 -68 177 2366 1672 3 MP
PP
0 sg
2366 1672 mt 2298 1849 L
2298 1849 mt 2386 1815 L
/c35 { 1.000000 0.562500 0.000000 sr} bdef
c35
-67 -144 88 -49 2363 1965 3 MP
PP
0 sg
2363 1965 mt 2451 1916 L
2451 1916 mt 2384 1772 L
c18
-67 109 88 -34 2304 1376 3 MP
PP
0 sg
2304 1376 mt 2392 1342 L
2392 1342 mt 2325 1451 L
c11
-67 133 87 -34 2325 1451 3 MP
PP
0 sg
2325 1451 mt 2412 1417 L
2412 1417 mt 2345 1550 L
c12
87 -34 -67 109 2392 1342 3 MP
PP
0 sg
2392 1342 mt 2325 1451 L
2325 1451 mt 2412 1417 L
c26
88 -40 -68 -70 2425 1468 3 MP
PP
0 sg
2425 1468 mt 2357 1398 L
2357 1398 mt 2445 1358 L
c16
-67 -43 88 -40 2357 1398 3 MP
PP
0 sg
2357 1398 mt 2445 1358 L
2445 1358 mt 2378 1315 L
c8
-67 -228 88 -33 2349 3151 3 MP
PP
0 sg
2349 3151 mt 2437 3118 L
2437 3118 mt 2370 2890 L
c32
88 -54 -67 -184 2410 2369 3 MP
PP
0 sg
2410 2369 mt 2343 2185 L
2343 2185 mt 2431 2131 L
/c36 { 0.937500 1.000000 0.062500 sr} bdef
c36
-68 -166 88 -54 2343 2185 3 MP
PP
0 sg
2343 2185 mt 2431 2131 L
2431 2131 mt 2363 1965 L
c11
87 -34 -67 133 2325 1451 3 MP
PP
0 sg
2325 1451 mt 2258 1584 L
2258 1584 mt 2345 1550 L
c24
88 -43 -67 -95 2404 1606 3 MP
PP
0 sg
2404 1606 mt 2337 1511 L
2337 1511 mt 2425 1468 L
c26
-68 -70 88 -43 2337 1511 3 MP
PP
0 sg
2337 1511 mt 2425 1468 L
2425 1468 mt 2357 1398 L
c15
-68 34 88 -36 2331 1268 3 MP
PP
0 sg
2331 1268 mt 2419 1232 L
2419 1232 mt 2351 1266 L
c16
88 -36 -67 9 2398 1259 3 MP
PP
0 sg
2398 1259 mt 2331 1268 L
2331 1268 mt 2419 1232 L
c33
87 -57 -67 -198 2390 2624 3 MP
PP
0 sg
2390 2624 mt 2323 2426 L
2323 2426 mt 2410 2369 L
/c37 { 0.375000 1.000000 0.625000 sr} bdef
c37
-67 -184 87 -57 2323 2426 3 MP
PP
0 sg
2323 2426 mt 2410 2369 L
2410 2369 mt 2343 2185 L
c9
-68 177 88 -34 2278 1706 3 MP
PP
0 sg
2278 1706 mt 2366 1672 L
2366 1672 mt 2298 1849 L
c10
88 -34 -67 156 2345 1550 3 MP
PP
0 sg
2345 1550 mt 2278 1706 L
2278 1706 mt 2366 1672 L
c29
87 -47 -67 -119 2384 1772 3 MP
PP
0 sg
2384 1772 mt 2317 1653 L
2317 1653 mt 2404 1606 L
c10
-67 156 87 -34 2258 1584 3 MP
PP
0 sg
2258 1584 mt 2345 1550 L
2345 1550 mt 2278 1706 L
/c38 { 0.875000 0.000000 0.000000 sr} bdef
c38
-67 -95 87 -47 2317 1653 3 MP
PP
0 sg
2317 1653 mt 2404 1606 L
2404 1606 mt 2337 1511 L
c19
-67 60 87 -36 2264 1302 3 MP
PP
0 sg
2264 1302 mt 2351 1266 L
2351 1266 mt 2284 1326 L
c13
-68 85 88 -35 2284 1326 3 MP
PP
0 sg
2284 1326 mt 2372 1291 L
2372 1291 mt 2304 1376 L
c19
88 -35 -67 60 2351 1266 3 MP
PP
0 sg
2351 1266 mt 2284 1326 L
2284 1326 mt 2372 1291 L
c17
87 -38 -67 -18 2378 1315 3 MP
PP
0 sg
2378 1315 mt 2311 1297 L
2311 1297 mt 2398 1259 L
c15
87 -36 -67 34 2331 1268 3 MP
PP
0 sg
2331 1268 mt 2264 1302 L
2264 1302 mt 2351 1266 L
c26
-67 9 87 -38 2311 1297 3 MP
PP
0 sg
2311 1297 mt 2398 1259 L
2398 1259 mt 2331 1268 L
c34
88 -59 -68 -207 2370 2890 3 MP
PP
0 sg
2370 2890 mt 2302 2683 L
2302 2683 mt 2390 2624 L
/c39 { 0.000000 0.750000 1.000000 sr} bdef
c39
-67 -198 88 -59 2302 2683 3 MP
PP
0 sg
2302 2683 mt 2390 2624 L
2390 2624 mt 2323 2426 L
c35
88 -52 -67 -141 2363 1965 3 MP
PP
0 sg
2363 1965 mt 2296 1824 L
2296 1824 mt 2384 1772 L
/c40 { 1.000000 0.187500 0.000000 sr} bdef
c40
-67 -119 88 -52 2296 1824 3 MP
PP
0 sg
2296 1824 mt 2384 1772 L
2384 1772 mt 2317 1653 L
c13
87 -35 -67 85 2284 1326 3 MP
PP
0 sg
2284 1326 mt 2217 1411 L
2217 1411 mt 2304 1376 L
c16
88 -39 -67 -44 2357 1398 3 MP
PP
0 sg
2357 1398 mt 2290 1354 L
2290 1354 mt 2378 1315 L
c16
-67 -18 88 -39 2290 1354 3 MP
PP
0 sg
2290 1354 mt 2378 1315 L
2378 1315 mt 2311 1297 L
c8
88 -53 -67 -208 2349 3151 3 MP
PP
0 sg
2349 3151 mt 2282 2943 L
2282 2943 mt 2370 2890 L
/c41 { 0.000000 0.125000 1.000000 sr} bdef
c41
-68 -207 88 -53 2282 2943 3 MP
PP
0 sg
2282 2943 mt 2370 2890 L
2370 2890 mt 2302 2683 L
c36
87 -59 -67 -161 2343 2185 3 MP
PP
0 sg
2343 2185 mt 2276 2024 L
2276 2024 mt 2363 1965 L
c9
87 -34 -67 177 2278 1706 3 MP
PP
0 sg
2278 1706 mt 2211 1883 L
2211 1883 mt 2298 1849 L
/c42 { 1.000000 0.625000 0.000000 sr} bdef
c42
-67 -141 87 -59 2276 2024 3 MP
PP
0 sg
2276 2024 mt 2363 1965 L
2363 1965 mt 2296 1824 L
c11
-67 133 88 -35 2237 1486 3 MP
PP
0 sg
2237 1486 mt 2325 1451 L
2325 1451 mt 2258 1584 L
c18
88 -35 -67 110 2304 1376 3 MP
PP
0 sg
2304 1376 mt 2237 1486 L
2237 1486 mt 2325 1451 L
c26
87 -43 -67 -70 2337 1511 3 MP
PP
0 sg
2337 1511 mt 2270 1441 L
2270 1441 mt 2357 1398 L
c18
-67 110 87 -35 2217 1411 3 MP
PP
0 sg
2217 1411 mt 2304 1376 L
2304 1376 mt 2237 1486 L
c16
-67 -44 87 -43 2270 1441 3 MP
PP
0 sg
2270 1441 mt 2357 1398 L
2357 1398 mt 2290 1354 L
c8
-67 -208 87 -34 2262 3185 3 MP
PP
0 sg
2262 3185 mt 2349 3151 L
2349 3151 mt 2282 2943 L
c37
87 -64 -67 -177 2323 2426 3 MP
PP
0 sg
2323 2426 mt 2256 2249 L
2256 2249 mt 2343 2185 L
/c43 { 0.812500 1.000000 0.187500 sr} bdef
c43
-67 -161 87 -64 2256 2249 3 MP
PP
0 sg
2256 2249 mt 2343 2185 L
2343 2185 mt 2276 2024 L
c11
88 -34 -67 132 2237 1486 3 MP
PP
0 sg
2237 1486 mt 2170 1618 L
2170 1618 mt 2258 1584 L
c38
88 -48 -68 -94 2317 1653 3 MP
PP
0 sg
2317 1653 mt 2249 1559 L
2249 1559 mt 2337 1511 L
/c44 { 0.687500 0.000000 0.000000 sr} bdef
c44
-67 -70 88 -48 2249 1559 3 MP
PP
0 sg
2249 1559 mt 2337 1511 L
2337 1511 mt 2270 1441 L
c19
-67 60 88 -37 2176 1339 3 MP
PP
0 sg
2176 1339 mt 2264 1302 L
2264 1302 mt 2197 1362 L
c24
88 -37 -67 34 2243 1305 3 MP
PP
0 sg
2243 1305 mt 2176 1339 L
2176 1339 mt 2264 1302 L
c19
87 -36 -67 60 2264 1302 3 MP
PP
0 sg
2264 1302 mt 2197 1362 L
2197 1362 mt 2284 1326 L
c24
-67 34 88 -37 2243 1305 3 MP
PP
0 sg
2243 1305 mt 2331 1268 L
2331 1268 mt 2264 1302 L
c26
88 -37 -68 8 2311 1297 3 MP
PP
0 sg
2311 1297 mt 2243 1305 L
2243 1305 mt 2331 1268 L
c39
88 -70 -67 -187 2302 2683 3 MP
PP
0 sg
2302 2683 mt 2235 2496 L
2235 2496 mt 2323 2426 L
/c45 { 0.250000 1.000000 0.750000 sr} bdef
c45
-67 -177 88 -70 2235 2496 3 MP
PP
0 sg
2235 2496 mt 2323 2426 L
2323 2426 mt 2256 2249 L
c9
-67 177 88 -33 2190 1739 3 MP
PP
0 sg
2190 1739 mt 2278 1706 L
2278 1706 mt 2211 1883 L
c10
88 -33 -68 155 2258 1584 3 MP
PP
0 sg
2258 1584 mt 2190 1739 L
2190 1739 mt 2278 1706 L
c40
88 -54 -67 -117 2296 1824 3 MP
PP
0 sg
2296 1824 mt 2229 1707 L
2229 1707 mt 2317 1653 L
c10
-68 155 88 -34 2170 1618 3 MP
PP
0 sg
2170 1618 mt 2258 1584 L
2258 1584 mt 2190 1739 L
/c46 { 0.937500 0.000000 0.000000 sr} bdef
c46
-68 -94 88 -54 2229 1707 3 MP
PP
0 sg
2229 1707 mt 2317 1653 L
2317 1653 mt 2249 1559 L
c20
-67 85 87 -36 2197 1362 3 MP
PP
0 sg
2197 1362 mt 2284 1326 L
2284 1326 mt 2217 1411 L
c16
88 -40 -67 -17 2290 1354 3 MP
PP
0 sg
2290 1354 mt 2223 1337 L
2223 1337 mt 2311 1297 L
c26
-68 8 88 -40 2223 1337 3 MP
PP
0 sg
2223 1337 mt 2311 1297 L
2311 1297 mt 2243 1305 L
c41
87 -71 -67 -189 2282 2943 3 MP
PP
0 sg
2282 2943 mt 2215 2754 L
2215 2754 mt 2302 2683 L
/c47 { 0.000000 0.625000 1.000000 sr} bdef
c47
-67 -187 87 -71 2215 2754 3 MP
PP
0 sg
2215 2754 mt 2302 2683 L
2302 2683 mt 2235 2496 L
c42
87 -61 -67 -139 2276 2024 3 MP
PP
0 sg
2276 2024 mt 2209 1885 L
2209 1885 mt 2296 1824 L
c9
88 -33 -67 177 2190 1739 3 MP
PP
0 sg
2190 1739 mt 2123 1916 L
2123 1916 mt 2211 1883 L
/c48 { 1.000000 0.312500 0.000000 sr} bdef
c48
-67 -117 87 -61 2209 1885 3 MP
PP
0 sg
2209 1885 mt 2296 1824 L
2296 1824 mt 2229 1707 L
c20
88 -35 -68 84 2197 1362 3 MP
PP
0 sg
2197 1362 mt 2129 1446 L
2129 1446 mt 2217 1411 L
c16
87 -44 -67 -43 2270 1441 3 MP
PP
0 sg
2270 1441 mt 2203 1398 L
2203 1398 mt 2290 1354 L
c16
-67 -17 87 -44 2203 1398 3 MP
PP
0 sg
2203 1398 mt 2290 1354 L
2290 1354 mt 2223 1337 L
c8
88 -62 -68 -180 2262 3185 3 MP
PP
0 sg
2262 3185 mt 2194 3005 L
2194 3005 mt 2282 2943 L
/c49 { 0.000000 0.000000 1.000000 sr} bdef
c49
-67 -189 88 -62 2194 3005 3 MP
PP
0 sg
2194 3005 mt 2282 2943 L
2282 2943 mt 2215 2754 L
c43
88 -70 -68 -155 2256 2249 3 MP
PP
0 sg
2256 2249 mt 2188 2094 L
2188 2094 mt 2276 2024 L
/c50 { 1.000000 0.750000 0.000000 sr} bdef
c50
-67 -139 88 -70 2188 2094 3 MP
PP
0 sg
2188 2094 mt 2276 2024 L
2276 2024 mt 2209 1885 L
c11
-67 132 87 -34 2150 1520 3 MP
PP
0 sg
2150 1520 mt 2237 1486 L
2237 1486 mt 2170 1618 L
c18
87 -34 -67 109 2217 1411 3 MP
PP
0 sg
2217 1411 mt 2150 1520 L
2150 1520 mt 2237 1486 L
c44
88 -49 -67 -69 2249 1559 3 MP
PP
0 sg
2249 1559 mt 2182 1490 L
2182 1490 mt 2270 1441 L
c18
-67 109 88 -35 2129 1446 3 MP
PP
0 sg
2129 1446 mt 2217 1411 L
2217 1411 mt 2150 1520 L
c26
-67 -43 88 -49 2182 1490 3 MP
PP
0 sg
2182 1490 mt 2270 1441 L
2270 1441 mt 2203 1398 L
c8
-68 -180 88 -34 2174 3219 3 MP
PP
0 sg
2174 3219 mt 2262 3185 L
2262 3185 mt 2194 3005 L
c45
88 -81 -67 -166 2235 2496 3 MP
PP
0 sg
2235 2496 mt 2168 2330 L
2168 2330 mt 2256 2249 L
/c51 { 0.687500 1.000000 0.312500 sr} bdef
c51
-68 -155 88 -81 2168 2330 3 MP
PP
0 sg
2168 2330 mt 2256 2249 L
2256 2249 mt 2188 2094 L
c10
-67 155 87 -34 2083 1652 3 MP
PP
0 sg
2083 1652 mt 2170 1618 L
2170 1618 mt 2103 1773 L
c11
87 -34 -67 132 2150 1520 3 MP
PP
0 sg
2150 1520 mt 2083 1652 L
2083 1652 mt 2170 1618 L
c10
87 -34 -67 155 2170 1618 3 MP
PP
0 sg
2170 1618 mt 2103 1773 L
2103 1773 mt 2190 1739 L
c46
87 -54 -67 -94 2229 1707 3 MP
PP
0 sg
2229 1707 mt 2162 1613 L
2162 1613 mt 2249 1559 L
c15
-67 -69 87 -54 2162 1613 3 MP
PP
0 sg
2162 1613 mt 2249 1559 L
2249 1559 mt 2182 1490 L
c19
-67 59 87 -39 2089 1378 3 MP
PP
0 sg
2089 1378 mt 2176 1339 L
2176 1339 mt 2109 1398 L
c24
87 -39 -67 33 2156 1345 3 MP
PP
0 sg
2156 1345 mt 2089 1378 L
2089 1378 mt 2176 1339 L
c19
88 -36 -67 59 2176 1339 3 MP
PP
0 sg
2176 1339 mt 2109 1398 L
2109 1398 mt 2197 1362 L
c24
-67 34 87 -40 2156 1345 3 MP
PP
0 sg
2156 1345 mt 2243 1305 L
2243 1305 mt 2176 1339 L
c26
87 -40 -67 8 2223 1337 3 MP
PP
0 sg
2223 1337 mt 2156 1345 L
2156 1345 mt 2243 1305 L
c47
87 -88 -67 -170 2215 2754 3 MP
PP
0 sg
2215 2754 mt 2148 2584 L
2148 2584 mt 2235 2496 L
/c52 { 0.062500 1.000000 0.937500 sr} bdef
c52
-67 -166 87 -88 2148 2584 3 MP
PP
0 sg
2148 2584 mt 2235 2496 L
2235 2496 mt 2168 2330 L
c9
-67 177 87 -34 2103 1773 3 MP
PP
0 sg
2103 1773 mt 2190 1739 L
2190 1739 mt 2123 1916 L
c48
88 -64 -68 -114 2209 1885 3 MP
PP
0 sg
2209 1885 mt 2141 1771 L
2141 1771 mt 2229 1707 L
c19
-67 -94 88 -64 2141 1771 3 MP
PP
0 sg
2141 1771 mt 2229 1707 L
2229 1707 mt 2162 1613 L
c20
-68 84 88 -36 2109 1398 3 MP
PP
0 sg
2109 1398 mt 2197 1362 L
2197 1362 mt 2129 1446 L
c16
88 -42 -68 -19 2203 1398 3 MP
PP
0 sg
2203 1398 mt 2135 1379 L
2135 1379 mt 2223 1337 L
c26
-67 8 88 -42 2135 1379 3 MP
PP
0 sg
2135 1379 mt 2223 1337 L
2223 1337 mt 2156 1345 L
c49
88 -90 -67 -161 2194 3005 3 MP
PP
0 sg
2194 3005 mt 2127 2844 L
2127 2844 mt 2215 2754 L
/c53 { 0.000000 0.437500 1.000000 sr} bdef
c53
-67 -170 88 -90 2127 2844 3 MP
PP
0 sg
2127 2844 mt 2215 2754 L
2215 2754 mt 2148 2584 L
c50
88 -76 -67 -133 2188 2094 3 MP
PP
0 sg
2188 2094 mt 2121 1961 L
2121 1961 mt 2209 1885 L
c20
-68 -114 88 -76 2121 1961 3 MP
PP
0 sg
2121 1961 mt 2209 1885 L
2209 1885 mt 2141 1771 L
c18
-67 109 87 -36 2042 1482 3 MP
PP
0 sg
2042 1482 mt 2129 1446 L
2129 1446 mt 2062 1555 L
c20
87 -36 -67 84 2109 1398 3 MP
PP
0 sg
2109 1398 mt 2042 1482 L
2042 1482 mt 2129 1446 L
c18
88 -35 -67 109 2129 1446 3 MP
PP
0 sg
2129 1446 mt 2062 1555 L
2062 1555 mt 2150 1520 L
c26
88 -48 -67 -44 2182 1490 3 MP
PP
0 sg
2182 1490 mt 2115 1446 L
2115 1446 mt 2203 1398 L
c26
-68 -19 88 -48 2115 1446 3 MP
PP
0 sg
2115 1446 mt 2203 1398 L
2203 1398 mt 2135 1379 L
c8
87 -77 -67 -137 2174 3219 3 MP
PP
0 sg
2174 3219 mt 2107 3082 L
2107 3082 mt 2194 3005 L
/c54 { 0.000000 0.000000 0.875000 sr} bdef
c54
-67 -161 87 -77 2107 3082 3 MP
PP
0 sg
2107 3082 mt 2194 3005 L
2194 3005 mt 2127 2844 L
c51
87 -90 -67 -146 2168 2330 3 MP
PP
0 sg
2168 2330 mt 2101 2184 L
2101 2184 mt 2188 2094 L
c25
-67 -133 87 -90 2101 2184 3 MP
PP
0 sg
2101 2184 mt 2188 2094 L
2188 2094 mt 2121 1961 L
c11
-67 132 88 -35 2062 1555 3 MP
PP
0 sg
2062 1555 mt 2150 1520 L
2150 1520 mt 2083 1652 L
c15
87 -55 -67 -68 2162 1613 3 MP
PP
0 sg
2162 1613 mt 2095 1545 L
2095 1545 mt 2182 1490 L
c44
-67 -44 87 -55 2095 1545 3 MP
PP
0 sg
2095 1545 mt 2182 1490 L
2182 1490 mt 2115 1446 L
c8
-67 -137 88 -33 2086 3252 3 MP
PP
0 sg
2086 3252 mt 2174 3219 L
2174 3219 mt 2107 3082 L
c52
88 -104 -68 -150 2148 2584 3 MP
PP
0 sg
2148 2584 mt 2080 2434 L
2080 2434 mt 2168 2330 L
c32
-67 -146 88 -104 2080 2434 3 MP
PP
0 sg
2080 2434 mt 2168 2330 L
2168 2330 mt 2101 2184 L
c10
88 -34 -68 155 2083 1652 3 MP
PP
0 sg
2083 1652 mt 2015 1807 L
2015 1807 mt 2103 1773 L
c19
88 -66 -67 -92 2141 1771 3 MP
PP
0 sg
2141 1771 mt 2074 1679 L
2074 1679 mt 2162 1613 L
c10
-68 155 88 -35 1995 1687 3 MP
PP
0 sg
1995 1687 mt 2083 1652 L
2083 1652 mt 2015 1807 L
c11
88 -35 -67 132 2062 1555 3 MP
PP
0 sg
2062 1555 mt 1995 1687 L
1995 1687 mt 2083 1652 L
c38
-67 -68 88 -66 2074 1679 3 MP
PP
0 sg
2074 1679 mt 2162 1613 L
2162 1613 mt 2095 1545 L
c29
-68 59 88 -42 2001 1420 3 MP
PP
0 sg
2001 1420 mt 2089 1378 L
2089 1378 mt 2021 1437 L
c24
88 -42 -67 33 2068 1387 3 MP
PP
0 sg
2068 1387 mt 2001 1420 L
2001 1420 mt 2089 1378 L
c19
88 -39 -68 59 2089 1378 3 MP
PP
0 sg
2089 1378 mt 2021 1437 L
2021 1437 mt 2109 1398 L
c24
-67 33 88 -42 2068 1387 3 MP
PP
0 sg
2068 1387 mt 2156 1345 L
2156 1345 mt 2089 1378 L
c26
88 -42 -67 8 2135 1379 3 MP
PP
0 sg
2135 1379 mt 2068 1387 L
2068 1387 mt 2156 1345 L
c53
88 -117 -67 -143 2127 2844 3 MP
PP
0 sg
2127 2844 mt 2060 2701 L
2060 2701 mt 2148 2584 L
c39
-68 -150 88 -117 2060 2701 3 MP
PP
0 sg
2060 2701 mt 2148 2584 L
2148 2584 mt 2080 2434 L
c9
-67 177 88 -34 2015 1807 3 MP
PP
0 sg
2015 1807 mt 2103 1773 L
2103 1773 mt 2036 1950 L
c9
87 -34 -67 177 2103 1773 3 MP
PP
0 sg
2103 1773 mt 2036 1950 L
2036 1950 mt 2123 1916 L
c20
87 -79 -67 -111 2121 1961 3 MP
PP
0 sg
2121 1961 mt 2054 1850 L
2054 1850 mt 2141 1771 L
/c55 { 1.000000 0.250000 0.000000 sr} bdef
c55
-67 -92 87 -79 2054 1850 3 MP
PP
0 sg
2054 1850 mt 2141 1771 L
2141 1771 mt 2074 1679 L
c20
-67 84 88 -39 2021 1437 3 MP
PP
0 sg
2021 1437 mt 2109 1398 L
2109 1398 mt 2042 1482 L
c26
87 -48 -67 -19 2115 1446 3 MP
PP
0 sg
2115 1446 mt 2048 1427 L
2048 1427 mt 2135 1379 L
c44
-67 8 87 -48 2048 1427 3 MP
PP
0 sg
2048 1427 mt 2135 1379 L
2135 1379 mt 2068 1387 L
c54
87 -119 -67 -119 2107 3082 3 MP
PP
0 sg
2107 3082 mt 2040 2963 L
2040 2963 mt 2127 2844 L
c41
-67 -143 87 -119 2040 2963 3 MP
PP
0 sg
2040 2963 mt 2127 2844 L
2127 2844 mt 2060 2701 L
c25
87 -97 -67 -126 2101 2184 3 MP
PP
0 sg
2101 2184 mt 2034 2058 L
2034 2058 mt 2121 1961 L
/c56 { 1.000000 0.687500 0.000000 sr} bdef
c56
-67 -111 87 -97 2034 2058 3 MP
PP
0 sg
2034 2058 mt 2121 1961 L
2121 1961 mt 2054 1850 L
c18
-67 109 88 -38 1954 1520 3 MP
PP
0 sg
1954 1520 mt 2042 1482 L
2042 1482 mt 1975 1591 L
c18
87 -36 -67 109 2042 1482 3 MP
PP
0 sg
2042 1482 mt 1975 1591 L
1975 1591 mt 2062 1555 L
c44
88 -55 -68 -44 2095 1545 3 MP
PP
0 sg
2095 1545 mt 2027 1501 L
2027 1501 mt 2115 1446 L
c20
88 -38 -67 83 2021 1437 3 MP
PP
0 sg
2021 1437 mt 1954 1520 L
1954 1520 mt 2042 1482 L
c44
-67 -19 88 -55 2027 1501 3 MP
PP
0 sg
2027 1501 mt 2115 1446 L
2115 1446 mt 2048 1427 L
c8
88 -126 -67 -44 2086 3252 3 MP
PP
0 sg
2086 3252 mt 2019 3208 L
2019 3208 mt 2107 3082 L
c8
-67 -119 88 -126 2019 3208 3 MP
PP
0 sg
2019 3208 mt 2107 3082 L
2107 3082 mt 2040 2963 L
c32
88 -118 -67 -132 2080 2434 3 MP
PP
0 sg
2080 2434 mt 2013 2302 L
2013 2302 mt 2101 2184 L
/c57 { 0.750000 1.000000 0.250000 sr} bdef
c57
-67 -126 88 -118 2013 2302 3 MP
PP
0 sg
2013 2302 mt 2101 2184 L
2101 2184 mt 2034 2058 L
c11
-67 132 87 -36 1975 1591 3 MP
PP
0 sg
1975 1591 mt 2062 1555 L
2062 1555 mt 1995 1687 L
c38
88 -67 -67 -67 2074 1679 3 MP
PP
0 sg
2074 1679 mt 2007 1612 L
2007 1612 mt 2095 1545 L
c24
-68 -44 88 -67 2007 1612 3 MP
PP
0 sg
2007 1612 mt 2095 1545 L
2095 1545 mt 2027 1501 L
c39
87 -140 -67 -127 2060 2701 3 MP
PP
0 sg
2060 2701 mt 1993 2574 L
1993 2574 mt 2080 2434 L
c52
-67 -132 87 -140 1993 2574 3 MP
PP
0 sg
1993 2574 mt 2080 2434 L
2080 2434 mt 2013 2302 L
c10
87 -34 -67 154 1995 1687 3 MP
PP
0 sg
1995 1687 mt 1928 1841 L
1928 1841 mt 2015 1807 L
c55
87 -83 -67 -88 2054 1850 3 MP
PP
0 sg
2054 1850 mt 1987 1762 L
1987 1762 mt 2074 1679 L
c19
-67 -67 87 -83 1987 1762 3 MP
PP
0 sg
1987 1762 mt 2074 1679 L
2074 1679 mt 2007 1612 L
c29
-67 57 88 -45 1913 1465 3 MP
PP
0 sg
1913 1465 mt 2001 1420 L
2001 1420 mt 1934 1477 L
c29
87 -40 -67 57 2001 1420 3 MP
PP
0 sg
2001 1420 mt 1934 1477 L
1934 1477 mt 2021 1437 L
c44
87 -47 -67 7 2048 1427 3 MP
PP
0 sg
2048 1427 mt 1981 1434 L
1981 1434 mt 2068 1387 L
c38
-67 33 87 -47 1981 1434 3 MP
PP
0 sg
1981 1434 mt 2068 1387 L
2068 1387 mt 2001 1420 L
c41
88 -159 -68 -103 2040 2963 3 MP
PP
0 sg
2040 2963 mt 1972 2860 L
1972 2860 mt 2060 2701 L
c9
-67 -127 88 -159 1972 2860 3 MP
PP
0 sg
1972 2860 mt 2060 2701 L
2060 2701 mt 1993 2574 L
c9
88 -33 -67 176 2015 1807 3 MP
PP
0 sg
2015 1807 mt 1948 1983 L
1948 1983 mt 2036 1950 L
c56
88 -103 -68 -105 2034 2058 3 MP
PP
0 sg
2034 2058 mt 1966 1953 L
1966 1953 mt 2054 1850 L
c9
-67 176 87 -34 1928 1841 3 MP
PP
0 sg
1928 1841 mt 2015 1807 L
2015 1807 mt 1948 1983 L
c20
-67 -88 88 -103 1966 1953 3 MP
PP
0 sg
1966 1953 mt 2054 1850 L
2054 1850 mt 1987 1762 L
c20
-67 83 87 -40 1934 1477 3 MP
PP
0 sg
1934 1477 mt 2021 1437 L
2021 1437 mt 1954 1520 L
c44
88 -55 -67 -19 2027 1501 3 MP
PP
0 sg
2027 1501 mt 1960 1482 L
1960 1482 mt 2048 1427 L
c15
-67 7 88 -55 1960 1482 3 MP
PP
0 sg
1960 1482 mt 2048 1427 L
2048 1427 mt 1981 1434 L
c8
88 -202 -67 -43 2019 3208 3 MP
PP
0 sg
2019 3208 mt 1952 3165 L
1952 3165 mt 2040 2963 L
c8
-68 -103 88 -202 1952 3165 3 MP
PP
0 sg
1952 3165 mt 2040 2963 L
2040 2963 mt 1972 2860 L
c57
88 -130 -67 -114 2013 2302 3 MP
PP
0 sg
2013 2302 mt 1946 2188 L
1946 2188 mt 2034 2058 L
c31
-68 -105 88 -130 1946 2188 3 MP
PP
0 sg
1946 2188 mt 2034 2058 L
2034 2058 mt 1966 1953 L
c18
88 -36 -67 107 1954 1520 3 MP
PP
0 sg
1954 1520 mt 1887 1627 L
1887 1627 mt 1975 1591 L
c24
87 -67 -67 -44 2007 1612 3 MP
PP
0 sg
2007 1612 mt 1940 1568 L
1940 1568 mt 2027 1501 L
c18
-67 107 87 -39 1867 1559 3 MP
PP
0 sg
1867 1559 mt 1954 1520 L
1954 1520 mt 1887 1627 L
c20
87 -39 -67 82 1934 1477 3 MP
PP
0 sg
1934 1477 mt 1867 1559 L
1867 1559 mt 1954 1520 L
c24
-67 -19 87 -67 1940 1568 3 MP
PP
0 sg
1940 1568 mt 2027 1501 L
2027 1501 mt 1960 1482 L
c52
87 -162 -67 -110 1993 2574 3 MP
PP
0 sg
1993 2574 mt 1926 2464 L
1926 2464 mt 2013 2302 L
/c58 { 0.312500 1.000000 0.687500 sr} bdef
c58
-67 -114 87 -162 1926 2464 3 MP
PP
0 sg
1926 2464 mt 2013 2302 L
2013 2302 mt 1946 2188 L
c21
-68 131 88 -36 1887 1627 3 MP
PP
0 sg
1887 1627 mt 1975 1591 L
1975 1591 mt 1907 1722 L
c10
-67 154 88 -35 1907 1722 3 MP
PP
0 sg
1907 1722 mt 1995 1687 L
1995 1687 mt 1928 1841 L
c11
88 -35 -68 131 1975 1591 3 MP
PP
0 sg
1975 1591 mt 1907 1722 L
1907 1722 mt 1995 1687 L
c19
88 -83 -68 -67 1987 1762 3 MP
PP
0 sg
1987 1762 mt 1919 1695 L
1919 1695 mt 2007 1612 L
c14
-67 -44 88 -83 1919 1695 3 MP
PP
0 sg
1919 1695 mt 2007 1612 L
2007 1612 mt 1940 1568 L
c38
88 -45 -68 31 1981 1434 3 MP
PP
0 sg
1981 1434 mt 1913 1465 L
1913 1465 mt 2001 1420 L
c9
88 -196 -67 -90 1972 2860 3 MP
PP
0 sg
1972 2860 mt 1905 2770 L
1905 2770 mt 1993 2574 L
/c59 { 0.000000 0.500000 1.000000 sr} bdef
c59
-67 -110 88 -196 1905 2770 3 MP
PP
0 sg
1905 2770 mt 1993 2574 L
1993 2574 mt 1926 2464 L
c9
-67 176 88 -34 1840 1875 3 MP
PP
0 sg
1840 1875 mt 1928 1841 L
1928 1841 mt 1861 2017 L
c10
88 -34 -67 153 1907 1722 3 MP
PP
0 sg
1907 1722 mt 1840 1875 L
1840 1875 mt 1928 1841 L
c9
87 -34 -67 176 1928 1841 3 MP
PP
0 sg
1928 1841 mt 1861 2017 L
1861 2017 mt 1948 1983 L
c20
88 -107 -67 -84 1966 1953 3 MP
PP
0 sg
1966 1953 mt 1899 1869 L
1899 1869 mt 1987 1762 L
c48
-68 -67 88 -107 1899 1869 3 MP
PP
0 sg
1899 1869 mt 1987 1762 L
1987 1762 mt 1919 1695 L
c30
-67 82 88 -45 1846 1522 3 MP
PP
0 sg
1846 1522 mt 1934 1477 L
1934 1477 mt 1867 1559 L
c29
88 -45 -67 57 1913 1465 3 MP
PP
0 sg
1913 1465 mt 1846 1522 L
1846 1522 mt 1934 1477 L
c15
88 -54 -67 6 1960 1482 3 MP
PP
0 sg
1960 1482 mt 1893 1488 L
1893 1488 mt 1981 1434 L
c46
-68 31 88 -54 1893 1488 3 MP
PP
0 sg
1893 1488 mt 1981 1434 L
1981 1434 mt 1913 1465 L
c8
87 -261 -67 -44 1952 3165 3 MP
PP
0 sg
1952 3165 mt 1885 3121 L
1885 3121 mt 1972 2860 L
c8
-67 -90 87 -261 1885 3121 3 MP
PP
0 sg
1885 3121 mt 1972 2860 L
1972 2860 mt 1905 2770 L
c31
87 -139 -67 -96 1946 2188 3 MP
PP
0 sg
1946 2188 mt 1879 2092 L
1879 2092 mt 1966 1953 L
c12
-67 -84 87 -139 1879 2092 3 MP
PP
0 sg
1879 2092 mt 1966 1953 L
1966 1953 mt 1899 1869 L
c24
87 -66 -67 -20 1940 1568 3 MP
PP
0 sg
1940 1568 mt 1873 1548 L
1873 1548 mt 1960 1482 L
c38
-67 6 87 -66 1873 1548 3 MP
PP
0 sg
1873 1548 mt 1960 1482 L
1960 1482 mt 1893 1488 L
c58
88 -180 -68 -96 1926 2464 3 MP
PP
0 sg
1926 2464 mt 1858 2368 L
1858 2368 mt 1946 2188 L
c27
-67 -96 88 -180 1858 2368 3 MP
PP
0 sg
1858 2368 mt 1946 2188 L
1946 2188 mt 1879 2092 L
c21
-67 131 88 -38 1799 1665 3 MP
PP
0 sg
1799 1665 mt 1887 1627 L
1887 1627 mt 1820 1758 L
c18
88 -38 -68 106 1867 1559 3 MP
PP
0 sg
1867 1559 mt 1799 1665 L
1799 1665 mt 1887 1627 L
c21
87 -36 -67 131 1887 1627 3 MP
PP
0 sg
1887 1627 mt 1820 1758 L
1820 1758 mt 1907 1722 L
c14
88 -84 -67 -43 1919 1695 3 MP
PP
0 sg
1919 1695 mt 1852 1652 L
1852 1652 mt 1940 1568 L
c14
-67 -20 88 -84 1852 1652 3 MP
PP
0 sg
1852 1652 mt 1940 1568 L
1940 1568 mt 1873 1548 L
c59
88 -227 -67 -79 1905 2770 3 MP
PP
0 sg
1905 2770 mt 1838 2691 L
1838 2691 mt 1926 2464 L
c47
-68 -96 88 -227 1838 2691 3 MP
PP
0 sg
1838 2691 mt 1926 2464 L
1926 2464 mt 1858 2368 L
c10
-67 153 87 -36 1820 1758 3 MP
PP
0 sg
1820 1758 mt 1907 1722 L
1907 1722 mt 1840 1875 L
c48
87 -110 -67 -64 1899 1869 3 MP
PP
0 sg
1899 1869 mt 1832 1805 L
1832 1805 mt 1919 1695 L
c55
-67 -43 87 -110 1832 1805 3 MP
PP
0 sg
1832 1805 mt 1919 1695 L
1919 1695 mt 1852 1652 L
c40
-67 57 87 -52 1826 1517 3 MP
PP
0 sg
1826 1517 mt 1913 1465 L
1913 1465 mt 1846 1522 L
c46
87 -52 -67 29 1893 1488 3 MP
PP
0 sg
1893 1488 mt 1826 1517 L
1826 1517 mt 1913 1465 L
c8
87 -307 -67 -44 1885 3121 3 MP
PP
0 sg
1885 3121 mt 1818 3077 L
1818 3077 mt 1905 2770 L
c8
-67 -79 87 -307 1818 3077 3 MP
PP
0 sg
1818 3077 mt 1905 2770 L
1905 2770 mt 1838 2691 L
c9
88 -34 -67 176 1840 1875 3 MP
PP
0 sg
1840 1875 mt 1773 2051 L
1773 2051 mt 1861 2017 L
c12
87 -145 -67 -78 1879 2092 3 MP
PP
0 sg
1879 2092 mt 1812 2014 L
1812 2014 mt 1899 1869 L
c9
-67 176 87 -35 1753 1910 3 MP
PP
0 sg
1753 1910 mt 1840 1875 L
1840 1875 mt 1773 2051 L
c10
87 -35 -67 152 1820 1758 3 MP
PP
0 sg
1820 1758 mt 1753 1910 L
1753 1910 mt 1840 1875 L
c56
-67 -64 87 -145 1812 2014 3 MP
PP
0 sg
1812 2014 mt 1899 1869 L
1899 1869 mt 1832 1805 L
c35
-67 80 87 -49 1759 1571 3 MP
PP
0 sg
1759 1571 mt 1846 1522 L
1846 1522 mt 1779 1602 L
c30
88 -43 -67 80 1846 1522 3 MP
PP
0 sg
1846 1522 mt 1779 1602 L
1779 1602 mt 1867 1559 L
c38
88 -64 -68 4 1873 1548 3 MP
PP
0 sg
1873 1548 mt 1805 1552 L
1805 1552 mt 1893 1488 L
c40
87 -49 -67 54 1826 1517 3 MP
PP
0 sg
1826 1517 mt 1759 1571 L
1759 1571 mt 1846 1522 L
c19
-67 29 88 -64 1805 1552 3 MP
PP
0 sg
1805 1552 mt 1893 1488 L
1893 1488 mt 1826 1517 L
c27
88 -193 -67 -83 1858 2368 3 MP
PP
0 sg
1858 2368 mt 1791 2285 L
1791 2285 mt 1879 2092 L
c11
-67 -78 88 -193 1791 2285 3 MP
PP
0 sg
1791 2285 mt 1879 2092 L
1879 2092 mt 1812 2014 L
c25
87 -41 -67 104 1779 1602 3 MP
PP
0 sg
1779 1602 mt 1712 1706 L
1712 1706 mt 1799 1665 L
c25
-68 106 88 -43 1779 1602 3 MP
PP
0 sg
1779 1602 mt 1867 1559 L
1867 1559 mt 1799 1665 L
c14
88 -82 -67 -22 1852 1652 3 MP
PP
0 sg
1852 1652 mt 1785 1630 L
1785 1630 mt 1873 1548 L
c19
-68 4 88 -82 1785 1630 3 MP
PP
0 sg
1785 1630 mt 1873 1548 L
1873 1548 mt 1805 1552 L
c47
87 -254 -67 -69 1838 2691 3 MP
PP
0 sg
1838 2691 mt 1771 2622 L
1771 2622 mt 1858 2368 L
/c60 { 0.000000 0.687500 1.000000 sr} bdef
c60
-67 -83 87 -254 1771 2622 3 MP
PP
0 sg
1771 2622 mt 1858 2368 L
1858 2368 mt 1791 2285 L
c10
-67 152 88 -36 1732 1794 3 MP
PP
0 sg
1732 1794 mt 1820 1758 L
1820 1758 mt 1753 1910 L
c21
88 -36 -67 129 1799 1665 3 MP
PP
0 sg
1799 1665 mt 1732 1794 L
1732 1794 mt 1820 1758 L
c55
87 -109 -67 -44 1832 1805 3 MP
PP
0 sg
1832 1805 mt 1765 1761 L
1765 1761 mt 1852 1652 L
c21
-67 129 87 -41 1712 1706 3 MP
PP
0 sg
1712 1706 mt 1799 1665 L
1799 1665 mt 1732 1794 L
c55
-67 -22 87 -109 1765 1761 3 MP
PP
0 sg
1765 1761 mt 1852 1652 L
1852 1652 mt 1785 1630 L
c8
88 -342 -68 -44 1818 3077 3 MP
PP
0 sg
1818 3077 mt 1750 3033 L
1750 3033 mt 1838 2691 L
c8
-67 -69 88 -342 1750 3033 3 MP
PP
0 sg
1750 3033 mt 1838 2691 L
1838 2691 mt 1771 2622 L
c9
88 -33 -68 174 1753 1910 3 MP
PP
0 sg
1753 1910 mt 1685 2084 L
1685 2084 mt 1773 2051 L
c56
88 -148 -68 -61 1812 2014 3 MP
PP
0 sg
1812 2014 mt 1744 1953 L
1744 1953 mt 1832 1805 L
c9
-68 174 88 -35 1665 1945 3 MP
PP
0 sg
1665 1945 mt 1753 1910 L
1753 1910 mt 1685 2084 L
c10
88 -35 -67 151 1732 1794 3 MP
PP
0 sg
1732 1794 mt 1665 1945 L
1665 1945 mt 1753 1910 L
c42
-67 -44 88 -148 1744 1953 3 MP
PP
0 sg
1744 1953 mt 1832 1805 L
1832 1805 mt 1765 1761 L
c48
-67 54 88 -62 1738 1579 3 MP
PP
0 sg
1738 1579 mt 1826 1517 L
1826 1517 mt 1759 1571 L
c19
88 -62 -67 27 1805 1552 3 MP
PP
0 sg
1805 1552 mt 1738 1579 L
1738 1579 mt 1826 1517 L
c11
88 -202 -67 -69 1791 2285 3 MP
PP
0 sg
1791 2285 mt 1724 2216 L
1724 2216 mt 1812 2014 L
c51
-68 -61 88 -202 1724 2216 3 MP
PP
0 sg
1724 2216 mt 1812 2014 L
1812 2014 mt 1744 1953 L
c31
-67 104 88 -47 1691 1649 3 MP
PP
0 sg
1691 1649 mt 1779 1602 L
1779 1602 mt 1712 1706 L
c35
88 -47 -68 78 1759 1571 3 MP
PP
0 sg
1759 1571 mt 1691 1649 L
1691 1649 mt 1779 1602 L
c19
87 -79 -67 1 1785 1630 3 MP
PP
0 sg
1785 1630 mt 1718 1631 L
1718 1631 mt 1805 1552 L
c42
-68 78 88 -58 1671 1629 3 MP
PP
0 sg
1671 1629 mt 1759 1571 L
1759 1571 mt 1691 1649 L
c48
88 -58 -67 50 1738 1579 3 MP
PP
0 sg
1738 1579 mt 1671 1629 L
1671 1629 mt 1759 1571 L
c55
-67 27 87 -79 1718 1631 3 MP
PP
0 sg
1718 1631 mt 1805 1552 L
1805 1552 mt 1738 1579 L
c60
87 -275 -67 -62 1771 2622 3 MP
PP
0 sg
1771 2622 mt 1704 2560 L
1704 2560 mt 1791 2285 L
c39
-67 -69 87 -275 1704 2560 3 MP
PP
0 sg
1704 2560 mt 1791 2285 L
1791 2285 mt 1724 2216 L
c21
87 -39 -67 127 1712 1706 3 MP
PP
0 sg
1712 1706 mt 1645 1833 L
1645 1833 mt 1732 1794 L
c55
88 -107 -68 -24 1765 1761 3 MP
PP
0 sg
1765 1761 mt 1697 1737 L
1697 1737 mt 1785 1630 L
c27
-67 127 88 -44 1624 1750 3 MP
PP
0 sg
1624 1750 mt 1712 1706 L
1712 1706 mt 1645 1833 L
c31
88 -44 -67 101 1691 1649 3 MP
PP
0 sg
1691 1649 mt 1624 1750 L
1624 1750 mt 1712 1706 L
c48
-67 1 88 -107 1697 1737 3 MP
PP
0 sg
1697 1737 mt 1785 1630 L
1785 1630 mt 1718 1631 L
c8
88 -367 -67 -44 1750 3033 3 MP
PP
0 sg
1750 3033 mt 1683 2989 L
1683 2989 mt 1771 2622 L
c8
-67 -62 88 -367 1683 2989 3 MP
PP
0 sg
1683 2989 mt 1771 2622 L
1771 2622 mt 1704 2560 L
c23
-67 151 87 -39 1645 1833 3 MP
PP
0 sg
1645 1833 mt 1732 1794 L
1732 1794 mt 1665 1945 L
c42
88 -148 -67 -44 1744 1953 3 MP
PP
0 sg
1744 1953 mt 1677 1909 L
1677 1909 mt 1765 1761 L
c42
-68 -24 88 -148 1677 1909 3 MP
PP
0 sg
1677 1909 mt 1765 1761 L
1765 1761 mt 1697 1737 L
c51
87 -207 -67 -56 1724 2216 3 MP
PP
0 sg
1724 2216 mt 1657 2160 L
1657 2160 mt 1744 1953 L
c9
87 -34 -67 173 1665 1945 3 MP
PP
0 sg
1665 1945 mt 1598 2118 L
1598 2118 mt 1685 2084 L
c57
-67 -44 87 -207 1657 2160 3 MP
PP
0 sg
1657 2160 mt 1744 1953 L
1744 1953 mt 1677 1909 L
c42
87 -54 -67 74 1671 1629 3 MP
PP
0 sg
1671 1629 mt 1604 1703 L
1604 1703 mt 1691 1649 L
c55
87 -76 -67 24 1718 1631 3 MP
PP
0 sg
1718 1631 mt 1651 1655 L
1651 1655 mt 1738 1579 L
c20
-67 50 87 -76 1651 1655 3 MP
PP
0 sg
1651 1655 mt 1738 1579 L
1738 1579 mt 1671 1629 L
c39
88 -289 -68 -55 1704 2560 3 MP
PP
0 sg
1704 2560 mt 1636 2505 L
1636 2505 mt 1724 2216 L
c33
-67 -56 88 -289 1636 2505 3 MP
PP
0 sg
1636 2505 mt 1724 2216 L
1724 2216 mt 1657 2160 L
c36
-67 101 87 -54 1604 1703 3 MP
PP
0 sg
1604 1703 mt 1691 1649 L
1691 1649 mt 1624 1750 L
c48
88 -103 -67 -3 1697 1737 3 MP
PP
0 sg
1697 1737 mt 1630 1734 L
1630 1734 mt 1718 1631 L
c20
-67 24 88 -103 1630 1734 3 MP
PP
0 sg
1630 1734 mt 1718 1631 L
1718 1631 mt 1651 1655 L
c8
88 -386 -67 -43 1683 2989 3 MP
PP
0 sg
1683 2989 mt 1616 2946 L
1616 2946 mt 1704 2560 L
c8
-68 -55 88 -386 1616 2946 3 MP
PP
0 sg
1616 2946 mt 1704 2560 L
1704 2560 mt 1636 2505 L
c23
-68 148 88 -40 1557 1873 3 MP
PP
0 sg
1557 1873 mt 1645 1833 L
1645 1833 mt 1577 1981 L
c27
88 -40 -67 123 1624 1750 3 MP
PP
0 sg
1624 1750 mt 1557 1873 L
1557 1873 mt 1645 1833 L
c23
88 -36 -68 148 1645 1833 3 MP
PP
0 sg
1645 1833 mt 1577 1981 L
1577 1981 mt 1665 1945 L
c42
87 -146 -67 -26 1677 1909 3 MP
PP
0 sg
1677 1909 mt 1610 1883 L
1610 1883 mt 1697 1737 L
c56
-67 -3 87 -146 1610 1883 3 MP
PP
0 sg
1610 1883 mt 1697 1737 L
1697 1737 mt 1630 1734 L
c22
88 -33 -67 170 1577 1981 3 MP
PP
0 sg
1577 1981 mt 1510 2151 L
1510 2151 mt 1598 2118 L
c22
-67 173 88 -36 1577 1981 3 MP
PP
0 sg
1577 1981 mt 1665 1945 L
1665 1945 mt 1598 2118 L
c57
87 -207 -67 -44 1657 2160 3 MP
PP
0 sg
1657 2160 mt 1590 2116 L
1590 2116 mt 1677 1909 L
c57
-67 -26 87 -207 1590 2116 3 MP
PP
0 sg
1590 2116 mt 1677 1909 L
1677 1909 mt 1610 1883 L
c50
-67 74 88 -71 1583 1700 3 MP
PP
0 sg
1583 1700 mt 1671 1629 L
1671 1629 mt 1604 1703 L
c20
88 -71 -68 45 1651 1655 3 MP
PP
0 sg
1651 1655 mt 1583 1700 L
1583 1700 mt 1671 1629 L
c33
88 -296 -67 -49 1636 2505 3 MP
PP
0 sg
1636 2505 mt 1569 2456 L
1569 2456 mt 1657 2160 L
c33
-67 -44 88 -296 1569 2456 3 MP
PP
0 sg
1569 2456 mt 1657 2160 L
1657 2160 mt 1590 2116 L
c43
-67 96 88 -64 1516 1767 3 MP
PP
0 sg
1516 1767 mt 1604 1703 L
1604 1703 mt 1537 1799 L
c36
87 -49 -67 96 1604 1703 3 MP
PP
0 sg
1604 1703 mt 1537 1799 L
1537 1799 mt 1624 1750 L
c20
88 -97 -67 18 1630 1734 3 MP
PP
0 sg
1630 1734 mt 1563 1752 L
1563 1752 mt 1651 1655 L
c50
88 -64 -67 67 1583 1700 3 MP
PP
0 sg
1583 1700 mt 1516 1767 L
1516 1767 mt 1604 1703 L
c56
-68 45 88 -97 1563 1752 3 MP
PP
0 sg
1563 1752 mt 1651 1655 L
1651 1655 mt 1583 1700 L
c8
87 -397 -67 -44 1616 2946 3 MP
PP
0 sg
1616 2946 mt 1549 2902 L
1549 2902 mt 1636 2505 L
c8
-67 -49 87 -397 1549 2902 3 MP
PP
0 sg
1549 2902 mt 1636 2505 L
1636 2505 mt 1569 2456 L
c28
-67 146 88 -45 1469 1918 3 MP
PP
0 sg
1469 1918 mt 1557 1873 L
1557 1873 mt 1490 2019 L
c32
88 -45 -68 119 1537 1799 3 MP
PP
0 sg
1537 1799 mt 1469 1918 L
1469 1918 mt 1557 1873 L
c23
87 -38 -67 146 1557 1873 3 MP
PP
0 sg
1557 1873 mt 1490 2019 L
1490 2019 mt 1577 1981 L
c32
-67 123 87 -49 1537 1799 3 MP
PP
0 sg
1537 1799 mt 1624 1750 L
1624 1750 mt 1557 1873 L
c56
87 -139 -67 -10 1610 1883 3 MP
PP
0 sg
1610 1883 mt 1543 1873 L
1543 1873 mt 1630 1734 L
c12
-67 18 87 -139 1543 1873 3 MP
PP
0 sg
1543 1873 mt 1630 1734 L
1630 1734 mt 1563 1752 L
c22
-67 170 87 -38 1490 2019 3 MP
PP
0 sg
1490 2019 mt 1577 1981 L
1577 1981 mt 1510 2151 L
c57
88 -202 -68 -31 1590 2116 3 MP
PP
0 sg
1590 2116 mt 1522 2085 L
1522 2085 mt 1610 1883 L
c51
-67 -10 88 -202 1522 2085 3 MP
PP
0 sg
1522 2085 mt 1610 1883 L
1610 1883 mt 1543 1873 L
c33
88 -296 -67 -44 1569 2456 3 MP
PP
0 sg
1569 2456 mt 1502 2412 L
1502 2412 mt 1590 2116 L
c33
-68 -31 88 -296 1502 2412 3 MP
PP
0 sg
1502 2412 mt 1590 2116 L
1590 2116 mt 1522 2085 L
c51
-67 90 87 -81 1429 1848 3 MP
PP
0 sg
1429 1848 mt 1516 1767 L
1516 1767 mt 1449 1857 L
c43
88 -58 -67 90 1516 1767 3 MP
PP
0 sg
1516 1767 mt 1449 1857 L
1449 1857 mt 1537 1799 L
c56
87 -90 -67 38 1563 1752 3 MP
PP
0 sg
1563 1752 mt 1496 1790 L
1496 1790 mt 1583 1700 L
c25
-67 67 87 -90 1496 1790 3 MP
PP
0 sg
1496 1790 mt 1583 1700 L
1583 1700 mt 1516 1767 L
c8
87 -402 -67 -44 1549 2902 3 MP
PP
0 sg
1549 2902 mt 1482 2858 L
1482 2858 mt 1569 2456 L
c8
-67 -44 87 -402 1482 2858 3 MP
PP
0 sg
1482 2858 mt 1569 2456 L
1569 2456 mt 1502 2412 L
c37
-68 119 88 -58 1449 1857 3 MP
PP
0 sg
1449 1857 mt 1537 1799 L
1537 1799 mt 1469 1918 L
c12
88 -130 -68 9 1543 1873 3 MP
PP
0 sg
1543 1873 mt 1475 1882 L
1475 1882 mt 1563 1752 L
c31
-67 38 88 -130 1475 1882 3 MP
PP
0 sg
1475 1882 mt 1563 1752 L
1563 1752 mt 1496 1790 L
c22
-67 166 88 -39 1402 2058 3 MP
PP
0 sg
1402 2058 mt 1490 2019 L
1490 2019 mt 1423 2185 L
c28
88 -39 -67 140 1469 1918 3 MP
PP
0 sg
1469 1918 mt 1402 2058 L
1402 2058 mt 1490 2019 L
c22
87 -34 -67 166 1490 2019 3 MP
PP
0 sg
1490 2019 mt 1423 2185 L
1423 2185 mt 1510 2151 L
c51
88 -193 -67 -19 1522 2085 3 MP
PP
0 sg
1522 2085 mt 1455 2066 L
1455 2066 mt 1543 1873 L
c11
-68 9 88 -193 1455 2066 3 MP
PP
0 sg
1455 2066 mt 1543 1873 L
1543 1873 mt 1475 1882 L
c33
87 -289 -67 -38 1502 2412 3 MP
PP
0 sg
1502 2412 mt 1435 2374 L
1435 2374 mt 1522 2085 L
c33
-67 -19 87 -289 1435 2374 3 MP
PP
0 sg
1435 2374 mt 1522 2085 L
1522 2085 mt 1455 2066 L
c25
87 -81 -67 58 1496 1790 3 MP
PP
0 sg
1496 1790 mt 1429 1848 L
1429 1848 mt 1516 1767 L
c8
88 -402 -68 -44 1482 2858 3 MP
PP
0 sg
1482 2858 mt 1414 2814 L
1414 2814 mt 1502 2412 L
c8
-67 -38 88 -402 1414 2814 3 MP
PP
0 sg
1414 2814 mt 1502 2412 L
1502 2412 mt 1435 2374 L
c45
-67 111 88 -70 1361 1927 3 MP
PP
0 sg
1361 1927 mt 1449 1857 L
1449 1857 mt 1382 1968 L
c51
88 -70 -68 79 1429 1848 3 MP
PP
0 sg
1429 1848 mt 1361 1927 L
1361 1927 mt 1449 1857 L
c37
87 -50 -67 111 1449 1857 3 MP
PP
0 sg
1449 1857 mt 1382 1968 L
1382 1968 mt 1469 1918 L
c31
88 -118 -67 26 1475 1882 3 MP
PP
0 sg
1475 1882 mt 1408 1908 L
1408 1908 mt 1496 1790 L
c57
-67 58 88 -118 1408 1908 3 MP
PP
0 sg
1408 1908 mt 1496 1790 L
1496 1790 mt 1429 1848 L
c22
-67 161 87 -41 1315 2099 3 MP
PP
0 sg
1315 2099 mt 1402 2058 L
1402 2058 mt 1335 2219 L
c33
87 -41 -67 131 1382 1968 3 MP
PP
0 sg
1382 1968 mt 1315 2099 L
1315 2099 mt 1402 2058 L
c22
88 -34 -67 161 1402 2058 3 MP
PP
0 sg
1402 2058 mt 1335 2219 L
1335 2219 mt 1423 2185 L
c33
-67 140 87 -50 1382 1968 3 MP
PP
0 sg
1382 1968 mt 1469 1918 L
1469 1918 mt 1402 2058 L
c11
87 -179 -67 -5 1455 2066 3 MP
PP
0 sg
1455 2066 mt 1388 2061 L
1388 2061 mt 1475 1882 L
c27
-67 26 87 -179 1388 2061 3 MP
PP
0 sg
1388 2061 mt 1475 1882 L
1475 1882 mt 1408 1908 L
c33
87 -275 -67 -33 1435 2374 3 MP
PP
0 sg
1435 2374 mt 1368 2341 L
1368 2341 mt 1455 2066 L
c39
-67 -5 87 -275 1368 2341 3 MP
PP
0 sg
1368 2341 mt 1455 2066 L
1455 2066 mt 1388 2061 L
c8
88 -397 -67 -43 1414 2814 3 MP
PP
0 sg
1414 2814 mt 1347 2771 L
1347 2771 mt 1435 2374 L
c8
-67 -33 88 -397 1347 2771 3 MP
PP
0 sg
1347 2771 mt 1435 2374 L
1435 2374 mt 1368 2341 L
c52
-67 99 87 -88 1274 2015 3 MP
PP
0 sg
1274 2015 mt 1361 1927 L
1361 1927 mt 1294 2026 L
c45
88 -58 -67 99 1361 1927 3 MP
PP
0 sg
1361 1927 mt 1294 2026 L
1294 2026 mt 1382 1968 L
c57
88 -104 -67 44 1408 1908 3 MP
PP
0 sg
1408 1908 mt 1341 1952 L
1341 1952 mt 1429 1848 L
c32
-68 79 88 -104 1341 1952 3 MP
PP
0 sg
1341 1952 mt 1429 1848 L
1429 1848 mt 1361 1927 L
c39
-67 131 88 -58 1294 2026 3 MP
PP
0 sg
1294 2026 mt 1382 1968 L
1382 1968 mt 1315 2099 L
c27
87 -161 -67 8 1388 2061 3 MP
PP
0 sg
1388 2061 mt 1321 2069 L
1321 2069 mt 1408 1908 L
c58
-67 44 87 -161 1321 2069 3 MP
PP
0 sg
1321 2069 mt 1408 1908 L
1408 1908 mt 1341 1952 L
c22
88 -33 -68 153 1315 2099 3 MP
PP
0 sg
1315 2099 mt 1247 2252 L
1247 2252 mt 1335 2219 L
c39
88 -254 -68 -26 1368 2341 3 MP
PP
0 sg
1368 2341 mt 1300 2315 L
1300 2315 mt 1388 2061 L
c60
-67 8 88 -254 1300 2315 3 MP
PP
0 sg
1300 2315 mt 1388 2061 L
1388 2061 mt 1321 2069 L
c8
88 -386 -67 -44 1347 2771 3 MP
PP
0 sg
1347 2771 mt 1280 2727 L
1280 2727 mt 1368 2341 L
c8
-68 -26 88 -386 1280 2727 3 MP
PP
0 sg
1280 2727 mt 1368 2341 L
1368 2341 mt 1300 2315 L
c32
87 -88 -67 63 1341 1952 3 MP
PP
0 sg
1341 1952 mt 1274 2015 L
1274 2015 mt 1361 1927 L
c47
-67 120 87 -71 1207 2097 3 MP
PP
0 sg
1207 2097 mt 1294 2026 L
1294 2026 mt 1227 2146 L
c39
88 -47 -67 120 1294 2026 3 MP
PP
0 sg
1294 2026 mt 1227 2146 L
1227 2146 mt 1315 2099 L
c58
88 -141 -68 24 1321 2069 3 MP
PP
0 sg
1321 2069 mt 1253 2093 L
1253 2093 mt 1341 1952 L
c52
87 -71 -67 82 1274 2015 3 MP
PP
0 sg
1274 2015 mt 1207 2097 L
1207 2097 mt 1294 2026 L
c52
-67 63 88 -141 1253 2093 3 MP
PP
0 sg
1253 2093 mt 1341 1952 L
1341 1952 mt 1274 2015 L
c34
-68 153 88 -47 1227 2146 3 MP
PP
0 sg
1227 2146 mt 1315 2099 L
1315 2099 mt 1247 2252 L
c60
88 -228 -67 -18 1300 2315 3 MP
PP
0 sg
1300 2315 mt 1233 2297 L
1233 2297 mt 1321 2069 L
c34
87 -34 -67 140 1227 2146 3 MP
PP
0 sg
1227 2146 mt 1160 2286 L
1160 2286 mt 1247 2252 L
c47
-68 24 88 -228 1233 2297 3 MP
PP
0 sg
1233 2297 mt 1321 2069 L
1321 2069 mt 1253 2093 L
c8
87 -368 -67 -44 1280 2727 3 MP
PP
0 sg
1280 2727 mt 1213 2683 L
1213 2683 mt 1300 2315 L
c8
-67 -18 87 -368 1213 2683 3 MP
PP
0 sg
1213 2683 mt 1300 2315 L
1300 2315 mt 1233 2297 L
c47
88 -52 -68 101 1207 2097 3 MP
PP
0 sg
1207 2097 mt 1139 2198 L
1139 2198 mt 1227 2146 L
c52
88 -117 -67 39 1253 2093 3 MP
PP
0 sg
1253 2093 mt 1186 2132 L
1186 2132 mt 1274 2015 L
c39
-67 82 88 -117 1186 2132 3 MP
PP
0 sg
1186 2132 mt 1274 2015 L
1274 2015 mt 1207 2097 L
c47
87 -195 -67 -9 1233 2297 3 MP
PP
0 sg
1233 2297 mt 1166 2288 L
1166 2288 mt 1253 2093 L
c41
-67 140 88 -52 1139 2198 3 MP
PP
0 sg
1139 2198 mt 1227 2146 L
1227 2146 mt 1160 2286 L
c59
-67 39 87 -195 1166 2288 3 MP
PP
0 sg
1166 2288 mt 1253 2093 L
1253 2093 mt 1186 2132 L
c8
87 -342 -67 -44 1213 2683 3 MP
PP
0 sg
1213 2683 mt 1146 2639 L
1146 2639 mt 1233 2297 L
c8
-67 -9 87 -342 1146 2639 3 MP
PP
0 sg
1146 2639 mt 1233 2297 L
1233 2297 mt 1166 2288 L
c53
-68 101 88 -90 1119 2187 3 MP
PP
0 sg
1119 2187 mt 1207 2097 L
1207 2097 mt 1139 2198 L
c39
88 -90 -67 55 1186 2132 3 MP
PP
0 sg
1186 2132 mt 1119 2187 L
1119 2187 mt 1207 2097 L
c41
88 -33 -67 121 1139 2198 3 MP
PP
0 sg
1139 2198 mt 1072 2319 L
1072 2319 mt 1160 2286 L
c59
87 -159 -67 3 1166 2288 3 MP
PP
0 sg
1166 2288 mt 1099 2291 L
1099 2291 mt 1186 2132 L
c49
-67 121 87 -62 1052 2260 3 MP
PP
0 sg
1052 2260 mt 1139 2198 L
1139 2198 mt 1072 2319 L
c53
87 -62 -67 73 1119 2187 3 MP
PP
0 sg
1119 2187 mt 1052 2260 L
1052 2260 mt 1139 2198 L
c9
-67 55 87 -159 1099 2291 3 MP
PP
0 sg
1099 2291 mt 1186 2132 L
1186 2132 mt 1119 2187 L
c8
88 -307 -68 -44 1146 2639 3 MP
PP
0 sg
1146 2639 mt 1078 2595 L
1078 2595 mt 1166 2288 L
c8
-67 3 88 -307 1078 2595 3 MP
PP
0 sg
1078 2595 mt 1166 2288 L
1166 2288 mt 1099 2291 L
c49
87 -34 -67 93 1052 2260 3 MP
PP
0 sg
1052 2260 mt  985 2353 L
 985 2353 mt 1072 2319 L
c9
87 -119 -67 15 1099 2291 3 MP
PP
0 sg
1099 2291 mt 1032 2306 L
1032 2306 mt 1119 2187 L
c41
-67 73 87 -119 1032 2306 3 MP
PP
0 sg
1032 2306 mt 1119 2187 L
1119 2187 mt 1052 2260 L
c8
88 -261 -67 -43 1078 2595 3 MP
PP
0 sg
1078 2595 mt 1011 2552 L
1011 2552 mt 1099 2291 L
c8
-67 15 88 -261 1011 2552 3 MP
PP
0 sg
1011 2552 mt 1099 2291 L
1099 2291 mt 1032 2306 L
c54
-67 93 88 -78 964 2338 3 MP
PP
0 sg
 964 2338 mt 1052 2260 L
1052 2260 mt  985 2353 L
c41
88 -78 -68 32 1032 2306 3 MP
PP
0 sg
1032 2306 mt  964 2338 L
 964 2338 mt 1052 2260 L
c8
88 -202 -67 -44 1011 2552 3 MP
PP
0 sg
1011 2552 mt  944 2508 L
 944 2508 mt 1032 2306 L
c54
88 -34 -67 49 964 2338 3 MP
PP
0 sg
 964 2338 mt  897 2387 L
 897 2387 mt  985 2353 L
c8
-68 32 88 -202 944 2508 3 MP
PP
0 sg
 944 2508 mt 1032 2306 L
1032 2306 mt  964 2338 L
c8
87 -126 -67 -44 944 2508 3 MP
PP
0 sg
 944 2508 mt  877 2464 L
 877 2464 mt  964 2338 L
c8
-67 49 87 -126 877 2464 3 MP
PP
0 sg
 877 2464 mt  964 2338 L
 964 2338 mt  897 2387 L
c8
87 -33 -67 -44 877 2464 3 MP
PP
0 sg
 877 2464 mt  810 2420 L
 810 2420 mt  897 2387 L
gr


end %%Color Dict

eplot
%%EndObject

epage
end

showpage

%%Trailer
%%EOF
