%!PS-Adobe-3.0 EPSF-3.0
%%Creator: MATLAB, The MathWorks, Inc. Version 7.14.0.739 (R2012a). Operating System: Linux 4.13.0-26-generic #29~16.04.2-Ubuntu SMP Tue Jan 9 22:00:44 UTC 2018 x86_64.
%%Title: /home/remoto/ruben.laso/Dropbox/M2i/1Curso/EDP/Analitica/Tema 3/Ejercicio/solucion/figuras/ap1b_1.eps
%%CreationDate: 01/20/2018  12:54:30
%%DocumentNeededFonts: Helvetica
%%DocumentProcessColors: Cyan Magenta Yellow Black
%%LanguageLevel: 2
%%Pages: 1
%%BoundingBox:   120   252   475   589
%%EndComments

%%BeginProlog
% MathWorks dictionary
/MathWorks 160 dict begin
% definition operators
/bdef {bind def} bind def
/ldef {load def} bind def
/xdef {exch def} bdef
/xstore {exch store} bdef
% operator abbreviations
/c  /clip ldef
/cc /concat ldef
/cp /closepath ldef
/gr /grestore ldef
/gs /gsave ldef
/mt /moveto ldef
/np /newpath ldef
/cm /currentmatrix ldef
/sm /setmatrix ldef
/rm /rmoveto ldef
/rl /rlineto ldef
/s {show newpath} bdef
/sc {setcmykcolor} bdef
/sr /setrgbcolor ldef
/sg /setgray ldef
/w /setlinewidth ldef
/j /setlinejoin ldef
/cap /setlinecap ldef
/rc {rectclip} bdef
/rf {rectfill} bdef
% page state control
/pgsv () def
/bpage {/pgsv save def} bdef
/epage {pgsv restore} bdef
/bplot /gsave ldef
/eplot {stroke grestore} bdef
% orientation switch
/portraitMode 0 def /landscapeMode 1 def /rotateMode 2 def
% coordinate system mappings
/dpi2point 0 def
% font control
/FontSize 0 def
/FMS {/FontSize xstore findfont [FontSize 0 0 FontSize neg 0 0]
  makefont setfont} bdef
/reencode {exch dup where {pop load} {pop StandardEncoding} ifelse
  exch dup 3 1 roll findfont dup length dict begin
  { 1 index /FID ne {def}{pop pop} ifelse } forall
  /Encoding exch def currentdict end definefont pop} bdef
/isroman {findfont /CharStrings get /Agrave known} bdef
/FMSR {3 1 roll 1 index dup isroman {reencode} {pop pop} ifelse
  exch FMS} bdef
/csm {1 dpi2point div -1 dpi2point div scale neg translate
 dup landscapeMode eq {pop -90 rotate}
  {rotateMode eq {90 rotate} if} ifelse} bdef
% line types: solid, dotted, dashed, dotdash
/SO { [] 0 setdash } bdef
/DO { [.5 dpi2point mul 4 dpi2point mul] 0 setdash } bdef
/DA { [6 dpi2point mul] 0 setdash } bdef
/DD { [.5 dpi2point mul 4 dpi2point mul 6 dpi2point mul 4
  dpi2point mul] 0 setdash } bdef
% macros for lines and objects
/L {lineto stroke} bdef
/MP {3 1 roll moveto 1 sub {rlineto} repeat} bdef
/AP {{rlineto} repeat} bdef
/PDlw -1 def
/W {/PDlw currentlinewidth def setlinewidth} def
/PP {closepath eofill} bdef
/DP {closepath stroke} bdef
/MR {4 -2 roll moveto dup  0 exch rlineto exch 0 rlineto
  neg 0 exch rlineto closepath} bdef
/FR {MR stroke} bdef
/PR {MR fill} bdef
/L1i {{currentfile picstr readhexstring pop} image} bdef
/tMatrix matrix def
/MakeOval {newpath tMatrix currentmatrix pop translate scale
0 0 1 0 360 arc tMatrix setmatrix} bdef
/FO {MakeOval stroke} bdef
/PO {MakeOval fill} bdef
/PD {currentlinewidth 2 div 0 360 arc fill
   PDlw -1 eq not {PDlw w /PDlw -1 def} if} def
/FA {newpath tMatrix currentmatrix pop translate scale
  0 0 1 5 -2 roll arc tMatrix setmatrix stroke} bdef
/PA {newpath tMatrix currentmatrix pop	translate 0 0 moveto scale
  0 0 1 5 -2 roll arc closepath tMatrix setmatrix fill} bdef
/FAn {newpath tMatrix currentmatrix pop translate scale
  0 0 1 5 -2 roll arcn tMatrix setmatrix stroke} bdef
/PAn {newpath tMatrix currentmatrix pop translate 0 0 moveto scale
  0 0 1 5 -2 roll arcn closepath tMatrix setmatrix fill} bdef
/vradius 0 def /hradius 0 def /lry 0 def
/lrx 0 def /uly 0 def /ulx 0 def /rad 0 def
/MRR {/vradius xdef /hradius xdef /lry xdef /lrx xdef /uly xdef
  /ulx xdef newpath tMatrix currentmatrix pop ulx hradius add uly
  vradius add translate hradius vradius scale 0 0 1 180 270 arc 
  tMatrix setmatrix lrx hradius sub uly vradius add translate
  hradius vradius scale 0 0 1 270 360 arc tMatrix setmatrix
  lrx hradius sub lry vradius sub translate hradius vradius scale
  0 0 1 0 90 arc tMatrix setmatrix ulx hradius add lry vradius sub
  translate hradius vradius scale 0 0 1 90 180 arc tMatrix setmatrix
  closepath} bdef
/FRR {MRR stroke } bdef
/PRR {MRR fill } bdef
/MlrRR {/lry xdef /lrx xdef /uly xdef /ulx xdef /rad lry uly sub 2 div def
  newpath tMatrix currentmatrix pop ulx rad add uly rad add translate
  rad rad scale 0 0 1 90 270 arc tMatrix setmatrix lrx rad sub lry rad
  sub translate rad rad scale 0 0 1 270 90 arc tMatrix setmatrix
  closepath} bdef
/FlrRR {MlrRR stroke } bdef
/PlrRR {MlrRR fill } bdef
/MtbRR {/lry xdef /lrx xdef /uly xdef /ulx xdef /rad lrx ulx sub 2 div def
  newpath tMatrix currentmatrix pop ulx rad add uly rad add translate
  rad rad scale 0 0 1 180 360 arc tMatrix setmatrix lrx rad sub lry rad
  sub translate rad rad scale 0 0 1 0 180 arc tMatrix setmatrix
  closepath} bdef
/FtbRR {MtbRR stroke } bdef
/PtbRR {MtbRR fill } bdef
/stri 6 array def /dtri 6 array def
/smat 6 array def /dmat 6 array def
/tmat1 6 array def /tmat2 6 array def /dif 3 array def
/asub {/ind2 exch def /ind1 exch def dup dup
  ind1 get exch ind2 get sub exch } bdef
/tri_to_matrix {
  2 0 asub 3 1 asub 4 0 asub 5 1 asub
  dup 0 get exch 1 get 7 -1 roll astore } bdef
/compute_transform {
  dmat dtri tri_to_matrix tmat1 invertmatrix 
  smat stri tri_to_matrix tmat2 concatmatrix } bdef
/ds {stri astore pop} bdef
/dt {dtri astore pop} bdef
/db {2 copy /cols xdef /rows xdef mul dup 3 mul string
  currentfile 
  3 index 0 eq {/ASCIIHexDecode filter}
  {/ASCII85Decode filter 3 index 2 eq {/RunLengthDecode filter} if }
  ifelse exch readstring pop
  dup 0 3 index getinterval /rbmap xdef
  dup 2 index dup getinterval /gbmap xdef
  1 index dup 2 mul exch getinterval /bbmap xdef pop pop}bdef
/it {gs np dtri aload pop moveto lineto lineto cp c
  cols rows 8 compute_transform 
  rbmap gbmap bbmap true 3 colorimage gr}bdef
/il {newpath moveto lineto stroke}bdef
currentdict end def
%%EndProlog

%%BeginSetup
MathWorks begin

0 cap

end
%%EndSetup

%%Page: 1 1
%%BeginPageSetup
%%PageBoundingBox:   120   252   475   589
MathWorks begin
bpage
%%EndPageSetup

%%BeginObject: obj1
bplot

/dpi2point 12 def
portraitMode 1440 7068 csm

    0     0  4263  4034 rc
85 dict begin %Colortable dictionary
/c0 { 0.000000 0.000000 0.000000 sr} bdef
/c1 { 1.000000 1.000000 1.000000 sr} bdef
/c2 { 0.900000 0.000000 0.000000 sr} bdef
/c3 { 0.000000 0.820000 0.000000 sr} bdef
/c4 { 0.000000 0.000000 0.800000 sr} bdef
/c5 { 0.910000 0.820000 0.320000 sr} bdef
/c6 { 1.000000 0.260000 0.820000 sr} bdef
/c7 { 0.000000 0.820000 0.820000 sr} bdef
c0
1 j
1 sg
   0    0 4264 4035 rf
6 w
0 1817 -1435 -833 0 -1816 3858 2951 4 MP
PP
1435 832 0 1817 -1435 -833 0 -1816 3858 2951 5 MP stroke
1435 832 1869 -638 -1434 -832 1988 3589 4 MP
PP
-1870 638 1435 832 1869 -638 -1434 -832 1988 3589 5 MP stroke
0 1817 1869 -639 0 -1816 554 2757 4 MP
PP
-1869 638 0 1817 1869 -639 0 -1816 554 2757 5 MP stroke
4 w
DO
0 sg
1988 3589 mt  554 2757 L
 554 2757 mt  554  941 L
2923 3270 mt 1488 2438 L
1488 2438 mt 1488  622 L
3858 2951 mt 2423 2119 L
2423 2119 mt 2423  302 L
1988 3589 mt 3858 2951 L
3858 2951 mt 3858 1135 L
1701 3423 mt 3571 2785 L
3571 2785 mt 3571  968 L
1414 3257 mt 3284 2618 L
3284 2618 mt 3284  802 L
1127 3090 mt 2997 2452 L
2997 2452 mt 2997  635 L
 840 2924 mt 2710 2285 L
2710 2285 mt 2710  469 L
 554 2757 mt 2423 2119 L
2423 2119 mt 2423  302 L
 554 2757 mt 2423 2119 L
2423 2119 mt 3858 2951 L
 554 2394 mt 2423 1756 L
2423 1756 mt 3858 2588 L
 554 2031 mt 2423 1392 L
2423 1392 mt 3858 2224 L
 554 1668 mt 2423 1029 L
2423 1029 mt 3858 1861 L
 554 1304 mt 2423  666 L
2423  666 mt 3858 1498 L
 554  941 mt 2423  302 L
2423  302 mt 3858 1135 L
SO
6 w
1988 3589 mt 3858 2951 L
1988 3589 mt  554 2757 L
 554 2757 mt  554  941 L
1988 3589 mt 2031 3614 L
%%IncludeResource: font Helvetica
/Helvetica /ISOLatin1Encoding 120 FMSR

2061 3743 mt 
(0) s
2923 3270 mt 2965 3295 L
2995 3423 mt 
(0.5) s
3858 2951 mt 3900 2976 L
3930 3104 mt 
(1) s
1988 3589 mt 1941 3605 L
1843 3728 mt 
(0) s
1701 3423 mt 1654 3439 L
1456 3561 mt 
(0.2) s
1414 3257 mt 1367 3273 L
1169 3395 mt 
(0.4) s
1127 3090 mt 1081 3106 L
 882 3228 mt 
(0.6) s
 840 2924 mt  794 2940 L
 595 3062 mt 
(0.8) s
 554 2757 mt  507 2773 L
 408 2896 mt 
(1) s
 554 2757 mt  511 2733 L
 415 2759 mt 
(0) s
 554 2394 mt  511 2369 L
 315 2396 mt 
(0.2) s
 554 2031 mt  511 2006 L
 315 2033 mt 
(0.4) s
 554 1668 mt  511 1643 L
 315 1669 mt 
(0.6) s
 554 1304 mt  511 1279 L
 315 1306 mt 
(0.8) s
 554  941 mt  511  916 L
 415  943 mt 
(1) s
gs 554 302 3305 3288 rc
/c8 { 0.000000 0.000000 0.562500 sr} bdef
c8
-76 -330 99 -34 3759 2985 3 MP
PP
0 sg
3759 2985 mt 3858 2951 L
3858 2951 mt 3782 2621 L
c8
98 -34 -75 -330 3759 2985 3 MP
PP
0 sg
3759 2985 mt 3684 2655 L
3684 2655 mt 3782 2621 L
/c9 { 0.000000 0.250000 1.000000 sr} bdef
c9
-76 -307 98 -34 3684 2655 3 MP
PP
0 sg
3684 2655 mt 3782 2621 L
3782 2621 mt 3706 2314 L
c8
-75 -330 98 -33 3661 3018 3 MP
PP
0 sg
3661 3018 mt 3759 2985 L
3759 2985 mt 3684 2655 L
c9
98 -34 -76 -307 3684 2655 3 MP
PP
0 sg
3684 2655 mt 3608 2348 L
3608 2348 mt 3706 2314 L
/c10 { 0.000000 0.937500 1.000000 sr} bdef
c10
-75 -281 98 -34 3608 2348 3 MP
PP
0 sg
3608 2348 mt 3706 2314 L
3706 2314 mt 3631 2033 L
c8
99 -34 -76 -329 3661 3018 3 MP
PP
0 sg
3661 3018 mt 3585 2689 L
3585 2689 mt 3684 2655 L
c9
-76 -307 99 -34 3585 2689 3 MP
PP
0 sg
3585 2689 mt 3684 2655 L
3684 2655 mt 3608 2348 L
c8
-76 -329 99 -34 3562 3052 3 MP
PP
0 sg
3562 3052 mt 3661 3018 L
3661 3018 mt 3585 2689 L
c10
98 -34 -75 -281 3608 2348 3 MP
PP
0 sg
3608 2348 mt 3533 2067 L
3533 2067 mt 3631 2033 L
/c11 { 0.562500 1.000000 0.437500 sr} bdef
c11
-76 -252 98 -34 3533 2067 3 MP
PP
0 sg
3533 2067 mt 3631 2033 L
3631 2033 mt 3555 1781 L
c9
98 -34 -75 -307 3585 2689 3 MP
PP
0 sg
3585 2689 mt 3510 2382 L
3510 2382 mt 3608 2348 L
c10
-75 -281 98 -34 3510 2382 3 MP
PP
0 sg
3510 2382 mt 3608 2348 L
3608 2348 mt 3533 2067 L
c8
98 -34 -75 -329 3562 3052 3 MP
PP
0 sg
3562 3052 mt 3487 2723 L
3487 2723 mt 3585 2689 L
c9
-75 -307 98 -34 3487 2723 3 MP
PP
0 sg
3487 2723 mt 3585 2689 L
3585 2689 mt 3510 2382 L
c8
-75 -329 98 -33 3464 3085 3 MP
PP
0 sg
3464 3085 mt 3562 3052 L
3562 3052 mt 3487 2723 L
c11
98 -35 -76 -251 3533 2067 3 MP
PP
0 sg
3533 2067 mt 3457 1816 L
3457 1816 mt 3555 1781 L
/c12 { 1.000000 0.875000 0.000000 sr} bdef
c12
-75 -221 98 -35 3457 1816 3 MP
PP
0 sg
3457 1816 mt 3555 1781 L
3555 1781 mt 3480 1560 L
c10
99 -35 -76 -280 3510 2382 3 MP
PP
0 sg
3510 2382 mt 3434 2102 L
3434 2102 mt 3533 2067 L
c11
-76 -251 99 -35 3434 2102 3 MP
PP
0 sg
3434 2102 mt 3533 2067 L
3533 2067 mt 3457 1816 L
c9
99 -35 -76 -306 3487 2723 3 MP
PP
0 sg
3487 2723 mt 3411 2417 L
3411 2417 mt 3510 2382 L
c10
-76 -280 99 -35 3411 2417 3 MP
PP
0 sg
3411 2417 mt 3510 2382 L
3510 2382 mt 3434 2102 L
c8
99 -34 -76 -328 3464 3085 3 MP
PP
0 sg
3464 3085 mt 3388 2757 L
3388 2757 mt 3487 2723 L
c9
-76 -306 99 -34 3388 2757 3 MP
PP
0 sg
3388 2757 mt 3487 2723 L
3487 2723 mt 3411 2417 L
c12
98 -35 -75 -221 3457 1816 3 MP
PP
0 sg
3457 1816 mt 3382 1595 L
3382 1595 mt 3480 1560 L
/c13 { 1.000000 0.437500 0.000000 sr} bdef
c13
-76 -188 98 -35 3382 1595 3 MP
PP
0 sg
3382 1595 mt 3480 1560 L
3480 1560 mt 3404 1372 L
c8
-76 -328 98 -34 3366 3119 3 MP
PP
0 sg
3366 3119 mt 3464 3085 L
3464 3085 mt 3388 2757 L
c11
98 -35 -75 -251 3434 2102 3 MP
PP
0 sg
3434 2102 mt 3359 1851 L
3359 1851 mt 3457 1816 L
c12
-75 -221 98 -35 3359 1851 3 MP
PP
0 sg
3359 1851 mt 3457 1816 L
3457 1816 mt 3382 1595 L
c10
98 -35 -75 -280 3411 2417 3 MP
PP
0 sg
3411 2417 mt 3336 2137 L
3336 2137 mt 3434 2102 L
c11
-75 -251 98 -35 3336 2137 3 MP
PP
0 sg
3336 2137 mt 3434 2102 L
3434 2102 mt 3359 1851 L
c9
98 -35 -75 -305 3388 2757 3 MP
PP
0 sg
3388 2757 mt 3313 2452 L
3313 2452 mt 3411 2417 L
c10
-75 -280 98 -35 3313 2452 3 MP
PP
0 sg
3313 2452 mt 3411 2417 L
3411 2417 mt 3336 2137 L
c13
98 -35 -76 -188 3382 1595 3 MP
PP
0 sg
3382 1595 mt 3306 1407 L
3306 1407 mt 3404 1372 L
/c14 { 1.000000 0.062500 0.000000 sr} bdef
c14
-75 -153 98 -35 3306 1407 3 MP
PP
0 sg
3306 1407 mt 3404 1372 L
3404 1372 mt 3329 1219 L
c8
98 -34 -76 -328 3366 3119 3 MP
PP
0 sg
3366 3119 mt 3290 2791 L
3290 2791 mt 3388 2757 L
c9
-75 -305 98 -34 3290 2791 3 MP
PP
0 sg
3290 2791 mt 3388 2757 L
3388 2757 mt 3313 2452 L
c12
99 -35 -76 -221 3359 1851 3 MP
PP
0 sg
3359 1851 mt 3283 1630 L
3283 1630 mt 3382 1595 L
c13
-76 -188 99 -35 3283 1630 3 MP
PP
0 sg
3283 1630 mt 3382 1595 L
3382 1595 mt 3306 1407 L
c8
-76 -328 99 -34 3267 3153 3 MP
PP
0 sg
3267 3153 mt 3366 3119 L
3366 3119 mt 3290 2791 L
c11
99 -35 -76 -251 3336 2137 3 MP
PP
0 sg
3336 2137 mt 3260 1886 L
3260 1886 mt 3359 1851 L
c12
-76 -221 99 -35 3260 1886 3 MP
PP
0 sg
3260 1886 mt 3359 1851 L
3359 1851 mt 3283 1630 L
c10
99 -36 -76 -279 3313 2452 3 MP
PP
0 sg
3313 2452 mt 3237 2173 L
3237 2173 mt 3336 2137 L
c11
-76 -251 99 -36 3237 2173 3 MP
PP
0 sg
3237 2173 mt 3336 2137 L
3336 2137 mt 3260 1886 L
c14
98 -35 -75 -153 3306 1407 3 MP
PP
0 sg
3306 1407 mt 3231 1254 L
3231 1254 mt 3329 1219 L
/c15 { 0.750000 0.000000 0.000000 sr} bdef
c15
-76 -118 98 -35 3231 1254 3 MP
PP
0 sg
3231 1254 mt 3329 1219 L
3329 1219 mt 3253 1101 L
c9
98 -35 -75 -304 3290 2791 3 MP
PP
0 sg
3290 2791 mt 3215 2487 L
3215 2487 mt 3313 2452 L
c10
-76 -279 98 -35 3215 2487 3 MP
PP
0 sg
3215 2487 mt 3313 2452 L
3313 2452 mt 3237 2173 L
c13
98 -36 -75 -187 3283 1630 3 MP
PP
0 sg
3283 1630 mt 3208 1443 L
3208 1443 mt 3306 1407 L
c14
-75 -153 98 -36 3208 1443 3 MP
PP
0 sg
3208 1443 mt 3306 1407 L
3306 1407 mt 3231 1254 L
c8
98 -35 -75 -327 3267 3153 3 MP
PP
0 sg
3267 3153 mt 3192 2826 L
3192 2826 mt 3290 2791 L
c9
-75 -304 98 -35 3192 2826 3 MP
PP
0 sg
3192 2826 mt 3290 2791 L
3290 2791 mt 3215 2487 L
c12
98 -36 -75 -220 3260 1886 3 MP
PP
0 sg
3260 1886 mt 3185 1666 L
3185 1666 mt 3283 1630 L
c13
-75 -187 98 -36 3185 1666 3 MP
PP
0 sg
3185 1666 mt 3283 1630 L
3283 1630 mt 3208 1443 L
c8
-75 -327 98 -33 3169 3186 3 MP
PP
0 sg
3169 3186 mt 3267 3153 L
3267 3153 mt 3192 2826 L
c11
98 -36 -75 -251 3237 2173 3 MP
PP
0 sg
3237 2173 mt 3162 1922 L
3162 1922 mt 3260 1886 L
c12
-75 -220 98 -36 3162 1922 3 MP
PP
0 sg
3162 1922 mt 3260 1886 L
3260 1886 mt 3185 1666 L
c15
98 -35 -76 -118 3231 1254 3 MP
PP
0 sg
3231 1254 mt 3155 1136 L
3155 1136 mt 3253 1101 L
/c16 { 0.562500 0.000000 0.000000 sr} bdef
c16
-75 -80 98 -35 3155 1136 3 MP
PP
0 sg
3155 1136 mt 3253 1101 L
3253 1101 mt 3178 1021 L
c10
98 -36 -76 -278 3215 2487 3 MP
PP
0 sg
3215 2487 mt 3139 2209 L
3139 2209 mt 3237 2173 L
c11
-75 -251 98 -36 3139 2209 3 MP
PP
0 sg
3139 2209 mt 3237 2173 L
3237 2173 mt 3162 1922 L
c14
99 -36 -76 -153 3208 1443 3 MP
PP
0 sg
3208 1443 mt 3132 1290 L
3132 1290 mt 3231 1254 L
c15
-76 -118 99 -36 3132 1290 3 MP
PP
0 sg
3132 1290 mt 3231 1254 L
3231 1254 mt 3155 1136 L
c9
99 -36 -76 -303 3192 2826 3 MP
PP
0 sg
3192 2826 mt 3116 2523 L
3116 2523 mt 3215 2487 L
c10
-76 -278 99 -36 3116 2523 3 MP
PP
0 sg
3116 2523 mt 3215 2487 L
3215 2487 mt 3139 2209 L
c13
99 -36 -76 -187 3185 1666 3 MP
PP
0 sg
3185 1666 mt 3109 1479 L
3109 1479 mt 3208 1443 L
c14
-76 -153 99 -36 3109 1479 3 MP
PP
0 sg
3109 1479 mt 3208 1443 L
3208 1443 mt 3132 1290 L
c8
99 -36 -76 -324 3169 3186 3 MP
PP
0 sg
3169 3186 mt 3093 2862 L
3093 2862 mt 3192 2826 L
c9
-76 -303 99 -36 3093 2862 3 MP
PP
0 sg
3093 2862 mt 3192 2826 L
3192 2826 mt 3116 2523 L
c12
99 -36 -76 -220 3162 1922 3 MP
PP
0 sg
3162 1922 mt 3086 1702 L
3086 1702 mt 3185 1666 L
c13
-76 -187 99 -36 3086 1702 3 MP
PP
0 sg
3086 1702 mt 3185 1666 L
3185 1666 mt 3109 1479 L
c16
98 -35 -75 -80 3155 1136 3 MP
PP
0 sg
3155 1136 mt 3080 1056 L
3080 1056 mt 3178 1021 L
/c17 { 0.500000 0.000000 0.000000 sr} bdef
c17
-76 -44 98 -35 3080 1056 3 MP
PP
0 sg
3080 1056 mt 3178 1021 L
3178 1021 mt 3102  977 L
c8
-76 -324 99 -34 3070 3220 3 MP
PP
0 sg
3070 3220 mt 3169 3186 L
3169 3186 mt 3093 2862 L
c11
98 -37 -75 -250 3139 2209 3 MP
PP
0 sg
3139 2209 mt 3064 1959 L
3064 1959 mt 3162 1922 L
c12
-76 -220 98 -37 3064 1959 3 MP
PP
0 sg
3064 1959 mt 3162 1922 L
3162 1922 mt 3086 1702 L
c15
98 -36 -75 -118 3132 1290 3 MP
PP
0 sg
3132 1290 mt 3057 1172 L
3057 1172 mt 3155 1136 L
c16
-75 -80 98 -36 3057 1172 3 MP
PP
0 sg
3057 1172 mt 3155 1136 L
3155 1136 mt 3080 1056 L
c10
98 -37 -75 -277 3116 2523 3 MP
PP
0 sg
3116 2523 mt 3041 2246 L
3041 2246 mt 3139 2209 L
c11
-75 -250 98 -37 3041 2246 3 MP
PP
0 sg
3041 2246 mt 3139 2209 L
3139 2209 mt 3064 1959 L
c14
98 -36 -75 -153 3109 1479 3 MP
PP
0 sg
3109 1479 mt 3034 1326 L
3034 1326 mt 3132 1290 L
c15
-75 -118 98 -36 3034 1326 3 MP
PP
0 sg
3034 1326 mt 3132 1290 L
3132 1290 mt 3057 1172 L
c9
98 -37 -75 -302 3093 2862 3 MP
PP
0 sg
3093 2862 mt 3018 2560 L
3018 2560 mt 3116 2523 L
c10
-75 -277 98 -37 3018 2560 3 MP
PP
0 sg
3018 2560 mt 3116 2523 L
3116 2523 mt 3041 2246 L
c13
98 -37 -75 -186 3086 1702 3 MP
PP
0 sg
3086 1702 mt 3011 1516 L
3011 1516 mt 3109 1479 L
c14
-75 -153 98 -37 3011 1516 3 MP
PP
0 sg
3011 1516 mt 3109 1479 L
3109 1479 mt 3034 1326 L
c17
98 -35 -76 -44 3080 1056 3 MP
PP
0 sg
3080 1056 mt 3004 1012 L
3004 1012 mt 3102  977 L
c17
-75 -7 98 -35 3004 1012 3 MP
PP
0 sg
3004 1012 mt 3102  977 L
3102  977 mt 3027  970 L
c8
98 -35 -75 -323 3070 3220 3 MP
PP
0 sg
3070 3220 mt 2995 2897 L
2995 2897 mt 3093 2862 L
c9
-75 -302 98 -35 2995 2897 3 MP
PP
0 sg
2995 2897 mt 3093 2862 L
3093 2862 mt 3018 2560 L
c12
98 -38 -76 -219 3064 1959 3 MP
PP
0 sg
3064 1959 mt 2988 1740 L
2988 1740 mt 3086 1702 L
c13
-75 -186 98 -38 2988 1740 3 MP
PP
0 sg
2988 1740 mt 3086 1702 L
3086 1702 mt 3011 1516 L
c16
99 -36 -76 -80 3057 1172 3 MP
PP
0 sg
3057 1172 mt 2981 1092 L
2981 1092 mt 3080 1056 L
c17
-76 -44 99 -36 2981 1092 3 MP
PP
0 sg
2981 1092 mt 3080 1056 L
3080 1056 mt 3004 1012 L
c8
-75 -323 98 -33 2972 3253 3 MP
PP
0 sg
2972 3253 mt 3070 3220 L
3070 3220 mt 2995 2897 L
c11
99 -38 -76 -249 3041 2246 3 MP
PP
0 sg
3041 2246 mt 2965 1997 L
2965 1997 mt 3064 1959 L
/c18 { 1.000000 0.937500 0.000000 sr} bdef
c18
-76 -219 99 -38 2965 1997 3 MP
PP
0 sg
2965 1997 mt 3064 1959 L
3064 1959 mt 2988 1740 L
c15
99 -37 -76 -117 3034 1326 3 MP
PP
0 sg
3034 1326 mt 2958 1209 L
2958 1209 mt 3057 1172 L
c16
-76 -80 99 -37 2958 1209 3 MP
PP
0 sg
2958 1209 mt 3057 1172 L
3057 1172 mt 2981 1092 L
c10
99 -39 -76 -275 3018 2560 3 MP
PP
0 sg
3018 2560 mt 2942 2285 L
2942 2285 mt 3041 2246 L
c11
-76 -249 99 -39 2942 2285 3 MP
PP
0 sg
2942 2285 mt 3041 2246 L
3041 2246 mt 2965 1997 L
c14
99 -37 -76 -153 3011 1516 3 MP
PP
0 sg
3011 1516 mt 2935 1363 L
2935 1363 mt 3034 1326 L
/c19 { 0.812500 0.000000 0.000000 sr} bdef
c19
-76 -117 99 -37 2935 1363 3 MP
PP
0 sg
2935 1363 mt 3034 1326 L
3034 1326 mt 2958 1209 L
c15
-75 66 98 -35 2853 1035 3 MP
PP
0 sg
2853 1035 mt 2951 1000 L
2951 1000 mt 2876 1066 L
c16
98 -35 -76 30 2929 1005 3 MP
PP
0 sg
2929 1005 mt 2853 1035 L
2853 1035 mt 2951 1000 L
c16
-76 30 98 -35 2929 1005 3 MP
PP
0 sg
2929 1005 mt 3027  970 L
3027  970 mt 2951 1000 L
c17
98 -35 -75 -7 3004 1012 3 MP
PP
0 sg
3004 1012 mt 2929 1005 L
2929 1005 mt 3027  970 L
c9
99 -38 -76 -299 2995 2897 3 MP
PP
0 sg
2995 2897 mt 2919 2598 L
2919 2598 mt 3018 2560 L
c10
-76 -275 99 -38 2919 2598 3 MP
PP
0 sg
2919 2598 mt 3018 2560 L
3018 2560 mt 2942 2285 L
c13
98 -38 -75 -186 2988 1740 3 MP
PP
0 sg
2988 1740 mt 2913 1554 L
2913 1554 mt 3011 1516 L
c14
-76 -153 98 -38 2913 1554 3 MP
PP
0 sg
2913 1554 mt 3011 1516 L
3011 1516 mt 2935 1363 L
c17
98 -36 -75 -44 2981 1092 3 MP
PP
0 sg
2981 1092 mt 2906 1048 L
2906 1048 mt 3004 1012 L
c17
-75 -7 98 -36 2906 1048 3 MP
PP
0 sg
2906 1048 mt 3004 1012 L
3004 1012 mt 2929 1005 L
c8
99 -37 -76 -319 2972 3253 3 MP
PP
0 sg
2972 3253 mt 2896 2934 L
2896 2934 mt 2995 2897 L
c9
-76 -299 99 -37 2896 2934 3 MP
PP
0 sg
2896 2934 mt 2995 2897 L
2995 2897 mt 2919 2598 L
c18
98 -39 -75 -218 2965 1997 3 MP
PP
0 sg
2965 1997 mt 2890 1779 L
2890 1779 mt 2988 1740 L
c13
-75 -186 98 -39 2890 1779 3 MP
PP
0 sg
2890 1779 mt 2988 1740 L
2988 1740 mt 2913 1554 L
c16
98 -36 -75 -81 2958 1209 3 MP
PP
0 sg
2958 1209 mt 2883 1128 L
2883 1128 mt 2981 1092 L
c17
-75 -44 98 -36 2883 1128 3 MP
PP
0 sg
2883 1128 mt 2981 1092 L
2981 1092 mt 2906 1048 L
c8
-76 -319 98 -34 2874 3287 3 MP
PP
0 sg
2874 3287 mt 2972 3253 L
2972 3253 mt 2896 2934 L
c11
98 -40 -75 -248 2942 2285 3 MP
PP
0 sg
2942 2285 mt 2867 2037 L
2867 2037 mt 2965 1997 L
c18
-75 -218 98 -40 2867 2037 3 MP
PP
0 sg
2867 2037 mt 2965 1997 L
2965 1997 mt 2890 1779 L
c19
98 -37 -75 -117 2935 1363 3 MP
PP
0 sg
2935 1363 mt 2860 1246 L
2860 1246 mt 2958 1209 L
c16
-75 -81 98 -37 2860 1246 3 MP
PP
0 sg
2860 1246 mt 2958 1209 L
2958 1209 mt 2883 1128 L
c10
98 -40 -75 -273 2919 2598 3 MP
PP
0 sg
2919 2598 mt 2844 2325 L
2844 2325 mt 2942 2285 L
/c20 { 0.500000 1.000000 0.500000 sr} bdef
c20
-75 -248 98 -40 2844 2325 3 MP
PP
0 sg
2844 2325 mt 2942 2285 L
2942 2285 mt 2867 2037 L
c14
98 -39 -76 -152 2913 1554 3 MP
PP
0 sg
2913 1554 mt 2837 1402 L
2837 1402 mt 2935 1363 L
c19
-75 -117 98 -39 2837 1402 3 MP
PP
0 sg
2837 1402 mt 2935 1363 L
2935 1363 mt 2860 1246 L
c15
-75 66 98 -36 2755 1071 3 MP
PP
0 sg
2755 1071 mt 2853 1035 L
2853 1035 mt 2778 1101 L
c16
98 -36 -75 30 2830 1041 3 MP
PP
0 sg
2830 1041 mt 2755 1071 L
2755 1071 mt 2853 1035 L
c15
98 -35 -75 66 2853 1035 3 MP
PP
0 sg
2853 1035 mt 2778 1101 L
2778 1101 mt 2876 1066 L
c16
-76 30 99 -36 2830 1041 3 MP
PP
0 sg
2830 1041 mt 2929 1005 L
2929 1005 mt 2853 1035 L
c17
99 -36 -76 -7 2906 1048 3 MP
PP
0 sg
2906 1048 mt 2830 1041 L
2830 1041 mt 2929 1005 L
c9
98 -40 -75 -296 2896 2934 3 MP
PP
0 sg
2896 2934 mt 2821 2638 L
2821 2638 mt 2919 2598 L
/c21 { 0.000000 0.875000 1.000000 sr} bdef
c21
-75 -273 98 -40 2821 2638 3 MP
PP
0 sg
2821 2638 mt 2919 2598 L
2919 2598 mt 2844 2325 L
c13
99 -40 -76 -185 2890 1779 3 MP
PP
0 sg
2890 1779 mt 2814 1594 L
2814 1594 mt 2913 1554 L
/c22 { 1.000000 0.125000 0.000000 sr} bdef
c22
-76 -152 99 -40 2814 1594 3 MP
PP
0 sg
2814 1594 mt 2913 1554 L
2913 1554 mt 2837 1402 L
c14
-76 100 98 -35 2778 1101 3 MP
PP
0 sg
2778 1101 mt 2876 1066 L
2876 1066 mt 2800 1166 L
c17
99 -36 -76 -44 2883 1128 3 MP
PP
0 sg
2883 1128 mt 2807 1084 L
2807 1084 mt 2906 1048 L
c17
-76 -7 99 -36 2807 1084 3 MP
PP
0 sg
2807 1084 mt 2906 1048 L
2906 1048 mt 2830 1041 L
c8
98 -38 -76 -315 2874 3287 3 MP
PP
0 sg
2874 3287 mt 2798 2972 L
2798 2972 mt 2896 2934 L
c9
-75 -296 98 -38 2798 2972 3 MP
PP
0 sg
2798 2972 mt 2896 2934 L
2896 2934 mt 2821 2638 L
c18
99 -41 -76 -217 2867 2037 3 MP
PP
0 sg
2867 2037 mt 2791 1820 L
2791 1820 mt 2890 1779 L
/c23 { 1.000000 0.500000 0.000000 sr} bdef
c23
-76 -185 99 -41 2791 1820 3 MP
PP
0 sg
2791 1820 mt 2890 1779 L
2890 1779 mt 2814 1594 L
c13
-75 133 98 -35 2702 1201 3 MP
PP
0 sg
2702 1201 mt 2800 1166 L
2800 1166 mt 2725 1299 L
c14
98 -35 -76 100 2778 1101 3 MP
PP
0 sg
2778 1101 mt 2702 1201 L
2702 1201 mt 2800 1166 L
c16
99 -38 -76 -80 2860 1246 3 MP
PP
0 sg
2860 1246 mt 2784 1166 L
2784 1166 mt 2883 1128 L
c17
-76 -44 99 -38 2784 1166 3 MP
PP
0 sg
2784 1166 mt 2883 1128 L
2883 1128 mt 2807 1084 L
c8
-76 -315 99 -34 2775 3321 3 MP
PP
0 sg
2775 3321 mt 2874 3287 L
2874 3287 mt 2798 2972 L
c20
99 -42 -76 -246 2844 2325 3 MP
PP
0 sg
2844 2325 mt 2768 2079 L
2768 2079 mt 2867 2037 L
c18
-76 -217 99 -42 2768 2079 3 MP
PP
0 sg
2768 2079 mt 2867 2037 L
2867 2037 mt 2791 1820 L
c19
98 -39 -75 -117 2837 1402 3 MP
PP
0 sg
2837 1402 mt 2762 1285 L
2762 1285 mt 2860 1246 L
/c24 { 0.625000 0.000000 0.000000 sr} bdef
c24
-76 -80 98 -39 2762 1285 3 MP
PP
0 sg
2762 1285 mt 2860 1246 L
2860 1246 mt 2784 1166 L
c21
99 -43 -76 -270 2821 2638 3 MP
PP
0 sg
2821 2638 mt 2745 2368 L
2745 2368 mt 2844 2325 L
c20
-76 -246 99 -43 2745 2368 3 MP
PP
0 sg
2745 2368 mt 2844 2325 L
2844 2325 mt 2768 2079 L
c22
98 -40 -75 -152 2814 1594 3 MP
PP
0 sg
2814 1594 mt 2739 1442 L
2739 1442 mt 2837 1402 L
c19
-75 -117 98 -40 2739 1442 3 MP
PP
0 sg
2739 1442 mt 2837 1402 L
2837 1402 mt 2762 1285 L
c15
-76 65 99 -36 2656 1107 3 MP
PP
0 sg
2656 1107 mt 2755 1071 L
2755 1071 mt 2679 1136 L
c16
99 -36 -76 30 2732 1077 3 MP
PP
0 sg
2732 1077 mt 2656 1107 L
2656 1107 mt 2755 1071 L
c15
99 -35 -76 65 2755 1071 3 MP
PP
0 sg
2755 1071 mt 2679 1136 L
2679 1136 mt 2778 1101 L
c16
-75 30 98 -36 2732 1077 3 MP
PP
0 sg
2732 1077 mt 2830 1041 L
2830 1041 mt 2755 1071 L
c17
98 -36 -75 -7 2807 1084 3 MP
PP
0 sg
2807 1084 mt 2732 1077 L
2732 1077 mt 2830 1041 L
c9
98 -42 -75 -292 2798 2972 3 MP
PP
0 sg
2798 2972 mt 2723 2680 L
2723 2680 mt 2821 2638 L
c21
-76 -270 98 -42 2723 2680 3 MP
PP
0 sg
2723 2680 mt 2821 2638 L
2821 2638 mt 2745 2368 L
c23
98 -42 -75 -184 2791 1820 3 MP
PP
0 sg
2791 1820 mt 2716 1636 L
2716 1636 mt 2814 1594 L
c22
-75 -152 98 -42 2716 1636 3 MP
PP
0 sg
2716 1636 mt 2814 1594 L
2814 1594 mt 2739 1442 L
c14
-76 100 99 -35 2679 1136 3 MP
PP
0 sg
2679 1136 mt 2778 1101 L
2778 1101 mt 2702 1201 L
c17
98 -38 -75 -44 2784 1166 3 MP
PP
0 sg
2784 1166 mt 2709 1122 L
2709 1122 mt 2807 1084 L
c17
-75 -7 98 -38 2709 1122 3 MP
PP
0 sg
2709 1122 mt 2807 1084 L
2807 1084 mt 2732 1077 L
c8
98 -40 -75 -309 2775 3321 3 MP
PP
0 sg
2775 3321 mt 2700 3012 L
2700 3012 mt 2798 2972 L
c9
-75 -292 98 -40 2700 3012 3 MP
PP
0 sg
2700 3012 mt 2798 2972 L
2798 2972 mt 2723 2680 L
c18
98 -44 -75 -215 2768 2079 3 MP
PP
0 sg
2768 2079 mt 2693 1864 L
2693 1864 mt 2791 1820 L
c23
-75 -184 98 -44 2693 1864 3 MP
PP
0 sg
2693 1864 mt 2791 1820 L
2791 1820 mt 2716 1636 L
c13
-75 133 98 -35 2604 1236 3 MP
PP
0 sg
2604 1236 mt 2702 1201 L
2702 1201 mt 2627 1334 L
c14
98 -35 -75 100 2679 1136 3 MP
PP
0 sg
2679 1136 mt 2604 1236 L
2604 1236 mt 2702 1201 L
c13
98 -35 -75 133 2702 1201 3 MP
PP
0 sg
2702 1201 mt 2627 1334 L
2627 1334 mt 2725 1299 L
c24
98 -39 -76 -80 2762 1285 3 MP
PP
0 sg
2762 1285 mt 2686 1205 L
2686 1205 mt 2784 1166 L
c17
-75 -44 98 -39 2686 1205 3 MP
PP
0 sg
2686 1205 mt 2784 1166 L
2784 1166 mt 2709 1122 L
c8
-75 -309 98 -33 2677 3354 3 MP
PP
0 sg
2677 3354 mt 2775 3321 L
2775 3321 mt 2700 3012 L
c20
98 -46 -75 -243 2745 2368 3 MP
PP
0 sg
2745 2368 mt 2670 2125 L
2670 2125 mt 2768 2079 L
/c25 { 1.000000 1.000000 0.000000 sr} bdef
c25
-75 -215 98 -46 2670 2125 3 MP
PP
0 sg
2670 2125 mt 2768 2079 L
2768 2079 mt 2693 1864 L
c12
-76 165 98 -35 2627 1334 3 MP
PP
0 sg
2627 1334 mt 2725 1299 L
2725 1299 mt 2649 1464 L
c19
99 -41 -76 -116 2739 1442 3 MP
PP
0 sg
2739 1442 mt 2663 1326 L
2663 1326 mt 2762 1285 L
c24
-76 -80 99 -41 2663 1326 3 MP
PP
0 sg
2663 1326 mt 2762 1285 L
2762 1285 mt 2686 1205 L
c21
98 -45 -76 -267 2723 2680 3 MP
PP
0 sg
2723 2680 mt 2647 2413 L
2647 2413 mt 2745 2368 L
/c26 { 0.437500 1.000000 0.562500 sr} bdef
c26
-75 -243 98 -45 2647 2413 3 MP
PP
0 sg
2647 2413 mt 2745 2368 L
2745 2368 mt 2670 2125 L
c11
-75 193 98 -34 2551 1498 3 MP
PP
0 sg
2551 1498 mt 2649 1464 L
2649 1464 mt 2574 1657 L
c22
99 -43 -76 -151 2716 1636 3 MP
PP
0 sg
2716 1636 mt 2640 1485 L
2640 1485 mt 2739 1442 L
c12
98 -34 -76 164 2627 1334 3 MP
PP
0 sg
2627 1334 mt 2551 1498 L
2551 1498 mt 2649 1464 L
c19
-76 -116 99 -43 2640 1485 3 MP
PP
0 sg
2640 1485 mt 2739 1442 L
2739 1442 mt 2663 1326 L
c19
-75 65 98 -37 2558 1144 3 MP
PP
0 sg
2558 1144 mt 2656 1107 L
2656 1107 mt 2581 1172 L
c16
98 -37 -75 29 2633 1115 3 MP
PP
0 sg
2633 1115 mt 2558 1144 L
2558 1144 mt 2656 1107 L
c15
98 -36 -75 65 2656 1107 3 MP
PP
0 sg
2656 1107 mt 2581 1172 L
2581 1172 mt 2679 1136 L
c16
-76 30 99 -38 2633 1115 3 MP
PP
0 sg
2633 1115 mt 2732 1077 L
2732 1077 mt 2656 1107 L
c17
99 -38 -76 -7 2709 1122 3 MP
PP
0 sg
2709 1122 mt 2633 1115 L
2633 1115 mt 2732 1077 L
c9
99 -45 -76 -287 2700 3012 3 MP
PP
0 sg
2700 3012 mt 2624 2725 L
2624 2725 mt 2723 2680 L
c21
-76 -267 99 -45 2624 2725 3 MP
PP
0 sg
2624 2725 mt 2723 2680 L
2723 2680 mt 2647 2413 L
c23
99 -45 -76 -183 2693 1864 3 MP
PP
0 sg
2693 1864 mt 2617 1681 L
2617 1681 mt 2716 1636 L
c22
-76 -151 99 -45 2617 1681 3 MP
PP
0 sg
2617 1681 mt 2716 1636 L
2716 1636 mt 2640 1485 L
c14
-75 100 98 -36 2581 1172 3 MP
PP
0 sg
2581 1172 mt 2679 1136 L
2679 1136 mt 2604 1236 L
c17
98 -39 -75 -44 2686 1205 3 MP
PP
0 sg
2686 1205 mt 2611 1161 L
2611 1161 mt 2709 1122 L
c17
-76 -7 98 -39 2611 1161 3 MP
PP
0 sg
2611 1161 mt 2709 1122 L
2709 1122 mt 2633 1115 L
c8
99 -41 -76 -301 2677 3354 3 MP
PP
0 sg
2677 3354 mt 2601 3053 L
2601 3053 mt 2700 3012 L
/c27 { 0.000000 0.187500 1.000000 sr} bdef
c27
-76 -287 99 -41 2601 3053 3 MP
PP
0 sg
2601 3053 mt 2700 3012 L
2700 3012 mt 2624 2725 L
c25
99 -48 -76 -213 2670 2125 3 MP
PP
0 sg
2670 2125 mt 2594 1912 L
2594 1912 mt 2693 1864 L
/c28 { 1.000000 0.562500 0.000000 sr} bdef
c28
-76 -183 99 -48 2594 1912 3 MP
PP
0 sg
2594 1912 mt 2693 1864 L
2693 1864 mt 2617 1681 L
c13
-76 133 99 -36 2505 1272 3 MP
PP
0 sg
2505 1272 mt 2604 1236 L
2604 1236 mt 2528 1369 L
c13
99 -35 -76 133 2604 1236 3 MP
PP
0 sg
2604 1236 mt 2528 1369 L
2528 1369 mt 2627 1334 L
c24
98 -41 -75 -80 2663 1326 3 MP
PP
0 sg
2663 1326 mt 2588 1246 L
2588 1246 mt 2686 1205 L
c14
99 -36 -76 100 2581 1172 3 MP
PP
0 sg
2581 1172 mt 2505 1272 L
2505 1272 mt 2604 1236 L
c17
-75 -44 98 -41 2588 1246 3 MP
PP
0 sg
2588 1246 mt 2686 1205 L
2686 1205 mt 2611 1161 L
c8
-76 -301 99 -34 2578 3388 3 MP
PP
0 sg
2578 3388 mt 2677 3354 L
2677 3354 mt 2601 3053 L
c26
98 -49 -75 -239 2647 2413 3 MP
PP
0 sg
2647 2413 mt 2572 2174 L
2572 2174 mt 2670 2125 L
c25
-76 -213 98 -49 2572 2174 3 MP
PP
0 sg
2572 2174 mt 2670 2125 L
2670 2125 mt 2594 1912 L
c12
-76 164 99 -35 2528 1369 3 MP
PP
0 sg
2528 1369 mt 2627 1334 L
2627 1334 mt 2551 1498 L
c19
98 -44 -75 -115 2640 1485 3 MP
PP
0 sg
2640 1485 mt 2565 1370 L
2565 1370 mt 2663 1326 L
c24
-75 -80 98 -44 2565 1370 3 MP
PP
0 sg
2565 1370 mt 2663 1326 L
2663 1326 mt 2588 1246 L
c21
98 -51 -75 -261 2624 2725 3 MP
PP
0 sg
2624 2725 mt 2549 2464 L
2549 2464 mt 2647 2413 L
c26
-75 -239 98 -51 2549 2464 3 MP
PP
0 sg
2549 2464 mt 2647 2413 L
2647 2413 mt 2572 2174 L
c11
98 -34 -75 193 2551 1498 3 MP
PP
0 sg
2551 1498 mt 2476 1691 L
2476 1691 mt 2574 1657 L
c22
98 -47 -75 -149 2617 1681 3 MP
PP
0 sg
2617 1681 mt 2542 1532 L
2542 1532 mt 2640 1485 L
c11
-75 193 98 -35 2453 1533 3 MP
PP
0 sg
2453 1533 mt 2551 1498 L
2551 1498 mt 2476 1691 L
c12
98 -35 -75 164 2528 1369 3 MP
PP
0 sg
2528 1369 mt 2453 1533 L
2453 1533 mt 2551 1498 L
/c29 { 0.875000 0.000000 0.000000 sr} bdef
c29
-75 -115 98 -47 2542 1532 3 MP
PP
0 sg
2542 1532 mt 2640 1485 L
2640 1485 mt 2565 1370 L
c19
-76 65 98 -39 2460 1183 3 MP
PP
0 sg
2460 1183 mt 2558 1144 L
2558 1144 mt 2482 1209 L
c19
99 -37 -76 65 2558 1144 3 MP
PP
0 sg
2558 1144 mt 2482 1209 L
2482 1209 mt 2581 1172 L
c17
98 -39 -76 -7 2611 1161 3 MP
PP
0 sg
2611 1161 mt 2535 1154 L
2535 1154 mt 2633 1115 L
c24
-75 29 98 -39 2535 1154 3 MP
PP
0 sg
2535 1154 mt 2633 1115 L
2633 1115 mt 2558 1144 L
c27
98 -49 -75 -279 2601 3053 3 MP
PP
0 sg
2601 3053 mt 2526 2774 L
2526 2774 mt 2624 2725 L
/c30 { 0.000000 0.812500 1.000000 sr} bdef
c30
-75 -261 98 -49 2526 2774 3 MP
PP
0 sg
2526 2774 mt 2624 2725 L
2624 2725 mt 2549 2464 L
c10
-76 219 98 -34 2476 1691 3 MP
PP
0 sg
2476 1691 mt 2574 1657 L
2574 1657 mt 2498 1876 L
c28
98 -50 -75 -181 2594 1912 3 MP
PP
0 sg
2594 1912 mt 2519 1731 L
2519 1731 mt 2617 1681 L
/c31 { 1.000000 0.187500 0.000000 sr} bdef
c31
-75 -149 98 -50 2519 1731 3 MP
PP
0 sg
2519 1731 mt 2617 1681 L
2617 1681 mt 2542 1532 L
c14
-76 100 99 -37 2482 1209 3 MP
PP
0 sg
2482 1209 mt 2581 1172 L
2581 1172 mt 2505 1272 L
c17
99 -41 -76 -44 2588 1246 3 MP
PP
0 sg
2588 1246 mt 2512 1202 L
2512 1202 mt 2611 1161 L
c17
-76 -7 99 -41 2512 1202 3 MP
PP
0 sg
2512 1202 mt 2611 1161 L
2611 1161 mt 2535 1154 L
c8
98 -44 -75 -291 2578 3388 3 MP
PP
0 sg
2578 3388 mt 2503 3097 L
2503 3097 mt 2601 3053 L
c27
-75 -279 98 -44 2503 3097 3 MP
PP
0 sg
2503 3097 mt 2601 3053 L
2601 3053 mt 2526 2774 L
c25
98 -53 -76 -209 2572 2174 3 MP
PP
0 sg
2572 2174 mt 2496 1965 L
2496 1965 mt 2594 1912 L
/c32 { 1.000000 0.625000 0.000000 sr} bdef
c32
-75 -181 98 -53 2496 1965 3 MP
PP
0 sg
2496 1965 mt 2594 1912 L
2594 1912 mt 2519 1731 L
c13
-75 132 98 -36 2407 1308 3 MP
PP
0 sg
2407 1308 mt 2505 1272 L
2505 1272 mt 2430 1404 L
c13
98 -35 -75 132 2505 1272 3 MP
PP
0 sg
2505 1272 mt 2430 1404 L
2430 1404 mt 2528 1369 L
c24
99 -44 -76 -80 2565 1370 3 MP
PP
0 sg
2565 1370 mt 2489 1290 L
2489 1290 mt 2588 1246 L
c14
98 -36 -75 99 2482 1209 3 MP
PP
0 sg
2482 1209 mt 2407 1308 L
2407 1308 mt 2505 1272 L
c16
-76 -44 99 -44 2489 1290 3 MP
PP
0 sg
2489 1290 mt 2588 1246 L
2588 1246 mt 2512 1202 L
c8
-75 -291 98 -33 2480 3421 3 MP
PP
0 sg
2480 3421 mt 2578 3388 L
2578 3388 mt 2503 3097 L
c26
99 -56 -76 -234 2549 2464 3 MP
PP
0 sg
2549 2464 mt 2473 2230 L
2473 2230 mt 2572 2174 L
/c33 { 0.937500 1.000000 0.062500 sr} bdef
c33
-76 -209 99 -56 2473 2230 3 MP
PP
0 sg
2473 2230 mt 2572 2174 L
2572 2174 mt 2496 1965 L
c12
-75 164 98 -35 2430 1404 3 MP
PP
0 sg
2430 1404 mt 2528 1369 L
2528 1369 mt 2453 1533 L
c29
99 -47 -76 -115 2542 1532 3 MP
PP
0 sg
2542 1532 mt 2466 1417 L
2466 1417 mt 2565 1370 L
/c34 { 0.687500 0.000000 0.000000 sr} bdef
c34
-76 -80 99 -47 2466 1417 3 MP
PP
0 sg
2466 1417 mt 2565 1370 L
2565 1370 mt 2489 1290 L
c24
98 -39 -75 29 2535 1154 3 MP
PP
0 sg
2535 1154 mt 2460 1183 L
2460 1183 mt 2558 1144 L
c30
99 -56 -76 -254 2526 2774 3 MP
PP
0 sg
2526 2774 mt 2450 2520 L
2450 2520 mt 2549 2464 L
/c35 { 0.375000 1.000000 0.625000 sr} bdef
c35
-76 -234 99 -56 2450 2520 3 MP
PP
0 sg
2450 2520 mt 2549 2464 L
2549 2464 mt 2473 2230 L
c11
99 -34 -76 192 2453 1533 3 MP
PP
0 sg
2453 1533 mt 2377 1725 L
2377 1725 mt 2476 1691 L
c31
99 -51 -76 -148 2519 1731 3 MP
PP
0 sg
2519 1731 mt 2443 1583 L
2443 1583 mt 2542 1532 L
c11
-76 192 99 -35 2354 1568 3 MP
PP
0 sg
2354 1568 mt 2453 1533 L
2453 1533 mt 2377 1725 L
c12
99 -35 -76 164 2430 1404 3 MP
PP
0 sg
2430 1404 mt 2354 1568 L
2354 1568 mt 2453 1533 L
/c36 { 0.937500 0.000000 0.000000 sr} bdef
c36
-76 -115 99 -51 2443 1583 3 MP
PP
0 sg
2443 1583 mt 2542 1532 L
2542 1532 mt 2466 1417 L
c19
-76 64 99 -40 2361 1223 3 MP
PP
0 sg
2361 1223 mt 2460 1183 L
2460 1183 mt 2384 1247 L
c19
98 -38 -76 64 2460 1183 3 MP
PP
0 sg
2460 1183 mt 2384 1247 L
2384 1247 mt 2482 1209 L
c17
98 -41 -75 -7 2512 1202 3 MP
PP
0 sg
2512 1202 mt 2437 1195 L
2437 1195 mt 2535 1154 L
c24
-75 29 98 -41 2437 1195 3 MP
PP
0 sg
2437 1195 mt 2535 1154 L
2535 1154 mt 2460 1183 L
c27
99 -55 -76 -268 2503 3097 3 MP
PP
0 sg
2503 3097 mt 2427 2829 L
2427 2829 mt 2526 2774 L
/c37 { 0.000000 0.750000 1.000000 sr} bdef
c37
-76 -254 99 -55 2427 2829 3 MP
PP
0 sg
2427 2829 mt 2526 2774 L
2526 2774 mt 2450 2520 L
c10
-76 219 99 -34 2377 1725 3 MP
PP
0 sg
2377 1725 mt 2476 1691 L
2476 1691 mt 2400 1910 L
c9
-75 243 98 -34 2400 1910 3 MP
PP
0 sg
2400 1910 mt 2498 1876 L
2498 1876 mt 2423 2119 L
c10
98 -34 -76 219 2476 1691 3 MP
PP
0 sg
2476 1691 mt 2400 1910 L
2400 1910 mt 2498 1876 L
c32
98 -55 -75 -179 2496 1965 3 MP
PP
0 sg
2496 1965 mt 2421 1786 L
2421 1786 mt 2519 1731 L
/c38 { 1.000000 0.250000 0.000000 sr} bdef
c38
-76 -148 98 -55 2421 1786 3 MP
PP
0 sg
2421 1786 mt 2519 1731 L
2519 1731 mt 2443 1583 L
c14
-75 99 98 -38 2384 1247 3 MP
PP
0 sg
2384 1247 mt 2482 1209 L
2482 1209 mt 2407 1308 L
c16
98 -44 -75 -44 2489 1290 3 MP
PP
0 sg
2489 1290 mt 2414 1246 L
2414 1246 mt 2512 1202 L
c16
-75 -7 98 -44 2414 1246 3 MP
PP
0 sg
2414 1246 mt 2512 1202 L
2512 1202 mt 2437 1195 L
c8
99 -49 -76 -275 2480 3421 3 MP
PP
0 sg
2480 3421 mt 2404 3146 L
2404 3146 mt 2503 3097 L
/c39 { 0.000000 0.125000 1.000000 sr} bdef
c39
-76 -268 99 -49 2404 3146 3 MP
PP
0 sg
2404 3146 mt 2503 3097 L
2503 3097 mt 2427 2829 L
c9
98 -34 -75 243 2400 1910 3 MP
PP
0 sg
2400 1910 mt 2325 2153 L
2325 2153 mt 2423 2119 L
c33
98 -59 -75 -206 2473 2230 3 MP
PP
0 sg
2473 2230 mt 2398 2024 L
2398 2024 mt 2496 1965 L
/c40 { 1.000000 0.687500 0.000000 sr} bdef
c40
-75 -179 98 -59 2398 2024 3 MP
PP
0 sg
2398 2024 mt 2496 1965 L
2496 1965 mt 2421 1786 L
c13
99 -36 -76 132 2407 1308 3 MP
PP
0 sg
2407 1308 mt 2331 1440 L
2331 1440 mt 2430 1404 L
c34
98 -47 -75 -80 2466 1417 3 MP
PP
0 sg
2466 1417 mt 2391 1337 L
2391 1337 mt 2489 1290 L
c13
-76 132 98 -38 2309 1346 3 MP
PP
0 sg
2309 1346 mt 2407 1308 L
2407 1308 mt 2331 1440 L
c14
98 -38 -75 99 2384 1247 3 MP
PP
0 sg
2384 1247 mt 2309 1346 L
2309 1346 mt 2407 1308 L
c24
-75 -44 98 -47 2391 1337 3 MP
PP
0 sg
2391 1337 mt 2489 1290 L
2489 1290 mt 2414 1246 L
c8
-76 -275 98 -34 2382 3455 3 MP
PP
0 sg
2382 3455 mt 2480 3421 L
2480 3421 mt 2404 3146 L
c35
98 -63 -75 -227 2450 2520 3 MP
PP
0 sg
2450 2520 mt 2375 2293 L
2375 2293 mt 2473 2230 L
/c41 { 0.812500 1.000000 0.187500 sr} bdef
c41
-75 -206 98 -63 2375 2293 3 MP
PP
0 sg
2375 2293 mt 2473 2230 L
2473 2230 mt 2398 2024 L
c12
-76 164 99 -36 2331 1440 3 MP
PP
0 sg
2331 1440 mt 2430 1404 L
2430 1404 mt 2354 1568 L
c36
98 -52 -75 -114 2443 1583 3 MP
PP
0 sg
2443 1583 mt 2368 1469 L
2368 1469 mt 2466 1417 L
c15
-75 -80 98 -52 2368 1469 3 MP
PP
0 sg
2368 1469 mt 2466 1417 L
2466 1417 mt 2391 1337 L
c24
99 -40 -76 28 2437 1195 3 MP
PP
0 sg
2437 1195 mt 2361 1223 L
2361 1223 mt 2460 1183 L
c37
98 -65 -75 -244 2427 2829 3 MP
PP
0 sg
2427 2829 mt 2352 2585 L
2352 2585 mt 2450 2520 L
/c42 { 0.250000 1.000000 0.750000 sr} bdef
c42
-75 -227 98 -65 2352 2585 3 MP
PP
0 sg
2352 2585 mt 2450 2520 L
2450 2520 mt 2375 2293 L
c11
98 -35 -75 192 2354 1568 3 MP
PP
0 sg
2354 1568 mt 2279 1760 L
2279 1760 mt 2377 1725 L
c38
98 -57 -76 -146 2421 1786 3 MP
PP
0 sg
2421 1786 mt 2345 1640 L
2345 1640 mt 2443 1583 L
/c43 { 1.000000 0.000000 0.000000 sr} bdef
c43
-75 -114 98 -57 2345 1640 3 MP
PP
0 sg
2345 1640 mt 2443 1583 L
2443 1583 mt 2368 1469 L
c19
-75 64 98 -43 2263 1266 3 MP
PP
0 sg
2263 1266 mt 2361 1223 L
2361 1223 mt 2286 1287 L
c19
98 -40 -75 64 2361 1223 3 MP
PP
0 sg
2361 1223 mt 2286 1287 L
2286 1287 mt 2384 1247 L
c16
99 -43 -76 -8 2414 1246 3 MP
PP
0 sg
2414 1246 mt 2338 1238 L
2338 1238 mt 2437 1195 L
c24
-76 28 99 -43 2338 1238 3 MP
PP
0 sg
2338 1238 mt 2437 1195 L
2437 1195 mt 2361 1223 L
c39
98 -63 -75 -254 2404 3146 3 MP
PP
0 sg
2404 3146 mt 2329 2892 L
2329 2892 mt 2427 2829 L
/c44 { 0.000000 0.687500 1.000000 sr} bdef
c44
-75 -244 98 -63 2329 2892 3 MP
PP
0 sg
2329 2892 mt 2427 2829 L
2427 2829 mt 2352 2585 L
c10
-75 219 98 -35 2279 1760 3 MP
PP
0 sg
2279 1760 mt 2377 1725 L
2377 1725 mt 2302 1944 L
c9
-75 243 98 -34 2302 1944 3 MP
PP
0 sg
2302 1944 mt 2400 1910 L
2400 1910 mt 2325 2153 L
c10
98 -34 -75 219 2377 1725 3 MP
PP
0 sg
2377 1725 mt 2302 1944 L
2302 1944 mt 2400 1910 L
c40
99 -63 -76 -175 2398 2024 3 MP
PP
0 sg
2398 2024 mt 2322 1849 L
2322 1849 mt 2421 1786 L
/c45 { 1.000000 0.312500 0.000000 sr} bdef
c45
-76 -146 99 -63 2322 1849 3 MP
PP
0 sg
2322 1849 mt 2421 1786 L
2421 1786 mt 2345 1640 L
c22
-75 99 98 -40 2286 1287 3 MP
PP
0 sg
2286 1287 mt 2384 1247 L
2384 1247 mt 2309 1346 L
c24
99 -48 -76 -43 2391 1337 3 MP
PP
0 sg
2391 1337 mt 2315 1294 L
2315 1294 mt 2414 1246 L
c24
-76 -8 99 -48 2315 1294 3 MP
PP
0 sg
2315 1294 mt 2414 1246 L
2414 1246 mt 2338 1238 L
c8
98 -53 -76 -256 2382 3455 3 MP
PP
0 sg
2382 3455 mt 2306 3199 L
2306 3199 mt 2404 3146 L
/c46 { 0.000000 0.062500 1.000000 sr} bdef
c46
-75 -254 98 -53 2306 3199 3 MP
PP
0 sg
2306 3199 mt 2404 3146 L
2404 3146 mt 2329 2892 L
c9
99 -33 -76 242 2302 1944 3 MP
PP
0 sg
2302 1944 mt 2226 2186 L
2226 2186 mt 2325 2153 L
c41
99 -69 -76 -200 2375 2293 3 MP
PP
0 sg
2375 2293 mt 2299 2093 L
2299 2093 mt 2398 2024 L
/c47 { 1.000000 0.750000 0.000000 sr} bdef
c47
-76 -175 99 -69 2299 2093 3 MP
PP
0 sg
2299 2093 mt 2398 2024 L
2398 2024 mt 2322 1849 L
c13
98 -37 -76 131 2309 1346 3 MP
PP
0 sg
2309 1346 mt 2233 1477 L
2233 1477 mt 2331 1440 L
c15
99 -53 -76 -79 2368 1469 3 MP
PP
0 sg
2368 1469 mt 2292 1390 L
2292 1390 mt 2391 1337 L
c13
-76 131 99 -39 2210 1385 3 MP
PP
0 sg
2210 1385 mt 2309 1346 L
2309 1346 mt 2233 1477 L
c22
99 -39 -76 98 2286 1287 3 MP
PP
0 sg
2286 1287 mt 2210 1385 L
2210 1385 mt 2309 1346 L
c24
-76 -43 99 -53 2292 1390 3 MP
PP
0 sg
2292 1390 mt 2391 1337 L
2391 1337 mt 2315 1294 L
c8
-76 -256 99 -34 2283 3489 3 MP
PP
0 sg
2283 3489 mt 2382 3455 L
2382 3455 mt 2306 3199 L
c42
99 -74 -76 -218 2352 2585 3 MP
PP
0 sg
2352 2585 mt 2276 2367 L
2276 2367 mt 2375 2293 L
/c48 { 0.750000 1.000000 0.250000 sr} bdef
c48
-76 -200 99 -74 2276 2367 3 MP
PP
0 sg
2276 2367 mt 2375 2293 L
2375 2293 mt 2299 2093 L
c12
-75 163 98 -37 2233 1477 3 MP
PP
0 sg
2233 1477 mt 2331 1440 L
2331 1440 mt 2256 1603 L
c11
-75 192 98 -35 2256 1603 3 MP
PP
0 sg
2256 1603 mt 2354 1568 L
2354 1568 mt 2279 1760 L
c12
98 -35 -75 163 2331 1440 3 MP
PP
0 sg
2331 1440 mt 2256 1603 L
2256 1603 mt 2354 1568 L
c43
98 -59 -75 -112 2345 1640 3 MP
PP
0 sg
2345 1640 mt 2270 1528 L
2270 1528 mt 2368 1469 L
c19
-76 -79 98 -59 2270 1528 3 MP
PP
0 sg
2270 1528 mt 2368 1469 L
2368 1469 mt 2292 1390 L
c24
98 -43 -75 28 2338 1238 3 MP
PP
0 sg
2338 1238 mt 2263 1266 L
2263 1266 mt 2361 1223 L
c44
99 -76 -76 -231 2329 2892 3 MP
PP
0 sg
2329 2892 mt 2253 2661 L
2253 2661 mt 2352 2585 L
/c49 { 0.187500 1.000000 0.812500 sr} bdef
c49
-76 -218 99 -76 2253 2661 3 MP
PP
0 sg
2253 2661 mt 2352 2585 L
2352 2585 mt 2276 2367 L
c10
-76 218 99 -35 2180 1795 3 MP
PP
0 sg
2180 1795 mt 2279 1760 L
2279 1760 mt 2203 1978 L
c11
99 -35 -76 192 2256 1603 3 MP
PP
0 sg
2256 1603 mt 2180 1795 L
2180 1795 mt 2279 1760 L
c10
99 -34 -76 218 2279 1760 3 MP
PP
0 sg
2279 1760 mt 2203 1978 L
2203 1978 mt 2302 1944 L
c45
98 -66 -75 -143 2322 1849 3 MP
PP
0 sg
2322 1849 mt 2247 1706 L
2247 1706 mt 2345 1640 L
c14
-75 -112 98 -66 2247 1706 3 MP
PP
0 sg
2247 1706 mt 2345 1640 L
2345 1640 mt 2270 1528 L
c29
-76 63 99 -47 2164 1313 3 MP
PP
0 sg
2164 1313 mt 2263 1266 L
2263 1266 mt 2187 1329 L
c22
-76 98 99 -42 2187 1329 3 MP
PP
0 sg
2187 1329 mt 2286 1287 L
2286 1287 mt 2210 1385 L
c19
99 -42 -76 63 2263 1266 3 MP
PP
0 sg
2263 1266 mt 2187 1329 L
2187 1329 mt 2286 1287 L
c24
98 -48 -75 -8 2315 1294 3 MP
PP
0 sg
2315 1294 mt 2240 1286 L
2240 1286 mt 2338 1238 L
c34
-75 28 98 -48 2240 1286 3 MP
PP
0 sg
2240 1286 mt 2338 1238 L
2338 1238 mt 2263 1266 L
c46
98 -73 -75 -234 2306 3199 3 MP
PP
0 sg
2306 3199 mt 2231 2965 L
2231 2965 mt 2329 2892 L
/c50 { 0.000000 0.562500 1.000000 sr} bdef
c50
-76 -231 98 -73 2231 2965 3 MP
PP
0 sg
2231 2965 mt 2329 2892 L
2329 2892 mt 2253 2661 L
c9
-76 242 99 -34 2203 1978 3 MP
PP
0 sg
2203 1978 mt 2302 1944 L
2302 1944 mt 2226 2186 L
c47
98 -74 -75 -170 2299 2093 3 MP
PP
0 sg
2299 2093 mt 2224 1923 L
2224 1923 mt 2322 1849 L
c13
-75 -143 98 -74 2224 1923 3 MP
PP
0 sg
2224 1923 mt 2322 1849 L
2322 1849 mt 2247 1706 L
c24
98 -52 -75 -44 2292 1390 3 MP
PP
0 sg
2292 1390 mt 2217 1346 L
2217 1346 mt 2315 1294 L
c24
-75 -8 98 -52 2217 1346 3 MP
PP
0 sg
2217 1346 mt 2315 1294 L
2315 1294 mt 2240 1286 L
c8
98 -61 -75 -229 2283 3489 3 MP
PP
0 sg
2283 3489 mt 2208 3260 L
2208 3260 mt 2306 3199 L
/c51 { 0.000000 0.000000 1.000000 sr} bdef
c51
-75 -234 98 -61 2208 3260 3 MP
PP
0 sg
2208 3260 mt 2306 3199 L
2306 3199 mt 2231 2965 L
c9
98 -34 -75 242 2203 1978 3 MP
PP
0 sg
2203 1978 mt 2128 2220 L
2128 2220 mt 2226 2186 L
c48
98 -82 -75 -192 2276 2367 3 MP
PP
0 sg
2276 2367 mt 2201 2175 L
2201 2175 mt 2299 2093 L
c12
-75 -170 98 -82 2201 2175 3 MP
PP
0 sg
2201 2175 mt 2299 2093 L
2299 2093 mt 2224 1923 L
c18
-75 163 98 -39 2135 1516 3 MP
PP
0 sg
2135 1516 mt 2233 1477 L
2233 1477 mt 2158 1640 L
c13
98 -39 -75 131 2210 1385 3 MP
PP
0 sg
2210 1385 mt 2135 1516 L
2135 1516 mt 2233 1477 L
c12
98 -37 -75 163 2233 1477 3 MP
PP
0 sg
2233 1477 mt 2158 1640 L
2158 1640 mt 2256 1603 L
c19
98 -60 -76 -78 2270 1528 3 MP
PP
0 sg
2270 1528 mt 2194 1450 L
2194 1450 mt 2292 1390 L
c23
-75 131 98 -41 2112 1426 3 MP
PP
0 sg
2112 1426 mt 2210 1385 L
2210 1385 mt 2135 1516 L
c22
98 -41 -75 97 2187 1329 3 MP
PP
0 sg
2187 1329 mt 2112 1426 L
2112 1426 mt 2210 1385 L
c34
-75 -44 98 -60 2194 1450 3 MP
PP
0 sg
2194 1450 mt 2292 1390 L
2292 1390 mt 2217 1346 L
c8
-75 -229 98 -33 2185 3522 3 MP
PP
0 sg
2185 3522 mt 2283 3489 L
2283 3489 mt 2208 3260 L
c49
98 -88 -75 -206 2253 2661 3 MP
PP
0 sg
2253 2661 mt 2178 2455 L
2178 2455 mt 2276 2367 L
c11
-75 -192 98 -88 2178 2455 3 MP
PP
0 sg
2178 2455 mt 2276 2367 L
2276 2367 mt 2201 2175 L
c11
-76 192 98 -37 2158 1640 3 MP
PP
0 sg
2158 1640 mt 2256 1603 L
2256 1603 mt 2180 1795 L
c14
99 -68 -76 -110 2247 1706 3 MP
PP
0 sg
2247 1706 mt 2171 1596 L
2171 1596 mt 2270 1528 L
c29
-76 -78 99 -68 2171 1596 3 MP
PP
0 sg
2171 1596 mt 2270 1528 L
2270 1528 mt 2194 1450 L
c34
99 -47 -76 27 2240 1286 3 MP
PP
0 sg
2240 1286 mt 2164 1313 L
2164 1313 mt 2263 1266 L
c50
98 -92 -76 -212 2231 2965 3 MP
PP
0 sg
2231 2965 mt 2155 2753 L
2155 2753 mt 2253 2661 L
/c52 { 0.000000 1.000000 1.000000 sr} bdef
c52
-75 -206 98 -92 2155 2753 3 MP
PP
0 sg
2155 2753 mt 2253 2661 L
2253 2661 mt 2178 2455 L
c10
-75 217 98 -35 2082 1830 3 MP
PP
0 sg
2082 1830 mt 2180 1795 L
2180 1795 mt 2105 2012 L
c11
98 -35 -76 190 2158 1640 3 MP
PP
0 sg
2158 1640 mt 2082 1830 L
2082 1830 mt 2180 1795 L
c10
98 -34 -75 217 2180 1795 3 MP
PP
0 sg
2180 1795 mt 2105 2012 L
2105 2012 mt 2203 1978 L
c13
99 -78 -76 -139 2224 1923 3 MP
PP
0 sg
2224 1923 mt 2148 1784 L
2148 1784 mt 2247 1706 L
c31
-76 -110 99 -78 2148 1784 3 MP
PP
0 sg
2148 1784 mt 2247 1706 L
2247 1706 mt 2171 1596 L
c22
-75 97 98 -46 2089 1375 3 MP
PP
0 sg
2089 1375 mt 2187 1329 L
2187 1329 mt 2112 1426 L
c29
98 -46 -75 62 2164 1313 3 MP
PP
0 sg
2164 1313 mt 2089 1375 L
2089 1375 mt 2187 1329 L
c24
99 -52 -76 -8 2217 1346 3 MP
PP
0 sg
2217 1346 mt 2141 1338 L
2141 1338 mt 2240 1286 L
c15
-76 27 99 -52 2141 1338 3 MP
PP
0 sg
2141 1338 mt 2240 1286 L
2240 1286 mt 2164 1313 L
c51
99 -88 -76 -207 2208 3260 3 MP
PP
0 sg
2208 3260 mt 2132 3053 L
2132 3053 mt 2231 2965 L
/c53 { 0.000000 0.437500 1.000000 sr} bdef
c53
-76 -212 99 -88 2132 3053 3 MP
PP
0 sg
2132 3053 mt 2231 2965 L
2231 2965 mt 2155 2753 L
c9
-75 242 98 -34 2105 2012 3 MP
PP
0 sg
2105 2012 mt 2203 1978 L
2203 1978 mt 2128 2220 L
c12
99 -89 -76 -163 2201 2175 3 MP
PP
0 sg
2201 2175 mt 2125 2012 L
2125 2012 mt 2224 1923 L
c28
-76 -139 99 -89 2125 2012 3 MP
PP
0 sg
2125 2012 mt 2224 1923 L
2224 1923 mt 2148 1784 L
c34
98 -60 -75 -44 2194 1450 3 MP
PP
0 sg
2194 1450 mt 2119 1406 L
2119 1406 mt 2217 1346 L
c34
-76 -8 98 -60 2119 1406 3 MP
PP
0 sg
2119 1406 mt 2217 1346 L
2217 1346 mt 2141 1338 L
c8
99 -71 -76 -191 2185 3522 3 MP
PP
0 sg
2185 3522 mt 2109 3331 L
2109 3331 mt 2208 3260 L
/c54 { 0.000000 0.000000 0.937500 sr} bdef
c54
-76 -207 99 -71 2109 3331 3 MP
PP
0 sg
2109 3331 mt 2208 3260 L
2208 3260 mt 2132 3053 L
c11
99 -100 -76 -180 2178 2455 3 MP
PP
0 sg
2178 2455 mt 2102 2275 L
2102 2275 mt 2201 2175 L
c9
99 -33 -76 241 2105 2012 3 MP
PP
0 sg
2105 2012 mt 2029 2253 L
2029 2253 mt 2128 2220 L
c33
-76 -163 99 -100 2102 2275 3 MP
PP
0 sg
2102 2275 mt 2201 2175 L
2201 2175 mt 2125 2012 L
c18
-76 161 99 -40 2036 1556 3 MP
PP
0 sg
2036 1556 mt 2135 1516 L
2135 1516 mt 2059 1677 L
c23
99 -40 -76 130 2112 1426 3 MP
PP
0 sg
2112 1426 mt 2036 1556 L
2036 1556 mt 2135 1516 L
c18
99 -37 -76 161 2135 1516 3 MP
PP
0 sg
2135 1516 mt 2059 1677 L
2059 1677 mt 2158 1640 L
c29
98 -68 -75 -78 2171 1596 3 MP
PP
0 sg
2171 1596 mt 2096 1518 L
2096 1518 mt 2194 1450 L
c19
-75 -44 98 -68 2096 1518 3 MP
PP
0 sg
2096 1518 mt 2194 1450 L
2194 1450 mt 2119 1406 L
c8
-76 -191 99 -34 2086 3556 3 MP
PP
0 sg
2086 3556 mt 2185 3522 L
2185 3522 mt 2109 3331 L
c52
98 -109 -75 -189 2155 2753 3 MP
PP
0 sg
2155 2753 mt 2080 2564 L
2080 2564 mt 2178 2455 L
c35
-76 -180 98 -109 2080 2564 3 MP
PP
0 sg
2080 2564 mt 2178 2455 L
2178 2455 mt 2102 2275 L
c11
-76 190 99 -37 2059 1677 3 MP
PP
0 sg
2059 1677 mt 2158 1640 L
2158 1640 mt 2082 1830 L
c31
98 -80 -75 -108 2148 1784 3 MP
PP
0 sg
2148 1784 mt 2073 1676 L
2073 1676 mt 2171 1596 L
c43
-75 -78 98 -80 2073 1676 3 MP
PP
0 sg
2073 1676 mt 2171 1596 L
2171 1596 mt 2096 1518 L
c36
-75 62 98 -51 2066 1364 3 MP
PP
0 sg
2066 1364 mt 2164 1313 L
2164 1313 mt 2089 1375 L
c15
98 -51 -75 26 2141 1338 3 MP
PP
0 sg
2141 1338 mt 2066 1364 L
2066 1364 mt 2164 1313 L
c53
98 -113 -75 -187 2132 3053 3 MP
PP
0 sg
2132 3053 mt 2057 2866 L
2057 2866 mt 2155 2753 L
c30
-75 -189 98 -113 2057 2866 3 MP
PP
0 sg
2057 2866 mt 2155 2753 L
2155 2753 mt 2080 2564 L
c10
-75 217 98 -36 1984 1866 3 MP
PP
0 sg
1984 1866 mt 2082 1830 L
2082 1830 mt 2007 2047 L
c10
98 -35 -75 217 2082 1830 3 MP
PP
0 sg
2082 1830 mt 2007 2047 L
2007 2047 mt 2105 2012 L
c28
98 -94 -75 -134 2125 2012 3 MP
PP
0 sg
2125 2012 mt 2050 1878 L
2050 1878 mt 2148 1784 L
c11
98 -36 -75 189 2059 1677 3 MP
PP
0 sg
2059 1677 mt 1984 1866 L
1984 1866 mt 2082 1830 L
c45
-75 -108 98 -94 2050 1878 3 MP
PP
0 sg
2050 1878 mt 2148 1784 L
2148 1784 mt 2073 1676 L
c31
-76 95 99 -49 1990 1424 3 MP
PP
0 sg
1990 1424 mt 2089 1375 L
2089 1375 mt 2013 1470 L
c36
99 -49 -76 60 2066 1364 3 MP
PP
0 sg
2066 1364 mt 1990 1424 L
1990 1424 mt 2089 1375 L
c22
99 -44 -76 95 2089 1375 3 MP
PP
0 sg
2089 1375 mt 2013 1470 L
2013 1470 mt 2112 1426 L
c34
98 -58 -76 -10 2119 1406 3 MP
PP
0 sg
2119 1406 mt 2043 1396 L
2043 1396 mt 2141 1338 L
c19
-75 26 98 -58 2043 1396 3 MP
PP
0 sg
2043 1396 mt 2141 1338 L
2141 1338 mt 2066 1364 L
c54
98 -106 -75 -172 2109 3331 3 MP
PP
0 sg
2109 3331 mt 2034 3159 L
2034 3159 mt 2132 3053 L
c9
-75 -187 98 -106 2034 3159 3 MP
PP
0 sg
2034 3159 mt 2132 3053 L
2132 3053 mt 2057 2866 L
c9
-76 241 98 -35 2007 2047 3 MP
PP
0 sg
2007 2047 mt 2105 2012 L
2105 2012 mt 2029 2253 L
c33
98 -108 -75 -155 2102 2275 3 MP
PP
0 sg
2102 2275 mt 2027 2120 L
2027 2120 mt 2125 2012 L
c47
-75 -134 98 -108 2027 2120 3 MP
PP
0 sg
2027 2120 mt 2125 2012 L
2125 2012 mt 2050 1878 L
c23
-76 130 99 -44 2013 1470 3 MP
PP
0 sg
2013 1470 mt 2112 1426 L
2112 1426 mt 2036 1556 L
c19
99 -69 -76 -43 2096 1518 3 MP
PP
0 sg
2096 1518 mt 2020 1475 L
2020 1475 mt 2119 1406 L
c19
-76 -10 99 -69 2020 1475 3 MP
PP
0 sg
2020 1475 mt 2119 1406 L
2119 1406 mt 2043 1396 L
c8
98 -84 -75 -141 2086 3556 3 MP
PP
0 sg
2086 3556 mt 2011 3415 L
2011 3415 mt 2109 3331 L
/c55 { 0.000000 0.000000 0.812500 sr} bdef
c55
-75 -172 98 -84 2011 3415 3 MP
PP
0 sg
2011 3415 mt 2109 3331 L
2109 3331 mt 2034 3159 L
c35
98 -123 -76 -166 2080 2564 3 MP
PP
0 sg
2080 2564 mt 2004 2398 L
2004 2398 mt 2102 2275 L
c9
98 -34 -76 240 2007 2047 3 MP
PP
0 sg
2007 2047 mt 1931 2287 L
1931 2287 mt 2029 2253 L
/c56 { 0.687500 1.000000 0.312500 sr} bdef
c56
-75 -155 98 -123 2004 2398 3 MP
PP
0 sg
2004 2398 mt 2102 2275 L
2102 2275 mt 2027 2120 L
c18
-75 159 98 -42 1938 1598 3 MP
PP
0 sg
1938 1598 mt 2036 1556 L
2036 1556 mt 1961 1715 L
c18
98 -38 -75 159 2036 1556 3 MP
PP
0 sg
2036 1556 mt 1961 1715 L
1961 1715 mt 2059 1677 L
c43
99 -82 -76 -76 2073 1676 3 MP
PP
0 sg
2073 1676 mt 1997 1600 L
1997 1600 mt 2096 1518 L
c23
98 -42 -75 128 2013 1470 3 MP
PP
0 sg
2013 1470 mt 1938 1598 L
1938 1598 mt 2036 1556 L
c36
-76 -43 99 -82 1997 1600 3 MP
PP
0 sg
1997 1600 mt 2096 1518 L
2096 1518 mt 2020 1475 L
c8
-75 -141 98 -33 1988 3589 3 MP
PP
0 sg
1988 3589 mt 2086 3556 L
2086 3556 mt 2011 3415 L
c30
99 -135 -76 -167 2057 2866 3 MP
PP
0 sg
2057 2866 mt 1981 2699 L
1981 2699 mt 2080 2564 L
/c57 { 0.125000 1.000000 0.875000 sr} bdef
c57
-76 -166 99 -135 1981 2699 3 MP
PP
0 sg
1981 2699 mt 2080 2564 L
2080 2564 mt 2004 2398 L
c11
-75 189 98 -38 1961 1715 3 MP
PP
0 sg
1961 1715 mt 2059 1677 L
2059 1677 mt 1984 1866 L
c45
99 -97 -76 -105 2050 1878 3 MP
PP
0 sg
2050 1878 mt 1974 1773 L
1974 1773 mt 2073 1676 L
c31
-76 -76 99 -97 1974 1773 3 MP
PP
0 sg
1974 1773 mt 2073 1676 L
2073 1676 mt 1997 1600 L
c43
-76 60 98 -57 1968 1421 3 MP
PP
0 sg
1968 1421 mt 2066 1364 L
2066 1364 mt 1990 1424 L
c19
98 -57 -75 25 2043 1396 3 MP
PP
0 sg
2043 1396 mt 1968 1421 L
1968 1421 mt 2066 1364 L
c9
99 -141 -76 -152 2034 3159 3 MP
PP
0 sg
2034 3159 mt 1958 3007 L
1958 3007 mt 2057 2866 L
c50
-76 -167 99 -141 1958 3007 3 MP
PP
0 sg
1958 3007 mt 2057 2866 L
2057 2866 mt 1981 2699 L
c9
-76 240 99 -35 1908 2082 3 MP
PP
0 sg
1908 2082 mt 2007 2047 L
2007 2047 mt 1931 2287 L
c10
99 -35 -76 216 1984 1866 3 MP
PP
0 sg
1984 1866 mt 1908 2082 L
1908 2082 mt 2007 2047 L
c47
99 -115 -76 -127 2027 2120 3 MP
PP
0 sg
2027 2120 mt 1951 1993 L
1951 1993 mt 2050 1878 L
c10
-76 216 99 -37 1885 1903 3 MP
PP
0 sg
1885 1903 mt 1984 1866 L
1984 1866 mt 1908 2082 L
c11
99 -37 -76 188 1961 1715 3 MP
PP
0 sg
1961 1715 mt 1885 1903 L
1885 1903 mt 1984 1866 L
c28
-76 -105 99 -115 1951 1993 3 MP
PP
0 sg
1951 1993 mt 2050 1878 L
2050 1878 mt 1974 1773 L
c38
-75 94 98 -56 1892 1480 3 MP
PP
0 sg
1892 1480 mt 1990 1424 L
1990 1424 mt 1915 1518 L
c28
-75 128 98 -48 1915 1518 3 MP
PP
0 sg
1915 1518 mt 2013 1470 L
2013 1470 mt 1938 1598 L
c31
98 -48 -75 94 1990 1424 3 MP
PP
0 sg
1990 1424 mt 1915 1518 L
1915 1518 mt 2013 1470 L
c19
98 -68 -75 -11 2020 1475 3 MP
PP
0 sg
2020 1475 mt 1945 1464 L
1945 1464 mt 2043 1396 L
c43
98 -56 -76 59 1968 1421 3 MP
PP
0 sg
1968 1421 mt 1892 1480 L
1892 1480 mt 1990 1424 L
c29
-75 25 98 -68 1945 1464 3 MP
PP
0 sg
1945 1464 mt 2043 1396 L
2043 1396 mt 1968 1421 L
c55
99 -134 -76 -122 2011 3415 3 MP
PP
0 sg
2011 3415 mt 1935 3293 L
1935 3293 mt 2034 3159 L
c51
-76 -152 99 -134 1935 3293 3 MP
PP
0 sg
1935 3293 mt 2034 3159 L
2034 3159 mt 1958 3007 L
c56
98 -136 -75 -142 2004 2398 3 MP
PP
0 sg
2004 2398 mt 1929 2256 L
1929 2256 mt 2027 2120 L
c25
-76 -127 98 -136 1929 2256 3 MP
PP
0 sg
1929 2256 mt 2027 2120 L
2027 2120 mt 1951 1993 L
c28
99 -45 -76 125 1915 1518 3 MP
PP
0 sg
1915 1518 mt 1839 1643 L
1839 1643 mt 1938 1598 L
c36
98 -81 -75 -44 1997 1600 3 MP
PP
0 sg
1997 1600 mt 1922 1556 L
1922 1556 mt 2020 1475 L
c36
-75 -11 98 -81 1922 1556 3 MP
PP
0 sg
1922 1556 mt 2020 1475 L
2020 1475 mt 1945 1464 L
c8
98 -131 -75 -43 1988 3589 3 MP
PP
0 sg
1988 3589 mt 1913 3546 L
1913 3546 mt 2011 3415 L
c8
-76 -122 98 -131 1913 3546 3 MP
PP
0 sg
1913 3546 mt 2011 3415 L
2011 3415 mt 1935 3293 L
c57
98 -155 -75 -146 1981 2699 3 MP
PP
0 sg
1981 2699 mt 1906 2553 L
1906 2553 mt 2004 2398 L
c9
98 -34 -75 239 1908 2082 3 MP
PP
0 sg
1908 2082 mt 1833 2321 L
1833 2321 mt 1931 2287 L
c35
-75 -142 98 -155 1906 2553 3 MP
PP
0 sg
1906 2553 mt 2004 2398 L
2004 2398 mt 1929 2256 L
c20
-76 188 99 -41 1862 1756 3 MP
PP
0 sg
1862 1756 mt 1961 1715 L
1961 1715 mt 1885 1903 L
c18
99 -41 -76 158 1938 1598 3 MP
PP
0 sg
1938 1598 mt 1862 1756 L
1862 1756 mt 1961 1715 L
c31
98 -99 -75 -74 1974 1773 3 MP
PP
0 sg
1974 1773 mt 1899 1699 L
1899 1699 mt 1997 1600 L
c25
-76 158 99 -45 1839 1643 3 MP
PP
0 sg
1839 1643 mt 1938 1598 L
1938 1598 mt 1862 1756 L
c22
-75 -44 98 -99 1899 1699 3 MP
PP
0 sg
1899 1699 mt 1997 1600 L
1997 1600 mt 1922 1556 L
c50
98 -172 -75 -136 1958 3007 3 MP
PP
0 sg
1958 3007 mt 1883 2871 L
1883 2871 mt 1981 2699 L
c37
-75 -146 98 -172 1883 2871 3 MP
PP
0 sg
1883 2871 mt 1981 2699 L
1981 2699 mt 1906 2553 L
c10
-75 214 98 -38 1787 1941 3 MP
PP
0 sg
1787 1941 mt 1885 1903 L
1885 1903 mt 1810 2117 L
c20
98 -38 -75 185 1862 1756 3 MP
PP
0 sg
1862 1756 mt 1787 1941 L
1787 1941 mt 1885 1903 L
c10
98 -35 -75 214 1885 1903 3 MP
PP
0 sg
1885 1903 mt 1810 2117 L
1810 2117 mt 1908 2082 L
c28
98 -120 -75 -100 1951 1993 3 MP
PP
0 sg
1951 1993 mt 1876 1893 L
1876 1893 mt 1974 1773 L
/c58 { 1.000000 0.375000 0.000000 sr} bdef
c58
-75 -74 98 -120 1876 1893 3 MP
PP
0 sg
1876 1893 mt 1974 1773 L
1974 1773 mt 1899 1699 L
c45
-75 91 98 -63 1794 1543 3 MP
PP
0 sg
1794 1543 mt 1892 1480 L
1892 1480 mt 1817 1571 L
c14
98 -63 -75 56 1869 1487 3 MP
PP
0 sg
1869 1487 mt 1794 1543 L
1794 1543 mt 1892 1480 L
c38
98 -53 -75 91 1892 1480 3 MP
PP
0 sg
1892 1480 mt 1817 1571 L
1817 1571 mt 1915 1518 L
c14
-76 59 99 -66 1869 1487 3 MP
PP
0 sg
1869 1487 mt 1968 1421 L
1968 1421 mt 1892 1480 L
c29
99 -66 -76 23 1945 1464 3 MP
PP
0 sg
1945 1464 mt 1869 1487 L
1869 1487 mt 1968 1421 L
c51
98 -180 -75 -106 1935 3293 3 MP
PP
0 sg
1935 3293 mt 1860 3187 L
1860 3187 mt 1958 3007 L
c39
-75 -136 98 -180 1860 3187 3 MP
PP
0 sg
1860 3187 mt 1958 3007 L
1958 3007 mt 1883 2871 L
c9
-75 239 98 -35 1810 2117 3 MP
PP
0 sg
1810 2117 mt 1908 2082 L
1908 2082 mt 1833 2321 L
c25
98 -145 -76 -118 1929 2256 3 MP
PP
0 sg
1929 2256 mt 1853 2138 L
1853 2138 mt 1951 1993 L
/c59 { 1.000000 0.812500 0.000000 sr} bdef
c59
-75 -100 98 -145 1853 2138 3 MP
PP
0 sg
1853 2138 mt 1951 1993 L
1951 1993 mt 1876 1893 L
c32
-76 125 98 -53 1817 1571 3 MP
PP
0 sg
1817 1571 mt 1915 1518 L
1915 1518 mt 1839 1643 L
c36
99 -81 -76 -11 1922 1556 3 MP
PP
0 sg
1922 1556 mt 1846 1545 L
1846 1545 mt 1945 1464 L
c43
-76 23 99 -81 1846 1545 3 MP
PP
0 sg
1846 1545 mt 1945 1464 L
1945 1464 mt 1869 1487 L
c8
98 -209 -76 -44 1913 3546 3 MP
PP
0 sg
1913 3546 mt 1837 3502 L
1837 3502 mt 1935 3293 L
c8
-75 -106 98 -209 1837 3502 3 MP
PP
0 sg
1837 3502 mt 1935 3293 L
1935 3293 mt 1860 3187 L
c35
99 -172 -76 -125 1906 2553 3 MP
PP
0 sg
1906 2553 mt 1830 2428 L
1830 2428 mt 1929 2256 L
/c60 { 0.625000 1.000000 0.375000 sr} bdef
c60
-76 -118 99 -172 1830 2428 3 MP
PP
0 sg
1830 2428 mt 1929 2256 L
1929 2256 mt 1853 2138 L
c25
-75 155 98 -50 1741 1693 3 MP
PP
0 sg
1741 1693 mt 1839 1643 L
1839 1643 mt 1764 1798 L
c32
98 -50 -76 122 1817 1571 3 MP
PP
0 sg
1817 1571 mt 1741 1693 L
1741 1693 mt 1839 1643 L
c25
98 -42 -75 155 1839 1643 3 MP
PP
0 sg
1839 1643 mt 1764 1798 L
1764 1798 mt 1862 1756 L
c22
99 -99 -76 -44 1899 1699 3 MP
PP
0 sg
1899 1699 mt 1823 1655 L
1823 1655 mt 1922 1556 L
c22
-76 -11 99 -99 1823 1655 3 MP
PP
0 sg
1823 1655 mt 1922 1556 L
1922 1556 mt 1846 1545 L
c37
99 -200 -76 -118 1883 2871 3 MP
PP
0 sg
1883 2871 mt 1807 2753 L
1807 2753 mt 1906 2553 L
c10
-76 -125 99 -200 1807 2753 3 MP
PP
0 sg
1807 2753 mt 1906 2553 L
1906 2553 mt 1830 2428 L
c20
-75 185 98 -42 1764 1798 3 MP
PP
0 sg
1764 1798 mt 1862 1756 L
1862 1756 mt 1787 1941 L
c58
99 -123 -76 -71 1876 1893 3 MP
PP
0 sg
1876 1893 mt 1800 1822 L
1800 1822 mt 1899 1699 L
c45
-76 -44 99 -123 1800 1822 3 MP
PP
0 sg
1800 1822 mt 1899 1699 L
1899 1699 mt 1823 1655 L
c39
99 -223 -76 -93 1860 3187 3 MP
PP
0 sg
1860 3187 mt 1784 3094 L
1784 3094 mt 1883 2871 L
c9
-76 -118 99 -223 1784 3094 3 MP
PP
0 sg
1784 3094 mt 1883 2871 L
1883 2871 mt 1807 2753 L
c10
99 -36 -76 212 1787 1941 3 MP
PP
0 sg
1787 1941 mt 1711 2153 L
1711 2153 mt 1810 2117 L
c59
98 -152 -75 -93 1853 2138 3 MP
PP
0 sg
1853 2138 mt 1778 2045 L
1778 2045 mt 1876 1893 L
c40
-76 -71 98 -152 1778 2045 3 MP
PP
0 sg
1778 2045 mt 1876 1893 L
1876 1893 mt 1800 1822 L
c13
-76 87 99 -74 1695 1617 3 MP
PP
0 sg
1695 1617 mt 1794 1543 L
1794 1543 mt 1718 1630 L
c45
99 -59 -76 87 1794 1543 3 MP
PP
0 sg
1794 1543 mt 1718 1630 L
1718 1630 mt 1817 1571 L
c43
98 -78 -75 20 1846 1545 3 MP
PP
0 sg
1846 1545 mt 1771 1565 L
1771 1565 mt 1869 1487 L
c31
-75 56 98 -78 1771 1565 3 MP
PP
0 sg
1771 1565 mt 1869 1487 L
1869 1487 mt 1794 1543 L
c8
98 -271 -75 -44 1837 3502 3 MP
PP
0 sg
1837 3502 mt 1762 3458 L
1762 3458 mt 1860 3187 L
c8
-76 -93 98 -271 1762 3458 3 MP
PP
0 sg
1762 3458 mt 1860 3187 L
1860 3187 mt 1784 3094 L
c9
99 -33 -76 237 1810 2117 3 MP
PP
0 sg
1810 2117 mt 1734 2354 L
1734 2354 mt 1833 2321 L
c60
98 -186 -75 -104 1830 2428 3 MP
PP
0 sg
1830 2428 mt 1755 2324 L
1755 2324 mt 1853 2138 L
c9
-76 237 99 -36 1711 2153 3 MP
PP
0 sg
1711 2153 mt 1810 2117 L
1810 2117 mt 1734 2354 L
c48
-75 -93 98 -186 1755 2324 3 MP
PP
0 sg
1755 2324 mt 1853 2138 L
1853 2138 mt 1778 2045 L
c40
-76 122 99 -59 1718 1630 3 MP
PP
0 sg
1718 1630 mt 1817 1571 L
1817 1571 mt 1741 1693 L
c22
98 -97 -75 -13 1823 1655 3 MP
PP
0 sg
1823 1655 mt 1748 1642 L
1748 1642 mt 1846 1545 L
c31
-75 20 98 -97 1748 1642 3 MP
PP
0 sg
1748 1642 mt 1846 1545 L
1846 1545 mt 1771 1565 L
c10
98 -223 -75 -102 1807 2753 3 MP
PP
0 sg
1807 2753 mt 1732 2651 L
1732 2651 mt 1830 2428 L
c57
-75 -104 98 -223 1732 2651 3 MP
PP
0 sg
1732 2651 mt 1830 2428 L
1830 2428 mt 1755 2324 L
c26
-76 183 98 -46 1666 1844 3 MP
PP
0 sg
1666 1844 mt 1764 1798 L
1764 1798 mt 1688 1981 L
c25
98 -46 -75 151 1741 1693 3 MP
PP
0 sg
1741 1693 mt 1666 1844 L
1666 1844 mt 1764 1798 L
c20
99 -40 -76 183 1764 1798 3 MP
PP
0 sg
1764 1798 mt 1688 1981 L
1688 1981 mt 1787 1941 L
c45
98 -123 -75 -44 1800 1822 3 MP
PP
0 sg
1800 1822 mt 1725 1778 L
1725 1778 mt 1823 1655 L
c33
-75 151 98 -55 1643 1748 3 MP
PP
0 sg
1643 1748 mt 1741 1693 L
1741 1693 mt 1666 1844 L
c40
98 -55 -75 118 1718 1630 3 MP
PP
0 sg
1718 1630 mt 1643 1748 L
1643 1748 mt 1741 1693 L
c45
-75 -13 98 -123 1725 1778 3 MP
PP
0 sg
1725 1778 mt 1823 1655 L
1823 1655 mt 1748 1642 L
c9
98 -260 -75 -81 1784 3094 3 MP
PP
0 sg
1784 3094 mt 1709 3013 L
1709 3013 mt 1807 2753 L
/c61 { 0.000000 0.375000 1.000000 sr} bdef
c61
-75 -102 98 -260 1709 3013 3 MP
PP
0 sg
1709 3013 mt 1807 2753 L
1807 2753 mt 1732 2651 L
c21
-76 212 99 -40 1688 1981 3 MP
PP
0 sg
1688 1981 mt 1787 1941 L
1787 1941 mt 1711 2153 L
c40
98 -155 -76 -68 1778 2045 3 MP
PP
0 sg
1778 2045 mt 1702 1977 L
1702 1977 mt 1800 1822 L
c32
-75 -44 98 -155 1702 1977 3 MP
PP
0 sg
1702 1977 mt 1800 1822 L
1800 1822 mt 1725 1778 L
c31
99 -74 -76 52 1771 1565 3 MP
PP
0 sg
1771 1565 mt 1695 1617 L
1695 1617 mt 1794 1543 L
c8
98 -320 -76 -44 1762 3458 3 MP
PP
0 sg
1762 3458 mt 1686 3414 L
1686 3414 mt 1784 3094 L
c8
-75 -81 98 -320 1686 3414 3 MP
PP
0 sg
1686 3414 mt 1784 3094 L
1784 3094 mt 1709 3013 L
c9
-75 235 98 -37 1613 2190 3 MP
PP
0 sg
1613 2190 mt 1711 2153 L
1711 2153 mt 1636 2388 L
c9
98 -34 -75 235 1711 2153 3 MP
PP
0 sg
1711 2153 mt 1636 2388 L
1636 2388 mt 1734 2354 L
c48
99 -194 -76 -85 1755 2324 3 MP
PP
0 sg
1755 2324 mt 1679 2239 L
1679 2239 mt 1778 2045 L
c21
98 -37 -75 209 1688 1981 3 MP
PP
0 sg
1688 1981 mt 1613 2190 L
1613 2190 mt 1711 2153 L
/c62 { 0.875000 1.000000 0.125000 sr} bdef
c62
-76 -68 99 -194 1679 2239 3 MP
PP
0 sg
1679 2239 mt 1778 2045 L
1778 2045 mt 1702 1977 L
c47
-75 118 98 -69 1620 1699 3 MP
PP
0 sg
1620 1699 mt 1718 1630 L
1718 1630 mt 1643 1748 L
c13
98 -69 -75 82 1695 1617 3 MP
PP
0 sg
1695 1617 mt 1620 1699 L
1620 1699 mt 1718 1630 L
c31
99 -94 -76 17 1748 1642 3 MP
PP
0 sg
1748 1642 mt 1672 1659 L
1672 1659 mt 1771 1565 L
c45
-76 52 99 -94 1672 1659 3 MP
PP
0 sg
1672 1659 mt 1771 1565 L
1771 1565 mt 1695 1617 L
c57
99 -240 -76 -87 1732 2651 3 MP
PP
0 sg
1732 2651 mt 1656 2564 L
1656 2564 mt 1755 2324 L
c42
-76 -85 99 -240 1656 2564 3 MP
PP
0 sg
1656 2564 mt 1755 2324 L
1755 2324 mt 1679 2239 L
c45
99 -120 -76 -16 1725 1778 3 MP
PP
0 sg
1725 1778 mt 1649 1762 L
1649 1762 mt 1748 1642 L
c58
-76 17 99 -120 1649 1762 3 MP
PP
0 sg
1649 1762 mt 1748 1642 L
1748 1642 mt 1672 1659 L
c61
99 -291 -76 -71 1709 3013 3 MP
PP
0 sg
1709 3013 mt 1633 2942 L
1633 2942 mt 1732 2651 L
c53
-76 -87 99 -291 1633 2942 3 MP
PP
0 sg
1633 2942 mt 1732 2651 L
1732 2651 mt 1656 2564 L
c26
-76 179 99 -51 1567 1895 3 MP
PP
0 sg
1567 1895 mt 1666 1844 L
1666 1844 mt 1590 2023 L
c26
98 -42 -76 179 1666 1844 3 MP
PP
0 sg
1666 1844 mt 1590 2023 L
1590 2023 mt 1688 1981 L
c32
98 -155 -75 -44 1702 1977 3 MP
PP
0 sg
1702 1977 mt 1627 1933 L
1627 1933 mt 1725 1778 L
c33
99 -51 -76 147 1643 1748 3 MP
PP
0 sg
1643 1748 mt 1567 1895 L
1567 1895 mt 1666 1844 L
c32
-76 -16 98 -155 1627 1933 3 MP
PP
0 sg
1627 1933 mt 1725 1778 L
1725 1778 mt 1649 1762 L
c8
98 -358 -75 -43 1686 3414 3 MP
PP
0 sg
1686 3414 mt 1611 3371 L
1611 3371 mt 1709 3013 L
c8
-76 -71 98 -358 1611 3371 3 MP
PP
0 sg
1611 3371 mt 1709 3013 L
1709 3013 mt 1633 2942 L
c21
98 -38 -75 205 1590 2023 3 MP
PP
0 sg
1590 2023 mt 1515 2228 L
1515 2228 mt 1613 2190 L
c21
-75 209 98 -42 1590 2023 3 MP
PP
0 sg
1590 2023 mt 1688 1981 L
1688 1981 mt 1613 2190 L
c62
98 -198 -75 -64 1679 2239 3 MP
PP
0 sg
1679 2239 mt 1604 2175 L
1604 2175 mt 1702 1977 L
c33
-75 -44 98 -198 1604 2175 3 MP
PP
0 sg
1604 2175 mt 1702 1977 L
1702 1977 mt 1627 1933 L
c28
-75 82 98 -88 1597 1705 3 MP
PP
0 sg
1597 1705 mt 1695 1617 L
1695 1617 mt 1620 1699 L
c45
98 -88 -75 46 1672 1659 3 MP
PP
0 sg
1672 1659 mt 1597 1705 L
1597 1705 mt 1695 1617 L
c9
99 -33 -76 231 1613 2190 3 MP
PP
0 sg
1613 2190 mt 1537 2421 L
1537 2421 mt 1636 2388 L
c42
98 -253 -75 -72 1656 2564 3 MP
PP
0 sg
1656 2564 mt 1581 2492 L
1581 2492 mt 1679 2239 L
c9
-76 231 98 -38 1515 2228 3 MP
PP
0 sg
1515 2228 mt 1613 2190 L
1613 2190 mt 1537 2421 L
/c63 { 0.312500 1.000000 0.687500 sr} bdef
c63
-75 -64 98 -253 1581 2492 3 MP
PP
0 sg
1581 2492 mt 1679 2239 L
1679 2239 mt 1604 2175 L
c41
-76 147 99 -63 1544 1811 3 MP
PP
0 sg
1544 1811 mt 1643 1748 L
1643 1748 mt 1567 1895 L
c47
99 -63 -76 112 1620 1699 3 MP
PP
0 sg
1620 1699 mt 1544 1811 L
1544 1811 mt 1643 1748 L
c58
98 -115 -75 12 1649 1762 3 MP
PP
0 sg
1649 1762 mt 1574 1774 L
1574 1774 mt 1672 1659 L
c12
-76 112 99 -82 1521 1781 3 MP
PP
0 sg
1521 1781 mt 1620 1699 L
1620 1699 mt 1544 1811 L
c28
99 -82 -76 76 1597 1705 3 MP
PP
0 sg
1597 1705 mt 1521 1781 L
1521 1781 mt 1620 1699 L
c28
-75 46 98 -115 1574 1774 3 MP
PP
0 sg
1574 1774 mt 1672 1659 L
1672 1659 mt 1597 1705 L
c53
98 -315 -75 -63 1633 2942 3 MP
PP
0 sg
1633 2942 mt 1558 2879 L
1558 2879 mt 1656 2564 L
/c64 { 0.000000 0.500000 1.000000 sr} bdef
c64
-75 -72 98 -315 1558 2879 3 MP
PP
0 sg
1558 2879 mt 1656 2564 L
1656 2564 mt 1581 2492 L
c35
-75 173 98 -56 1469 1951 3 MP
PP
0 sg
1469 1951 mt 1567 1895 L
1567 1895 mt 1492 2068 L
c41
98 -56 -75 140 1544 1811 3 MP
PP
0 sg
1544 1811 mt 1469 1951 L
1469 1951 mt 1567 1895 L
c26
98 -45 -75 173 1567 1895 3 MP
PP
0 sg
1567 1895 mt 1492 2068 L
1492 2068 mt 1590 2023 L
c32
98 -152 -76 -19 1627 1933 3 MP
PP
0 sg
1627 1933 mt 1551 1914 L
1551 1914 mt 1649 1762 L
c40
-75 12 98 -152 1551 1914 3 MP
PP
0 sg
1551 1914 mt 1649 1762 L
1649 1762 mt 1574 1774 L
c8
98 -385 -76 -44 1611 3371 3 MP
PP
0 sg
1611 3371 mt 1535 3327 L
1535 3327 mt 1633 2942 L
c8
-75 -63 98 -385 1535 3327 3 MP
PP
0 sg
1535 3327 mt 1633 2942 L
1633 2942 mt 1558 2879 L
c21
-75 205 98 -45 1492 2068 3 MP
PP
0 sg
1492 2068 mt 1590 2023 L
1590 2023 mt 1515 2228 L
c33
99 -199 -76 -43 1604 2175 3 MP
PP
0 sg
1604 2175 mt 1528 2132 L
1528 2132 mt 1627 1933 L
c33
-76 -19 99 -199 1528 2132 3 MP
PP
0 sg
1528 2132 mt 1627 1933 L
1627 1933 mt 1551 1914 L
c9
98 -34 -76 227 1515 2228 3 MP
PP
0 sg
1515 2228 mt 1439 2455 L
1439 2455 mt 1537 2421 L
c63
99 -259 -76 -58 1581 2492 3 MP
PP
0 sg
1581 2492 mt 1505 2434 L
1505 2434 mt 1604 2175 L
c63
-76 -43 99 -259 1505 2434 3 MP
PP
0 sg
1505 2434 mt 1604 2175 L
1604 2175 mt 1528 2132 L
c12
98 -74 -75 104 1521 1781 3 MP
PP
0 sg
1521 1781 mt 1446 1885 L
1446 1885 mt 1544 1811 L
c28
99 -109 -76 40 1574 1774 3 MP
PP
0 sg
1574 1774 mt 1498 1814 L
1498 1814 mt 1597 1705 L
c47
-76 76 99 -109 1498 1814 3 MP
PP
0 sg
1498 1814 mt 1597 1705 L
1597 1705 mt 1521 1781 L
c64
99 -331 -76 -56 1558 2879 3 MP
PP
0 sg
1558 2879 mt 1482 2823 L
1482 2823 mt 1581 2492 L
c64
-76 -58 99 -331 1482 2823 3 MP
PP
0 sg
1482 2823 mt 1581 2492 L
1581 2492 mt 1505 2434 L
c48
-75 140 98 -74 1446 1885 3 MP
PP
0 sg
1446 1885 mt 1544 1811 L
1544 1811 mt 1469 1951 L
c40
98 -145 -75 5 1551 1914 3 MP
PP
0 sg
1551 1914 mt 1476 1919 L
1476 1919 mt 1574 1774 L
c59
-76 40 98 -145 1476 1919 3 MP
PP
0 sg
1476 1919 mt 1574 1774 L
1574 1774 mt 1498 1814 L
c8
98 -404 -75 -44 1535 3327 3 MP
PP
0 sg
1535 3327 mt 1460 3283 L
1460 3283 mt 1558 2879 L
c8
-76 -56 98 -404 1460 3283 3 MP
PP
0 sg
1460 3283 mt 1558 2879 L
1558 2879 mt 1482 2823 L
c30
-76 199 99 -50 1393 2118 3 MP
PP
0 sg
1393 2118 mt 1492 2068 L
1492 2068 mt 1416 2267 L
c35
99 -50 -76 167 1469 1951 3 MP
PP
0 sg
1469 1951 mt 1393 2118 L
1393 2118 mt 1492 2068 L
c21
99 -39 -76 199 1492 2068 3 MP
PP
0 sg
1492 2068 mt 1416 2267 L
1416 2267 mt 1515 2228 L
c33
98 -194 -75 -24 1528 2132 3 MP
PP
0 sg
1528 2132 mt 1453 2108 L
1453 2108 mt 1551 1914 L
c62
-75 5 98 -194 1453 2108 3 MP
PP
0 sg
1453 2108 mt 1551 1914 L
1551 1914 mt 1476 1919 L
c9
98 -34 -75 222 1416 2267 3 MP
PP
0 sg
1416 2267 mt 1341 2489 L
1341 2489 mt 1439 2455 L
c9
-76 227 99 -39 1416 2267 3 MP
PP
0 sg
1416 2267 mt 1515 2228 L
1515 2228 mt 1439 2455 L
c63
98 -258 -75 -44 1505 2434 3 MP
PP
0 sg
1505 2434 mt 1430 2390 L
1430 2390 mt 1528 2132 L
c63
-75 -24 98 -258 1430 2390 3 MP
PP
0 sg
1430 2390 mt 1528 2132 L
1528 2132 mt 1453 2108 L
c33
-75 104 98 -99 1423 1880 3 MP
PP
0 sg
1423 1880 mt 1521 1781 L
1521 1781 mt 1446 1885 L
c47
98 -99 -75 66 1498 1814 3 MP
PP
0 sg
1498 1814 mt 1423 1880 L
1423 1880 mt 1521 1781 L
c64
98 -340 -75 -49 1482 2823 3 MP
PP
0 sg
1482 2823 mt 1407 2774 L
1407 2774 mt 1505 2434 L
c50
-75 -44 98 -340 1407 2774 3 MP
PP
0 sg
1407 2774 mt 1505 2434 L
1505 2434 mt 1430 2390 L
c11
-76 131 99 -89 1347 1974 3 MP
PP
0 sg
1347 1974 mt 1446 1885 L
1446 1885 mt 1370 2016 L
c48
99 -65 -76 131 1446 1885 3 MP
PP
0 sg
1446 1885 mt 1370 2016 L
1370 2016 mt 1469 1951 L
c59
98 -135 -76 30 1476 1919 3 MP
PP
0 sg
1476 1919 mt 1400 1949 L
1400 1949 mt 1498 1814 L
c33
99 -89 -76 94 1423 1880 3 MP
PP
0 sg
1423 1880 mt 1347 1974 L
1347 1974 mt 1446 1885 L
c25
-75 66 98 -135 1400 1949 3 MP
PP
0 sg
1400 1949 mt 1498 1814 L
1498 1814 mt 1423 1880 L
c8
98 -416 -76 -44 1460 3283 3 MP
PP
0 sg
1460 3283 mt 1384 3239 L
1384 3239 mt 1482 2823 L
c8
-75 -49 98 -416 1384 3239 3 MP
PP
0 sg
1384 3239 mt 1482 2823 L
1482 2823 mt 1407 2774 L
c42
98 -54 -75 156 1370 2016 3 MP
PP
0 sg
1370 2016 mt 1295 2172 L
1295 2172 mt 1393 2118 L
c42
-76 167 99 -65 1370 2016 3 MP
PP
0 sg
1370 2016 mt 1469 1951 L
1469 1951 mt 1393 2118 L
c62
99 -186 -76 -3 1453 2108 3 MP
PP
0 sg
1453 2108 mt 1377 2105 L
1377 2105 mt 1476 1919 L
c48
-76 30 99 -186 1377 2105 3 MP
PP
0 sg
1377 2105 mt 1476 1919 L
1476 1919 mt 1400 1949 L
c27
-75 222 98 -42 1318 2309 3 MP
PP
0 sg
1318 2309 mt 1416 2267 L
1416 2267 mt 1341 2489 L
c30
98 -42 -75 191 1393 2118 3 MP
PP
0 sg
1393 2118 mt 1318 2309 L
1318 2309 mt 1416 2267 L
c63
99 -253 -76 -29 1430 2390 3 MP
PP
0 sg
1430 2390 mt 1354 2361 L
1354 2361 mt 1453 2108 L
c37
-75 191 98 -54 1295 2172 3 MP
PP
0 sg
1295 2172 mt 1393 2118 L
1393 2118 mt 1318 2309 L
c63
-76 -3 99 -253 1354 2361 3 MP
PP
0 sg
1354 2361 mt 1453 2108 L
1453 2108 mt 1377 2105 L
c50
99 -340 -76 -44 1407 2774 3 MP
PP
0 sg
1407 2774 mt 1331 2730 L
1331 2730 mt 1430 2390 L
c50
-76 -29 99 -340 1331 2730 3 MP
PP
0 sg
1331 2730 mt 1430 2390 L
1430 2390 mt 1354 2361 L
c35
-75 118 98 -108 1249 2082 3 MP
PP
0 sg
1249 2082 mt 1347 1974 L
1347 1974 mt 1272 2092 L
c11
98 -76 -75 118 1347 1974 3 MP
PP
0 sg
1347 1974 mt 1272 2092 L
1272 2092 mt 1370 2016 L
c25
98 -124 -75 55 1400 1949 3 MP
PP
0 sg
1400 1949 mt 1325 2004 L
1325 2004 mt 1423 1880 L
c56
-76 94 98 -124 1325 2004 3 MP
PP
0 sg
1325 2004 mt 1423 1880 L
1423 1880 mt 1347 1974 L
c8
98 -421 -75 -44 1384 3239 3 MP
PP
0 sg
1384 3239 mt 1309 3195 L
1309 3195 mt 1407 2774 L
c8
-76 -44 98 -421 1309 3195 3 MP
PP
0 sg
1309 3195 mt 1407 2774 L
1407 2774 mt 1331 2730 L
c49
-75 156 98 -76 1272 2092 3 MP
PP
0 sg
1272 2092 mt 1370 2016 L
1370 2016 mt 1295 2172 L
c48
98 -173 -75 17 1377 2105 3 MP
PP
0 sg
1377 2105 mt 1302 2122 L
1302 2122 mt 1400 1949 L
c60
-75 55 98 -173 1302 2122 3 MP
PP
0 sg
1302 2122 mt 1400 1949 L
1400 1949 mt 1325 2004 L
c27
-76 213 99 -44 1219 2353 3 MP
PP
0 sg
1219 2353 mt 1318 2309 L
1318 2309 mt 1242 2522 L
c37
99 -44 -76 181 1295 2172 3 MP
PP
0 sg
1295 2172 mt 1219 2353 L
1219 2353 mt 1318 2309 L
c27
99 -33 -76 213 1318 2309 3 MP
PP
0 sg
1318 2309 mt 1242 2522 L
1242 2522 mt 1341 2489 L
c63
98 -240 -75 -16 1354 2361 3 MP
PP
0 sg
1354 2361 mt 1279 2345 L
1279 2345 mt 1377 2105 L
c42
-75 17 98 -240 1279 2345 3 MP
PP
0 sg
1279 2345 mt 1377 2105 L
1377 2105 mt 1302 2122 L
c50
98 -331 -75 -38 1331 2730 3 MP
PP
0 sg
1331 2730 mt 1256 2692 L
1256 2692 mt 1354 2361 L
c64
-75 -16 98 -331 1256 2692 3 MP
PP
0 sg
1256 2692 mt 1354 2361 L
1354 2361 mt 1279 2345 L
c56
98 -108 -76 78 1325 2004 3 MP
PP
0 sg
1325 2004 mt 1249 2082 L
1249 2082 mt 1347 1974 L
c8
98 -422 -76 -43 1309 3195 3 MP
PP
0 sg
1309 3195 mt 1233 3152 L
1233 3152 mt 1331 2730 L
c8
-75 -38 98 -422 1233 3152 3 MP
PP
0 sg
1233 3152 mt 1331 2730 L
1331 2730 mt 1256 2692 L
c52
-76 143 98 -92 1174 2184 3 MP
PP
0 sg
1174 2184 mt 1272 2092 L
1272 2092 mt 1196 2235 L
c35
98 -92 -75 102 1249 2082 3 MP
PP
0 sg
1249 2082 mt 1174 2184 L
1174 2184 mt 1272 2092 L
c49
99 -63 -76 143 1272 2092 3 MP
PP
0 sg
1272 2092 mt 1196 2235 L
1196 2235 mt 1295 2172 L
c60
99 -155 -76 37 1302 2122 3 MP
PP
0 sg
1302 2122 mt 1226 2159 L
1226 2159 mt 1325 2004 L
c35
-76 78 99 -155 1226 2159 3 MP
PP
0 sg
1226 2159 mt 1325 2004 L
1325 2004 mt 1249 2082 L
c44
98 -48 -75 166 1196 2235 3 MP
PP
0 sg
1196 2235 mt 1121 2401 L
1121 2401 mt 1219 2353 L
c44
-76 181 99 -63 1196 2235 3 MP
PP
0 sg
1196 2235 mt 1295 2172 L
1295 2172 mt 1219 2353 L
c42
99 -222 -76 -1 1279 2345 3 MP
PP
0 sg
1279 2345 mt 1203 2344 L
1203 2344 mt 1302 2122 L
c57
-76 37 99 -222 1203 2344 3 MP
PP
0 sg
1203 2344 mt 1302 2122 L
1302 2122 mt 1226 2159 L
c27
98 -34 -75 203 1219 2353 3 MP
PP
0 sg
1219 2353 mt 1144 2556 L
1144 2556 mt 1242 2522 L
c64
99 -315 -76 -32 1256 2692 3 MP
PP
0 sg
1256 2692 mt 1180 2660 L
1180 2660 mt 1279 2345 L
c39
-75 203 98 -48 1121 2401 3 MP
PP
0 sg
1121 2401 mt 1219 2353 L
1219 2353 mt 1144 2556 L
c64
-76 -1 99 -315 1180 2660 3 MP
PP
0 sg
1180 2660 mt 1279 2345 L
1279 2345 mt 1203 2344 L
c8
98 -416 -75 -44 1233 3152 3 MP
PP
0 sg
1233 3152 mt 1158 3108 L
1158 3108 mt 1256 2692 L
c8
-76 -32 98 -416 1158 3108 3 MP
PP
0 sg
1158 3108 mt 1256 2692 L
1256 2692 mt 1180 2660 L
c30
-76 124 99 -112 1075 2296 3 MP
PP
0 sg
1075 2296 mt 1174 2184 L
1174 2184 mt 1098 2308 L
c52
98 -73 -76 124 1174 2184 3 MP
PP
0 sg
1174 2184 mt 1098 2308 L
1098 2308 mt 1196 2235 L
c35
98 -135 -75 58 1226 2159 3 MP
PP
0 sg
1226 2159 mt 1151 2217 L
1151 2217 mt 1249 2082 L
c57
-75 102 98 -135 1151 2217 3 MP
PP
0 sg
1151 2217 mt 1249 2082 L
1249 2082 mt 1174 2184 L
c50
-75 166 98 -73 1098 2308 3 MP
PP
0 sg
1098 2308 mt 1196 2235 L
1196 2235 mt 1121 2401 L
c57
98 -200 -75 15 1203 2344 3 MP
PP
0 sg
1203 2344 mt 1128 2359 L
1128 2359 mt 1226 2159 L
c10
-75 58 98 -200 1128 2359 3 MP
PP
0 sg
1128 2359 mt 1226 2159 L
1226 2159 mt 1151 2217 L
c39
99 -33 -76 188 1121 2401 3 MP
PP
0 sg
1121 2401 mt 1045 2589 L
1045 2589 mt 1144 2556 L
c64
98 -292 -75 -24 1180 2660 3 MP
PP
0 sg
1180 2660 mt 1105 2636 L
1105 2636 mt 1203 2344 L
c53
-75 15 98 -292 1105 2636 3 MP
PP
0 sg
1105 2636 mt 1203 2344 L
1203 2344 mt 1128 2359 L
c8
98 -404 -76 -44 1158 3108 3 MP
PP
0 sg
1158 3108 mt 1082 3064 L
1082 3064 mt 1180 2660 L
c8
-75 -24 98 -404 1082 3064 3 MP
PP
0 sg
1082 3064 mt 1180 2660 L
1180 2660 mt 1105 2636 L
c57
99 -112 -76 79 1151 2217 3 MP
PP
0 sg
1151 2217 mt 1075 2296 L
1075 2296 mt 1174 2184 L
c53
-75 147 98 -88 1000 2396 3 MP
PP
0 sg
1000 2396 mt 1098 2308 L
1098 2308 mt 1023 2455 L
c50
98 -54 -75 147 1098 2308 3 MP
PP
0 sg
1098 2308 mt 1023 2455 L
1023 2455 mt 1121 2401 L
c10
99 -173 -76 31 1128 2359 3 MP
PP
0 sg
1128 2359 mt 1052 2390 L
1052 2390 mt 1151 2217 L
c30
98 -88 -75 100 1075 2296 3 MP
PP
0 sg
1075 2296 mt 1000 2396 L
1000 2396 mt 1098 2308 L
c37
-76 79 99 -173 1052 2390 3 MP
PP
0 sg
1052 2390 mt 1151 2217 L
1151 2217 mt 1075 2296 L
c46
98 -34 -76 168 1023 2455 3 MP
PP
0 sg
1023 2455 mt  947 2623 L
 947 2623 mt 1045 2589 L
c46
-76 188 98 -54 1023 2455 3 MP
PP
0 sg
1023 2455 mt 1121 2401 L
1121 2401 mt 1045 2589 L
c53
99 -260 -76 -17 1105 2636 3 MP
PP
0 sg
1105 2636 mt 1029 2619 L
1029 2619 mt 1128 2359 L
c61
-76 31 99 -260 1029 2619 3 MP
PP
0 sg
1029 2619 mt 1128 2359 L
1128 2359 mt 1052 2390 L
c8
98 -384 -75 -44 1082 3064 3 MP
PP
0 sg
1082 3064 mt 1007 3020 L
1007 3020 mt 1105 2636 L
c8
-76 -17 98 -384 1007 3020 3 MP
PP
0 sg
1007 3020 mt 1105 2636 L
1105 2636 mt 1029 2619 L
c53
99 -61 -76 120 1000 2396 3 MP
PP
0 sg
1000 2396 mt  924 2516 L
 924 2516 mt 1023 2455 L
c37
98 -141 -75 47 1052 2390 3 MP
PP
0 sg
1052 2390 mt  977 2437 L
 977 2437 mt 1075 2296 L
c50
-75 100 98 -141 977 2437 3 MP
PP
0 sg
 977 2437 mt 1075 2296 L
1075 2296 mt 1000 2396 L
c61
98 -223 -75 -6 1029 2619 3 MP
PP
0 sg
1029 2619 mt  954 2613 L
 954 2613 mt 1052 2390 L
c51
-76 168 99 -61 924 2516 3 MP
PP
0 sg
 924 2516 mt 1023 2455 L
1023 2455 mt  947 2623 L
c9
-75 47 98 -223 954 2613 3 MP
PP
0 sg
 954 2613 mt 1052 2390 L
1052 2390 mt  977 2437 L
c8
98 -357 -76 -44 1007 3020 3 MP
PP
0 sg
1007 3020 mt  931 2976 L
 931 2976 mt 1029 2619 L
c8
-75 -6 98 -357 931 2976 3 MP
PP
0 sg
 931 2976 mt 1029 2619 L
1029 2619 mt  954 2613 L
c9
-76 120 99 -107 901 2503 3 MP
PP
0 sg
 901 2503 mt 1000 2396 L
1000 2396 mt  924 2516 L
c50
99 -107 -76 66 977 2437 3 MP
PP
0 sg
 977 2437 mt  901 2503 L
 901 2503 mt 1000 2396 L
c51
98 -34 -75 141 924 2516 3 MP
PP
0 sg
 924 2516 mt  849 2657 L
 849 2657 mt  947 2623 L
c9
99 -181 -76 5 954 2613 3 MP
PP
0 sg
 954 2613 mt  878 2618 L
 878 2618 mt  977 2437 L
c54
-75 141 98 -71 826 2587 3 MP
PP
0 sg
 826 2587 mt  924 2516 L
 924 2516 mt  849 2657 L
c9
98 -71 -75 84 901 2503 3 MP
PP
0 sg
 901 2503 mt  826 2587 L
 826 2587 mt  924 2516 L
c39
-76 66 99 -181 878 2618 3 MP
PP
0 sg
 878 2618 mt  977 2437 L
 977 2437 mt  901 2503 L
c8
98 -320 -75 -43 931 2976 3 MP
PP
0 sg
 931 2976 mt  856 2933 L
 856 2933 mt  954 2613 L
c8
-76 5 98 -320 856 2933 3 MP
PP
0 sg
 856 2933 mt  954 2613 L
 954 2613 mt  878 2618 L
c54
99 -33 -76 103 826 2587 3 MP
PP
0 sg
 826 2587 mt  750 2690 L
 750 2690 mt  849 2657 L
c39
98 -133 -75 18 878 2618 3 MP
PP
0 sg
 878 2618 mt  803 2636 L
 803 2636 mt  901 2503 L
c51
-75 84 98 -133 803 2636 3 MP
PP
0 sg
 803 2636 mt  901 2503 L
 901 2503 mt  826 2587 L
c8
98 -271 -76 -44 856 2933 3 MP
PP
0 sg
 856 2933 mt  780 2889 L
 780 2889 mt  878 2618 L
c8
-75 18 98 -271 780 2889 3 MP
PP
0 sg
 780 2889 mt  878 2618 L
 878 2618 mt  803 2636 L
c55
-76 103 99 -84 727 2671 3 MP
PP
0 sg
 727 2671 mt  826 2587 L
 826 2587 mt  750 2690 L
c51
99 -84 -76 35 803 2636 3 MP
PP
0 sg
 803 2636 mt  727 2671 L
 727 2671 mt  826 2587 L
c8
98 -209 -75 -44 780 2889 3 MP
PP
0 sg
 780 2889 mt  705 2845 L
 705 2845 mt  803 2636 L
c55
98 -34 -75 53 727 2671 3 MP
PP
0 sg
 727 2671 mt  652 2724 L
 652 2724 mt  750 2690 L
c8
-76 35 98 -209 705 2845 3 MP
PP
0 sg
 705 2845 mt  803 2636 L
 803 2636 mt  727 2671 L
c8
98 -130 -76 -44 705 2845 3 MP
PP
0 sg
 705 2845 mt  629 2801 L
 629 2801 mt  727 2671 L
c8
-75 53 98 -130 629 2801 3 MP
PP
0 sg
 629 2801 mt  727 2671 L
 727 2671 mt  652 2724 L
c8
98 -33 -75 -44 629 2801 3 MP
PP
0 sg
 629 2801 mt  554 2757 L
 554 2757 mt  652 2724 L
gr


end %%Color Dict

eplot
%%EndObject

epage
end

showpage

%%Trailer
%%EOF
