%!PS-Adobe-3.0 EPSF-3.0
%%Creator: MATLAB, The MathWorks, Inc. Version 7.14.0.739 (R2012a). Operating System: Linux 4.13.0-26-generic #29~16.04.2-Ubuntu SMP Tue Jan 9 22:00:44 UTC 2018 x86_64.
%%Title: /home/remoto/ruben.laso/Dropbox/M2i/1Curso/EDP/Analitica/Tema 3/Ejercicio/solucion/figuras/ap1b_3.eps
%%CreationDate: 01/20/2018  12:55:15
%%DocumentNeededFonts: Helvetica
%%DocumentProcessColors: Cyan Magenta Yellow Black
%%LanguageLevel: 2
%%Pages: 1
%%BoundingBox:   120   252   475   589
%%EndComments

%%BeginProlog
% MathWorks dictionary
/MathWorks 160 dict begin
% definition operators
/bdef {bind def} bind def
/ldef {load def} bind def
/xdef {exch def} bdef
/xstore {exch store} bdef
% operator abbreviations
/c  /clip ldef
/cc /concat ldef
/cp /closepath ldef
/gr /grestore ldef
/gs /gsave ldef
/mt /moveto ldef
/np /newpath ldef
/cm /currentmatrix ldef
/sm /setmatrix ldef
/rm /rmoveto ldef
/rl /rlineto ldef
/s {show newpath} bdef
/sc {setcmykcolor} bdef
/sr /setrgbcolor ldef
/sg /setgray ldef
/w /setlinewidth ldef
/j /setlinejoin ldef
/cap /setlinecap ldef
/rc {rectclip} bdef
/rf {rectfill} bdef
% page state control
/pgsv () def
/bpage {/pgsv save def} bdef
/epage {pgsv restore} bdef
/bplot /gsave ldef
/eplot {stroke grestore} bdef
% orientation switch
/portraitMode 0 def /landscapeMode 1 def /rotateMode 2 def
% coordinate system mappings
/dpi2point 0 def
% font control
/FontSize 0 def
/FMS {/FontSize xstore findfont [FontSize 0 0 FontSize neg 0 0]
  makefont setfont} bdef
/reencode {exch dup where {pop load} {pop StandardEncoding} ifelse
  exch dup 3 1 roll findfont dup length dict begin
  { 1 index /FID ne {def}{pop pop} ifelse } forall
  /Encoding exch def currentdict end definefont pop} bdef
/isroman {findfont /CharStrings get /Agrave known} bdef
/FMSR {3 1 roll 1 index dup isroman {reencode} {pop pop} ifelse
  exch FMS} bdef
/csm {1 dpi2point div -1 dpi2point div scale neg translate
 dup landscapeMode eq {pop -90 rotate}
  {rotateMode eq {90 rotate} if} ifelse} bdef
% line types: solid, dotted, dashed, dotdash
/SO { [] 0 setdash } bdef
/DO { [.5 dpi2point mul 4 dpi2point mul] 0 setdash } bdef
/DA { [6 dpi2point mul] 0 setdash } bdef
/DD { [.5 dpi2point mul 4 dpi2point mul 6 dpi2point mul 4
  dpi2point mul] 0 setdash } bdef
% macros for lines and objects
/L {lineto stroke} bdef
/MP {3 1 roll moveto 1 sub {rlineto} repeat} bdef
/AP {{rlineto} repeat} bdef
/PDlw -1 def
/W {/PDlw currentlinewidth def setlinewidth} def
/PP {closepath eofill} bdef
/DP {closepath stroke} bdef
/MR {4 -2 roll moveto dup  0 exch rlineto exch 0 rlineto
  neg 0 exch rlineto closepath} bdef
/FR {MR stroke} bdef
/PR {MR fill} bdef
/L1i {{currentfile picstr readhexstring pop} image} bdef
/tMatrix matrix def
/MakeOval {newpath tMatrix currentmatrix pop translate scale
0 0 1 0 360 arc tMatrix setmatrix} bdef
/FO {MakeOval stroke} bdef
/PO {MakeOval fill} bdef
/PD {currentlinewidth 2 div 0 360 arc fill
   PDlw -1 eq not {PDlw w /PDlw -1 def} if} def
/FA {newpath tMatrix currentmatrix pop translate scale
  0 0 1 5 -2 roll arc tMatrix setmatrix stroke} bdef
/PA {newpath tMatrix currentmatrix pop	translate 0 0 moveto scale
  0 0 1 5 -2 roll arc closepath tMatrix setmatrix fill} bdef
/FAn {newpath tMatrix currentmatrix pop translate scale
  0 0 1 5 -2 roll arcn tMatrix setmatrix stroke} bdef
/PAn {newpath tMatrix currentmatrix pop translate 0 0 moveto scale
  0 0 1 5 -2 roll arcn closepath tMatrix setmatrix fill} bdef
/vradius 0 def /hradius 0 def /lry 0 def
/lrx 0 def /uly 0 def /ulx 0 def /rad 0 def
/MRR {/vradius xdef /hradius xdef /lry xdef /lrx xdef /uly xdef
  /ulx xdef newpath tMatrix currentmatrix pop ulx hradius add uly
  vradius add translate hradius vradius scale 0 0 1 180 270 arc 
  tMatrix setmatrix lrx hradius sub uly vradius add translate
  hradius vradius scale 0 0 1 270 360 arc tMatrix setmatrix
  lrx hradius sub lry vradius sub translate hradius vradius scale
  0 0 1 0 90 arc tMatrix setmatrix ulx hradius add lry vradius sub
  translate hradius vradius scale 0 0 1 90 180 arc tMatrix setmatrix
  closepath} bdef
/FRR {MRR stroke } bdef
/PRR {MRR fill } bdef
/MlrRR {/lry xdef /lrx xdef /uly xdef /ulx xdef /rad lry uly sub 2 div def
  newpath tMatrix currentmatrix pop ulx rad add uly rad add translate
  rad rad scale 0 0 1 90 270 arc tMatrix setmatrix lrx rad sub lry rad
  sub translate rad rad scale 0 0 1 270 90 arc tMatrix setmatrix
  closepath} bdef
/FlrRR {MlrRR stroke } bdef
/PlrRR {MlrRR fill } bdef
/MtbRR {/lry xdef /lrx xdef /uly xdef /ulx xdef /rad lrx ulx sub 2 div def
  newpath tMatrix currentmatrix pop ulx rad add uly rad add translate
  rad rad scale 0 0 1 180 360 arc tMatrix setmatrix lrx rad sub lry rad
  sub translate rad rad scale 0 0 1 0 180 arc tMatrix setmatrix
  closepath} bdef
/FtbRR {MtbRR stroke } bdef
/PtbRR {MtbRR fill } bdef
/stri 6 array def /dtri 6 array def
/smat 6 array def /dmat 6 array def
/tmat1 6 array def /tmat2 6 array def /dif 3 array def
/asub {/ind2 exch def /ind1 exch def dup dup
  ind1 get exch ind2 get sub exch } bdef
/tri_to_matrix {
  2 0 asub 3 1 asub 4 0 asub 5 1 asub
  dup 0 get exch 1 get 7 -1 roll astore } bdef
/compute_transform {
  dmat dtri tri_to_matrix tmat1 invertmatrix 
  smat stri tri_to_matrix tmat2 concatmatrix } bdef
/ds {stri astore pop} bdef
/dt {dtri astore pop} bdef
/db {2 copy /cols xdef /rows xdef mul dup 3 mul string
  currentfile 
  3 index 0 eq {/ASCIIHexDecode filter}
  {/ASCII85Decode filter 3 index 2 eq {/RunLengthDecode filter} if }
  ifelse exch readstring pop
  dup 0 3 index getinterval /rbmap xdef
  dup 2 index dup getinterval /gbmap xdef
  1 index dup 2 mul exch getinterval /bbmap xdef pop pop}bdef
/it {gs np dtri aload pop moveto lineto lineto cp c
  cols rows 8 compute_transform 
  rbmap gbmap bbmap true 3 colorimage gr}bdef
/il {newpath moveto lineto stroke}bdef
currentdict end def
%%EndProlog

%%BeginSetup
MathWorks begin

0 cap

end
%%EndSetup

%%Page: 1 1
%%BeginPageSetup
%%PageBoundingBox:   120   252   475   589
MathWorks begin
bpage
%%EndPageSetup

%%BeginObject: obj1
bplot

/dpi2point 12 def
portraitMode 1440 7068 csm

    0     0  4263  4034 rc
85 dict begin %Colortable dictionary
/c0 { 0.000000 0.000000 0.000000 sr} bdef
/c1 { 1.000000 1.000000 1.000000 sr} bdef
/c2 { 0.900000 0.000000 0.000000 sr} bdef
/c3 { 0.000000 0.820000 0.000000 sr} bdef
/c4 { 0.000000 0.000000 0.800000 sr} bdef
/c5 { 0.910000 0.820000 0.320000 sr} bdef
/c6 { 1.000000 0.260000 0.820000 sr} bdef
/c7 { 0.000000 0.820000 0.820000 sr} bdef
c0
1 j
1 sg
   0    0 4264 4035 rf
6 w
0 2035 -1417 -374 0 -2035 3687 2979 4 MP
PP
1417 374 0 2035 -1417 -374 0 -2035 3687 2979 5 MP stroke
1417 374 1546 -343 -1417 -374 2141 3322 4 MP
PP
-1546 343 1417 374 1546 -343 -1417 -374 2141 3322 5 MP stroke
0 2035 1546 -343 0 -2035 724 2948 4 MP
PP
-1546 343 0 2035 1546 -343 0 -2035 724 2948 5 MP stroke
4 w
DO
0 sg
2141 3322 mt  724 2948 L
 724 2948 mt  724  913 L
2914 3151 mt 1497 2777 L
1497 2777 mt 1497  741 L
3687 2979 mt 2270 2605 L
2270 2605 mt 2270  570 L
2141 3322 mt 3687 2979 L
3687 2979 mt 3687  944 L
1432 3135 mt 2979 2792 L
2979 2792 mt 2979  757 L
 724 2948 mt 2270 2605 L
2270 2605 mt 2270  570 L
 724 2945 mt 2270 2602 L
2270 2602 mt 3687 2976 L
 724 2538 mt 2270 2195 L
2270 2195 mt 3687 2569 L
 724 2131 mt 2270 1788 L
2270 1788 mt 3687 2162 L
 724 1724 mt 2270 1381 L
2270 1381 mt 3687 1755 L
 724 1317 mt 2270  974 L
2270  974 mt 3687 1348 L
SO
6 w
2141 3322 mt 3687 2979 L
2141 3322 mt  724 2948 L
 724 2948 mt  724  913 L
2141 3322 mt 2190 3335 L
%%IncludeResource: font Helvetica
/Helvetica /ISOLatin1Encoding 120 FMSR

2223 3455 mt 
(0) s
2914 3151 mt 2963 3164 L
2997 3283 mt 
(0.5) s
3687 2979 mt 3736 2992 L
3770 3112 mt 
(1) s
2141 3322 mt 2091 3333 L
1991 3452 mt 
(0) s
1432 3135 mt 1383 3146 L
1183 3265 mt 
(0.5) s
 724 2948 mt  674 2959 L
 574 3077 mt 
(1) s
 724 2945 mt  675 2932 L
 575 2967 mt 
(0) s
 724 2538 mt  675 2525 L
 575 2560 mt 
(1) s
 724 2131 mt  675 2118 L
 575 2153 mt 
(2) s
 724 1724 mt  675 1711 L
 575 1746 mt 
(3) s
 724 1317 mt  675 1304 L
 575 1339 mt 
(4) s
gs 724 570 2964 2753 rc
/c8 { 0.000000 0.000000 0.562500 sr} bdef
c8
-74 -84 81 -18 3606 2994 3 MP
PP
0 sg
3606 2994 mt 3687 2976 L
3687 2976 mt 3613 2892 L
c8
82 -17 -75 -85 3606 2994 3 MP
PP
0 sg
3606 2994 mt 3531 2909 L
3531 2909 mt 3613 2892 L
/c9 { 0.000000 0.000000 0.687500 sr} bdef
c9
-75 -80 82 -17 3531 2909 3 MP
PP
0 sg
3531 2909 mt 3613 2892 L
3613 2892 mt 3538 2812 L
c8
-75 -85 82 -19 3524 3013 3 MP
PP
0 sg
3524 3013 mt 3606 2994 L
3606 2994 mt 3531 2909 L
c9
81 -17 -74 -80 3531 2909 3 MP
PP
0 sg
3531 2909 mt 3457 2829 L
3457 2829 mt 3538 2812 L
/c10 { 0.000000 0.000000 0.750000 sr} bdef
c10
-74 -74 81 -17 3457 2829 3 MP
PP
0 sg
3457 2829 mt 3538 2812 L
3538 2812 mt 3464 2738 L
c8
81 -18 -74 -86 3524 3013 3 MP
PP
0 sg
3524 3013 mt 3450 2927 L
3450 2927 mt 3531 2909 L
c9
-74 -80 81 -18 3450 2927 3 MP
PP
0 sg
3450 2927 mt 3531 2909 L
3531 2909 mt 3457 2829 L
c8
-74 -86 81 -18 3443 3031 3 MP
PP
0 sg
3443 3031 mt 3524 3013 L
3524 3013 mt 3450 2927 L
c10
82 -17 -75 -74 3457 2829 3 MP
PP
0 sg
3457 2829 mt 3382 2755 L
3382 2755 mt 3464 2738 L
/c11 { 0.000000 0.000000 0.875000 sr} bdef
c11
-75 -67 82 -17 3382 2755 3 MP
PP
0 sg
3382 2755 mt 3464 2738 L
3464 2738 mt 3389 2671 L
c9
82 -18 -75 -80 3450 2927 3 MP
PP
0 sg
3450 2927 mt 3375 2847 L
3375 2847 mt 3457 2829 L
c10
-75 -74 82 -18 3375 2847 3 MP
PP
0 sg
3375 2847 mt 3457 2829 L
3457 2829 mt 3382 2755 L
c8
81 -17 -74 -87 3443 3031 3 MP
PP
0 sg
3443 3031 mt 3369 2944 L
3369 2944 mt 3450 2927 L
c9
-75 -80 81 -17 3369 2944 3 MP
PP
0 sg
3369 2944 mt 3450 2927 L
3450 2927 mt 3375 2847 L
c8
-74 -87 81 -18 3362 3049 3 MP
PP
0 sg
3362 3049 mt 3443 3031 L
3443 3031 mt 3369 2944 L
c11
81 -17 -74 -67 3382 2755 3 MP
PP
0 sg
3382 2755 mt 3308 2688 L
3308 2688 mt 3389 2671 L
/c12 { 0.000000 0.000000 1.000000 sr} bdef
c12
-75 -60 81 -17 3308 2688 3 MP
PP
0 sg
3308 2688 mt 3389 2671 L
3389 2671 mt 3314 2611 L
c10
81 -17 -74 -75 3375 2847 3 MP
PP
0 sg
3375 2847 mt 3301 2772 L
3301 2772 mt 3382 2755 L
c11
-74 -67 81 -17 3301 2772 3 MP
PP
0 sg
3301 2772 mt 3382 2755 L
3382 2755 mt 3308 2688 L
c9
81 -17 -75 -80 3369 2944 3 MP
PP
0 sg
3369 2944 mt 3294 2864 L
3294 2864 mt 3375 2847 L
/c13 { 0.000000 0.000000 0.812500 sr} bdef
c13
-74 -75 81 -17 3294 2864 3 MP
PP
0 sg
3294 2864 mt 3375 2847 L
3375 2847 mt 3301 2772 L
c8
82 -18 -75 -87 3362 3049 3 MP
PP
0 sg
3362 3049 mt 3287 2962 L
3287 2962 mt 3369 2944 L
c9
-75 -80 82 -18 3287 2962 3 MP
PP
0 sg
3287 2962 mt 3369 2944 L
3369 2944 mt 3294 2864 L
c8
-75 -87 82 -18 3280 3067 3 MP
PP
0 sg
3280 3067 mt 3362 3049 L
3362 3049 mt 3287 2962 L
c12
81 -17 -75 -60 3308 2688 3 MP
PP
0 sg
3308 2688 mt 3233 2628 L
3233 2628 mt 3314 2611 L
/c14 { 0.000000 0.062500 1.000000 sr} bdef
c14
-74 -53 81 -17 3233 2628 3 MP
PP
0 sg
3233 2628 mt 3314 2611 L
3314 2611 mt 3240 2558 L
c11
82 -17 -75 -67 3301 2772 3 MP
PP
0 sg
3301 2772 mt 3226 2705 L
3226 2705 mt 3308 2688 L
c12
-75 -60 82 -17 3226 2705 3 MP
PP
0 sg
3226 2705 mt 3308 2688 L
3308 2688 mt 3233 2628 L
c13
82 -17 -75 -75 3294 2864 3 MP
PP
0 sg
3294 2864 mt 3219 2789 L
3219 2789 mt 3301 2772 L
c11
-75 -67 82 -17 3219 2789 3 MP
PP
0 sg
3219 2789 mt 3301 2772 L
3301 2772 mt 3226 2705 L
c9
81 -16 -74 -82 3287 2962 3 MP
PP
0 sg
3287 2962 mt 3213 2880 L
3213 2880 mt 3294 2864 L
c13
-75 -75 81 -16 3213 2880 3 MP
PP
0 sg
3213 2880 mt 3294 2864 L
3294 2864 mt 3219 2789 L
c8
81 -17 -74 -88 3280 3067 3 MP
PP
0 sg
3280 3067 mt 3206 2979 L
3206 2979 mt 3287 2962 L
c9
-74 -82 81 -17 3206 2979 3 MP
PP
0 sg
3206 2979 mt 3287 2962 L
3287 2962 mt 3213 2880 L
c8
-74 -88 81 -18 3199 3085 3 MP
PP
0 sg
3199 3085 mt 3280 3067 L
3280 3067 mt 3206 2979 L
c14
82 -17 -75 -53 3233 2628 3 MP
PP
0 sg
3233 2628 mt 3158 2575 L
3158 2575 mt 3240 2558 L
/c15 { 0.000000 0.125000 1.000000 sr} bdef
c15
-75 -44 82 -17 3158 2575 3 MP
PP
0 sg
3158 2575 mt 3240 2558 L
3240 2558 mt 3165 2514 L
c12
81 -16 -74 -61 3226 2705 3 MP
PP
0 sg
3226 2705 mt 3152 2644 L
3152 2644 mt 3233 2628 L
c14
-75 -53 81 -16 3152 2644 3 MP
PP
0 sg
3152 2644 mt 3233 2628 L
3233 2628 mt 3158 2575 L
c11
81 -16 -74 -68 3219 2789 3 MP
PP
0 sg
3219 2789 mt 3145 2721 L
3145 2721 mt 3226 2705 L
c12
-74 -61 81 -16 3145 2721 3 MP
PP
0 sg
3145 2721 mt 3226 2705 L
3226 2705 mt 3152 2644 L
c13
81 -16 -75 -75 3213 2880 3 MP
PP
0 sg
3213 2880 mt 3138 2805 L
3138 2805 mt 3219 2789 L
c11
-74 -68 81 -16 3138 2805 3 MP
PP
0 sg
3138 2805 mt 3219 2789 L
3219 2789 mt 3145 2721 L
c9
82 -16 -75 -83 3206 2979 3 MP
PP
0 sg
3206 2979 mt 3131 2896 L
3131 2896 mt 3213 2880 L
c13
-75 -75 82 -16 3131 2896 3 MP
PP
0 sg
3131 2896 mt 3213 2880 L
3213 2880 mt 3138 2805 L
c8
82 -16 -75 -90 3199 3085 3 MP
PP
0 sg
3199 3085 mt 3124 2995 L
3124 2995 mt 3206 2979 L
c9
-75 -83 82 -16 3124 2995 3 MP
PP
0 sg
3124 2995 mt 3206 2979 L
3206 2979 mt 3131 2896 L
c8
-75 -90 81 -18 3118 3103 3 MP
PP
0 sg
3118 3103 mt 3199 3085 L
3199 3085 mt 3124 2995 L
c15
81 -16 -74 -45 3158 2575 3 MP
PP
0 sg
3158 2575 mt 3084 2530 L
3084 2530 mt 3165 2514 L
/c16 { 0.000000 0.187500 1.000000 sr} bdef
c16
-74 -37 81 -16 3084 2530 3 MP
PP
0 sg
3084 2530 mt 3165 2514 L
3165 2514 mt 3091 2477 L
c14
81 -16 -75 -53 3152 2644 3 MP
PP
0 sg
3152 2644 mt 3077 2591 L
3077 2591 mt 3158 2575 L
c15
-74 -45 81 -16 3077 2591 3 MP
PP
0 sg
3077 2591 mt 3158 2575 L
3158 2575 mt 3084 2530 L
c12
82 -16 -75 -61 3145 2721 3 MP
PP
0 sg
3145 2721 mt 3070 2660 L
3070 2660 mt 3152 2644 L
c14
-75 -53 82 -16 3070 2660 3 MP
PP
0 sg
3070 2660 mt 3152 2644 L
3152 2644 mt 3077 2591 L
c11
82 -15 -75 -69 3138 2805 3 MP
PP
0 sg
3138 2805 mt 3063 2736 L
3063 2736 mt 3145 2721 L
c12
-75 -61 82 -15 3063 2736 3 MP
PP
0 sg
3063 2736 mt 3145 2721 L
3145 2721 mt 3070 2660 L
c13
81 -15 -74 -76 3131 2896 3 MP
PP
0 sg
3131 2896 mt 3057 2820 L
3057 2820 mt 3138 2805 L
c11
-75 -69 81 -15 3057 2820 3 MP
PP
0 sg
3057 2820 mt 3138 2805 L
3138 2805 mt 3063 2736 L
c9
81 -16 -74 -83 3124 2995 3 MP
PP
0 sg
3124 2995 mt 3050 2912 L
3050 2912 mt 3131 2896 L
c13
-74 -76 81 -16 3050 2912 3 MP
PP
0 sg
3050 2912 mt 3131 2896 L
3131 2896 mt 3057 2820 L
c8
81 -17 -75 -91 3118 3103 3 MP
PP
0 sg
3118 3103 mt 3043 3012 L
3043 3012 mt 3124 2995 L
c9
-74 -83 81 -17 3043 3012 3 MP
PP
0 sg
3043 3012 mt 3124 2995 L
3124 2995 mt 3050 2912 L
c8
-75 -91 82 -18 3036 3121 3 MP
PP
0 sg
3036 3121 mt 3118 3103 L
3118 3103 mt 3043 3012 L
c16
82 -16 -75 -37 3084 2530 3 MP
PP
0 sg
3084 2530 mt 3009 2493 L
3009 2493 mt 3091 2477 L
c16
-75 -28 82 -16 3009 2493 3 MP
PP
0 sg
3009 2493 mt 3091 2477 L
3091 2477 mt 3016 2449 L
c15
82 -16 -75 -45 3077 2591 3 MP
PP
0 sg
3077 2591 mt 3002 2546 L
3002 2546 mt 3084 2530 L
c16
-75 -37 82 -16 3002 2546 3 MP
PP
0 sg
3002 2546 mt 3084 2530 L
3084 2530 mt 3009 2493 L
c14
81 -15 -74 -54 3070 2660 3 MP
PP
0 sg
3070 2660 mt 2996 2606 L
2996 2606 mt 3077 2591 L
c15
-75 -45 81 -15 2996 2606 3 MP
PP
0 sg
2996 2606 mt 3077 2591 L
3077 2591 mt 3002 2546 L
c12
81 -14 -74 -62 3063 2736 3 MP
PP
0 sg
3063 2736 mt 2989 2674 L
2989 2674 mt 3070 2660 L
c14
-74 -54 81 -14 2989 2674 3 MP
PP
0 sg
2989 2674 mt 3070 2660 L
3070 2660 mt 2996 2606 L
c11
81 -14 -75 -70 3057 2820 3 MP
PP
0 sg
3057 2820 mt 2982 2750 L
2982 2750 mt 3063 2736 L
c12
-74 -62 81 -14 2982 2750 3 MP
PP
0 sg
2982 2750 mt 3063 2736 L
3063 2736 mt 2989 2674 L
c13
82 -14 -75 -78 3050 2912 3 MP
PP
0 sg
3050 2912 mt 2975 2834 L
2975 2834 mt 3057 2820 L
/c17 { 0.000000 0.000000 0.937500 sr} bdef
c17
-75 -70 82 -14 2975 2834 3 MP
PP
0 sg
2975 2834 mt 3057 2820 L
3057 2820 mt 2982 2750 L
c9
82 -14 -75 -86 3043 3012 3 MP
PP
0 sg
3043 3012 mt 2968 2926 L
2968 2926 mt 3050 2912 L
c13
-75 -78 82 -14 2968 2926 3 MP
PP
0 sg
2968 2926 mt 3050 2912 L
3050 2912 mt 2975 2834 L
c8
81 -15 -74 -94 3036 3121 3 MP
PP
0 sg
3036 3121 mt 2962 3027 L
2962 3027 mt 3043 3012 L
c9
-75 -86 81 -15 2962 3027 3 MP
PP
0 sg
2962 3027 mt 3043 3012 L
3043 3012 mt 2968 2926 L
c8
-74 -94 81 -18 2955 3139 3 MP
PP
0 sg
2955 3139 mt 3036 3121 L
3036 3121 mt 2962 3027 L
c16
81 -16 -74 -28 3009 2493 3 MP
PP
0 sg
3009 2493 mt 2935 2465 L
2935 2465 mt 3016 2449 L
/c18 { 0.000000 0.250000 1.000000 sr} bdef
c18
-75 -20 81 -16 2935 2465 3 MP
PP
0 sg
2935 2465 mt 3016 2449 L
3016 2449 mt 2941 2429 L
c16
81 -16 -74 -37 3002 2546 3 MP
PP
0 sg
3002 2546 mt 2928 2509 L
2928 2509 mt 3009 2493 L
c16
-74 -28 81 -16 2928 2509 3 MP
PP
0 sg
2928 2509 mt 3009 2493 L
3009 2493 mt 2935 2465 L
c15
81 -15 -75 -45 2996 2606 3 MP
PP
0 sg
2996 2606 mt 2921 2561 L
2921 2561 mt 3002 2546 L
c16
-74 -37 81 -15 2921 2561 3 MP
PP
0 sg
2921 2561 mt 3002 2546 L
3002 2546 mt 2928 2509 L
c14
82 -14 -75 -54 2989 2674 3 MP
PP
0 sg
2989 2674 mt 2914 2620 L
2914 2620 mt 2996 2606 L
c15
-75 -45 82 -14 2914 2620 3 MP
PP
0 sg
2914 2620 mt 2996 2606 L
2996 2606 mt 2921 2561 L
c12
82 -14 -75 -62 2982 2750 3 MP
PP
0 sg
2982 2750 mt 2907 2688 L
2907 2688 mt 2989 2674 L
c14
-75 -54 82 -14 2907 2688 3 MP
PP
0 sg
2907 2688 mt 2989 2674 L
2989 2674 mt 2914 2620 L
c17
81 -13 -74 -71 2975 2834 3 MP
PP
0 sg
2975 2834 mt 2901 2763 L
2901 2763 mt 2982 2750 L
c12
-75 -62 81 -13 2901 2763 3 MP
PP
0 sg
2901 2763 mt 2982 2750 L
2982 2750 mt 2907 2688 L
c13
81 -13 -74 -79 2968 2926 3 MP
PP
0 sg
2968 2926 mt 2894 2847 L
2894 2847 mt 2975 2834 L
c17
-74 -71 81 -13 2894 2847 3 MP
PP
0 sg
2894 2847 mt 2975 2834 L
2975 2834 mt 2901 2763 L
c9
81 -13 -75 -88 2962 3027 3 MP
PP
0 sg
2962 3027 mt 2887 2939 L
2887 2939 mt 2968 2926 L
c13
-74 -79 81 -13 2887 2939 3 MP
PP
0 sg
2887 2939 mt 2968 2926 L
2968 2926 mt 2894 2847 L
c8
82 -15 -75 -97 2955 3139 3 MP
PP
0 sg
2955 3139 mt 2880 3042 L
2880 3042 mt 2962 3027 L
c9
-75 -88 82 -15 2880 3042 3 MP
PP
0 sg
2880 3042 mt 2962 3027 L
2962 3027 mt 2887 2939 L
c8
-75 -97 82 -18 2873 3157 3 MP
PP
0 sg
2873 3157 mt 2955 3139 L
2955 3139 mt 2880 3042 L
c18
81 -17 -75 -19 2935 2465 3 MP
PP
0 sg
2935 2465 mt 2860 2446 L
2860 2446 mt 2941 2429 L
c18
-74 -11 81 -17 2860 2446 3 MP
PP
0 sg
2860 2446 mt 2941 2429 L
2941 2429 mt 2867 2418 L
c16
82 -16 -75 -28 2928 2509 3 MP
PP
0 sg
2928 2509 mt 2853 2481 L
2853 2481 mt 2935 2465 L
c18
-75 -19 82 -16 2853 2481 3 MP
PP
0 sg
2853 2481 mt 2935 2465 L
2935 2465 mt 2860 2446 L
c16
82 -15 -75 -37 2921 2561 3 MP
PP
0 sg
2921 2561 mt 2846 2524 L
2846 2524 mt 2928 2509 L
c18
-75 -28 82 -15 2846 2524 3 MP
PP
0 sg
2846 2524 mt 2928 2509 L
2928 2509 mt 2853 2481 L
c15
81 -14 -74 -45 2914 2620 3 MP
PP
0 sg
2914 2620 mt 2840 2575 L
2840 2575 mt 2921 2561 L
c16
-75 -37 81 -14 2840 2575 3 MP
PP
0 sg
2840 2575 mt 2921 2561 L
2921 2561 mt 2846 2524 L
c14
81 -13 -74 -55 2907 2688 3 MP
PP
0 sg
2907 2688 mt 2833 2633 L
2833 2633 mt 2914 2620 L
c15
-74 -45 81 -13 2833 2633 3 MP
PP
0 sg
2833 2633 mt 2914 2620 L
2914 2620 mt 2840 2575 L
c12
81 -12 -75 -63 2901 2763 3 MP
PP
0 sg
2901 2763 mt 2826 2700 L
2826 2700 mt 2907 2688 L
c15
-74 -55 81 -12 2826 2700 3 MP
PP
0 sg
2826 2700 mt 2907 2688 L
2907 2688 mt 2833 2633 L
c17
82 -11 -75 -73 2894 2847 3 MP
PP
0 sg
2894 2847 mt 2819 2774 L
2819 2774 mt 2901 2763 L
c12
-75 -63 82 -11 2819 2774 3 MP
PP
0 sg
2819 2774 mt 2901 2763 L
2901 2763 mt 2826 2700 L
c13
82 -10 -75 -82 2887 2939 3 MP
PP
0 sg
2887 2939 mt 2812 2857 L
2812 2857 mt 2894 2847 L
c17
-75 -73 82 -10 2812 2857 3 MP
PP
0 sg
2812 2857 mt 2894 2847 L
2894 2847 mt 2819 2774 L
c9
81 -11 -74 -92 2880 3042 3 MP
PP
0 sg
2880 3042 mt 2806 2950 L
2806 2950 mt 2887 2939 L
c13
-75 -82 81 -11 2806 2950 3 MP
PP
0 sg
2806 2950 mt 2887 2939 L
2887 2939 mt 2812 2857 L
c8
81 -13 -74 -102 2873 3157 3 MP
PP
0 sg
2873 3157 mt 2799 3055 L
2799 3055 mt 2880 3042 L
c9
-74 -92 81 -13 2799 3055 3 MP
PP
0 sg
2799 3055 mt 2880 3042 L
2880 3042 mt 2806 2950 L
c8
-74 -102 81 -18 2792 3175 3 MP
PP
0 sg
2792 3175 mt 2873 3157 L
2873 3157 mt 2799 3055 L
c18
82 -16 -75 -12 2860 2446 3 MP
PP
0 sg
2860 2446 mt 2785 2434 L
2785 2434 mt 2867 2418 L
c16
-75 -3 82 -16 2785 2434 3 MP
PP
0 sg
2785 2434 mt 2867 2418 L
2867 2418 mt 2792 2415 L
c18
81 -15 -74 -20 2853 2481 3 MP
PP
0 sg
2853 2481 mt 2779 2461 L
2779 2461 mt 2860 2446 L
c18
-75 -12 81 -15 2779 2461 3 MP
PP
0 sg
2779 2461 mt 2860 2446 L
2860 2446 mt 2785 2434 L
c18
81 -15 -74 -28 2846 2524 3 MP
PP
0 sg
2846 2524 mt 2772 2496 L
2772 2496 mt 2853 2481 L
c18
-74 -20 81 -15 2772 2496 3 MP
PP
0 sg
2772 2496 mt 2853 2481 L
2853 2481 mt 2779 2461 L
c16
81 -14 -75 -37 2840 2575 3 MP
PP
0 sg
2840 2575 mt 2765 2538 L
2765 2538 mt 2846 2524 L
c18
-74 -28 81 -14 2765 2538 3 MP
PP
0 sg
2765 2538 mt 2846 2524 L
2846 2524 mt 2772 2496 L
c15
82 -12 -75 -46 2833 2633 3 MP
PP
0 sg
2833 2633 mt 2758 2587 L
2758 2587 mt 2840 2575 L
c16
-75 -37 82 -12 2758 2587 3 MP
PP
0 sg
2758 2587 mt 2840 2575 L
2840 2575 mt 2765 2538 L
c15
82 -11 -75 -56 2826 2700 3 MP
PP
0 sg
2826 2700 mt 2751 2644 L
2751 2644 mt 2833 2633 L
c16
-75 -46 82 -11 2751 2644 3 MP
PP
0 sg
2751 2644 mt 2833 2633 L
2833 2633 mt 2758 2587 L
c12
81 -9 -74 -65 2819 2774 3 MP
PP
0 sg
2819 2774 mt 2745 2709 L
2745 2709 mt 2826 2700 L
c15
-75 -56 81 -9 2745 2709 3 MP
PP
0 sg
2745 2709 mt 2826 2700 L
2826 2700 mt 2751 2644 L
c17
81 -9 -74 -74 2812 2857 3 MP
PP
0 sg
2812 2857 mt 2738 2783 L
2738 2783 mt 2819 2774 L
c14
-74 -65 81 -9 2738 2783 3 MP
PP
0 sg
2738 2783 mt 2819 2774 L
2819 2774 mt 2745 2709 L
c13
81 -8 -75 -85 2806 2950 3 MP
PP
0 sg
2806 2950 mt 2731 2865 L
2731 2865 mt 2812 2857 L
c17
-74 -74 81 -8 2731 2865 3 MP
PP
0 sg
2731 2865 mt 2812 2857 L
2812 2857 mt 2738 2783 L
c9
82 -9 -75 -96 2799 3055 3 MP
PP
0 sg
2799 3055 mt 2724 2959 L
2724 2959 mt 2806 2950 L
c11
-75 -85 82 -9 2724 2959 3 MP
PP
0 sg
2724 2959 mt 2806 2950 L
2806 2950 mt 2731 2865 L
c8
82 -12 -75 -108 2792 3175 3 MP
PP
0 sg
2792 3175 mt 2717 3067 L
2717 3067 mt 2799 3055 L
c9
-75 -96 82 -12 2717 3067 3 MP
PP
0 sg
2717 3067 mt 2799 3055 L
2799 3055 mt 2724 2959 L
c16
81 -17 -74 -2 2785 2434 3 MP
PP
0 sg
2785 2434 mt 2711 2432 L
2711 2432 mt 2792 2415 L
c16
-74 6 81 -17 2711 2432 3 MP
PP
0 sg
2711 2432 mt 2792 2415 L
2792 2415 mt 2718 2421 L
c8
-75 -108 81 -18 2711 3193 3 MP
PP
0 sg
2711 3193 mt 2792 3175 L
2792 3175 mt 2717 3067 L
c18
81 -16 -75 -11 2779 2461 3 MP
PP
0 sg
2779 2461 mt 2704 2450 L
2704 2450 mt 2785 2434 L
c16
-74 -2 81 -16 2704 2450 3 MP
PP
0 sg
2704 2450 mt 2785 2434 L
2785 2434 mt 2711 2432 L
c18
82 -15 -75 -20 2772 2496 3 MP
PP
0 sg
2772 2496 mt 2697 2476 L
2697 2476 mt 2779 2461 L
c18
-75 -11 82 -15 2697 2476 3 MP
PP
0 sg
2697 2476 mt 2779 2461 L
2779 2461 mt 2704 2450 L
c18
82 -13 -75 -29 2765 2538 3 MP
PP
0 sg
2765 2538 mt 2690 2509 L
2690 2509 mt 2772 2496 L
c18
-75 -20 82 -13 2690 2509 3 MP
PP
0 sg
2690 2509 mt 2772 2496 L
2772 2496 mt 2697 2476 L
c16
81 -12 -74 -37 2758 2587 3 MP
PP
0 sg
2758 2587 mt 2684 2550 L
2684 2550 mt 2765 2538 L
c18
-75 -29 81 -12 2684 2550 3 MP
PP
0 sg
2684 2550 mt 2765 2538 L
2765 2538 mt 2690 2509 L
c16
81 -11 -74 -46 2751 2644 3 MP
PP
0 sg
2751 2644 mt 2677 2598 L
2677 2598 mt 2758 2587 L
c18
-74 -37 81 -11 2677 2598 3 MP
PP
0 sg
2677 2598 mt 2758 2587 L
2758 2587 mt 2684 2550 L
c15
81 -9 -75 -56 2745 2709 3 MP
PP
0 sg
2745 2709 mt 2670 2653 L
2670 2653 mt 2751 2644 L
c16
-74 -46 81 -9 2670 2653 3 MP
PP
0 sg
2670 2653 mt 2751 2644 L
2751 2644 mt 2677 2598 L
c14
82 -7 -75 -67 2738 2783 3 MP
PP
0 sg
2738 2783 mt 2663 2716 L
2663 2716 mt 2745 2709 L
c15
-75 -56 82 -7 2663 2716 3 MP
PP
0 sg
2663 2716 mt 2745 2709 L
2745 2709 mt 2670 2653 L
c17
82 -5 -75 -77 2731 2865 3 MP
PP
0 sg
2731 2865 mt 2656 2788 L
2656 2788 mt 2738 2783 L
c14
-75 -67 82 -5 2656 2788 3 MP
PP
0 sg
2656 2788 mt 2738 2783 L
2738 2783 mt 2663 2716 L
c11
81 -4 -74 -90 2724 2959 3 MP
PP
0 sg
2724 2959 mt 2650 2869 L
2650 2869 mt 2731 2865 L
c12
-75 -77 81 -4 2650 2869 3 MP
PP
0 sg
2650 2869 mt 2731 2865 L
2731 2865 mt 2656 2788 L
c9
81 -5 -74 -103 2717 3067 3 MP
PP
0 sg
2717 3067 mt 2643 2964 L
2643 2964 mt 2724 2959 L
c11
-74 -90 81 -5 2643 2964 3 MP
PP
0 sg
2643 2964 mt 2724 2959 L
2724 2959 mt 2650 2869 L
c16
82 -16 -75 5 2711 2432 3 MP
PP
0 sg
2711 2432 mt 2636 2437 L
2636 2437 mt 2718 2421 L
c15
-75 13 82 -16 2636 2437 3 MP
PP
0 sg
2636 2437 mt 2718 2421 L
2718 2421 mt 2643 2434 L
c8
81 -9 -75 -117 2711 3193 3 MP
PP
0 sg
2711 3193 mt 2636 3076 L
2636 3076 mt 2717 3067 L
c10
-74 -103 81 -9 2636 3076 3 MP
PP
0 sg
2636 3076 mt 2717 3067 L
2717 3067 mt 2643 2964 L
c16
82 -15 -75 -3 2704 2450 3 MP
PP
0 sg
2704 2450 mt 2629 2447 L
2629 2447 mt 2711 2432 L
c16
-75 5 82 -15 2629 2447 3 MP
PP
0 sg
2629 2447 mt 2711 2432 L
2711 2432 mt 2636 2437 L
c8
-75 -117 82 -18 2629 3211 3 MP
PP
0 sg
2629 3211 mt 2711 3193 L
2711 3193 mt 2636 3076 L
c18
81 -15 -74 -11 2697 2476 3 MP
PP
0 sg
2697 2476 mt 2623 2465 L
2623 2465 mt 2704 2450 L
c18
-75 -3 81 -15 2623 2465 3 MP
PP
0 sg
2623 2465 mt 2704 2450 L
2704 2450 mt 2629 2447 L
c18
81 -13 -74 -20 2690 2509 3 MP
PP
0 sg
2690 2509 mt 2616 2489 L
2616 2489 mt 2697 2476 L
c18
-74 -11 81 -13 2616 2489 3 MP
PP
0 sg
2616 2489 mt 2697 2476 L
2697 2476 mt 2623 2465 L
c18
81 -12 -75 -29 2684 2550 3 MP
PP
0 sg
2684 2550 mt 2609 2521 L
2609 2521 mt 2690 2509 L
c18
-74 -20 81 -12 2609 2521 3 MP
PP
0 sg
2609 2521 mt 2690 2509 L
2690 2509 mt 2616 2489 L
c18
82 -10 -75 -38 2677 2598 3 MP
PP
0 sg
2677 2598 mt 2602 2560 L
2602 2560 mt 2684 2550 L
c18
-75 -29 82 -10 2602 2560 3 MP
PP
0 sg
2602 2560 mt 2684 2550 L
2684 2550 mt 2609 2521 L
c16
82 -7 -75 -48 2670 2653 3 MP
PP
0 sg
2670 2653 mt 2595 2605 L
2595 2605 mt 2677 2598 L
c18
-75 -38 82 -7 2595 2605 3 MP
PP
0 sg
2595 2605 mt 2677 2598 L
2677 2598 mt 2602 2560 L
c15
81 -5 -74 -58 2663 2716 3 MP
PP
0 sg
2663 2716 mt 2589 2658 L
2589 2658 mt 2670 2653 L
c16
-75 -48 81 -5 2589 2658 3 MP
PP
0 sg
2589 2658 mt 2670 2653 L
2670 2653 mt 2595 2605 L
c14
81 -2 -74 -70 2656 2788 3 MP
PP
0 sg
2656 2788 mt 2582 2718 L
2582 2718 mt 2663 2716 L
c16
-74 -58 81 -2 2582 2718 3 MP
PP
0 sg
2582 2718 mt 2663 2716 L
2663 2716 mt 2589 2658 L
c12
81 0 -75 -81 2650 2869 3 MP
PP
0 sg
2650 2869 mt 2575 2788 L
2575 2788 mt 2656 2788 L
c15
-74 -70 81 0 2575 2788 3 MP
PP
0 sg
2575 2788 mt 2656 2788 L
2656 2788 mt 2582 2718 L
c11
82 0 -75 -95 2643 2964 3 MP
PP
0 sg
2643 2964 mt 2568 2869 L
2568 2869 mt 2650 2869 L
c12
-75 -81 82 0 2568 2869 3 MP
PP
0 sg
2568 2869 mt 2650 2869 L
2650 2869 mt 2575 2788 L
c14
-74 20 81 -16 2562 2450 3 MP
PP
0 sg
2562 2450 mt 2643 2434 L
2643 2434 mt 2569 2454 L
c15
81 -16 -74 13 2636 2437 3 MP
PP
0 sg
2636 2437 mt 2562 2450 L
2562 2450 mt 2643 2434 L
c10
82 -1 -75 -111 2636 3076 3 MP
PP
0 sg
2636 3076 mt 2561 2965 L
2561 2965 mt 2643 2964 L
c11
-75 -95 82 -1 2561 2965 3 MP
PP
0 sg
2561 2965 mt 2643 2964 L
2643 2964 mt 2568 2869 L
c14
82 -17 -75 21 2562 2450 3 MP
PP
0 sg
2562 2450 mt 2487 2471 L
2487 2471 mt 2569 2454 L
c16
81 -16 -74 6 2629 2447 3 MP
PP
0 sg
2629 2447 mt 2555 2453 L
2555 2453 mt 2636 2437 L
c15
-74 13 81 -16 2555 2453 3 MP
PP
0 sg
2555 2453 mt 2636 2437 L
2636 2437 mt 2562 2450 L
c8
81 -6 -74 -129 2629 3211 3 MP
PP
0 sg
2629 3211 mt 2555 3082 L
2555 3082 mt 2636 3076 L
c10
-75 -111 81 -6 2555 3082 3 MP
PP
0 sg
2555 3082 mt 2636 3076 L
2636 3076 mt 2561 2965 L
c18
81 -15 -75 -3 2623 2465 3 MP
PP
0 sg
2623 2465 mt 2548 2462 L
2548 2462 mt 2629 2447 L
c12
-75 28 82 -17 2487 2471 3 MP
PP
0 sg
2487 2471 mt 2569 2454 L
2569 2454 mt 2494 2482 L
c16
-74 6 81 -15 2548 2462 3 MP
PP
0 sg
2548 2462 mt 2629 2447 L
2629 2447 mt 2555 2453 L
c8
-74 -129 81 -18 2548 3229 3 MP
PP
0 sg
2548 3229 mt 2629 3211 L
2629 3211 mt 2555 3082 L
c18
82 -14 -75 -10 2616 2489 3 MP
PP
0 sg
2616 2489 mt 2541 2479 L
2541 2479 mt 2623 2465 L
c18
-75 -3 82 -14 2541 2479 3 MP
PP
0 sg
2541 2479 mt 2623 2465 L
2623 2465 mt 2548 2462 L
c18
82 -12 -75 -20 2609 2521 3 MP
PP
0 sg
2609 2521 mt 2534 2501 L
2534 2501 mt 2616 2489 L
c18
-75 -10 82 -12 2534 2501 3 MP
PP
0 sg
2534 2501 mt 2616 2489 L
2616 2489 mt 2541 2479 L
c18
81 -10 -74 -29 2602 2560 3 MP
PP
0 sg
2602 2560 mt 2528 2531 L
2528 2531 mt 2609 2521 L
c18
-75 -20 81 -10 2528 2531 3 MP
PP
0 sg
2528 2531 mt 2609 2521 L
2609 2521 mt 2534 2501 L
c18
81 -7 -74 -38 2595 2605 3 MP
PP
0 sg
2595 2605 mt 2521 2567 L
2521 2567 mt 2602 2560 L
c18
-74 -29 81 -7 2521 2567 3 MP
PP
0 sg
2521 2567 mt 2602 2560 L
2602 2560 mt 2528 2531 L
c16
81 -4 -75 -49 2589 2658 3 MP
PP
0 sg
2589 2658 mt 2514 2609 L
2514 2609 mt 2595 2605 L
c18
-74 -38 81 -4 2514 2609 3 MP
PP
0 sg
2514 2609 mt 2595 2605 L
2595 2605 mt 2521 2567 L
c16
82 0 -75 -60 2582 2718 3 MP
PP
0 sg
2582 2718 mt 2507 2658 L
2507 2658 mt 2589 2658 L
c18
-75 -49 82 0 2507 2658 3 MP
PP
0 sg
2507 2658 mt 2589 2658 L
2589 2658 mt 2514 2609 L
c15
82 3 -75 -73 2575 2788 3 MP
PP
0 sg
2575 2788 mt 2500 2715 L
2500 2715 mt 2582 2718 L
c16
-75 -60 82 3 2500 2715 3 MP
PP
0 sg
2500 2715 mt 2582 2718 L
2582 2718 mt 2507 2658 L
c12
81 6 -74 -87 2568 2869 3 MP
PP
0 sg
2568 2869 mt 2494 2782 L
2494 2782 mt 2575 2788 L
c15
-75 -73 81 6 2494 2782 3 MP
PP
0 sg
2494 2782 mt 2575 2788 L
2575 2788 mt 2500 2715 L
c11
81 8 -74 -104 2561 2965 3 MP
PP
0 sg
2561 2965 mt 2487 2861 L
2487 2861 mt 2568 2869 L
c14
-74 -87 81 8 2487 2861 3 MP
PP
0 sg
2487 2861 mt 2568 2869 L
2568 2869 mt 2494 2782 L
c14
-75 21 82 -17 2480 2467 3 MP
PP
0 sg
2480 2467 mt 2562 2450 L
2562 2450 mt 2487 2471 L
c15
82 -17 -75 14 2555 2453 3 MP
PP
0 sg
2555 2453 mt 2480 2467 L
2480 2467 mt 2562 2450 L
c10
81 6 -75 -123 2555 3082 3 MP
PP
0 sg
2555 3082 mt 2480 2959 L
2480 2959 mt 2561 2965 L
c17
-74 -104 81 6 2480 2959 3 MP
PP
0 sg
2480 2959 mt 2561 2965 L
2561 2965 mt 2487 2861 L
c14
-74 21 81 -15 2399 2482 3 MP
PP
0 sg
2399 2482 mt 2480 2467 L
2480 2467 mt 2406 2488 L
c14
81 -17 -74 21 2480 2467 3 MP
PP
0 sg
2480 2467 mt 2406 2488 L
2406 2488 mt 2487 2471 L
c16
81 -15 -74 6 2548 2462 3 MP
PP
0 sg
2548 2462 mt 2474 2468 L
2474 2468 mt 2555 2453 L
c15
-75 14 81 -15 2474 2468 3 MP
PP
0 sg
2474 2468 mt 2555 2453 L
2555 2453 mt 2480 2467 L
c8
82 -2 -75 -145 2548 3229 3 MP
PP
0 sg
2548 3229 mt 2473 3084 L
2473 3084 mt 2555 3082 L
c10
-75 -123 82 -2 2473 3084 3 MP
PP
0 sg
2473 3084 mt 2555 3082 L
2555 3082 mt 2480 2959 L
c12
-74 28 81 -17 2406 2488 3 MP
PP
0 sg
2406 2488 mt 2487 2471 L
2487 2471 mt 2413 2499 L
c12
81 -17 -74 28 2487 2471 3 MP
PP
0 sg
2487 2471 mt 2413 2499 L
2413 2499 mt 2494 2482 L
c18
81 -14 -74 -3 2541 2479 3 MP
PP
0 sg
2541 2479 mt 2467 2476 L
2467 2476 mt 2548 2462 L
c16
-74 6 81 -14 2467 2476 3 MP
PP
0 sg
2467 2476 mt 2548 2462 L
2548 2462 mt 2474 2468 L
c8
-75 -145 82 -18 2466 3247 3 MP
PP
0 sg
2466 3247 mt 2548 3229 L
2548 3229 mt 2473 3084 L
c11
-75 35 81 -17 2413 2499 3 MP
PP
0 sg
2413 2499 mt 2494 2482 L
2494 2482 mt 2419 2517 L
c18
81 -12 -74 -10 2534 2501 3 MP
PP
0 sg
2534 2501 mt 2460 2491 L
2460 2491 mt 2541 2479 L
c18
-74 -3 81 -12 2460 2491 3 MP
PP
0 sg
2460 2491 mt 2541 2479 L
2541 2479 mt 2467 2476 L
c18
81 -10 -75 -20 2528 2531 3 MP
PP
0 sg
2528 2531 mt 2453 2511 L
2453 2511 mt 2534 2501 L
c18
-74 -10 81 -10 2453 2511 3 MP
PP
0 sg
2453 2511 mt 2534 2501 L
2534 2501 mt 2460 2491 L
c18
82 -6 -75 -30 2521 2567 3 MP
PP
0 sg
2521 2567 mt 2446 2537 L
2446 2537 mt 2528 2531 L
/c19 { 0.000000 0.312500 1.000000 sr} bdef
c19
-75 -20 82 -6 2446 2537 3 MP
PP
0 sg
2446 2537 mt 2528 2531 L
2528 2531 mt 2453 2511 L
c18
82 -3 -75 -39 2514 2609 3 MP
PP
0 sg
2514 2609 mt 2439 2570 L
2439 2570 mt 2521 2567 L
c19
-75 -30 82 -3 2439 2570 3 MP
PP
0 sg
2439 2570 mt 2521 2567 L
2521 2567 mt 2446 2537 L
c18
81 1 -74 -50 2507 2658 3 MP
PP
0 sg
2507 2658 mt 2433 2608 L
2433 2608 mt 2514 2609 L
c19
-75 -39 81 1 2433 2608 3 MP
PP
0 sg
2433 2608 mt 2514 2609 L
2514 2609 mt 2439 2570 L
c16
81 6 -74 -63 2500 2715 3 MP
PP
0 sg
2500 2715 mt 2426 2652 L
2426 2652 mt 2507 2658 L
c19
-74 -50 81 6 2426 2652 3 MP
PP
0 sg
2426 2652 mt 2507 2658 L
2507 2658 mt 2433 2608 L
c15
81 11 -75 -78 2494 2782 3 MP
PP
0 sg
2494 2782 mt 2419 2704 L
2419 2704 mt 2500 2715 L
c18
-74 -63 81 11 2419 2704 3 MP
PP
0 sg
2419 2704 mt 2500 2715 L
2500 2715 mt 2426 2652 L
c14
82 15 -75 -94 2487 2861 3 MP
PP
0 sg
2487 2861 mt 2412 2767 L
2412 2767 mt 2494 2782 L
c16
-75 -78 82 15 2412 2767 3 MP
PP
0 sg
2412 2767 mt 2494 2782 L
2494 2782 mt 2419 2704 L
c17
82 16 -75 -114 2480 2959 3 MP
PP
0 sg
2480 2959 mt 2405 2845 L
2405 2845 mt 2487 2861 L
c15
-75 -94 82 16 2405 2845 3 MP
PP
0 sg
2405 2845 mt 2487 2861 L
2487 2861 mt 2412 2767 L
c15
81 -15 -75 14 2474 2468 3 MP
PP
0 sg
2474 2468 mt 2399 2482 L
2399 2482 mt 2480 2467 L
c10
81 14 -74 -139 2473 3084 3 MP
PP
0 sg
2473 3084 mt 2399 2945 L
2399 2945 mt 2480 2959 L
c12
-75 -114 81 14 2399 2945 3 MP
PP
0 sg
2399 2945 mt 2480 2959 L
2480 2959 mt 2405 2845 L
c15
-75 14 82 -15 2392 2483 3 MP
PP
0 sg
2392 2483 mt 2474 2468 L
2474 2468 mt 2399 2482 L
c16
82 -15 -75 7 2467 2476 3 MP
PP
0 sg
2467 2476 mt 2392 2483 L
2392 2483 mt 2474 2468 L
c8
81 5 -74 -168 2466 3247 3 MP
PP
0 sg
2466 3247 mt 2392 3079 L
2392 3079 mt 2473 3084 L
c13
-74 -139 81 5 2392 3079 3 MP
PP
0 sg
2392 3079 mt 2473 3084 L
2473 3084 mt 2399 2945 L
c12
-75 28 82 -16 2324 2504 3 MP
PP
0 sg
2324 2504 mt 2406 2488 L
2406 2488 mt 2331 2516 L
c14
82 -16 -75 22 2399 2482 3 MP
PP
0 sg
2399 2482 mt 2324 2504 L
2324 2504 mt 2406 2488 L
c12
82 -17 -75 28 2406 2488 3 MP
PP
0 sg
2406 2488 mt 2331 2516 L
2331 2516 mt 2413 2499 L
c18
82 -13 -75 -2 2460 2491 3 MP
PP
0 sg
2460 2491 mt 2385 2489 L
2385 2489 mt 2467 2476 L
c14
-75 22 81 -15 2318 2497 3 MP
PP
0 sg
2318 2497 mt 2399 2482 L
2399 2482 mt 2324 2504 L
c15
81 -15 -74 14 2392 2483 3 MP
PP
0 sg
2392 2483 mt 2318 2497 L
2318 2497 mt 2399 2482 L
c16
-75 7 82 -13 2385 2489 3 MP
PP
0 sg
2385 2489 mt 2467 2476 L
2467 2476 mt 2392 2483 L
c8
-74 -168 81 -18 2385 3265 3 MP
PP
0 sg
2385 3265 mt 2466 3247 L
2466 3247 mt 2392 3079 L
c11
-75 35 82 -17 2331 2516 3 MP
PP
0 sg
2331 2516 mt 2413 2499 L
2413 2499 mt 2338 2534 L
c11
81 -17 -75 35 2413 2499 3 MP
PP
0 sg
2413 2499 mt 2338 2534 L
2338 2534 mt 2419 2517 L
c18
81 -10 -74 -10 2453 2511 3 MP
PP
0 sg
2453 2511 mt 2379 2501 L
2379 2501 mt 2460 2491 L
c18
-75 -2 81 -10 2379 2501 3 MP
PP
0 sg
2379 2501 mt 2460 2491 L
2460 2491 mt 2385 2489 L
c10
-74 40 81 -17 2338 2534 3 MP
PP
0 sg
2338 2534 mt 2419 2517 L
2419 2517 mt 2345 2557 L
c19
81 -7 -74 -19 2446 2537 3 MP
PP
0 sg
2446 2537 mt 2372 2518 L
2372 2518 mt 2453 2511 L
c19
-74 -10 81 -7 2372 2518 3 MP
PP
0 sg
2372 2518 mt 2453 2511 L
2453 2511 mt 2379 2501 L
c19
81 -3 -74 -30 2439 2570 3 MP
PP
0 sg
2439 2570 mt 2365 2540 L
2365 2540 mt 2446 2537 L
c19
-74 -19 81 -3 2365 2540 3 MP
PP
0 sg
2365 2540 mt 2446 2537 L
2446 2537 mt 2372 2518 L
c19
81 3 -75 -41 2433 2608 3 MP
PP
0 sg
2433 2608 mt 2358 2567 L
2358 2567 mt 2439 2570 L
/c20 { 0.000000 0.375000 1.000000 sr} bdef
c20
-74 -30 81 3 2358 2567 3 MP
PP
0 sg
2358 2567 mt 2439 2570 L
2439 2570 mt 2365 2540 L
c19
82 9 -75 -53 2426 2652 3 MP
PP
0 sg
2426 2652 mt 2351 2599 L
2351 2599 mt 2433 2608 L
c20
-75 -41 82 9 2351 2599 3 MP
PP
0 sg
2351 2599 mt 2433 2608 L
2433 2608 mt 2358 2567 L
c18
82 15 -75 -67 2419 2704 3 MP
PP
0 sg
2419 2704 mt 2344 2637 L
2344 2637 mt 2426 2652 L
c20
-75 -53 82 15 2344 2637 3 MP
PP
0 sg
2344 2637 mt 2426 2652 L
2426 2652 mt 2351 2599 L
c16
81 21 -74 -84 2412 2767 3 MP
PP
0 sg
2412 2767 mt 2338 2683 L
2338 2683 mt 2419 2704 L
c19
-75 -67 81 21 2338 2683 3 MP
PP
0 sg
2338 2683 mt 2419 2704 L
2419 2704 mt 2344 2637 L
c15
81 26 -74 -104 2405 2845 3 MP
PP
0 sg
2405 2845 mt 2331 2741 L
2331 2741 mt 2412 2767 L
c19
-74 -84 81 26 2331 2741 3 MP
PP
0 sg
2331 2741 mt 2412 2767 L
2412 2767 mt 2338 2683 L
c12
81 29 -75 -129 2399 2945 3 MP
PP
0 sg
2399 2945 mt 2324 2816 L
2324 2816 mt 2405 2845 L
c18
-74 -104 81 29 2324 2816 3 MP
PP
0 sg
2324 2816 mt 2405 2845 L
2405 2845 mt 2331 2741 L
c13
82 26 -75 -160 2392 3079 3 MP
PP
0 sg
2392 3079 mt 2317 2919 L
2317 2919 mt 2399 2945 L
c15
-75 -129 82 26 2317 2919 3 MP
PP
0 sg
2317 2919 mt 2399 2945 L
2399 2945 mt 2324 2816 L
c15
-74 14 81 -13 2311 2496 3 MP
PP
0 sg
2311 2496 mt 2392 2483 L
2392 2483 mt 2318 2497 L
c16
81 -13 -74 7 2385 2489 3 MP
PP
0 sg
2385 2489 mt 2311 2496 L
2311 2496 mt 2392 2483 L
c8
82 12 -75 -198 2385 3265 3 MP
PP
0 sg
2385 3265 mt 2310 3067 L
2310 3067 mt 2392 3079 L
c11
-75 -160 82 12 2310 3067 3 MP
PP
0 sg
2310 3067 mt 2392 3079 L
2392 3079 mt 2317 2919 L
c14
-75 22 82 -14 2236 2511 3 MP
PP
0 sg
2236 2511 mt 2318 2497 L
2318 2497 mt 2243 2519 L
c15
82 -14 -75 15 2311 2496 3 MP
PP
0 sg
2311 2496 mt 2236 2511 L
2236 2511 mt 2318 2497 L
c14
81 -15 -75 22 2318 2497 3 MP
PP
0 sg
2318 2497 mt 2243 2519 L
2243 2519 mt 2324 2504 L
c18
81 -10 -75 -2 2379 2501 3 MP
PP
0 sg
2379 2501 mt 2304 2499 L
2304 2499 mt 2385 2489 L
c18
-74 7 81 -10 2304 2499 3 MP
PP
0 sg
2304 2499 mt 2385 2489 L
2385 2489 mt 2311 2496 L
c8
-75 -198 81 -18 2304 3283 3 MP
PP
0 sg
2304 3283 mt 2385 3265 L
2385 3265 mt 2310 3067 L
c12
-74 29 81 -15 2243 2519 3 MP
PP
0 sg
2243 2519 mt 2324 2504 L
2324 2504 mt 2250 2533 L
c12
81 -17 -74 29 2324 2504 3 MP
PP
0 sg
2324 2504 mt 2250 2533 L
2250 2533 mt 2331 2516 L
c19
82 -7 -75 -10 2372 2518 3 MP
PP
0 sg
2372 2518 mt 2297 2508 L
2297 2508 mt 2379 2501 L
c18
-75 -2 82 -7 2297 2508 3 MP
PP
0 sg
2297 2508 mt 2379 2501 L
2379 2501 mt 2304 2499 L
c11
-74 35 81 -17 2250 2533 3 MP
PP
0 sg
2250 2533 mt 2331 2516 L
2331 2516 mt 2257 2551 L
c11
81 -17 -74 35 2331 2516 3 MP
PP
0 sg
2331 2516 mt 2257 2551 L
2257 2551 mt 2338 2534 L
c19
82 -2 -75 -20 2365 2540 3 MP
PP
0 sg
2365 2540 mt 2290 2520 L
2290 2520 mt 2372 2518 L
c19
-75 -10 82 -2 2290 2520 3 MP
PP
0 sg
2290 2520 mt 2372 2518 L
2372 2518 mt 2297 2508 L
c10
-75 41 81 -17 2257 2551 3 MP
PP
0 sg
2257 2551 mt 2338 2534 L
2338 2534 mt 2263 2575 L
c9
-75 45 82 -18 2263 2575 3 MP
PP
0 sg
2263 2575 mt 2345 2557 L
2345 2557 mt 2270 2602 L
c10
82 -18 -75 41 2338 2534 3 MP
PP
0 sg
2338 2534 mt 2263 2575 L
2263 2575 mt 2345 2557 L
c20
82 3 -75 -30 2358 2567 3 MP
PP
0 sg
2358 2567 mt 2283 2537 L
2283 2537 mt 2365 2540 L
c20
-75 -20 82 3 2283 2537 3 MP
PP
0 sg
2283 2537 mt 2365 2540 L
2365 2540 mt 2290 2520 L
c20
81 10 -74 -42 2351 2599 3 MP
PP
0 sg
2351 2599 mt 2277 2557 L
2277 2557 mt 2358 2567 L
c20
-75 -30 81 10 2277 2557 3 MP
PP
0 sg
2277 2557 mt 2358 2567 L
2358 2567 mt 2283 2537 L
c20
81 17 -74 -55 2344 2637 3 MP
PP
0 sg
2344 2637 mt 2270 2582 L
2270 2582 mt 2351 2599 L
/c21 { 0.000000 0.437500 1.000000 sr} bdef
c21
-74 -42 81 17 2270 2582 3 MP
PP
0 sg
2270 2582 mt 2351 2599 L
2351 2599 mt 2277 2557 L
c19
81 26 -75 -72 2338 2683 3 MP
PP
0 sg
2338 2683 mt 2263 2611 L
2263 2611 mt 2344 2637 L
c9
81 -18 -74 45 2263 2575 3 MP
PP
0 sg
2263 2575 mt 2189 2620 L
2189 2620 mt 2270 2602 L
c21
-74 -55 81 26 2263 2611 3 MP
PP
0 sg
2263 2611 mt 2344 2637 L
2344 2637 mt 2270 2582 L
c19
82 35 -75 -93 2331 2741 3 MP
PP
0 sg
2331 2741 mt 2256 2648 L
2256 2648 mt 2338 2683 L
c21
-75 -72 82 35 2256 2648 3 MP
PP
0 sg
2256 2648 mt 2338 2683 L
2338 2683 mt 2263 2611 L
c18
82 43 -75 -118 2324 2816 3 MP
PP
0 sg
2324 2816 mt 2249 2698 L
2249 2698 mt 2331 2741 L
c21
-75 -93 82 43 2249 2698 3 MP
PP
0 sg
2249 2698 mt 2331 2741 L
2331 2741 mt 2256 2648 L
c15
81 46 -74 -149 2317 2919 3 MP
PP
0 sg
2317 2919 mt 2243 2770 L
2243 2770 mt 2324 2816 L
c20
-75 -118 81 46 2243 2770 3 MP
PP
0 sg
2243 2770 mt 2324 2816 L
2324 2816 mt 2249 2698 L
c11
81 41 -74 -189 2310 3067 3 MP
PP
0 sg
2310 3067 mt 2236 2878 L
2236 2878 mt 2317 2919 L
c16
-74 -149 81 41 2236 2878 3 MP
PP
0 sg
2236 2878 mt 2317 2919 L
2317 2919 mt 2243 2770 L
c16
-75 15 82 -11 2229 2507 3 MP
PP
0 sg
2229 2507 mt 2311 2496 L
2311 2496 mt 2236 2511 L
c18
82 -11 -75 8 2304 2499 3 MP
PP
0 sg
2304 2499 mt 2229 2507 L
2229 2507 mt 2311 2496 L
c8
81 23 -75 -239 2304 3283 3 MP
PP
0 sg
2304 3283 mt 2229 3044 L
2229 3044 mt 2310 3067 L
c17
-74 -189 81 23 2229 3044 3 MP
PP
0 sg
2229 3044 mt 2310 3067 L
2310 3067 mt 2236 2878 L
c16
-74 15 81 -8 2148 2515 3 MP
PP
0 sg
2148 2515 mt 2229 2507 L
2229 2507 mt 2155 2522 L
c18
81 -8 -75 8 2223 2507 3 MP
PP
0 sg
2223 2507 mt 2148 2515 L
2148 2515 mt 2229 2507 L
c16
81 -11 -74 15 2229 2507 3 MP
PP
0 sg
2229 2507 mt 2155 2522 L
2155 2522 mt 2236 2511 L
c18
-75 8 81 -8 2223 2507 3 MP
PP
0 sg
2223 2507 mt 2304 2499 L
2304 2499 mt 2229 2507 L
c18
81 -8 -74 -1 2297 2508 3 MP
PP
0 sg
2297 2508 mt 2223 2507 L
2223 2507 mt 2304 2499 L
c8
-75 -239 82 -18 2222 3301 3 MP
PP
0 sg
2222 3301 mt 2304 3283 L
2304 3283 mt 2229 3044 L
c15
-74 23 81 -11 2155 2522 3 MP
PP
0 sg
2155 2522 mt 2236 2511 L
2236 2511 mt 2162 2534 L
c14
81 -15 -74 23 2236 2511 3 MP
PP
0 sg
2236 2511 mt 2162 2534 L
2162 2534 mt 2243 2519 L
c19
81 -3 -74 -9 2290 2520 3 MP
PP
0 sg
2290 2520 mt 2216 2511 L
2216 2511 mt 2297 2508 L
c19
-74 -1 81 -3 2216 2511 3 MP
PP
0 sg
2216 2511 mt 2297 2508 L
2297 2508 mt 2223 2507 L
c12
-75 30 81 -15 2162 2534 3 MP
PP
0 sg
2162 2534 mt 2243 2519 L
2243 2519 mt 2168 2549 L
c12
82 -16 -75 30 2243 2519 3 MP
PP
0 sg
2243 2519 mt 2168 2549 L
2168 2549 mt 2250 2533 L
c20
81 3 -74 -20 2283 2537 3 MP
PP
0 sg
2283 2537 mt 2209 2517 L
2209 2517 mt 2290 2520 L
c20
-74 -9 81 3 2209 2517 3 MP
PP
0 sg
2209 2517 mt 2290 2520 L
2290 2520 mt 2216 2511 L
c11
-75 35 82 -16 2168 2549 3 MP
PP
0 sg
2168 2549 mt 2250 2533 L
2250 2533 mt 2175 2568 L
c11
82 -17 -75 35 2250 2533 3 MP
PP
0 sg
2250 2533 mt 2175 2568 L
2175 2568 mt 2257 2551 L
c20
81 11 -75 -31 2277 2557 3 MP
PP
0 sg
2277 2557 mt 2202 2526 L
2202 2526 mt 2283 2537 L
c21
-74 -20 81 11 2202 2526 3 MP
PP
0 sg
2202 2526 mt 2283 2537 L
2283 2537 mt 2209 2517 L
c13
-75 41 82 -17 2175 2568 3 MP
PP
0 sg
2175 2568 mt 2257 2551 L
2257 2551 mt 2182 2592 L
c9
-74 45 81 -17 2182 2592 3 MP
PP
0 sg
2182 2592 mt 2263 2575 L
2263 2575 mt 2189 2620 L
c10
81 -17 -75 41 2257 2551 3 MP
PP
0 sg
2257 2551 mt 2182 2592 L
2182 2592 mt 2263 2575 L
c21
82 20 -75 -45 2270 2582 3 MP
PP
0 sg
2270 2582 mt 2195 2537 L
2195 2537 mt 2277 2557 L
/c22 { 0.000000 0.500000 1.000000 sr} bdef
c22
-75 -31 82 20 2195 2537 3 MP
PP
0 sg
2195 2537 mt 2277 2557 L
2277 2557 mt 2202 2526 L
c21
82 31 -75 -60 2263 2611 3 MP
PP
0 sg
2263 2611 mt 2188 2551 L
2188 2551 mt 2270 2582 L
c22
-75 -45 82 31 2188 2551 3 MP
PP
0 sg
2188 2551 mt 2270 2582 L
2270 2582 mt 2195 2537 L
c21
81 43 -74 -80 2256 2648 3 MP
PP
0 sg
2256 2648 mt 2182 2568 L
2182 2568 mt 2263 2611 L
/c23 { 0.000000 0.562500 1.000000 sr} bdef
c23
-75 -60 81 43 2182 2568 3 MP
PP
0 sg
2182 2568 mt 2263 2611 L
2263 2611 mt 2188 2551 L
c9
-75 46 81 -18 2101 2610 3 MP
PP
0 sg
2101 2610 mt 2182 2592 L
2182 2592 mt 2107 2638 L
c13
81 -18 -74 42 2175 2568 3 MP
PP
0 sg
2175 2568 mt 2101 2610 L
2101 2610 mt 2182 2592 L
c9
82 -18 -75 46 2182 2592 3 MP
PP
0 sg
2182 2592 mt 2107 2638 L
2107 2638 mt 2189 2620 L
c21
81 55 -74 -105 2249 2698 3 MP
PP
0 sg
2249 2698 mt 2175 2593 L
2175 2593 mt 2256 2648 L
c23
-74 -80 81 55 2175 2593 3 MP
PP
0 sg
2175 2593 mt 2256 2648 L
2256 2648 mt 2182 2568 L
c20
81 65 -75 -137 2243 2770 3 MP
PP
0 sg
2243 2770 mt 2168 2633 L
2168 2633 mt 2249 2698 L
c23
-74 -105 81 65 2168 2633 3 MP
PP
0 sg
2168 2633 mt 2249 2698 L
2249 2698 mt 2175 2593 L
c16
82 70 -75 -178 2236 2878 3 MP
PP
0 sg
2236 2878 mt 2161 2700 L
2161 2700 mt 2243 2770 L
c22
-75 -137 82 70 2161 2700 3 MP
PP
0 sg
2161 2700 mt 2243 2770 L
2243 2770 mt 2168 2633 L
c17
82 64 -75 -230 2229 3044 3 MP
PP
0 sg
2229 3044 mt 2154 2814 L
2154 2814 mt 2236 2878 L
c20
-75 -178 82 64 2154 2814 3 MP
PP
0 sg
2154 2814 mt 2236 2878 L
2236 2878 mt 2161 2700 L
c8
81 38 -74 -295 2222 3301 3 MP
PP
0 sg
2222 3301 mt 2148 3006 L
2148 3006 mt 2229 3044 L
c14
-75 -230 81 38 2148 3006 3 MP
PP
0 sg
2148 3006 mt 2229 3044 L
2229 3044 mt 2154 2814 L
c18
-75 8 82 -4 2141 2511 3 MP
PP
0 sg
2141 2511 mt 2223 2507 L
2223 2507 mt 2148 2515 L
c19
82 -4 -75 0 2216 2511 3 MP
PP
0 sg
2216 2511 mt 2141 2511 L
2141 2511 mt 2223 2507 L
c8
-74 -295 81 -18 2141 3319 3 MP
PP
0 sg
2141 3319 mt 2222 3301 L
2222 3301 mt 2148 3006 L
c20
-75 0 82 3 2134 2508 3 MP
PP
0 sg
2134 2508 mt 2216 2511 L
2216 2511 mt 2141 2511 L
c20
82 3 -75 -9 2209 2517 3 MP
PP
0 sg
2209 2517 mt 2134 2508 L
2134 2508 mt 2216 2511 L
c20
-74 1 81 10 2053 2498 3 MP
PP
0 sg
2053 2498 mt 2134 2508 L
2134 2508 mt 2060 2509 L
c21
81 10 -75 -9 2128 2507 3 MP
PP
0 sg
2128 2507 mt 2053 2498 L
2053 2498 mt 2134 2508 L
c20
81 2 -74 1 2134 2508 3 MP
PP
0 sg
2134 2508 mt 2060 2509 L
2060 2509 mt 2141 2511 L
c21
-75 -9 81 10 2128 2507 3 MP
PP
0 sg
2128 2507 mt 2209 2517 L
2209 2517 mt 2134 2508 L
c21
81 10 -74 -19 2202 2526 3 MP
PP
0 sg
2202 2526 mt 2128 2507 L
2128 2507 mt 2209 2517 L
c22
-75 -9 82 21 2046 2486 3 MP
PP
0 sg
2046 2486 mt 2128 2507 L
2128 2507 mt 2053 2498 L
c19
-74 9 81 2 2060 2509 3 MP
PP
0 sg
2060 2509 mt 2141 2511 L
2141 2511 mt 2067 2520 L
c16
-75 17 81 -5 2067 2520 3 MP
PP
0 sg
2067 2520 mt 2148 2515 L
2148 2515 mt 2073 2532 L
c18
81 -5 -74 9 2141 2511 3 MP
PP
0 sg
2141 2511 mt 2067 2520 L
2067 2520 mt 2148 2515 L
c16
82 -10 -75 17 2148 2515 3 MP
PP
0 sg
2148 2515 mt 2073 2532 L
2073 2532 mt 2155 2522 L
c22
81 21 -74 -32 2195 2537 3 MP
PP
0 sg
2195 2537 mt 2121 2505 L
2121 2505 mt 2202 2526 L
c22
-74 -19 81 21 2121 2505 3 MP
PP
0 sg
2121 2505 mt 2202 2526 L
2202 2526 mt 2128 2507 L
c15
-75 24 82 -10 2073 2532 3 MP
PP
0 sg
2073 2532 mt 2155 2522 L
2155 2522 mt 2080 2546 L
c12
-75 30 82 -12 2080 2546 3 MP
PP
0 sg
2080 2546 mt 2162 2534 L
2162 2534 mt 2087 2564 L
c15
82 -12 -75 24 2155 2522 3 MP
PP
0 sg
2155 2522 mt 2080 2546 L
2080 2546 mt 2162 2534 L
c12
81 -15 -75 30 2162 2534 3 MP
PP
0 sg
2162 2534 mt 2087 2564 L
2087 2564 mt 2168 2549 L
c22
81 33 -74 -47 2188 2551 3 MP
PP
0 sg
2188 2551 mt 2114 2504 L
2114 2504 mt 2195 2537 L
c23
-74 -32 81 33 2114 2504 3 MP
PP
0 sg
2114 2504 mt 2195 2537 L
2195 2537 mt 2121 2505 L
c11
-74 36 81 -15 2087 2564 3 MP
PP
0 sg
2087 2564 mt 2168 2549 L
2168 2549 mt 2094 2585 L
c11
81 -17 -74 36 2168 2549 3 MP
PP
0 sg
2168 2549 mt 2094 2585 L
2094 2585 mt 2175 2568 L
c23
81 49 -75 -66 2182 2568 3 MP
PP
0 sg
2182 2568 mt 2107 2502 L
2107 2502 mt 2188 2551 L
/c24 { 0.000000 0.687500 1.000000 sr} bdef
c24
-74 -47 81 49 2107 2502 3 MP
PP
0 sg
2107 2502 mt 2188 2551 L
2188 2551 mt 2114 2504 L
c13
-74 42 81 -17 2094 2585 3 MP
PP
0 sg
2094 2585 mt 2175 2568 L
2175 2568 mt 2101 2610 L
c23
82 65 -75 -90 2175 2593 3 MP
PP
0 sg
2175 2593 mt 2100 2503 L
2100 2503 mt 2182 2568 L
/c25 { 0.000000 0.750000 1.000000 sr} bdef
c25
-75 -66 82 65 2100 2503 3 MP
PP
0 sg
2100 2503 mt 2182 2568 L
2182 2568 mt 2107 2502 L
c23
82 81 -75 -121 2168 2633 3 MP
PP
0 sg
2168 2633 mt 2093 2512 L
2093 2512 mt 2175 2593 L
/c26 { 0.000000 0.812500 1.000000 sr} bdef
c26
-75 -90 82 81 2093 2512 3 MP
PP
0 sg
2093 2512 mt 2175 2593 L
2175 2593 mt 2100 2503 L
c22
81 95 -74 -162 2161 2700 3 MP
PP
0 sg
2161 2700 mt 2087 2538 L
2087 2538 mt 2168 2633 L
c26
-75 -121 81 95 2087 2538 3 MP
PP
0 sg
2087 2538 mt 2168 2633 L
2168 2633 mt 2093 2512 L
c9
-75 46 82 -17 2019 2627 3 MP
PP
0 sg
2019 2627 mt 2101 2610 L
2101 2610 mt 2026 2656 L
c13
82 -17 -75 42 2094 2585 3 MP
PP
0 sg
2094 2585 mt 2019 2627 L
2019 2627 mt 2101 2610 L
c9
81 -18 -75 46 2101 2610 3 MP
PP
0 sg
2101 2610 mt 2026 2656 L
2026 2656 mt 2107 2638 L
c20
81 101 -74 -215 2154 2814 3 MP
PP
0 sg
2154 2814 mt 2080 2599 L
2080 2599 mt 2161 2700 L
c17
-75 37 81 -14 2006 2578 3 MP
PP
0 sg
2006 2578 mt 2087 2564 L
2087 2564 mt 2012 2601 L
c12
81 -14 -74 32 2080 2546 3 MP
PP
0 sg
2080 2546 mt 2006 2578 L
2006 2578 mt 2087 2564 L
c13
-75 42 82 -16 2012 2601 3 MP
PP
0 sg
2012 2601 mt 2094 2585 L
2094 2585 mt 2019 2627 L
c11
82 -16 -75 37 2087 2564 3 MP
PP
0 sg
2087 2564 mt 2012 2601 L
2012 2601 mt 2094 2585 L
c25
-74 -162 81 101 2080 2599 3 MP
PP
0 sg
2080 2599 mt 2161 2700 L
2161 2700 mt 2087 2538 L
c14
81 93 -75 -285 2148 3006 3 MP
PP
0 sg
2148 3006 mt 2073 2721 L
2073 2721 mt 2154 2814 L
/c27 { 0.000000 0.625000 1.000000 sr} bdef
c27
-74 -215 81 93 2073 2721 3 MP
PP
0 sg
2073 2721 mt 2154 2814 L
2154 2814 mt 2080 2599 L
c8
82 113 -75 -426 2141 3319 3 MP
PP
0 sg
2141 3319 mt 2066 2893 L
2066 2893 mt 2148 3006 L
c19
-75 -285 82 113 2066 2893 3 MP
PP
0 sg
2066 2893 mt 2148 3006 L
2148 3006 mt 2073 2721 L
c22
82 21 -75 -19 2121 2505 3 MP
PP
0 sg
2121 2505 mt 2046 2486 L
2046 2486 mt 2128 2507 L
c27
-75 -19 82 35 2039 2470 3 MP
PP
0 sg
2039 2470 mt 2121 2505 L
2121 2505 mt 2046 2486 L
c23
82 35 -75 -34 2114 2504 3 MP
PP
0 sg
2114 2504 mt 2039 2470 L
2039 2470 mt 2121 2505 L
c24
-75 -34 82 53 2032 2451 3 MP
PP
0 sg
2032 2451 mt 2114 2504 L
2114 2504 mt 2039 2470 L
c24
82 53 -75 -51 2107 2502 3 MP
PP
0 sg
2107 2502 mt 2032 2451 L
2032 2451 mt 2114 2504 L
c26
-75 -51 81 73 2026 2429 3 MP
PP
0 sg
2026 2429 mt 2107 2502 L
2107 2502 mt 2032 2451 L
c25
81 73 -74 -74 2100 2503 3 MP
PP
0 sg
2100 2503 mt 2026 2429 L
2026 2429 mt 2107 2502 L
/c28 { 0.000000 0.937500 1.000000 sr} bdef
c28
-74 -74 81 95 2019 2408 3 MP
PP
0 sg
2019 2408 mt 2100 2503 L
2100 2503 mt 2026 2429 L
c26
81 95 -74 -104 2093 2512 3 MP
PP
0 sg
2093 2512 mt 2019 2408 L
2019 2408 mt 2100 2503 L
/c29 { 0.062500 1.000000 0.937500 sr} bdef
c29
-74 -104 81 118 2012 2394 3 MP
PP
0 sg
2012 2394 mt 2093 2512 L
2093 2512 mt 2019 2408 L
c26
81 118 -75 -144 2087 2538 3 MP
PP
0 sg
2087 2538 mt 2012 2394 L
2012 2394 mt 2093 2512 L
c29
-75 -56 82 105 1944 2324 3 MP
PP
0 sg
1944 2324 mt 2026 2429 L
2026 2429 mt 1951 2373 L
c28
82 105 -75 -84 2019 2408 3 MP
PP
0 sg
2019 2408 mt 1944 2324 L
1944 2324 mt 2026 2429 L
c28
-74 -35 81 78 1951 2373 3 MP
PP
0 sg
1951 2373 mt 2032 2451 L
2032 2451 mt 1958 2416 L
c26
81 78 -75 -56 2026 2429 3 MP
PP
0 sg
2026 2429 mt 1951 2373 L
1951 2373 mt 2032 2451 L
c25
-74 -20 81 54 1958 2416 3 MP
PP
0 sg
1958 2416 mt 2039 2470 L
2039 2470 mt 1965 2450 L
c24
81 54 -74 -35 2032 2451 3 MP
PP
0 sg
2032 2451 mt 1958 2416 L
1958 2416 mt 2039 2470 L
c27
-74 -8 81 36 1965 2450 3 MP
PP
0 sg
1965 2450 mt 2046 2486 L
2046 2486 mt 1972 2478 L
c27
81 36 -74 -20 2039 2470 3 MP
PP
0 sg
2039 2470 mt 1965 2450 L
1965 2450 mt 2046 2486 L
c22
-75 3 81 20 1972 2478 3 MP
PP
0 sg
1972 2478 mt 2053 2498 L
2053 2498 mt 1978 2501 L
c22
81 20 -74 -8 2046 2486 3 MP
PP
0 sg
2046 2486 mt 1972 2478 L
1972 2478 mt 2053 2498 L
c20
-75 11 82 8 1978 2501 3 MP
PP
0 sg
1978 2501 mt 2060 2509 L
2060 2509 mt 1985 2520 L
c20
82 8 -75 3 2053 2498 3 MP
PP
0 sg
2053 2498 mt 1978 2501 L
1978 2501 mt 2060 2509 L
c18
-75 19 82 0 1985 2520 3 MP
PP
0 sg
1985 2520 mt 2067 2520 L
2067 2520 mt 1992 2539 L
c19
82 0 -75 11 2060 2509 3 MP
PP
0 sg
2060 2509 mt 1985 2520 L
1985 2520 mt 2067 2520 L
c15
-74 25 81 -7 1992 2539 3 MP
PP
0 sg
1992 2539 mt 2073 2532 L
2073 2532 mt 1999 2557 L
c16
81 -7 -75 19 2067 2520 3 MP
PP
0 sg
2067 2520 mt 1992 2539 L
1992 2539 mt 2073 2532 L
c12
-74 32 81 -11 1999 2557 3 MP
PP
0 sg
1999 2557 mt 2080 2546 L
2080 2546 mt 2006 2578 L
c15
81 -11 -74 25 2073 2532 3 MP
PP
0 sg
2073 2532 mt 1999 2557 L
1999 2557 mt 2080 2546 L
c25
82 136 -75 -197 2080 2599 3 MP
PP
0 sg
2080 2599 mt 2005 2402 L
2005 2402 mt 2087 2538 L
/c30 { 0.250000 1.000000 0.750000 sr} bdef
c30
-75 -84 82 136 1937 2272 3 MP
PP
0 sg
1937 2272 mt 2019 2408 L
2019 2408 mt 1944 2324 L
c29
82 136 -75 -122 2012 2394 3 MP
PP
0 sg
2012 2394 mt 1937 2272 L
1937 2272 mt 2019 2408 L
/c31 { 0.125000 1.000000 0.875000 sr} bdef
c31
-75 -144 82 136 2005 2402 3 MP
PP
0 sg
2005 2402 mt 2087 2538 L
2087 2538 mt 2012 2394 L
c27
82 145 -75 -267 2073 2721 3 MP
PP
0 sg
2073 2721 mt 1998 2454 L
1998 2454 mt 2080 2599 L
c29
-75 -197 82 145 1998 2454 3 MP
PP
0 sg
1998 2454 mt 2080 2599 L
2080 2599 mt 2005 2402 L
c17
-75 38 82 -13 1924 2591 3 MP
PP
0 sg
1924 2591 mt 2006 2578 L
2006 2578 mt 1931 2616 L
c12
82 -13 -75 34 1999 2557 3 MP
PP
0 sg
1999 2557 mt 1924 2591 L
1924 2591 mt 2006 2578 L
c13
-74 43 81 -15 1931 2616 3 MP
PP
0 sg
1931 2616 mt 2012 2601 L
2012 2601 mt 1938 2644 L
c17
81 -15 -75 38 2006 2578 3 MP
PP
0 sg
2006 2578 mt 1931 2616 L
1931 2616 mt 2012 2601 L
c9
-74 47 81 -17 1938 2644 3 MP
PP
0 sg
1938 2644 mt 2019 2627 L
2019 2627 mt 1945 2674 L
c13
81 -17 -74 43 2012 2601 3 MP
PP
0 sg
2012 2601 mt 1938 2644 L
1938 2644 mt 2019 2627 L
c9
81 -18 -74 47 2019 2627 3 MP
PP
0 sg
2019 2627 mt 1945 2674 L
1945 2674 mt 2026 2656 L
c19
81 208 -74 -380 2066 2893 3 MP
PP
0 sg
2066 2893 mt 1992 2513 L
1992 2513 mt 2073 2721 L
c29
-75 -267 81 208 1992 2513 3 MP
PP
0 sg
1992 2513 mt 2073 2721 L
2073 2721 mt 1998 2454 L
/c32 { 0.437500 1.000000 0.562500 sr} bdef
c32
-75 -122 81 166 1931 2228 3 MP
PP
0 sg
1931 2228 mt 2012 2394 L
2012 2394 mt 1937 2272 L
c31
81 166 -74 -174 2005 2402 3 MP
PP
0 sg
2005 2402 mt 1931 2228 L
1931 2228 mt 2012 2394 L
/c33 { 0.937500 1.000000 0.062500 sr} bdef
c33
-75 -147 82 233 1849 1995 3 MP
PP
0 sg
1849 1995 mt 1931 2228 L
1931 2228 mt 1856 2081 L
/c34 { 0.500000 1.000000 0.500000 sr} bdef
c34
82 233 -75 -215 1924 2210 3 MP
PP
0 sg
1924 2210 mt 1849 1995 L
1849 1995 mt 1931 2228 L
c32
81 191 -75 -147 1931 2228 3 MP
PP
0 sg
1931 2228 mt 1856 2081 L
1856 2081 mt 1937 2272 L
c34
-74 -174 81 192 1924 2210 3 MP
PP
0 sg
1924 2210 mt 2005 2402 L
2005 2402 mt 1931 2228 L
c29
81 192 -74 -244 1998 2454 3 MP
PP
0 sg
1998 2454 mt 1924 2210 L
1924 2210 mt 2005 2402 L
c15
82 -9 -75 27 1992 2539 3 MP
PP
0 sg
1992 2539 mt 1917 2566 L
1917 2566 mt 1999 2557 L
c14
-75 34 82 -9 1917 2566 3 MP
PP
0 sg
1917 2566 mt 1999 2557 L
1999 2557 mt 1924 2591 L
/c35 { 0.687500 1.000000 0.312500 sr} bdef
c35
-74 -244 81 276 1917 2178 3 MP
PP
0 sg
1917 2178 mt 1998 2454 L
1998 2454 mt 1924 2210 L
c29
81 276 -75 -335 1992 2513 3 MP
PP
0 sg
1992 2513 mt 1917 2178 L
1917 2178 mt 1998 2454 L
c18
81 -2 -74 21 1985 2520 3 MP
PP
0 sg
1985 2520 mt 1911 2541 L
1911 2541 mt 1992 2539 L
c16
-75 27 81 -2 1911 2541 3 MP
PP
0 sg
1911 2541 mt 1992 2539 L
1992 2539 mt 1917 2566 L
c20
81 6 -74 13 1978 2501 3 MP
PP
0 sg
1978 2501 mt 1904 2514 L
1904 2514 mt 1985 2520 L
c19
-74 21 81 6 1904 2514 3 MP
PP
0 sg
1904 2514 mt 1985 2520 L
1985 2520 mt 1911 2541 L
c22
81 18 -75 5 1972 2478 3 MP
PP
0 sg
1972 2478 mt 1897 2483 L
1897 2483 mt 1978 2501 L
c21
-74 13 81 18 1897 2483 3 MP
PP
0 sg
1897 2483 mt 1978 2501 L
1978 2501 mt 1904 2514 L
c27
82 33 -75 -5 1965 2450 3 MP
PP
0 sg
1965 2450 mt 1890 2445 L
1890 2445 mt 1972 2478 L
c23
-75 5 82 33 1890 2445 3 MP
PP
0 sg
1890 2445 mt 1972 2478 L
1972 2478 mt 1897 2483 L
c25
82 54 -75 -20 1958 2416 3 MP
PP
0 sg
1958 2416 mt 1883 2396 L
1883 2396 mt 1965 2450 L
c25
-75 -5 82 54 1883 2396 3 MP
PP
0 sg
1883 2396 mt 1965 2450 L
1965 2450 mt 1890 2445 L
c28
81 81 -74 -38 1951 2373 3 MP
PP
0 sg
1951 2373 mt 1877 2335 L
1877 2335 mt 1958 2416 L
c28
-75 -20 81 81 1877 2335 3 MP
PP
0 sg
1877 2335 mt 1958 2416 L
1958 2416 mt 1883 2396 L
c29
81 113 -74 -64 1944 2324 3 MP
PP
0 sg
1944 2324 mt 1870 2260 L
1870 2260 mt 1951 2373 L
/c36 { 0.187500 1.000000 0.812500 sr} bdef
c36
-74 -38 81 113 1870 2260 3 MP
PP
0 sg
1870 2260 mt 1951 2373 L
1951 2373 mt 1877 2335 L
c9
82 -19 -75 49 1938 2644 3 MP
PP
0 sg
1938 2644 mt 1863 2693 L
1863 2693 mt 1945 2674 L
c30
81 150 -74 -98 1937 2272 3 MP
PP
0 sg
1937 2272 mt 1863 2174 L
1863 2174 mt 1944 2324 L
c32
-74 -64 81 150 1863 2174 3 MP
PP
0 sg
1863 2174 mt 1944 2324 L
1944 2324 mt 1870 2260 L
c13
82 -17 -75 45 1931 2616 3 MP
PP
0 sg
1931 2616 mt 1856 2661 L
1856 2661 mt 1938 2644 L
c9
-75 49 82 -17 1856 2661 3 MP
PP
0 sg
1856 2661 mt 1938 2644 L
1938 2644 mt 1863 2693 L
c35
-74 -98 81 191 1856 2081 3 MP
PP
0 sg
1856 2081 mt 1937 2272 L
1937 2272 mt 1863 2174 L
c17
81 -15 -74 40 1924 2591 3 MP
PP
0 sg
1924 2591 mt 1850 2631 L
1850 2631 mt 1931 2616 L
c13
-75 45 81 -15 1850 2631 3 MP
PP
0 sg
1850 2631 mt 1931 2616 L
1931 2616 mt 1856 2661 L
c14
81 -10 -74 35 1917 2566 3 MP
PP
0 sg
1917 2566 mt 1843 2601 L
1843 2601 mt 1924 2591 L
c17
-74 40 81 -10 1843 2601 3 MP
PP
0 sg
1843 2601 mt 1924 2591 L
1924 2591 mt 1850 2631 L
c35
82 323 -75 -291 1917 2178 3 MP
PP
0 sg
1917 2178 mt 1842 1887 L
1842 1887 mt 1924 2210 L
/c37 { 1.000000 0.812500 0.000000 sr} bdef
c37
-75 -215 82 323 1842 1887 3 MP
PP
0 sg
1842 1887 mt 1924 2210 L
1924 2210 mt 1849 1995 L
c16
81 -5 -75 30 1911 2541 3 MP
PP
0 sg
1911 2541 mt 1836 2571 L
1836 2571 mt 1917 2566 L
c14
-74 35 81 -5 1836 2571 3 MP
PP
0 sg
1836 2571 mt 1917 2566 L
1917 2566 mt 1843 2601 L
c19
82 3 -75 24 1904 2514 3 MP
PP
0 sg
1904 2514 mt 1829 2538 L
1829 2538 mt 1911 2541 L
c16
-75 30 82 3 1829 2538 3 MP
PP
0 sg
1829 2538 mt 1911 2541 L
1911 2541 mt 1836 2571 L
c21
82 14 -75 17 1897 2483 3 MP
PP
0 sg
1897 2483 mt 1822 2500 L
1822 2500 mt 1904 2514 L
c20
-75 24 82 14 1822 2500 3 MP
PP
0 sg
1822 2500 mt 1904 2514 L
1904 2514 mt 1829 2538 L
c23
81 31 -74 7 1890 2445 3 MP
PP
0 sg
1890 2445 mt 1816 2452 L
1816 2452 mt 1897 2483 L
c22
-75 17 81 31 1816 2452 3 MP
PP
0 sg
1816 2452 mt 1897 2483 L
1897 2483 mt 1822 2500 L
c25
81 53 -74 -4 1883 2396 3 MP
PP
0 sg
1883 2396 mt 1809 2392 L
1809 2392 mt 1890 2445 L
c24
-74 7 81 53 1809 2392 3 MP
PP
0 sg
1809 2392 mt 1890 2445 L
1890 2445 mt 1816 2452 L
c28
81 81 -75 -20 1877 2335 3 MP
PP
0 sg
1877 2335 mt 1802 2315 L
1802 2315 mt 1883 2396 L
c28
-74 -4 81 81 1802 2315 3 MP
PP
0 sg
1802 2315 mt 1883 2396 L
1883 2396 mt 1809 2392 L
c36
82 116 -75 -41 1870 2260 3 MP
PP
0 sg
1870 2260 mt 1795 2219 L
1795 2219 mt 1877 2335 L
c36
-75 -20 82 116 1795 2219 3 MP
PP
0 sg
1795 2219 mt 1877 2335 L
1877 2335 mt 1802 2315 L
c32
82 160 -75 -74 1863 2174 3 MP
PP
0 sg
1863 2174 mt 1788 2100 L
1788 2100 mt 1870 2260 L
c34
-75 -41 82 160 1788 2100 3 MP
PP
0 sg
1788 2100 mt 1870 2260 L
1870 2260 mt 1795 2219 L
c9
81 -18 -74 50 1856 2661 3 MP
PP
0 sg
1856 2661 mt 1782 2711 L
1782 2711 mt 1863 2693 L
c35
81 212 -74 -119 1856 2081 3 MP
PP
0 sg
1856 2081 mt 1782 1962 L
1782 1962 mt 1863 2174 L
/c38 { 0.875000 1.000000 0.125000 sr} bdef
c38
-75 -74 81 212 1782 1962 3 MP
PP
0 sg
1782 1962 mt 1863 2174 L
1863 2174 mt 1788 2100 L
c13
81 -16 -75 46 1850 2631 3 MP
PP
0 sg
1850 2631 mt 1775 2677 L
1775 2677 mt 1856 2661 L
c9
-74 50 81 -16 1775 2677 3 MP
PP
0 sg
1775 2677 mt 1856 2661 L
1856 2661 mt 1782 2711 L
c33
81 268 -74 -182 1849 1995 3 MP
PP
0 sg
1849 1995 mt 1775 1813 L
1775 1813 mt 1856 2081 L
/c39 { 1.000000 0.750000 0.000000 sr} bdef
c39
-74 -119 81 268 1775 1813 3 MP
PP
0 sg
1775 1813 mt 1856 2081 L
1856 2081 mt 1782 1962 L
c17
82 -13 -75 43 1843 2601 3 MP
PP
0 sg
1843 2601 mt 1768 2644 L
1768 2644 mt 1850 2631 L
c13
-75 46 82 -13 1768 2644 3 MP
PP
0 sg
1768 2644 mt 1850 2631 L
1850 2631 mt 1775 2677 L
c37
81 353 -74 -245 1842 1887 3 MP
PP
0 sg
1842 1887 mt 1768 1642 L
1768 1642 mt 1849 1995 L
/c40 { 1.000000 0.375000 0.000000 sr} bdef
c40
-74 -182 81 353 1768 1642 3 MP
PP
0 sg
1768 1642 mt 1849 1995 L
1849 1995 mt 1775 1813 L
c14
82 -8 -75 38 1836 2571 3 MP
PP
0 sg
1836 2571 mt 1761 2609 L
1761 2609 mt 1843 2601 L
c17
-75 43 82 -8 1761 2609 3 MP
PP
0 sg
1761 2609 mt 1843 2601 L
1843 2601 mt 1768 2644 L
c16
81 0 -74 33 1829 2538 3 MP
PP
0 sg
1829 2538 mt 1755 2571 L
1755 2571 mt 1836 2571 L
c15
-75 38 81 0 1755 2571 3 MP
PP
0 sg
1755 2571 mt 1836 2571 L
1836 2571 mt 1761 2609 L
c20
81 11 -74 27 1822 2500 3 MP
PP
0 sg
1822 2500 mt 1748 2527 L
1748 2527 mt 1829 2538 L
c18
-74 33 81 11 1748 2527 3 MP
PP
0 sg
1748 2527 mt 1829 2538 L
1829 2538 mt 1755 2571 L
c22
81 27 -75 21 1816 2452 3 MP
PP
0 sg
1816 2452 mt 1741 2473 L
1741 2473 mt 1822 2500 L
c21
-74 27 81 27 1741 2473 3 MP
PP
0 sg
1741 2473 mt 1822 2500 L
1822 2500 mt 1748 2527 L
c24
82 48 -75 12 1809 2392 3 MP
PP
0 sg
1809 2392 mt 1734 2404 L
1734 2404 mt 1816 2452 L
c24
-75 21 82 48 1734 2404 3 MP
PP
0 sg
1734 2404 mt 1816 2452 L
1816 2452 mt 1741 2473 L
c28
82 78 -75 -1 1802 2315 3 MP
PP
0 sg
1802 2315 mt 1727 2314 L
1727 2314 mt 1809 2392 L
c28
-75 12 82 78 1727 2314 3 MP
PP
0 sg
1727 2314 mt 1809 2392 L
1809 2392 mt 1734 2404 L
c36
81 116 -74 -20 1795 2219 3 MP
PP
0 sg
1795 2219 mt 1721 2199 L
1721 2199 mt 1802 2315 L
c36
-75 -1 81 116 1721 2199 3 MP
PP
0 sg
1721 2199 mt 1802 2315 L
1802 2315 mt 1727 2314 L
c34
81 166 -74 -47 1788 2100 3 MP
PP
0 sg
1788 2100 mt 1714 2053 L
1714 2053 mt 1795 2219 L
/c41 { 0.562500 1.000000 0.437500 sr} bdef
c41
-74 -20 81 166 1714 2053 3 MP
PP
0 sg
1714 2053 mt 1795 2219 L
1795 2219 mt 1721 2199 L
c38
81 224 -75 -86 1782 1962 3 MP
PP
0 sg
1782 1962 mt 1707 1876 L
1707 1876 mt 1788 2100 L
/c42 { 1.000000 1.000000 0.000000 sr} bdef
c42
-74 -47 81 224 1707 1876 3 MP
PP
0 sg
1707 1876 mt 1788 2100 L
1788 2100 mt 1714 2053 L
c9
82 -18 -75 52 1775 2677 3 MP
PP
0 sg
1775 2677 mt 1700 2729 L
1700 2729 mt 1782 2711 L
c39
82 294 -75 -145 1775 1813 3 MP
PP
0 sg
1775 1813 mt 1700 1668 L
1700 1668 mt 1782 1962 L
/c43 { 1.000000 0.500000 0.000000 sr} bdef
c43
-75 -86 82 294 1700 1668 3 MP
PP
0 sg
1700 1668 mt 1782 1962 L
1782 1962 mt 1707 1876 L
c13
81 -15 -74 48 1768 2644 3 MP
PP
0 sg
1768 2644 mt 1694 2692 L
1694 2692 mt 1775 2677 L
c9
-75 52 81 -15 1694 2692 3 MP
PP
0 sg
1694 2692 mt 1775 2677 L
1775 2677 mt 1700 2729 L
c40
82 371 -75 -200 1768 1642 3 MP
PP
0 sg
1768 1642 mt 1693 1442 L
1693 1442 mt 1775 1813 L
/c44 { 1.000000 0.000000 0.000000 sr} bdef
c44
-75 -145 82 371 1693 1442 3 MP
PP
0 sg
1693 1442 mt 1775 1813 L
1775 1813 mt 1700 1668 L
c17
81 -11 -74 46 1761 2609 3 MP
PP
0 sg
1761 2609 mt 1687 2655 L
1687 2655 mt 1768 2644 L
c13
-74 48 81 -11 1687 2655 3 MP
PP
0 sg
1687 2655 mt 1768 2644 L
1768 2644 mt 1694 2692 L
c15
81 -4 -75 42 1755 2571 3 MP
PP
0 sg
1755 2571 mt 1680 2613 L
1680 2613 mt 1761 2609 L
c12
-74 46 81 -4 1680 2613 3 MP
PP
0 sg
1680 2613 mt 1761 2609 L
1761 2609 mt 1687 2655 L
c18
82 6 -75 38 1748 2527 3 MP
PP
0 sg
1748 2527 mt 1673 2565 L
1673 2565 mt 1755 2571 L
c15
-75 42 82 6 1673 2565 3 MP
PP
0 sg
1673 2565 mt 1755 2571 L
1755 2571 mt 1680 2613 L
c21
82 21 -75 33 1741 2473 3 MP
PP
0 sg
1741 2473 mt 1666 2506 L
1666 2506 mt 1748 2527 L
c19
-75 38 82 21 1666 2506 3 MP
PP
0 sg
1666 2506 mt 1748 2527 L
1748 2527 mt 1673 2565 L
c24
81 43 -74 26 1734 2404 3 MP
PP
0 sg
1734 2404 mt 1660 2430 L
1660 2430 mt 1741 2473 L
c23
-75 33 81 43 1660 2430 3 MP
PP
0 sg
1660 2430 mt 1741 2473 L
1741 2473 mt 1666 2506 L
c28
81 73 -74 17 1727 2314 3 MP
PP
0 sg
1727 2314 mt 1653 2331 L
1653 2331 mt 1734 2404 L
c26
-74 26 81 73 1653 2331 3 MP
PP
0 sg
1653 2331 mt 1734 2404 L
1734 2404 mt 1660 2430 L
c36
81 113 -75 2 1721 2199 3 MP
PP
0 sg
1721 2199 mt 1646 2201 L
1646 2201 mt 1727 2314 L
c36
-74 17 81 113 1646 2201 3 MP
PP
0 sg
1646 2201 mt 1727 2314 L
1727 2314 mt 1653 2331 L
c41
82 165 -75 -19 1714 2053 3 MP
PP
0 sg
1714 2053 mt 1639 2034 L
1639 2034 mt 1721 2199 L
c41
-75 2 82 165 1639 2034 3 MP
PP
0 sg
1639 2034 mt 1721 2199 L
1721 2199 mt 1646 2201 L
c42
82 231 -75 -54 1707 1876 3 MP
PP
0 sg
1707 1876 mt 1632 1822 L
1632 1822 mt 1714 2053 L
/c45 { 1.000000 0.937500 0.000000 sr} bdef
c45
-75 -19 82 231 1632 1822 3 MP
PP
0 sg
1632 1822 mt 1714 2053 L
1714 2053 mt 1639 2034 L
c43
81 312 -74 -104 1700 1668 3 MP
PP
0 sg
1700 1668 mt 1626 1564 L
1626 1564 mt 1707 1876 L
c40
-75 -54 81 312 1626 1564 3 MP
PP
0 sg
1626 1564 mt 1707 1876 L
1707 1876 mt 1632 1822 L
c9
81 -18 -75 55 1694 2692 3 MP
PP
0 sg
1694 2692 mt 1619 2747 L
1619 2747 mt 1700 2729 L
c44
81 381 -74 -155 1693 1442 3 MP
PP
0 sg
1693 1442 mt 1619 1287 L
1619 1287 mt 1700 1668 L
/c46 { 0.750000 0.000000 0.000000 sr} bdef
c46
-74 -104 81 381 1619 1287 3 MP
PP
0 sg
1619 1287 mt 1700 1668 L
1700 1668 mt 1626 1564 L
c13
82 -15 -75 52 1687 2655 3 MP
PP
0 sg
1687 2655 mt 1612 2707 L
1612 2707 mt 1694 2692 L
c9
-75 55 82 -15 1612 2707 3 MP
PP
0 sg
1612 2707 mt 1694 2692 L
1694 2692 mt 1619 2747 L
c12
82 -8 -75 50 1680 2613 3 MP
PP
0 sg
1680 2613 mt 1605 2663 L
1605 2663 mt 1687 2655 L
c11
-75 52 82 -8 1605 2663 3 MP
PP
0 sg
1605 2663 mt 1687 2655 L
1687 2655 mt 1612 2707 L
c15
81 0 -74 48 1673 2565 3 MP
PP
0 sg
1673 2565 mt 1599 2613 L
1599 2613 mt 1680 2613 L
c12
-75 50 81 0 1599 2613 3 MP
PP
0 sg
1599 2613 mt 1680 2613 L
1680 2613 mt 1605 2663 L
c19
81 14 -74 45 1666 2506 3 MP
PP
0 sg
1666 2506 mt 1592 2551 L
1592 2551 mt 1673 2565 L
c16
-74 48 81 14 1592 2551 3 MP
PP
0 sg
1592 2551 mt 1673 2565 L
1673 2565 mt 1599 2613 L
c23
81 35 -75 41 1660 2430 3 MP
PP
0 sg
1660 2430 mt 1585 2471 L
1585 2471 mt 1666 2506 L
c21
-74 45 81 35 1585 2471 3 MP
PP
0 sg
1585 2471 mt 1666 2506 L
1666 2506 mt 1592 2551 L
c26
82 65 -75 34 1653 2331 3 MP
PP
0 sg
1653 2331 mt 1578 2365 L
1578 2365 mt 1660 2430 L
c25
-75 41 82 65 1578 2365 3 MP
PP
0 sg
1578 2365 mt 1660 2430 L
1660 2430 mt 1585 2471 L
c36
82 106 -75 24 1646 2201 3 MP
PP
0 sg
1646 2201 mt 1571 2225 L
1571 2225 mt 1653 2331 L
c29
-75 34 82 106 1571 2225 3 MP
PP
0 sg
1571 2225 mt 1653 2331 L
1653 2331 mt 1578 2365 L
c41
81 160 -74 7 1639 2034 3 MP
PP
0 sg
1639 2034 mt 1565 2041 L
1565 2041 mt 1646 2201 L
c34
-75 24 81 160 1565 2041 3 MP
PP
0 sg
1565 2041 mt 1646 2201 L
1646 2201 mt 1571 2225 L
c45
81 232 -74 -20 1632 1822 3 MP
PP
0 sg
1632 1822 mt 1558 1802 L
1558 1802 mt 1639 2034 L
c45
-74 7 81 232 1558 1802 3 MP
PP
0 sg
1558 1802 mt 1639 2034 L
1639 2034 mt 1565 2041 L
c40
81 321 -75 -63 1626 1564 3 MP
PP
0 sg
1626 1564 mt 1551 1501 L
1551 1501 mt 1632 1822 L
/c47 { 1.000000 0.250000 0.000000 sr} bdef
c47
-74 -20 81 321 1551 1501 3 MP
PP
0 sg
1551 1501 mt 1632 1822 L
1632 1822 mt 1558 1802 L
c46
82 387 -75 -110 1619 1287 3 MP
PP
0 sg
1619 1287 mt 1544 1177 L
1544 1177 mt 1626 1564 L
/c48 { 0.562500 0.000000 0.000000 sr} bdef
c48
-75 -63 82 387 1544 1177 3 MP
PP
0 sg
1544 1177 mt 1626 1564 L
1626 1564 mt 1551 1501 L
c9
81 -18 -74 58 1612 2707 3 MP
PP
0 sg
1612 2707 mt 1538 2765 L
1538 2765 mt 1619 2747 L
c11
81 -13 -74 57 1605 2663 3 MP
PP
0 sg
1605 2663 mt 1531 2720 L
1531 2720 mt 1612 2707 L
c9
-74 58 81 -13 1531 2720 3 MP
PP
0 sg
1531 2720 mt 1612 2707 L
1612 2707 mt 1538 2765 L
c12
81 -6 -75 56 1599 2613 3 MP
PP
0 sg
1599 2613 mt 1524 2669 L
1524 2669 mt 1605 2663 L
c11
-74 57 81 -6 1524 2669 3 MP
PP
0 sg
1524 2669 mt 1605 2663 L
1605 2663 mt 1531 2720 L
c16
82 8 -75 54 1592 2551 3 MP
PP
0 sg
1592 2551 mt 1517 2605 L
1517 2605 mt 1599 2613 L
c14
-75 56 82 8 1517 2605 3 MP
PP
0 sg
1517 2605 mt 1599 2613 L
1599 2613 mt 1524 2669 L
c21
82 27 -75 53 1585 2471 3 MP
PP
0 sg
1585 2471 mt 1510 2524 L
1510 2524 mt 1592 2551 L
c19
-75 54 82 27 1510 2524 3 MP
PP
0 sg
1510 2524 mt 1592 2551 L
1592 2551 mt 1517 2605 L
c25
81 55 -74 51 1578 2365 3 MP
PP
0 sg
1578 2365 mt 1504 2416 L
1504 2416 mt 1585 2471 L
c23
-75 53 81 55 1504 2416 3 MP
PP
0 sg
1504 2416 mt 1585 2471 L
1585 2471 mt 1510 2524 L
c29
81 95 -74 45 1571 2225 3 MP
PP
0 sg
1571 2225 mt 1497 2270 L
1497 2270 mt 1578 2365 L
c28
-74 51 81 95 1497 2270 3 MP
PP
0 sg
1497 2270 mt 1578 2365 L
1578 2365 mt 1504 2416 L
c34
81 150 -75 34 1565 2041 3 MP
PP
0 sg
1565 2041 mt 1490 2075 L
1490 2075 mt 1571 2225 L
c32
-74 45 81 150 1490 2075 3 MP
PP
0 sg
1490 2075 mt 1571 2225 L
1571 2225 mt 1497 2270 L
c45
82 225 -75 14 1558 1802 3 MP
PP
0 sg
1558 1802 mt 1483 1816 L
1483 1816 mt 1565 2041 L
c42
-75 34 82 225 1483 1816 3 MP
PP
0 sg
1483 1816 mt 1565 2041 L
1565 2041 mt 1490 2075 L
c47
82 321 -75 -20 1551 1501 3 MP
PP
0 sg
1551 1501 mt 1476 1481 L
1476 1481 mt 1558 1802 L
c47
-75 14 82 321 1476 1481 3 MP
PP
0 sg
1476 1481 mt 1558 1802 L
1558 1802 mt 1483 1816 L
c48
81 389 -74 -65 1544 1177 3 MP
PP
0 sg
1544 1177 mt 1470 1112 L
1470 1112 mt 1551 1501 L
/c49 { 0.500000 0.000000 0.000000 sr} bdef
c49
-75 -20 81 389 1470 1112 3 MP
PP
0 sg
1470 1112 mt 1551 1501 L
1551 1501 mt 1476 1481 L
c9
82 -18 -75 63 1531 2720 3 MP
PP
0 sg
1531 2720 mt 1456 2783 L
1456 2783 mt 1538 2765 L
c11
82 -12 -75 63 1524 2669 3 MP
PP
0 sg
1524 2669 mt 1449 2732 L
1449 2732 mt 1531 2720 L
c9
-75 63 82 -12 1449 2732 3 MP
PP
0 sg
1449 2732 mt 1531 2720 L
1531 2720 mt 1456 2783 L
c14
81 0 -74 64 1517 2605 3 MP
PP
0 sg
1517 2605 mt 1443 2669 L
1443 2669 mt 1524 2669 L
c11
-75 63 81 0 1443 2669 3 MP
PP
0 sg
1443 2669 mt 1524 2669 L
1524 2669 mt 1449 2732 L
c19
81 16 -74 65 1510 2524 3 MP
PP
0 sg
1510 2524 mt 1436 2589 L
1436 2589 mt 1517 2605 L
c15
-74 64 81 16 1436 2589 3 MP
PP
0 sg
1436 2589 mt 1517 2605 L
1517 2605 mt 1443 2669 L
c23
81 43 -75 65 1504 2416 3 MP
PP
0 sg
1504 2416 mt 1429 2481 L
1429 2481 mt 1510 2524 L
c21
-74 65 81 43 1429 2481 3 MP
PP
0 sg
1429 2481 mt 1510 2524 L
1510 2524 mt 1436 2589 L
c28
82 82 -75 64 1497 2270 3 MP
PP
0 sg
1497 2270 mt 1422 2334 L
1422 2334 mt 1504 2416 L
c26
-75 65 82 82 1422 2334 3 MP
PP
0 sg
1422 2334 mt 1504 2416 L
1504 2416 mt 1429 2481 L
c32
82 136 -75 59 1490 2075 3 MP
PP
0 sg
1490 2075 mt 1415 2134 L
1415 2134 mt 1497 2270 L
c30
-75 64 82 136 1415 2134 3 MP
PP
0 sg
1415 2134 mt 1497 2270 L
1497 2270 mt 1422 2334 L
c42
81 211 -74 48 1483 1816 3 MP
PP
0 sg
1483 1816 mt 1409 1864 L
1409 1864 mt 1490 2075 L
c38
-75 59 81 211 1409 1864 3 MP
PP
0 sg
1409 1864 mt 1490 2075 L
1490 2075 mt 1415 2134 L
c47
81 311 -74 24 1476 1481 3 MP
PP
0 sg
1476 1481 mt 1402 1505 L
1402 1505 mt 1483 1816 L
c40
-74 48 81 311 1402 1505 3 MP
PP
0 sg
1402 1505 mt 1483 1816 L
1483 1816 mt 1409 1864 L
c49
81 388 -75 -19 1470 1112 3 MP
PP
0 sg
1470 1112 mt 1395 1093 L
1395 1093 mt 1476 1481 L
c49
-74 24 81 388 1395 1093 3 MP
PP
0 sg
1395 1093 mt 1476 1481 L
1476 1481 mt 1402 1505 L
c9
81 -18 -74 69 1449 2732 3 MP
PP
0 sg
1449 2732 mt 1375 2801 L
1375 2801 mt 1456 2783 L
c11
81 -9 -75 72 1443 2669 3 MP
PP
0 sg
1443 2669 mt 1368 2741 L
1368 2741 mt 1449 2732 L
c10
-74 69 81 -9 1368 2741 3 MP
PP
0 sg
1368 2741 mt 1449 2732 L
1449 2732 mt 1375 2801 L
c15
82 5 -75 75 1436 2589 3 MP
PP
0 sg
1436 2589 mt 1361 2664 L
1361 2664 mt 1443 2669 L
c17
-75 72 82 5 1361 2664 3 MP
PP
0 sg
1361 2664 mt 1443 2669 L
1443 2669 mt 1368 2741 L
c21
82 29 -75 79 1429 2481 3 MP
PP
0 sg
1429 2481 mt 1354 2560 L
1354 2560 mt 1436 2589 L
c18
-75 75 82 29 1354 2560 3 MP
PP
0 sg
1354 2560 mt 1436 2589 L
1436 2589 mt 1361 2664 L
c26
81 65 -74 82 1422 2334 3 MP
PP
0 sg
1422 2334 mt 1348 2416 L
1348 2416 mt 1429 2481 L
c23
-75 79 81 65 1348 2416 3 MP
PP
0 sg
1348 2416 mt 1429 2481 L
1429 2481 mt 1354 2560 L
c30
81 117 -74 83 1415 2134 3 MP
PP
0 sg
1415 2134 mt 1341 2217 L
1341 2217 mt 1422 2334 L
c29
-74 82 81 117 1341 2217 3 MP
PP
0 sg
1341 2217 mt 1422 2334 L
1422 2334 mt 1348 2416 L
c38
81 191 -75 79 1409 1864 3 MP
PP
0 sg
1409 1864 mt 1334 1943 L
1334 1943 mt 1415 2134 L
c35
-74 83 81 191 1334 1943 3 MP
PP
0 sg
1334 1943 mt 1415 2134 L
1415 2134 mt 1341 2217 L
c40
82 294 -75 65 1402 1505 3 MP
PP
0 sg
1402 1505 mt 1327 1570 L
1327 1570 mt 1409 1864 L
c43
-75 79 82 294 1327 1570 3 MP
PP
0 sg
1327 1570 mt 1409 1864 L
1409 1864 mt 1334 1943 L
c49
82 387 -75 25 1395 1093 3 MP
PP
0 sg
1395 1093 mt 1320 1118 L
1320 1118 mt 1402 1505 L
c48
-75 65 82 387 1320 1118 3 MP
PP
0 sg
1320 1118 mt 1402 1505 L
1402 1505 mt 1327 1570 L
c10
82 -18 -75 78 1368 2741 3 MP
PP
0 sg
1368 2741 mt 1293 2819 L
1293 2819 mt 1375 2801 L
c17
81 -6 -74 83 1361 2664 3 MP
PP
0 sg
1361 2664 mt 1287 2747 L
1287 2747 mt 1368 2741 L
c10
-75 78 81 -6 1287 2747 3 MP
PP
0 sg
1287 2747 mt 1368 2741 L
1368 2741 mt 1293 2819 L
c18
81 14 -74 90 1354 2560 3 MP
PP
0 sg
1354 2560 mt 1280 2650 L
1280 2650 mt 1361 2664 L
c12
-74 83 81 14 1280 2650 3 MP
PP
0 sg
1280 2650 mt 1361 2664 L
1361 2664 mt 1287 2747 L
c23
81 46 -75 98 1348 2416 3 MP
PP
0 sg
1348 2416 mt 1273 2514 L
1273 2514 mt 1354 2560 L
c20
-74 90 81 46 1273 2514 3 MP
PP
0 sg
1273 2514 mt 1354 2560 L
1354 2560 mt 1280 2650 L
c29
82 95 -75 104 1341 2217 3 MP
PP
0 sg
1341 2217 mt 1266 2321 L
1266 2321 mt 1348 2416 L
c26
-75 98 82 95 1266 2321 3 MP
PP
0 sg
1266 2321 mt 1348 2416 L
1348 2416 mt 1273 2514 L
c35
82 166 -75 108 1334 1943 3 MP
PP
0 sg
1334 1943 mt 1259 2051 L
1259 2051 mt 1341 2217 L
c32
-75 104 82 166 1259 2051 3 MP
PP
0 sg
1259 2051 mt 1341 2217 L
1341 2217 mt 1266 2321 L
c43
81 268 -74 105 1327 1570 3 MP
PP
0 sg
1327 1570 mt 1253 1675 L
1253 1675 mt 1334 1943 L
c39
-75 108 81 268 1253 1675 3 MP
PP
0 sg
1253 1675 mt 1334 1943 L
1334 1943 mt 1259 2051 L
c48
81 381 -74 71 1320 1118 3 MP
PP
0 sg
1320 1118 mt 1246 1189 L
1246 1189 mt 1327 1570 L
c46
-74 105 81 381 1246 1189 3 MP
PP
0 sg
1246 1189 mt 1327 1570 L
1327 1570 mt 1253 1675 L
c10
81 -18 -75 90 1287 2747 3 MP
PP
0 sg
1287 2747 mt 1212 2837 L
1212 2837 mt 1293 2819 L
c12
82 -2 -75 99 1280 2650 3 MP
PP
0 sg
1280 2650 mt 1205 2749 L
1205 2749 mt 1287 2747 L
c10
-75 90 82 -2 1205 2749 3 MP
PP
0 sg
1205 2749 mt 1287 2747 L
1287 2747 mt 1212 2837 L
c20
82 26 -75 110 1273 2514 3 MP
PP
0 sg
1273 2514 mt 1198 2624 L
1198 2624 mt 1280 2650 L
c15
-75 99 82 26 1198 2624 3 MP
PP
0 sg
1198 2624 mt 1280 2650 L
1280 2650 mt 1205 2749 L
c26
81 70 -74 123 1266 2321 3 MP
PP
0 sg
1266 2321 mt 1192 2444 L
1192 2444 mt 1273 2514 L
c22
-75 110 81 70 1192 2444 3 MP
PP
0 sg
1192 2444 mt 1273 2514 L
1273 2514 mt 1198 2624 L
c32
81 135 -74 135 1259 2051 3 MP
PP
0 sg
1259 2051 mt 1185 2186 L
1185 2186 mt 1266 2321 L
c31
-74 123 81 135 1185 2186 3 MP
PP
0 sg
1185 2186 mt 1266 2321 L
1266 2321 mt 1192 2444 L
c39
81 233 -75 143 1253 1675 3 MP
PP
0 sg
1253 1675 mt 1178 1818 L
1178 1818 mt 1259 2051 L
c33
-74 135 81 233 1178 1818 3 MP
PP
0 sg
1178 1818 mt 1259 2051 L
1259 2051 mt 1185 2186 L
c46
82 371 -75 115 1246 1189 3 MP
PP
0 sg
1246 1189 mt 1171 1304 L
1171 1304 mt 1253 1675 L
c44
-75 143 82 371 1171 1304 3 MP
PP
0 sg
1171 1304 mt 1253 1675 L
1253 1675 mt 1178 1818 L
c10
81 -18 -74 106 1205 2749 3 MP
PP
0 sg
1205 2749 mt 1131 2855 L
1131 2855 mt 1212 2837 L
c15
81 4 -74 121 1198 2624 3 MP
PP
0 sg
1198 2624 mt 1124 2745 L
1124 2745 mt 1205 2749 L
c13
-74 106 81 4 1124 2745 3 MP
PP
0 sg
1124 2745 mt 1205 2749 L
1205 2749 mt 1131 2855 L
c22
81 42 -75 138 1192 2444 3 MP
PP
0 sg
1192 2444 mt 1117 2582 L
1117 2582 mt 1198 2624 L
c16
-74 121 81 42 1117 2582 3 MP
PP
0 sg
1117 2582 mt 1198 2624 L
1198 2624 mt 1124 2745 L
c31
82 101 -75 157 1185 2186 3 MP
PP
0 sg
1185 2186 mt 1110 2343 L
1110 2343 mt 1192 2444 L
c25
-75 138 82 101 1110 2343 3 MP
PP
0 sg
1110 2343 mt 1192 2444 L
1192 2444 mt 1117 2582 L
c33
82 192 -75 176 1178 1818 3 MP
PP
0 sg
1178 1818 mt 1103 1994 L
1103 1994 mt 1185 2186 L
c34
-75 157 82 192 1103 1994 3 MP
PP
0 sg
1103 1994 mt 1185 2186 L
1185 2186 mt 1110 2343 L
c44
81 353 -74 161 1171 1304 3 MP
PP
0 sg
1171 1304 mt 1097 1465 L
1097 1465 mt 1178 1818 L
c40
-75 176 81 353 1097 1465 3 MP
PP
0 sg
1097 1465 mt 1178 1818 L
1178 1818 mt 1103 1994 L
c13
82 -18 -75 128 1124 2745 3 MP
PP
0 sg
1124 2745 mt 1049 2873 L
1049 2873 mt 1131 2855 L
c16
82 13 -75 150 1117 2582 3 MP
PP
0 sg
1117 2582 mt 1042 2732 L
1042 2732 mt 1124 2745 L
c11
-75 128 82 13 1042 2732 3 MP
PP
0 sg
1042 2732 mt 1124 2745 L
1124 2745 mt 1049 2873 L
c25
81 63 -74 176 1110 2343 3 MP
PP
0 sg
1110 2343 mt 1036 2519 L
1036 2519 mt 1117 2582 L
c20
-75 150 81 63 1036 2519 3 MP
PP
0 sg
1036 2519 mt 1117 2582 L
1117 2582 mt 1042 2732 L
c34
81 145 -74 204 1103 1994 3 MP
PP
0 sg
1103 1994 mt 1029 2198 L
1029 2198 mt 1110 2343 L
c29
-74 176 81 145 1029 2198 3 MP
PP
0 sg
1029 2198 mt 1110 2343 L
1110 2343 mt 1036 2519 L
c40
81 323 -75 206 1097 1465 3 MP
PP
0 sg
1097 1465 mt 1022 1671 L
1022 1671 mt 1103 1994 L
c37
-74 204 81 323 1022 1671 3 MP
PP
0 sg
1022 1671 mt 1103 1994 L
1103 1994 mt 1029 2198 L
c11
81 -18 -74 159 1042 2732 3 MP
PP
0 sg
1042 2732 mt  968 2891 L
 968 2891 mt 1049 2873 L
c20
81 23 -75 190 1036 2519 3 MP
PP
0 sg
1036 2519 mt  961 2709 L
 961 2709 mt 1042 2732 L
c17
-74 159 81 23 961 2709 3 MP
PP
0 sg
 961 2709 mt 1042 2732 L
1042 2732 mt  968 2891 L
c29
82 93 -75 228 1029 2198 3 MP
PP
0 sg
1029 2198 mt  954 2426 L
 954 2426 mt 1036 2519 L
c27
-75 190 82 93 954 2426 3 MP
PP
0 sg
 954 2426 mt 1036 2519 L
1036 2519 mt  961 2709 L
c37
82 276 -75 251 1022 1671 3 MP
PP
0 sg
1022 1671 mt  947 1922 L
 947 1922 mt 1029 2198 L
c35
-75 228 82 276 947 1922 3 MP
PP
0 sg
 947 1922 mt 1029 2198 L
1029 2198 mt  954 2426 L
c17
81 -18 -74 200 961 2709 3 MP
PP
0 sg
 961 2709 mt  887 2909 L
 887 2909 mt  968 2891 L
c27
81 38 -74 245 954 2426 3 MP
PP
0 sg
 954 2426 mt  880 2671 L
 880 2671 mt  961 2709 L
c14
-74 200 81 38 880 2671 3 MP
PP
0 sg
 880 2671 mt  961 2709 L
 961 2709 mt  887 2909 L
c35
81 208 -74 296 947 1922 3 MP
PP
0 sg
 947 1922 mt  873 2218 L
 873 2218 mt  954 2426 L
c29
-74 245 81 208 873 2218 3 MP
PP
0 sg
 873 2218 mt  954 2426 L
 954 2426 mt  880 2671 L
c14
82 -18 -75 256 880 2671 3 MP
PP
0 sg
 880 2671 mt  805 2927 L
 805 2927 mt  887 2909 L
c29
82 112 -75 341 873 2218 3 MP
PP
0 sg
 873 2218 mt  798 2559 L
 798 2559 mt  880 2671 L
c19
-75 256 82 112 798 2559 3 MP
PP
0 sg
 798 2559 mt  880 2671 L
 880 2671 mt  805 2927 L
c19
81 -18 -74 386 798 2559 3 MP
PP
0 sg
 798 2559 mt  724 2945 L
 724 2945 mt  805 2927 L
gr


end %%Color Dict

eplot
%%EndObject

epage
end

showpage

%%Trailer
%%EOF
