%!PS-Adobe-3.0 EPSF-3.0
%%Creator: MATLAB, The MathWorks, Inc. Version 7.14.0.739 (R2012a). Operating System: Linux 4.13.0-26-generic #29~16.04.2-Ubuntu SMP Tue Jan 9 22:00:44 UTC 2018 x86_64.
%%Title: /home/remoto/ruben.laso/Dropbox/M2i/1Curso/EDP/Analitica/Tema 3/Ejercicio/solucion/figuras/ap1b_2.eps
%%CreationDate: 01/20/2018  12:54:48
%%DocumentNeededFonts: Helvetica
%%DocumentProcessColors: Cyan Magenta Yellow Black
%%LanguageLevel: 2
%%Pages: 1
%%BoundingBox:   120   252   475   589
%%EndComments

%%BeginProlog
% MathWorks dictionary
/MathWorks 160 dict begin
% definition operators
/bdef {bind def} bind def
/ldef {load def} bind def
/xdef {exch def} bdef
/xstore {exch store} bdef
% operator abbreviations
/c  /clip ldef
/cc /concat ldef
/cp /closepath ldef
/gr /grestore ldef
/gs /gsave ldef
/mt /moveto ldef
/np /newpath ldef
/cm /currentmatrix ldef
/sm /setmatrix ldef
/rm /rmoveto ldef
/rl /rlineto ldef
/s {show newpath} bdef
/sc {setcmykcolor} bdef
/sr /setrgbcolor ldef
/sg /setgray ldef
/w /setlinewidth ldef
/j /setlinejoin ldef
/cap /setlinecap ldef
/rc {rectclip} bdef
/rf {rectfill} bdef
% page state control
/pgsv () def
/bpage {/pgsv save def} bdef
/epage {pgsv restore} bdef
/bplot /gsave ldef
/eplot {stroke grestore} bdef
% orientation switch
/portraitMode 0 def /landscapeMode 1 def /rotateMode 2 def
% coordinate system mappings
/dpi2point 0 def
% font control
/FontSize 0 def
/FMS {/FontSize xstore findfont [FontSize 0 0 FontSize neg 0 0]
  makefont setfont} bdef
/reencode {exch dup where {pop load} {pop StandardEncoding} ifelse
  exch dup 3 1 roll findfont dup length dict begin
  { 1 index /FID ne {def}{pop pop} ifelse } forall
  /Encoding exch def currentdict end definefont pop} bdef
/isroman {findfont /CharStrings get /Agrave known} bdef
/FMSR {3 1 roll 1 index dup isroman {reencode} {pop pop} ifelse
  exch FMS} bdef
/csm {1 dpi2point div -1 dpi2point div scale neg translate
 dup landscapeMode eq {pop -90 rotate}
  {rotateMode eq {90 rotate} if} ifelse} bdef
% line types: solid, dotted, dashed, dotdash
/SO { [] 0 setdash } bdef
/DO { [.5 dpi2point mul 4 dpi2point mul] 0 setdash } bdef
/DA { [6 dpi2point mul] 0 setdash } bdef
/DD { [.5 dpi2point mul 4 dpi2point mul 6 dpi2point mul 4
  dpi2point mul] 0 setdash } bdef
% macros for lines and objects
/L {lineto stroke} bdef
/MP {3 1 roll moveto 1 sub {rlineto} repeat} bdef
/AP {{rlineto} repeat} bdef
/PDlw -1 def
/W {/PDlw currentlinewidth def setlinewidth} def
/PP {closepath eofill} bdef
/DP {closepath stroke} bdef
/MR {4 -2 roll moveto dup  0 exch rlineto exch 0 rlineto
  neg 0 exch rlineto closepath} bdef
/FR {MR stroke} bdef
/PR {MR fill} bdef
/L1i {{currentfile picstr readhexstring pop} image} bdef
/tMatrix matrix def
/MakeOval {newpath tMatrix currentmatrix pop translate scale
0 0 1 0 360 arc tMatrix setmatrix} bdef
/FO {MakeOval stroke} bdef
/PO {MakeOval fill} bdef
/PD {currentlinewidth 2 div 0 360 arc fill
   PDlw -1 eq not {PDlw w /PDlw -1 def} if} def
/FA {newpath tMatrix currentmatrix pop translate scale
  0 0 1 5 -2 roll arc tMatrix setmatrix stroke} bdef
/PA {newpath tMatrix currentmatrix pop	translate 0 0 moveto scale
  0 0 1 5 -2 roll arc closepath tMatrix setmatrix fill} bdef
/FAn {newpath tMatrix currentmatrix pop translate scale
  0 0 1 5 -2 roll arcn tMatrix setmatrix stroke} bdef
/PAn {newpath tMatrix currentmatrix pop translate 0 0 moveto scale
  0 0 1 5 -2 roll arcn closepath tMatrix setmatrix fill} bdef
/vradius 0 def /hradius 0 def /lry 0 def
/lrx 0 def /uly 0 def /ulx 0 def /rad 0 def
/MRR {/vradius xdef /hradius xdef /lry xdef /lrx xdef /uly xdef
  /ulx xdef newpath tMatrix currentmatrix pop ulx hradius add uly
  vradius add translate hradius vradius scale 0 0 1 180 270 arc 
  tMatrix setmatrix lrx hradius sub uly vradius add translate
  hradius vradius scale 0 0 1 270 360 arc tMatrix setmatrix
  lrx hradius sub lry vradius sub translate hradius vradius scale
  0 0 1 0 90 arc tMatrix setmatrix ulx hradius add lry vradius sub
  translate hradius vradius scale 0 0 1 90 180 arc tMatrix setmatrix
  closepath} bdef
/FRR {MRR stroke } bdef
/PRR {MRR fill } bdef
/MlrRR {/lry xdef /lrx xdef /uly xdef /ulx xdef /rad lry uly sub 2 div def
  newpath tMatrix currentmatrix pop ulx rad add uly rad add translate
  rad rad scale 0 0 1 90 270 arc tMatrix setmatrix lrx rad sub lry rad
  sub translate rad rad scale 0 0 1 270 90 arc tMatrix setmatrix
  closepath} bdef
/FlrRR {MlrRR stroke } bdef
/PlrRR {MlrRR fill } bdef
/MtbRR {/lry xdef /lrx xdef /uly xdef /ulx xdef /rad lrx ulx sub 2 div def
  newpath tMatrix currentmatrix pop ulx rad add uly rad add translate
  rad rad scale 0 0 1 180 360 arc tMatrix setmatrix lrx rad sub lry rad
  sub translate rad rad scale 0 0 1 0 180 arc tMatrix setmatrix
  closepath} bdef
/FtbRR {MtbRR stroke } bdef
/PtbRR {MtbRR fill } bdef
/stri 6 array def /dtri 6 array def
/smat 6 array def /dmat 6 array def
/tmat1 6 array def /tmat2 6 array def /dif 3 array def
/asub {/ind2 exch def /ind1 exch def dup dup
  ind1 get exch ind2 get sub exch } bdef
/tri_to_matrix {
  2 0 asub 3 1 asub 4 0 asub 5 1 asub
  dup 0 get exch 1 get 7 -1 roll astore } bdef
/compute_transform {
  dmat dtri tri_to_matrix tmat1 invertmatrix 
  smat stri tri_to_matrix tmat2 concatmatrix } bdef
/ds {stri astore pop} bdef
/dt {dtri astore pop} bdef
/db {2 copy /cols xdef /rows xdef mul dup 3 mul string
  currentfile 
  3 index 0 eq {/ASCIIHexDecode filter}
  {/ASCII85Decode filter 3 index 2 eq {/RunLengthDecode filter} if }
  ifelse exch readstring pop
  dup 0 3 index getinterval /rbmap xdef
  dup 2 index dup getinterval /gbmap xdef
  1 index dup 2 mul exch getinterval /bbmap xdef pop pop}bdef
/it {gs np dtri aload pop moveto lineto lineto cp c
  cols rows 8 compute_transform 
  rbmap gbmap bbmap true 3 colorimage gr}bdef
/il {newpath moveto lineto stroke}bdef
currentdict end def
%%EndProlog

%%BeginSetup
MathWorks begin

0 cap

end
%%EndSetup

%%Page: 1 1
%%BeginPageSetup
%%PageBoundingBox:   120   252   475   589
MathWorks begin
bpage
%%EndPageSetup

%%BeginObject: obj1
bplot

/dpi2point 12 def
portraitMode 1440 7068 csm

    0     0  4263  4034 rc
85 dict begin %Colortable dictionary
/c0 { 0.000000 0.000000 0.000000 sr} bdef
/c1 { 1.000000 1.000000 1.000000 sr} bdef
/c2 { 0.900000 0.000000 0.000000 sr} bdef
/c3 { 0.000000 0.820000 0.000000 sr} bdef
/c4 { 0.000000 0.000000 0.800000 sr} bdef
/c5 { 0.910000 0.820000 0.320000 sr} bdef
/c6 { 1.000000 0.260000 0.820000 sr} bdef
/c7 { 0.000000 0.820000 0.820000 sr} bdef
c0
1 j
1 sg
   0    0 4264 4035 rf
6 w
0 1817 -1435 -833 0 -1816 3858 2951 4 MP
PP
1435 832 0 1817 -1435 -833 0 -1816 3858 2951 5 MP stroke
1435 832 1869 -638 -1434 -832 1988 3589 4 MP
PP
-1870 638 1435 832 1869 -638 -1434 -832 1988 3589 5 MP stroke
0 1817 1869 -639 0 -1816 554 2757 4 MP
PP
-1869 638 0 1817 1869 -639 0 -1816 554 2757 5 MP stroke
4 w
DO
0 sg
1988 3589 mt  554 2757 L
 554 2757 mt  554  941 L
2923 3270 mt 1488 2438 L
1488 2438 mt 1488  622 L
3858 2951 mt 2423 2119 L
2423 2119 mt 2423  302 L
1988 3589 mt 3858 2951 L
3858 2951 mt 3858 1135 L
1701 3423 mt 3571 2785 L
3571 2785 mt 3571  968 L
1414 3257 mt 3284 2618 L
3284 2618 mt 3284  802 L
1127 3090 mt 2997 2452 L
2997 2452 mt 2997  635 L
 840 2924 mt 2710 2285 L
2710 2285 mt 2710  469 L
 554 2757 mt 2423 2119 L
2423 2119 mt 2423  302 L
 554 2757 mt 2423 2119 L
2423 2119 mt 3858 2951 L
 554 2394 mt 2423 1756 L
2423 1756 mt 3858 2588 L
 554 2031 mt 2423 1392 L
2423 1392 mt 3858 2224 L
 554 1668 mt 2423 1029 L
2423 1029 mt 3858 1861 L
 554 1304 mt 2423  666 L
2423  666 mt 3858 1498 L
 554  941 mt 2423  302 L
2423  302 mt 3858 1135 L
SO
6 w
1988 3589 mt 3858 2951 L
1988 3589 mt  554 2757 L
 554 2757 mt  554  941 L
1988 3589 mt 2031 3614 L
%%IncludeResource: font Helvetica
/Helvetica /ISOLatin1Encoding 120 FMSR

2061 3743 mt 
(0) s
2923 3270 mt 2965 3295 L
2995 3423 mt 
(0.5) s
3858 2951 mt 3900 2976 L
3930 3104 mt 
(1) s
1988 3589 mt 1941 3605 L
1843 3728 mt 
(0) s
1701 3423 mt 1654 3439 L
1456 3561 mt 
(0.2) s
1414 3257 mt 1367 3273 L
1169 3395 mt 
(0.4) s
1127 3090 mt 1081 3106 L
 882 3228 mt 
(0.6) s
 840 2924 mt  794 2940 L
 595 3062 mt 
(0.8) s
 554 2757 mt  507 2773 L
 408 2896 mt 
(1) s
 554 2757 mt  511 2733 L
 415 2759 mt 
(0) s
 554 2394 mt  511 2369 L
 315 2396 mt 
(0.2) s
 554 2031 mt  511 2006 L
 315 2033 mt 
(0.4) s
 554 1668 mt  511 1643 L
 315 1669 mt 
(0.6) s
 554 1304 mt  511 1279 L
 315 1306 mt 
(0.8) s
 554  941 mt  511  916 L
 415  943 mt 
(1) s
gs 554 302 3305 3288 rc
/c8 { 0.000000 0.000000 0.562500 sr} bdef
c8
-76 -331 99 -34 3759 2985 3 MP
PP
0 sg
3759 2985 mt 3858 2951 L
3858 2951 mt 3782 2620 L
c8
98 -34 -75 -331 3759 2985 3 MP
PP
0 sg
3759 2985 mt 3684 2654 L
3684 2654 mt 3782 2620 L
/c9 { 0.000000 0.250000 1.000000 sr} bdef
c9
-76 -307 98 -34 3684 2654 3 MP
PP
0 sg
3684 2654 mt 3782 2620 L
3782 2620 mt 3706 2313 L
c8
-75 -331 98 -33 3661 3018 3 MP
PP
0 sg
3661 3018 mt 3759 2985 L
3759 2985 mt 3684 2654 L
c9
98 -34 -76 -307 3684 2654 3 MP
PP
0 sg
3684 2654 mt 3608 2347 L
3608 2347 mt 3706 2313 L
/c10 { 0.000000 0.937500 1.000000 sr} bdef
c10
-75 -281 98 -34 3608 2347 3 MP
PP
0 sg
3608 2347 mt 3706 2313 L
3706 2313 mt 3631 2032 L
c8
99 -34 -76 -330 3661 3018 3 MP
PP
0 sg
3661 3018 mt 3585 2688 L
3585 2688 mt 3684 2654 L
c9
-76 -307 99 -34 3585 2688 3 MP
PP
0 sg
3585 2688 mt 3684 2654 L
3684 2654 mt 3608 2347 L
c8
-76 -330 99 -34 3562 3052 3 MP
PP
0 sg
3562 3052 mt 3661 3018 L
3661 3018 mt 3585 2688 L
c10
98 -34 -75 -281 3608 2347 3 MP
PP
0 sg
3608 2347 mt 3533 2066 L
3533 2066 mt 3631 2032 L
/c11 { 0.562500 1.000000 0.437500 sr} bdef
c11
-76 -253 98 -34 3533 2066 3 MP
PP
0 sg
3533 2066 mt 3631 2032 L
3631 2032 mt 3555 1779 L
c9
98 -34 -75 -307 3585 2688 3 MP
PP
0 sg
3585 2688 mt 3510 2381 L
3510 2381 mt 3608 2347 L
c10
-75 -281 98 -34 3510 2381 3 MP
PP
0 sg
3510 2381 mt 3608 2347 L
3608 2347 mt 3533 2066 L
c8
98 -34 -75 -330 3562 3052 3 MP
PP
0 sg
3562 3052 mt 3487 2722 L
3487 2722 mt 3585 2688 L
c9
-75 -307 98 -34 3487 2722 3 MP
PP
0 sg
3487 2722 mt 3585 2688 L
3585 2688 mt 3510 2381 L
c8
-75 -330 98 -33 3464 3085 3 MP
PP
0 sg
3464 3085 mt 3562 3052 L
3562 3052 mt 3487 2722 L
c11
98 -34 -76 -253 3533 2066 3 MP
PP
0 sg
3533 2066 mt 3457 1813 L
3457 1813 mt 3555 1779 L
/c12 { 1.000000 0.875000 0.000000 sr} bdef
c12
-75 -221 98 -34 3457 1813 3 MP
PP
0 sg
3457 1813 mt 3555 1779 L
3555 1779 mt 3480 1558 L
c10
99 -34 -76 -281 3510 2381 3 MP
PP
0 sg
3510 2381 mt 3434 2100 L
3434 2100 mt 3533 2066 L
c11
-76 -253 99 -34 3434 2100 3 MP
PP
0 sg
3434 2100 mt 3533 2066 L
3533 2066 mt 3457 1813 L
c9
99 -34 -76 -307 3487 2722 3 MP
PP
0 sg
3487 2722 mt 3411 2415 L
3411 2415 mt 3510 2381 L
c10
-76 -281 99 -34 3411 2415 3 MP
PP
0 sg
3411 2415 mt 3510 2381 L
3510 2381 mt 3434 2100 L
c8
99 -33 -76 -330 3464 3085 3 MP
PP
0 sg
3464 3085 mt 3388 2755 L
3388 2755 mt 3487 2722 L
c9
-76 -307 99 -33 3388 2755 3 MP
PP
0 sg
3388 2755 mt 3487 2722 L
3487 2722 mt 3411 2415 L
c12
98 -34 -75 -221 3457 1813 3 MP
PP
0 sg
3457 1813 mt 3382 1592 L
3382 1592 mt 3480 1558 L
/c13 { 1.000000 0.437500 0.000000 sr} bdef
c13
-76 -188 98 -34 3382 1592 3 MP
PP
0 sg
3382 1592 mt 3480 1558 L
3480 1558 mt 3404 1370 L
c8
-76 -330 98 -34 3366 3119 3 MP
PP
0 sg
3366 3119 mt 3464 3085 L
3464 3085 mt 3388 2755 L
c11
98 -34 -75 -253 3434 2100 3 MP
PP
0 sg
3434 2100 mt 3359 1847 L
3359 1847 mt 3457 1813 L
c12
-75 -221 98 -34 3359 1847 3 MP
PP
0 sg
3359 1847 mt 3457 1813 L
3457 1813 mt 3382 1592 L
c10
98 -34 -75 -281 3411 2415 3 MP
PP
0 sg
3411 2415 mt 3336 2134 L
3336 2134 mt 3434 2100 L
c11
-75 -253 98 -34 3336 2134 3 MP
PP
0 sg
3336 2134 mt 3434 2100 L
3434 2100 mt 3359 1847 L
c9
98 -34 -75 -306 3388 2755 3 MP
PP
0 sg
3388 2755 mt 3313 2449 L
3313 2449 mt 3411 2415 L
c10
-75 -281 98 -34 3313 2449 3 MP
PP
0 sg
3313 2449 mt 3411 2415 L
3411 2415 mt 3336 2134 L
c13
98 -34 -76 -188 3382 1592 3 MP
PP
0 sg
3382 1592 mt 3306 1404 L
3306 1404 mt 3404 1370 L
/c14 { 1.000000 0.062500 0.000000 sr} bdef
c14
-75 -154 98 -34 3306 1404 3 MP
PP
0 sg
3306 1404 mt 3404 1370 L
3404 1370 mt 3329 1216 L
c8
98 -34 -76 -330 3366 3119 3 MP
PP
0 sg
3366 3119 mt 3290 2789 L
3290 2789 mt 3388 2755 L
c9
-75 -306 98 -34 3290 2789 3 MP
PP
0 sg
3290 2789 mt 3388 2755 L
3388 2755 mt 3313 2449 L
c12
99 -34 -76 -221 3359 1847 3 MP
PP
0 sg
3359 1847 mt 3283 1626 L
3283 1626 mt 3382 1592 L
c13
-76 -188 99 -34 3283 1626 3 MP
PP
0 sg
3283 1626 mt 3382 1592 L
3382 1592 mt 3306 1404 L
c8
-76 -330 99 -34 3267 3153 3 MP
PP
0 sg
3267 3153 mt 3366 3119 L
3366 3119 mt 3290 2789 L
c11
99 -35 -76 -252 3336 2134 3 MP
PP
0 sg
3336 2134 mt 3260 1882 L
3260 1882 mt 3359 1847 L
c12
-76 -221 99 -35 3260 1882 3 MP
PP
0 sg
3260 1882 mt 3359 1847 L
3359 1847 mt 3283 1626 L
c10
99 -34 -76 -281 3313 2449 3 MP
PP
0 sg
3313 2449 mt 3237 2168 L
3237 2168 mt 3336 2134 L
c11
-76 -252 99 -34 3237 2168 3 MP
PP
0 sg
3237 2168 mt 3336 2134 L
3336 2134 mt 3260 1882 L
c14
98 -35 -75 -153 3306 1404 3 MP
PP
0 sg
3306 1404 mt 3231 1251 L
3231 1251 mt 3329 1216 L
/c15 { 0.750000 0.000000 0.000000 sr} bdef
c15
-76 -117 98 -35 3231 1251 3 MP
PP
0 sg
3231 1251 mt 3329 1216 L
3329 1216 mt 3253 1099 L
c9
98 -34 -75 -306 3290 2789 3 MP
PP
0 sg
3290 2789 mt 3215 2483 L
3215 2483 mt 3313 2449 L
c10
-76 -281 98 -34 3215 2483 3 MP
PP
0 sg
3215 2483 mt 3313 2449 L
3313 2449 mt 3237 2168 L
c13
98 -34 -75 -188 3283 1626 3 MP
PP
0 sg
3283 1626 mt 3208 1438 L
3208 1438 mt 3306 1404 L
c14
-75 -153 98 -34 3208 1438 3 MP
PP
0 sg
3208 1438 mt 3306 1404 L
3306 1404 mt 3231 1251 L
c8
98 -34 -75 -330 3267 3153 3 MP
PP
0 sg
3267 3153 mt 3192 2823 L
3192 2823 mt 3290 2789 L
c9
-75 -306 98 -34 3192 2823 3 MP
PP
0 sg
3192 2823 mt 3290 2789 L
3290 2789 mt 3215 2483 L
c12
98 -35 -75 -221 3260 1882 3 MP
PP
0 sg
3260 1882 mt 3185 1661 L
3185 1661 mt 3283 1626 L
c13
-75 -188 98 -35 3185 1661 3 MP
PP
0 sg
3185 1661 mt 3283 1626 L
3283 1626 mt 3208 1438 L
c8
-75 -330 98 -33 3169 3186 3 MP
PP
0 sg
3169 3186 mt 3267 3153 L
3267 3153 mt 3192 2823 L
c11
98 -34 -75 -252 3237 2168 3 MP
PP
0 sg
3237 2168 mt 3162 1916 L
3162 1916 mt 3260 1882 L
c12
-75 -221 98 -34 3162 1916 3 MP
PP
0 sg
3162 1916 mt 3260 1882 L
3260 1882 mt 3185 1661 L
c15
98 -34 -76 -118 3231 1251 3 MP
PP
0 sg
3231 1251 mt 3155 1133 L
3155 1133 mt 3253 1099 L
/c16 { 0.562500 0.000000 0.000000 sr} bdef
c16
-75 -81 98 -34 3155 1133 3 MP
PP
0 sg
3155 1133 mt 3253 1099 L
3253 1099 mt 3178 1018 L
c10
98 -35 -76 -280 3215 2483 3 MP
PP
0 sg
3215 2483 mt 3139 2203 L
3139 2203 mt 3237 2168 L
c11
-75 -252 98 -35 3139 2203 3 MP
PP
0 sg
3139 2203 mt 3237 2168 L
3237 2168 mt 3162 1916 L
c14
99 -34 -76 -153 3208 1438 3 MP
PP
0 sg
3208 1438 mt 3132 1285 L
3132 1285 mt 3231 1251 L
c15
-76 -118 99 -34 3132 1285 3 MP
PP
0 sg
3132 1285 mt 3231 1251 L
3231 1251 mt 3155 1133 L
c9
99 -35 -76 -305 3192 2823 3 MP
PP
0 sg
3192 2823 mt 3116 2518 L
3116 2518 mt 3215 2483 L
c10
-76 -280 99 -35 3116 2518 3 MP
PP
0 sg
3116 2518 mt 3215 2483 L
3215 2483 mt 3139 2203 L
c13
99 -35 -76 -188 3185 1661 3 MP
PP
0 sg
3185 1661 mt 3109 1473 L
3109 1473 mt 3208 1438 L
c14
-76 -153 99 -35 3109 1473 3 MP
PP
0 sg
3109 1473 mt 3208 1438 L
3208 1438 mt 3132 1285 L
c8
99 -35 -76 -328 3169 3186 3 MP
PP
0 sg
3169 3186 mt 3093 2858 L
3093 2858 mt 3192 2823 L
c9
-76 -305 99 -35 3093 2858 3 MP
PP
0 sg
3093 2858 mt 3192 2823 L
3192 2823 mt 3116 2518 L
c12
99 -35 -76 -220 3162 1916 3 MP
PP
0 sg
3162 1916 mt 3086 1696 L
3086 1696 mt 3185 1661 L
c13
-76 -188 99 -35 3086 1696 3 MP
PP
0 sg
3086 1696 mt 3185 1661 L
3185 1661 mt 3109 1473 L
c16
98 -34 -75 -81 3155 1133 3 MP
PP
0 sg
3155 1133 mt 3080 1052 L
3080 1052 mt 3178 1018 L
/c17 { 0.500000 0.000000 0.000000 sr} bdef
c17
-76 -44 98 -34 3080 1052 3 MP
PP
0 sg
3080 1052 mt 3178 1018 L
3178 1018 mt 3102  974 L
c8
-76 -328 99 -34 3070 3220 3 MP
PP
0 sg
3070 3220 mt 3169 3186 L
3169 3186 mt 3093 2858 L
c11
98 -35 -75 -252 3139 2203 3 MP
PP
0 sg
3139 2203 mt 3064 1951 L
3064 1951 mt 3162 1916 L
c12
-76 -220 98 -35 3064 1951 3 MP
PP
0 sg
3064 1951 mt 3162 1916 L
3162 1916 mt 3086 1696 L
c15
98 -34 -75 -118 3132 1285 3 MP
PP
0 sg
3132 1285 mt 3057 1167 L
3057 1167 mt 3155 1133 L
c16
-75 -81 98 -34 3057 1167 3 MP
PP
0 sg
3057 1167 mt 3155 1133 L
3155 1133 mt 3080 1052 L
c10
98 -35 -75 -280 3116 2518 3 MP
PP
0 sg
3116 2518 mt 3041 2238 L
3041 2238 mt 3139 2203 L
c11
-75 -252 98 -35 3041 2238 3 MP
PP
0 sg
3041 2238 mt 3139 2203 L
3139 2203 mt 3064 1951 L
c14
98 -35 -75 -153 3109 1473 3 MP
PP
0 sg
3109 1473 mt 3034 1320 L
3034 1320 mt 3132 1285 L
c15
-75 -118 98 -35 3034 1320 3 MP
PP
0 sg
3034 1320 mt 3132 1285 L
3132 1285 mt 3057 1167 L
c9
98 -35 -75 -305 3093 2858 3 MP
PP
0 sg
3093 2858 mt 3018 2553 L
3018 2553 mt 3116 2518 L
c10
-75 -280 98 -35 3018 2553 3 MP
PP
0 sg
3018 2553 mt 3116 2518 L
3116 2518 mt 3041 2238 L
c13
98 -35 -75 -188 3086 1696 3 MP
PP
0 sg
3086 1696 mt 3011 1508 L
3011 1508 mt 3109 1473 L
c14
-75 -153 98 -35 3011 1508 3 MP
PP
0 sg
3011 1508 mt 3109 1473 L
3109 1473 mt 3034 1320 L
c17
98 -34 -76 -44 3080 1052 3 MP
PP
0 sg
3080 1052 mt 3004 1008 L
3004 1008 mt 3102  974 L
c17
-75 -7 98 -34 3004 1008 3 MP
PP
0 sg
3004 1008 mt 3102  974 L
3102  974 mt 3027  967 L
c8
98 -34 -75 -328 3070 3220 3 MP
PP
0 sg
3070 3220 mt 2995 2892 L
2995 2892 mt 3093 2858 L
c9
-75 -305 98 -34 2995 2892 3 MP
PP
0 sg
2995 2892 mt 3093 2858 L
3093 2858 mt 3018 2553 L
c12
98 -35 -76 -220 3064 1951 3 MP
PP
0 sg
3064 1951 mt 2988 1731 L
2988 1731 mt 3086 1696 L
c13
-75 -188 98 -35 2988 1731 3 MP
PP
0 sg
2988 1731 mt 3086 1696 L
3086 1696 mt 3011 1508 L
c16
99 -35 -76 -80 3057 1167 3 MP
PP
0 sg
3057 1167 mt 2981 1087 L
2981 1087 mt 3080 1052 L
c17
-76 -44 99 -35 2981 1087 3 MP
PP
0 sg
2981 1087 mt 3080 1052 L
3080 1052 mt 3004 1008 L
c8
-75 -328 98 -33 2972 3253 3 MP
PP
0 sg
2972 3253 mt 3070 3220 L
3070 3220 mt 2995 2892 L
c11
99 -36 -76 -251 3041 2238 3 MP
PP
0 sg
3041 2238 mt 2965 1987 L
2965 1987 mt 3064 1951 L
c12
-76 -220 99 -36 2965 1987 3 MP
PP
0 sg
2965 1987 mt 3064 1951 L
3064 1951 mt 2988 1731 L
c15
99 -35 -76 -118 3034 1320 3 MP
PP
0 sg
3034 1320 mt 2958 1202 L
2958 1202 mt 3057 1167 L
c16
-76 -80 99 -35 2958 1202 3 MP
PP
0 sg
2958 1202 mt 3057 1167 L
3057 1167 mt 2981 1087 L
c10
99 -36 -76 -279 3018 2553 3 MP
PP
0 sg
3018 2553 mt 2942 2274 L
2942 2274 mt 3041 2238 L
c11
-76 -251 99 -36 2942 2274 3 MP
PP
0 sg
2942 2274 mt 3041 2238 L
3041 2238 mt 2965 1987 L
c14
99 -35 -76 -153 3011 1508 3 MP
PP
0 sg
3011 1508 mt 2935 1355 L
2935 1355 mt 3034 1320 L
c15
-76 -118 99 -35 2935 1355 3 MP
PP
0 sg
2935 1355 mt 3034 1320 L
3034 1320 mt 2958 1202 L
c15
-75 66 98 -35 2853 1032 3 MP
PP
0 sg
2853 1032 mt 2951  997 L
2951  997 mt 2876 1063 L
c16
98 -35 -76 30 2929 1002 3 MP
PP
0 sg
2929 1002 mt 2853 1032 L
2853 1032 mt 2951  997 L
c16
-76 30 98 -35 2929 1002 3 MP
PP
0 sg
2929 1002 mt 3027  967 L
3027  967 mt 2951  997 L
c17
98 -35 -75 -6 3004 1008 3 MP
PP
0 sg
3004 1008 mt 2929 1002 L
2929 1002 mt 3027  967 L
c9
99 -35 -76 -304 2995 2892 3 MP
PP
0 sg
2995 2892 mt 2919 2588 L
2919 2588 mt 3018 2553 L
c10
-76 -279 99 -35 2919 2588 3 MP
PP
0 sg
2919 2588 mt 3018 2553 L
3018 2553 mt 2942 2274 L
c13
98 -36 -75 -187 2988 1731 3 MP
PP
0 sg
2988 1731 mt 2913 1544 L
2913 1544 mt 3011 1508 L
c14
-76 -153 98 -36 2913 1544 3 MP
PP
0 sg
2913 1544 mt 3011 1508 L
3011 1508 mt 2935 1355 L
c17
98 -35 -75 -44 2981 1087 3 MP
PP
0 sg
2981 1087 mt 2906 1043 L
2906 1043 mt 3004 1008 L
c17
-75 -6 98 -35 2906 1043 3 MP
PP
0 sg
2906 1043 mt 3004 1008 L
3004 1008 mt 2929 1002 L
c8
99 -35 -76 -326 2972 3253 3 MP
PP
0 sg
2972 3253 mt 2896 2927 L
2896 2927 mt 2995 2892 L
c9
-76 -304 99 -35 2896 2927 3 MP
PP
0 sg
2896 2927 mt 2995 2892 L
2995 2892 mt 2919 2588 L
c12
98 -36 -75 -220 2965 1987 3 MP
PP
0 sg
2965 1987 mt 2890 1767 L
2890 1767 mt 2988 1731 L
c13
-75 -187 98 -36 2890 1767 3 MP
PP
0 sg
2890 1767 mt 2988 1731 L
2988 1731 mt 2913 1544 L
c16
98 -34 -75 -81 2958 1202 3 MP
PP
0 sg
2958 1202 mt 2883 1121 L
2883 1121 mt 2981 1087 L
c17
-75 -44 98 -34 2883 1121 3 MP
PP
0 sg
2883 1121 mt 2981 1087 L
2981 1087 mt 2906 1043 L
c8
-76 -326 98 -34 2874 3287 3 MP
PP
0 sg
2874 3287 mt 2972 3253 L
2972 3253 mt 2896 2927 L
c11
98 -36 -75 -251 2942 2274 3 MP
PP
0 sg
2942 2274 mt 2867 2023 L
2867 2023 mt 2965 1987 L
c12
-75 -220 98 -36 2867 2023 3 MP
PP
0 sg
2867 2023 mt 2965 1987 L
2965 1987 mt 2890 1767 L
c15
98 -35 -75 -118 2935 1355 3 MP
PP
0 sg
2935 1355 mt 2860 1237 L
2860 1237 mt 2958 1202 L
c16
-75 -81 98 -35 2860 1237 3 MP
PP
0 sg
2860 1237 mt 2958 1202 L
2958 1202 mt 2883 1121 L
c10
98 -36 -75 -278 2919 2588 3 MP
PP
0 sg
2919 2588 mt 2844 2310 L
2844 2310 mt 2942 2274 L
c11
-75 -251 98 -36 2844 2310 3 MP
PP
0 sg
2844 2310 mt 2942 2274 L
2942 2274 mt 2867 2023 L
c14
98 -35 -76 -154 2913 1544 3 MP
PP
0 sg
2913 1544 mt 2837 1390 L
2837 1390 mt 2935 1355 L
c15
-75 -118 98 -35 2837 1390 3 MP
PP
0 sg
2837 1390 mt 2935 1355 L
2935 1355 mt 2860 1237 L
c15
-75 66 98 -34 2755 1066 3 MP
PP
0 sg
2755 1066 mt 2853 1032 L
2853 1032 mt 2778 1098 L
c16
98 -34 -75 30 2830 1036 3 MP
PP
0 sg
2830 1036 mt 2755 1066 L
2755 1066 mt 2853 1032 L
c15
98 -35 -75 66 2853 1032 3 MP
PP
0 sg
2853 1032 mt 2778 1098 L
2778 1098 mt 2876 1063 L
c16
-76 30 99 -34 2830 1036 3 MP
PP
0 sg
2830 1036 mt 2929 1002 L
2929 1002 mt 2853 1032 L
c17
99 -34 -76 -7 2906 1043 3 MP
PP
0 sg
2906 1043 mt 2830 1036 L
2830 1036 mt 2929 1002 L
c9
98 -36 -75 -303 2896 2927 3 MP
PP
0 sg
2896 2927 mt 2821 2624 L
2821 2624 mt 2919 2588 L
c10
-75 -278 98 -36 2821 2624 3 MP
PP
0 sg
2821 2624 mt 2919 2588 L
2919 2588 mt 2844 2310 L
c13
99 -36 -76 -187 2890 1767 3 MP
PP
0 sg
2890 1767 mt 2814 1580 L
2814 1580 mt 2913 1544 L
c14
-76 -154 99 -36 2814 1580 3 MP
PP
0 sg
2814 1580 mt 2913 1544 L
2913 1544 mt 2837 1390 L
c14
-76 101 98 -35 2778 1098 3 MP
PP
0 sg
2778 1098 mt 2876 1063 L
2876 1063 mt 2800 1164 L
c17
99 -35 -76 -43 2883 1121 3 MP
PP
0 sg
2883 1121 mt 2807 1078 L
2807 1078 mt 2906 1043 L
c17
-76 -7 99 -35 2807 1078 3 MP
PP
0 sg
2807 1078 mt 2906 1043 L
2906 1043 mt 2830 1036 L
c8
98 -36 -76 -324 2874 3287 3 MP
PP
0 sg
2874 3287 mt 2798 2963 L
2798 2963 mt 2896 2927 L
c9
-75 -303 98 -36 2798 2963 3 MP
PP
0 sg
2798 2963 mt 2896 2927 L
2896 2927 mt 2821 2624 L
c12
99 -36 -76 -220 2867 2023 3 MP
PP
0 sg
2867 2023 mt 2791 1803 L
2791 1803 mt 2890 1767 L
c13
-76 -187 99 -36 2791 1803 3 MP
PP
0 sg
2791 1803 mt 2890 1767 L
2890 1767 mt 2814 1580 L
c13
-75 134 98 -34 2702 1198 3 MP
PP
0 sg
2702 1198 mt 2800 1164 L
2800 1164 mt 2725 1298 L
c14
98 -34 -76 100 2778 1098 3 MP
PP
0 sg
2778 1098 mt 2702 1198 L
2702 1198 mt 2800 1164 L
c16
99 -36 -76 -80 2860 1237 3 MP
PP
0 sg
2860 1237 mt 2784 1157 L
2784 1157 mt 2883 1121 L
c17
-76 -43 99 -36 2784 1157 3 MP
PP
0 sg
2784 1157 mt 2883 1121 L
2883 1121 mt 2807 1078 L
c8
-76 -324 99 -34 2775 3321 3 MP
PP
0 sg
2775 3321 mt 2874 3287 L
2874 3287 mt 2798 2963 L
c11
99 -37 -76 -250 2844 2310 3 MP
PP
0 sg
2844 2310 mt 2768 2060 L
2768 2060 mt 2867 2023 L
/c18 { 1.000000 0.937500 0.000000 sr} bdef
c18
-76 -220 99 -37 2768 2060 3 MP
PP
0 sg
2768 2060 mt 2867 2023 L
2867 2023 mt 2791 1803 L
c15
98 -36 -75 -117 2837 1390 3 MP
PP
0 sg
2837 1390 mt 2762 1273 L
2762 1273 mt 2860 1237 L
c16
-76 -80 98 -36 2762 1273 3 MP
PP
0 sg
2762 1273 mt 2860 1237 L
2860 1237 mt 2784 1157 L
c10
99 -37 -76 -277 2821 2624 3 MP
PP
0 sg
2821 2624 mt 2745 2347 L
2745 2347 mt 2844 2310 L
c11
-76 -250 99 -37 2745 2347 3 MP
PP
0 sg
2745 2347 mt 2844 2310 L
2844 2310 mt 2768 2060 L
c14
98 -37 -75 -153 2814 1580 3 MP
PP
0 sg
2814 1580 mt 2739 1427 L
2739 1427 mt 2837 1390 L
c15
-75 -117 98 -37 2739 1427 3 MP
PP
0 sg
2739 1427 mt 2837 1390 L
2837 1390 mt 2762 1273 L
c15
-76 66 99 -35 2656 1101 3 MP
PP
0 sg
2656 1101 mt 2755 1066 L
2755 1066 mt 2679 1132 L
c16
99 -35 -76 30 2732 1071 3 MP
PP
0 sg
2732 1071 mt 2656 1101 L
2656 1101 mt 2755 1066 L
c15
99 -34 -76 66 2755 1066 3 MP
PP
0 sg
2755 1066 mt 2679 1132 L
2679 1132 mt 2778 1098 L
c16
-75 30 98 -35 2732 1071 3 MP
PP
0 sg
2732 1071 mt 2830 1036 L
2830 1036 mt 2755 1066 L
c17
98 -35 -75 -7 2807 1078 3 MP
PP
0 sg
2807 1078 mt 2732 1071 L
2732 1071 mt 2830 1036 L
c9
98 -37 -75 -302 2798 2963 3 MP
PP
0 sg
2798 2963 mt 2723 2661 L
2723 2661 mt 2821 2624 L
c10
-76 -277 98 -37 2723 2661 3 MP
PP
0 sg
2723 2661 mt 2821 2624 L
2821 2624 mt 2745 2347 L
c13
98 -37 -75 -186 2791 1803 3 MP
PP
0 sg
2791 1803 mt 2716 1617 L
2716 1617 mt 2814 1580 L
c14
-75 -153 98 -37 2716 1617 3 MP
PP
0 sg
2716 1617 mt 2814 1580 L
2814 1580 mt 2739 1427 L
c14
-76 100 99 -34 2679 1132 3 MP
PP
0 sg
2679 1132 mt 2778 1098 L
2778 1098 mt 2702 1198 L
c17
98 -35 -75 -44 2784 1157 3 MP
PP
0 sg
2784 1157 mt 2709 1113 L
2709 1113 mt 2807 1078 L
c17
-75 -7 98 -35 2709 1113 3 MP
PP
0 sg
2709 1113 mt 2807 1078 L
2807 1078 mt 2732 1071 L
c8
98 -35 -75 -323 2775 3321 3 MP
PP
0 sg
2775 3321 mt 2700 2998 L
2700 2998 mt 2798 2963 L
c9
-75 -302 98 -35 2700 2998 3 MP
PP
0 sg
2700 2998 mt 2798 2963 L
2798 2963 mt 2723 2661 L
c18
98 -38 -75 -219 2768 2060 3 MP
PP
0 sg
2768 2060 mt 2693 1841 L
2693 1841 mt 2791 1803 L
c13
-75 -186 98 -38 2693 1841 3 MP
PP
0 sg
2693 1841 mt 2791 1803 L
2791 1803 mt 2716 1617 L
c13
-75 134 98 -34 2604 1232 3 MP
PP
0 sg
2604 1232 mt 2702 1198 L
2702 1198 mt 2627 1332 L
c14
98 -34 -75 100 2679 1132 3 MP
PP
0 sg
2679 1132 mt 2604 1232 L
2604 1232 mt 2702 1198 L
c13
98 -34 -75 134 2702 1198 3 MP
PP
0 sg
2702 1198 mt 2627 1332 L
2627 1332 mt 2725 1298 L
c16
98 -36 -76 -80 2762 1273 3 MP
PP
0 sg
2762 1273 mt 2686 1193 L
2686 1193 mt 2784 1157 L
c17
-75 -44 98 -36 2686 1193 3 MP
PP
0 sg
2686 1193 mt 2784 1157 L
2784 1157 mt 2709 1113 L
c8
-75 -323 98 -33 2677 3354 3 MP
PP
0 sg
2677 3354 mt 2775 3321 L
2775 3321 mt 2700 2998 L
c11
98 -39 -75 -248 2745 2347 3 MP
PP
0 sg
2745 2347 mt 2670 2099 L
2670 2099 mt 2768 2060 L
c18
-75 -219 98 -39 2670 2099 3 MP
PP
0 sg
2670 2099 mt 2768 2060 L
2768 2060 mt 2693 1841 L
c12
-76 165 98 -34 2627 1332 3 MP
PP
0 sg
2627 1332 mt 2725 1298 L
2725 1298 mt 2649 1463 L
c15
99 -37 -76 -117 2739 1427 3 MP
PP
0 sg
2739 1427 mt 2663 1310 L
2663 1310 mt 2762 1273 L
c16
-76 -80 99 -37 2663 1310 3 MP
PP
0 sg
2663 1310 mt 2762 1273 L
2762 1273 mt 2686 1193 L
c10
98 -39 -76 -275 2723 2661 3 MP
PP
0 sg
2723 2661 mt 2647 2386 L
2647 2386 mt 2745 2347 L
c11
-75 -248 98 -39 2647 2386 3 MP
PP
0 sg
2647 2386 mt 2745 2347 L
2745 2347 mt 2670 2099 L
c11
-75 193 98 -33 2551 1496 3 MP
PP
0 sg
2551 1496 mt 2649 1463 L
2649 1463 mt 2574 1656 L
c12
98 -33 -76 164 2627 1332 3 MP
PP
0 sg
2627 1332 mt 2551 1496 L
2551 1496 mt 2649 1463 L
c14
99 -37 -76 -153 2716 1617 3 MP
PP
0 sg
2716 1617 mt 2640 1464 L
2640 1464 mt 2739 1427 L
/c19 { 0.812500 0.000000 0.000000 sr} bdef
c19
-76 -117 99 -37 2640 1464 3 MP
PP
0 sg
2640 1464 mt 2739 1427 L
2739 1427 mt 2663 1310 L
c15
-75 65 98 -35 2558 1136 3 MP
PP
0 sg
2558 1136 mt 2656 1101 L
2656 1101 mt 2581 1166 L
c16
98 -35 -75 30 2633 1106 3 MP
PP
0 sg
2633 1106 mt 2558 1136 L
2558 1136 mt 2656 1101 L
c15
98 -34 -75 65 2656 1101 3 MP
PP
0 sg
2656 1101 mt 2581 1166 L
2581 1166 mt 2679 1132 L
c16
-76 30 99 -35 2633 1106 3 MP
PP
0 sg
2633 1106 mt 2732 1071 L
2732 1071 mt 2656 1101 L
c17
99 -35 -76 -7 2709 1113 3 MP
PP
0 sg
2709 1113 mt 2633 1106 L
2633 1106 mt 2732 1071 L
c9
99 -38 -76 -299 2700 2998 3 MP
PP
0 sg
2700 2998 mt 2624 2699 L
2624 2699 mt 2723 2661 L
c10
-76 -275 99 -38 2624 2699 3 MP
PP
0 sg
2624 2699 mt 2723 2661 L
2723 2661 mt 2647 2386 L
c13
99 -38 -76 -186 2693 1841 3 MP
PP
0 sg
2693 1841 mt 2617 1655 L
2617 1655 mt 2716 1617 L
c14
-76 -153 99 -38 2617 1655 3 MP
PP
0 sg
2617 1655 mt 2716 1617 L
2716 1617 mt 2640 1464 L
c14
-75 100 98 -34 2581 1166 3 MP
PP
0 sg
2581 1166 mt 2679 1132 L
2679 1132 mt 2604 1232 L
c17
98 -36 -75 -44 2686 1193 3 MP
PP
0 sg
2686 1193 mt 2611 1149 L
2611 1149 mt 2709 1113 L
c17
-76 -7 98 -36 2611 1149 3 MP
PP
0 sg
2611 1149 mt 2709 1113 L
2709 1113 mt 2633 1106 L
c8
99 -37 -76 -319 2677 3354 3 MP
PP
0 sg
2677 3354 mt 2601 3035 L
2601 3035 mt 2700 2998 L
c9
-76 -299 99 -37 2601 3035 3 MP
PP
0 sg
2601 3035 mt 2700 2998 L
2700 2998 mt 2624 2699 L
c18
99 -40 -76 -218 2670 2099 3 MP
PP
0 sg
2670 2099 mt 2594 1881 L
2594 1881 mt 2693 1841 L
/c20 { 1.000000 0.500000 0.000000 sr} bdef
c20
-76 -186 99 -40 2594 1881 3 MP
PP
0 sg
2594 1881 mt 2693 1841 L
2693 1841 mt 2617 1655 L
c13
-76 134 99 -35 2505 1267 3 MP
PP
0 sg
2505 1267 mt 2604 1232 L
2604 1232 mt 2528 1366 L
c14
99 -35 -76 101 2581 1166 3 MP
PP
0 sg
2581 1166 mt 2505 1267 L
2505 1267 mt 2604 1232 L
c13
99 -34 -76 134 2604 1232 3 MP
PP
0 sg
2604 1232 mt 2528 1366 L
2528 1366 mt 2627 1332 L
c16
98 -36 -75 -81 2663 1310 3 MP
PP
0 sg
2663 1310 mt 2588 1229 L
2588 1229 mt 2686 1193 L
c17
-75 -44 98 -36 2588 1229 3 MP
PP
0 sg
2588 1229 mt 2686 1193 L
2686 1193 mt 2611 1149 L
c8
-76 -319 99 -34 2578 3388 3 MP
PP
0 sg
2578 3388 mt 2677 3354 L
2677 3354 mt 2601 3035 L
c11
98 -40 -75 -247 2647 2386 3 MP
PP
0 sg
2647 2386 mt 2572 2139 L
2572 2139 mt 2670 2099 L
c18
-76 -218 98 -40 2572 2139 3 MP
PP
0 sg
2572 2139 mt 2670 2099 L
2670 2099 mt 2594 1881 L
c12
-76 164 99 -34 2528 1366 3 MP
PP
0 sg
2528 1366 mt 2627 1332 L
2627 1332 mt 2551 1496 L
c19
98 -37 -75 -117 2640 1464 3 MP
PP
0 sg
2640 1464 mt 2565 1347 L
2565 1347 mt 2663 1310 L
/c21 { 0.625000 0.000000 0.000000 sr} bdef
c21
-75 -81 98 -37 2565 1347 3 MP
PP
0 sg
2565 1347 mt 2663 1310 L
2663 1310 mt 2588 1229 L
c10
98 -40 -75 -273 2624 2699 3 MP
PP
0 sg
2624 2699 mt 2549 2426 L
2549 2426 mt 2647 2386 L
/c22 { 0.500000 1.000000 0.500000 sr} bdef
c22
-75 -247 98 -40 2549 2426 3 MP
PP
0 sg
2549 2426 mt 2647 2386 L
2647 2386 mt 2572 2139 L
c11
-75 194 98 -34 2453 1530 3 MP
PP
0 sg
2453 1530 mt 2551 1496 L
2551 1496 mt 2476 1690 L
c11
98 -34 -75 194 2551 1496 3 MP
PP
0 sg
2551 1496 mt 2476 1690 L
2476 1690 mt 2574 1656 L
c14
98 -39 -75 -152 2617 1655 3 MP
PP
0 sg
2617 1655 mt 2542 1503 L
2542 1503 mt 2640 1464 L
c12
98 -34 -75 164 2528 1366 3 MP
PP
0 sg
2528 1366 mt 2453 1530 L
2453 1530 mt 2551 1496 L
c19
-75 -117 98 -39 2542 1503 3 MP
PP
0 sg
2542 1503 mt 2640 1464 L
2640 1464 mt 2565 1347 L
c15
-76 65 98 -36 2460 1172 3 MP
PP
0 sg
2460 1172 mt 2558 1136 L
2558 1136 mt 2482 1201 L
c16
98 -36 -75 30 2535 1142 3 MP
PP
0 sg
2535 1142 mt 2460 1172 L
2460 1172 mt 2558 1136 L
c15
99 -35 -76 65 2558 1136 3 MP
PP
0 sg
2558 1136 mt 2482 1201 L
2482 1201 mt 2581 1166 L
c16
-75 30 98 -36 2535 1142 3 MP
PP
0 sg
2535 1142 mt 2633 1106 L
2633 1106 mt 2558 1136 L
c17
98 -36 -76 -7 2611 1149 3 MP
PP
0 sg
2611 1149 mt 2535 1142 L
2535 1142 mt 2633 1106 L
c9
98 -40 -75 -296 2601 3035 3 MP
PP
0 sg
2601 3035 mt 2526 2739 L
2526 2739 mt 2624 2699 L
/c23 { 0.000000 0.875000 1.000000 sr} bdef
c23
-75 -273 98 -40 2526 2739 3 MP
PP
0 sg
2526 2739 mt 2624 2699 L
2624 2699 mt 2549 2426 L
c10
-76 220 98 -34 2476 1690 3 MP
PP
0 sg
2476 1690 mt 2574 1656 L
2574 1656 mt 2498 1876 L
c20
98 -40 -75 -186 2594 1881 3 MP
PP
0 sg
2594 1881 mt 2519 1695 L
2519 1695 mt 2617 1655 L
/c24 { 1.000000 0.125000 0.000000 sr} bdef
c24
-75 -152 98 -40 2519 1695 3 MP
PP
0 sg
2519 1695 mt 2617 1655 L
2617 1655 mt 2542 1503 L
c14
-76 101 99 -35 2482 1201 3 MP
PP
0 sg
2482 1201 mt 2581 1166 L
2581 1166 mt 2505 1267 L
c17
99 -36 -76 -44 2588 1229 3 MP
PP
0 sg
2588 1229 mt 2512 1185 L
2512 1185 mt 2611 1149 L
c17
-76 -7 99 -36 2512 1185 3 MP
PP
0 sg
2512 1185 mt 2611 1149 L
2611 1149 mt 2535 1142 L
c8
98 -38 -75 -315 2578 3388 3 MP
PP
0 sg
2578 3388 mt 2503 3073 L
2503 3073 mt 2601 3035 L
c9
-75 -296 98 -38 2503 3073 3 MP
PP
0 sg
2503 3073 mt 2601 3035 L
2601 3035 mt 2526 2739 L
c18
98 -41 -76 -217 2572 2139 3 MP
PP
0 sg
2572 2139 mt 2496 1922 L
2496 1922 mt 2594 1881 L
c20
-75 -186 98 -41 2496 1922 3 MP
PP
0 sg
2496 1922 mt 2594 1881 L
2594 1881 mt 2519 1695 L
c13
-75 133 98 -35 2407 1302 3 MP
PP
0 sg
2407 1302 mt 2505 1267 L
2505 1267 mt 2430 1400 L
c14
98 -35 -75 101 2482 1201 3 MP
PP
0 sg
2482 1201 mt 2407 1302 L
2407 1302 mt 2505 1267 L
c13
98 -34 -75 133 2505 1267 3 MP
PP
0 sg
2505 1267 mt 2430 1400 L
2430 1400 mt 2528 1366 L
c21
99 -38 -76 -80 2565 1347 3 MP
PP
0 sg
2565 1347 mt 2489 1267 L
2489 1267 mt 2588 1229 L
c17
-76 -44 99 -38 2489 1267 3 MP
PP
0 sg
2489 1267 mt 2588 1229 L
2588 1229 mt 2512 1185 L
c8
-75 -315 98 -33 2480 3421 3 MP
PP
0 sg
2480 3421 mt 2578 3388 L
2578 3388 mt 2503 3073 L
c22
99 -42 -76 -245 2549 2426 3 MP
PP
0 sg
2549 2426 mt 2473 2181 L
2473 2181 mt 2572 2139 L
c18
-76 -217 99 -42 2473 2181 3 MP
PP
0 sg
2473 2181 mt 2572 2139 L
2572 2139 mt 2496 1922 L
c12
-75 164 98 -34 2430 1400 3 MP
PP
0 sg
2430 1400 mt 2528 1366 L
2528 1366 mt 2453 1530 L
c19
99 -40 -76 -116 2542 1503 3 MP
PP
0 sg
2542 1503 mt 2466 1387 L
2466 1387 mt 2565 1347 L
c21
-76 -80 99 -40 2466 1387 3 MP
PP
0 sg
2466 1387 mt 2565 1347 L
2565 1347 mt 2489 1267 L
c23
99 -43 -76 -270 2526 2739 3 MP
PP
0 sg
2526 2739 mt 2450 2469 L
2450 2469 mt 2549 2426 L
c22
-76 -245 99 -43 2450 2469 3 MP
PP
0 sg
2450 2469 mt 2549 2426 L
2549 2426 mt 2473 2181 L
c11
-76 194 99 -35 2354 1565 3 MP
PP
0 sg
2354 1565 mt 2453 1530 L
2453 1530 mt 2377 1724 L
c11
99 -34 -76 194 2453 1530 3 MP
PP
0 sg
2453 1530 mt 2377 1724 L
2377 1724 mt 2476 1690 L
c24
99 -41 -76 -151 2519 1695 3 MP
PP
0 sg
2519 1695 mt 2443 1544 L
2443 1544 mt 2542 1503 L
c12
99 -35 -76 165 2430 1400 3 MP
PP
0 sg
2430 1400 mt 2354 1565 L
2354 1565 mt 2453 1530 L
c19
-76 -116 99 -41 2443 1544 3 MP
PP
0 sg
2443 1544 mt 2542 1503 L
2542 1503 mt 2466 1387 L
c15
-76 65 99 -36 2361 1208 3 MP
PP
0 sg
2361 1208 mt 2460 1172 L
2460 1172 mt 2384 1237 L
c16
99 -36 -76 30 2437 1178 3 MP
PP
0 sg
2437 1178 mt 2361 1208 L
2361 1208 mt 2460 1172 L
c15
98 -36 -76 65 2460 1172 3 MP
PP
0 sg
2460 1172 mt 2384 1237 L
2384 1237 mt 2482 1201 L
c16
-75 30 98 -36 2437 1178 3 MP
PP
0 sg
2437 1178 mt 2535 1142 L
2535 1142 mt 2460 1172 L
c17
98 -36 -75 -7 2512 1185 3 MP
PP
0 sg
2512 1185 mt 2437 1178 L
2437 1178 mt 2535 1142 L
c9
99 -43 -76 -291 2503 3073 3 MP
PP
0 sg
2503 3073 mt 2427 2782 L
2427 2782 mt 2526 2739 L
c23
-76 -270 99 -43 2427 2782 3 MP
PP
0 sg
2427 2782 mt 2526 2739 L
2526 2739 mt 2450 2469 L
c10
-76 220 99 -34 2377 1724 3 MP
PP
0 sg
2377 1724 mt 2476 1690 L
2476 1690 mt 2400 1910 L
c9
-75 243 98 -34 2400 1910 3 MP
PP
0 sg
2400 1910 mt 2498 1876 L
2498 1876 mt 2423 2119 L
c10
98 -34 -76 220 2476 1690 3 MP
PP
0 sg
2476 1690 mt 2400 1910 L
2400 1910 mt 2498 1876 L
c20
98 -43 -75 -184 2496 1922 3 MP
PP
0 sg
2496 1922 mt 2421 1738 L
2421 1738 mt 2519 1695 L
c24
-76 -151 98 -43 2421 1738 3 MP
PP
0 sg
2421 1738 mt 2519 1695 L
2519 1695 mt 2443 1544 L
c14
-75 101 98 -36 2384 1237 3 MP
PP
0 sg
2384 1237 mt 2482 1201 L
2482 1201 mt 2407 1302 L
c17
98 -38 -75 -44 2489 1267 3 MP
PP
0 sg
2489 1267 mt 2414 1223 L
2414 1223 mt 2512 1185 L
c17
-75 -7 98 -38 2414 1223 3 MP
PP
0 sg
2414 1223 mt 2512 1185 L
2512 1185 mt 2437 1178 L
c8
99 -40 -76 -308 2480 3421 3 MP
PP
0 sg
2480 3421 mt 2404 3113 L
2404 3113 mt 2503 3073 L
c9
-76 -291 99 -40 2404 3113 3 MP
PP
0 sg
2404 3113 mt 2503 3073 L
2503 3073 mt 2427 2782 L
c9
98 -34 -75 243 2400 1910 3 MP
PP
0 sg
2400 1910 mt 2325 2153 L
2325 2153 mt 2423 2119 L
c18
98 -44 -75 -215 2473 2181 3 MP
PP
0 sg
2473 2181 mt 2398 1966 L
2398 1966 mt 2496 1922 L
c20
-75 -184 98 -44 2398 1966 3 MP
PP
0 sg
2398 1966 mt 2496 1922 L
2496 1922 mt 2421 1738 L
c13
-76 133 98 -35 2309 1337 3 MP
PP
0 sg
2309 1337 mt 2407 1302 L
2407 1302 mt 2331 1435 L
c14
98 -35 -75 100 2384 1237 3 MP
PP
0 sg
2384 1237 mt 2309 1337 L
2309 1337 mt 2407 1302 L
c13
99 -35 -76 133 2407 1302 3 MP
PP
0 sg
2407 1302 mt 2331 1435 L
2331 1435 mt 2430 1400 L
c21
98 -39 -75 -81 2466 1387 3 MP
PP
0 sg
2466 1387 mt 2391 1306 L
2391 1306 mt 2489 1267 L
c17
-75 -44 98 -39 2391 1306 3 MP
PP
0 sg
2391 1306 mt 2489 1267 L
2489 1267 mt 2414 1223 L
c8
-76 -308 98 -34 2382 3455 3 MP
PP
0 sg
2382 3455 mt 2480 3421 L
2480 3421 mt 2404 3113 L
c22
98 -46 -75 -242 2450 2469 3 MP
PP
0 sg
2450 2469 mt 2375 2227 L
2375 2227 mt 2473 2181 L
/c25 { 1.000000 1.000000 0.000000 sr} bdef
c25
-75 -215 98 -46 2375 2227 3 MP
PP
0 sg
2375 2227 mt 2473 2181 L
2473 2181 mt 2398 1966 L
c12
-76 165 99 -35 2331 1435 3 MP
PP
0 sg
2331 1435 mt 2430 1400 L
2430 1400 mt 2354 1565 L
c19
98 -41 -75 -116 2443 1544 3 MP
PP
0 sg
2443 1544 mt 2368 1428 L
2368 1428 mt 2466 1387 L
c21
-75 -81 98 -41 2368 1428 3 MP
PP
0 sg
2368 1428 mt 2466 1387 L
2466 1387 mt 2391 1306 L
c23
98 -46 -75 -267 2427 2782 3 MP
PP
0 sg
2427 2782 mt 2352 2515 L
2352 2515 mt 2450 2469 L
/c26 { 0.437500 1.000000 0.562500 sr} bdef
c26
-75 -242 98 -46 2352 2515 3 MP
PP
0 sg
2352 2515 mt 2450 2469 L
2450 2469 mt 2375 2227 L
c11
-75 193 98 -34 2256 1599 3 MP
PP
0 sg
2256 1599 mt 2354 1565 L
2354 1565 mt 2279 1758 L
c11
98 -34 -75 193 2354 1565 3 MP
PP
0 sg
2354 1565 mt 2279 1758 L
2279 1758 mt 2377 1724 L
c24
98 -43 -76 -151 2421 1738 3 MP
PP
0 sg
2421 1738 mt 2345 1587 L
2345 1587 mt 2443 1544 L
c12
98 -34 -75 164 2331 1435 3 MP
PP
0 sg
2331 1435 mt 2256 1599 L
2256 1599 mt 2354 1565 L
/c27 { 0.875000 0.000000 0.000000 sr} bdef
c27
-75 -116 98 -43 2345 1587 3 MP
PP
0 sg
2345 1587 mt 2443 1544 L
2443 1544 mt 2368 1428 L
c19
-75 65 98 -37 2263 1245 3 MP
PP
0 sg
2263 1245 mt 2361 1208 L
2361 1208 mt 2286 1273 L
c21
98 -37 -75 29 2338 1216 3 MP
PP
0 sg
2338 1216 mt 2263 1245 L
2263 1245 mt 2361 1208 L
c15
98 -36 -75 65 2361 1208 3 MP
PP
0 sg
2361 1208 mt 2286 1273 L
2286 1273 mt 2384 1237 L
c21
-76 30 99 -38 2338 1216 3 MP
PP
0 sg
2338 1216 mt 2437 1178 L
2437 1178 mt 2361 1208 L
c17
99 -38 -76 -7 2414 1223 3 MP
PP
0 sg
2414 1223 mt 2338 1216 L
2338 1216 mt 2437 1178 L
c9
98 -45 -75 -286 2404 3113 3 MP
PP
0 sg
2404 3113 mt 2329 2827 L
2329 2827 mt 2427 2782 L
c23
-75 -267 98 -45 2329 2827 3 MP
PP
0 sg
2329 2827 mt 2427 2782 L
2427 2782 mt 2352 2515 L
c10
-75 219 98 -34 2279 1758 3 MP
PP
0 sg
2279 1758 mt 2377 1724 L
2377 1724 mt 2302 1943 L
c9
-75 243 98 -33 2302 1943 3 MP
PP
0 sg
2302 1943 mt 2400 1910 L
2400 1910 mt 2325 2153 L
c10
98 -33 -75 219 2377 1724 3 MP
PP
0 sg
2377 1724 mt 2302 1943 L
2302 1943 mt 2400 1910 L
c20
99 -45 -76 -183 2398 1966 3 MP
PP
0 sg
2398 1966 mt 2322 1783 L
2322 1783 mt 2421 1738 L
c24
-76 -151 99 -45 2322 1783 3 MP
PP
0 sg
2322 1783 mt 2421 1738 L
2421 1738 mt 2345 1587 L
c14
-75 100 98 -36 2286 1273 3 MP
PP
0 sg
2286 1273 mt 2384 1237 L
2384 1237 mt 2309 1337 L
c17
99 -39 -76 -44 2391 1306 3 MP
PP
0 sg
2391 1306 mt 2315 1262 L
2315 1262 mt 2414 1223 L
c17
-76 -7 99 -39 2315 1262 3 MP
PP
0 sg
2315 1262 mt 2414 1223 L
2414 1223 mt 2338 1216 L
c8
98 -42 -76 -300 2382 3455 3 MP
PP
0 sg
2382 3455 mt 2306 3155 L
2306 3155 mt 2404 3113 L
/c28 { 0.000000 0.187500 1.000000 sr} bdef
c28
-75 -286 98 -42 2306 3155 3 MP
PP
0 sg
2306 3155 mt 2404 3113 L
2404 3113 mt 2329 2827 L
c9
99 -33 -76 243 2302 1943 3 MP
PP
0 sg
2302 1943 mt 2226 2186 L
2226 2186 mt 2325 2153 L
c25
99 -48 -76 -213 2375 2227 3 MP
PP
0 sg
2375 2227 mt 2299 2014 L
2299 2014 mt 2398 1966 L
/c29 { 1.000000 0.562500 0.000000 sr} bdef
c29
-76 -183 99 -48 2299 2014 3 MP
PP
0 sg
2299 2014 mt 2398 1966 L
2398 1966 mt 2322 1783 L
c13
-76 133 99 -36 2210 1373 3 MP
PP
0 sg
2210 1373 mt 2309 1337 L
2309 1337 mt 2233 1470 L
c13
98 -35 -76 133 2309 1337 3 MP
PP
0 sg
2309 1337 mt 2233 1470 L
2233 1470 mt 2331 1435 L
c21
99 -41 -76 -81 2368 1428 3 MP
PP
0 sg
2368 1428 mt 2292 1347 L
2292 1347 mt 2391 1306 L
c14
99 -36 -76 100 2286 1273 3 MP
PP
0 sg
2286 1273 mt 2210 1373 L
2210 1373 mt 2309 1337 L
c16
-76 -44 99 -41 2292 1347 3 MP
PP
0 sg
2292 1347 mt 2391 1306 L
2391 1306 mt 2315 1262 L
c8
-76 -300 99 -34 2283 3489 3 MP
PP
0 sg
2283 3489 mt 2382 3455 L
2382 3455 mt 2306 3155 L
c26
99 -50 -76 -238 2352 2515 3 MP
PP
0 sg
2352 2515 mt 2276 2277 L
2276 2277 mt 2375 2227 L
/c30 { 0.937500 1.000000 0.062500 sr} bdef
c30
-76 -213 99 -50 2276 2277 3 MP
PP
0 sg
2276 2277 mt 2375 2227 L
2375 2227 mt 2299 2014 L
c12
-75 164 98 -35 2233 1470 3 MP
PP
0 sg
2233 1470 mt 2331 1435 L
2331 1435 mt 2256 1599 L
c27
98 -43 -75 -116 2345 1587 3 MP
PP
0 sg
2345 1587 mt 2270 1471 L
2270 1471 mt 2368 1428 L
/c31 { 0.687500 0.000000 0.000000 sr} bdef
c31
-76 -81 98 -43 2270 1471 3 MP
PP
0 sg
2270 1471 mt 2368 1428 L
2368 1428 mt 2292 1347 L
c23
99 -51 -76 -261 2329 2827 3 MP
PP
0 sg
2329 2827 mt 2253 2566 L
2253 2566 mt 2352 2515 L
c26
-76 -238 99 -51 2253 2566 3 MP
PP
0 sg
2253 2566 mt 2352 2515 L
2352 2515 mt 2276 2277 L
c11
99 -34 -76 193 2256 1599 3 MP
PP
0 sg
2256 1599 mt 2180 1792 L
2180 1792 mt 2279 1758 L
c24
98 -47 -75 -149 2322 1783 3 MP
PP
0 sg
2322 1783 mt 2247 1634 L
2247 1634 mt 2345 1587 L
c11
-76 193 98 -35 2158 1634 3 MP
PP
0 sg
2158 1634 mt 2256 1599 L
2256 1599 mt 2180 1792 L
c12
98 -35 -75 164 2233 1470 3 MP
PP
0 sg
2233 1470 mt 2158 1634 L
2158 1634 mt 2256 1599 L
c27
-75 -116 98 -47 2247 1634 3 MP
PP
0 sg
2247 1634 mt 2345 1587 L
2345 1587 mt 2270 1471 L
c19
-76 65 99 -39 2164 1284 3 MP
PP
0 sg
2164 1284 mt 2263 1245 L
2263 1245 mt 2187 1310 L
c19
99 -37 -76 65 2263 1245 3 MP
PP
0 sg
2263 1245 mt 2187 1310 L
2187 1310 mt 2286 1273 L
c17
98 -39 -75 -7 2315 1262 3 MP
PP
0 sg
2315 1262 mt 2240 1255 L
2240 1255 mt 2338 1216 L
c21
-75 29 98 -39 2240 1255 3 MP
PP
0 sg
2240 1255 mt 2338 1216 L
2338 1216 mt 2263 1245 L
c28
98 -50 -75 -278 2306 3155 3 MP
PP
0 sg
2306 3155 mt 2231 2877 L
2231 2877 mt 2329 2827 L
/c32 { 0.000000 0.812500 1.000000 sr} bdef
c32
-76 -261 98 -50 2231 2877 3 MP
PP
0 sg
2231 2877 mt 2329 2827 L
2329 2827 mt 2253 2566 L
c10
-76 219 99 -34 2180 1792 3 MP
PP
0 sg
2180 1792 mt 2279 1758 L
2279 1758 mt 2203 1977 L
c9
-76 243 99 -34 2203 1977 3 MP
PP
0 sg
2203 1977 mt 2302 1943 L
2302 1943 mt 2226 2186 L
c10
99 -34 -76 219 2279 1758 3 MP
PP
0 sg
2279 1758 mt 2203 1977 L
2203 1977 mt 2302 1943 L
c29
98 -50 -75 -181 2299 2014 3 MP
PP
0 sg
2299 2014 mt 2224 1833 L
2224 1833 mt 2322 1783 L
/c33 { 1.000000 0.187500 0.000000 sr} bdef
c33
-75 -149 98 -50 2224 1833 3 MP
PP
0 sg
2224 1833 mt 2322 1783 L
2322 1783 mt 2247 1634 L
c14
-76 100 99 -37 2187 1310 3 MP
PP
0 sg
2187 1310 mt 2286 1273 L
2286 1273 mt 2210 1373 L
c16
98 -42 -75 -43 2292 1347 3 MP
PP
0 sg
2292 1347 mt 2217 1304 L
2217 1304 mt 2315 1262 L
c16
-75 -7 98 -42 2217 1304 3 MP
PP
0 sg
2217 1304 mt 2315 1262 L
2315 1262 mt 2240 1255 L
c8
98 -44 -75 -290 2283 3489 3 MP
PP
0 sg
2283 3489 mt 2208 3199 L
2208 3199 mt 2306 3155 L
c28
-75 -278 98 -44 2208 3199 3 MP
PP
0 sg
2208 3199 mt 2306 3155 L
2306 3155 mt 2231 2877 L
c9
98 -34 -75 243 2203 1977 3 MP
PP
0 sg
2203 1977 mt 2128 2220 L
2128 2220 mt 2226 2186 L
c30
98 -53 -75 -210 2276 2277 3 MP
PP
0 sg
2276 2277 mt 2201 2067 L
2201 2067 mt 2299 2014 L
/c34 { 1.000000 0.625000 0.000000 sr} bdef
c34
-75 -181 98 -53 2201 2067 3 MP
PP
0 sg
2201 2067 mt 2299 2014 L
2299 2014 mt 2224 1833 L
c13
-75 132 98 -36 2112 1409 3 MP
PP
0 sg
2112 1409 mt 2210 1373 L
2210 1373 mt 2135 1505 L
c13
98 -35 -75 132 2210 1373 3 MP
PP
0 sg
2210 1373 mt 2135 1505 L
2135 1505 mt 2233 1470 L
c31
98 -45 -76 -79 2270 1471 3 MP
PP
0 sg
2270 1471 mt 2194 1392 L
2194 1392 mt 2292 1347 L
c14
98 -36 -75 99 2187 1310 3 MP
PP
0 sg
2187 1310 mt 2112 1409 L
2112 1409 mt 2210 1373 L
c16
-75 -43 98 -45 2194 1392 3 MP
PP
0 sg
2194 1392 mt 2292 1347 L
2292 1347 mt 2217 1304 L
c8
-75 -290 98 -33 2185 3522 3 MP
PP
0 sg
2185 3522 mt 2283 3489 L
2283 3489 mt 2208 3199 L
c26
98 -55 -75 -234 2253 2566 3 MP
PP
0 sg
2253 2566 mt 2178 2332 L
2178 2332 mt 2276 2277 L
c30
-75 -210 98 -55 2178 2332 3 MP
PP
0 sg
2178 2332 mt 2276 2277 L
2276 2277 mt 2201 2067 L
c12
-75 164 98 -35 2135 1505 3 MP
PP
0 sg
2135 1505 mt 2233 1470 L
2233 1470 mt 2158 1634 L
c27
99 -48 -76 -115 2247 1634 3 MP
PP
0 sg
2247 1634 mt 2171 1519 L
2171 1519 mt 2270 1471 L
c31
-76 -79 99 -48 2171 1519 3 MP
PP
0 sg
2171 1519 mt 2270 1471 L
2270 1471 mt 2194 1392 L
c21
99 -39 -76 29 2240 1255 3 MP
PP
0 sg
2240 1255 mt 2164 1284 L
2164 1284 mt 2263 1245 L
c32
98 -57 -76 -254 2231 2877 3 MP
PP
0 sg
2231 2877 mt 2155 2623 L
2155 2623 mt 2253 2566 L
/c35 { 0.375000 1.000000 0.625000 sr} bdef
c35
-75 -234 98 -57 2155 2623 3 MP
PP
0 sg
2155 2623 mt 2253 2566 L
2253 2566 mt 2178 2332 L
c11
98 -34 -76 192 2158 1634 3 MP
PP
0 sg
2158 1634 mt 2082 1826 L
2082 1826 mt 2180 1792 L
c33
99 -51 -76 -148 2224 1833 3 MP
PP
0 sg
2224 1833 mt 2148 1685 L
2148 1685 mt 2247 1634 L
c11
-76 192 99 -35 2059 1669 3 MP
PP
0 sg
2059 1669 mt 2158 1634 L
2158 1634 mt 2082 1826 L
c12
99 -35 -76 164 2135 1505 3 MP
PP
0 sg
2135 1505 mt 2059 1669 L
2059 1669 mt 2158 1634 L
/c36 { 0.937500 0.000000 0.000000 sr} bdef
c36
-76 -115 99 -51 2148 1685 3 MP
PP
0 sg
2148 1685 mt 2247 1634 L
2247 1634 mt 2171 1519 L
c19
-75 65 98 -41 2066 1325 3 MP
PP
0 sg
2066 1325 mt 2164 1284 L
2164 1284 mt 2089 1349 L
c19
98 -39 -75 65 2164 1284 3 MP
PP
0 sg
2164 1284 mt 2089 1349 L
2089 1349 mt 2187 1310 L
c16
99 -41 -76 -8 2217 1304 3 MP
PP
0 sg
2217 1304 mt 2141 1296 L
2141 1296 mt 2240 1255 L
c21
-76 29 99 -41 2141 1296 3 MP
PP
0 sg
2141 1296 mt 2240 1255 L
2240 1255 mt 2164 1284 L
c28
99 -55 -76 -267 2208 3199 3 MP
PP
0 sg
2208 3199 mt 2132 2932 L
2132 2932 mt 2231 2877 L
/c37 { 0.000000 0.750000 1.000000 sr} bdef
c37
-76 -254 99 -55 2132 2932 3 MP
PP
0 sg
2132 2932 mt 2231 2877 L
2231 2877 mt 2155 2623 L
c10
-75 219 98 -34 2082 1826 3 MP
PP
0 sg
2082 1826 mt 2180 1792 L
2180 1792 mt 2105 2011 L
c9
-75 243 98 -34 2105 2011 3 MP
PP
0 sg
2105 2011 mt 2203 1977 L
2203 1977 mt 2128 2220 L
c10
98 -34 -75 219 2180 1792 3 MP
PP
0 sg
2180 1792 mt 2105 2011 L
2105 2011 mt 2203 1977 L
c34
99 -56 -76 -178 2201 2067 3 MP
PP
0 sg
2201 2067 mt 2125 1889 L
2125 1889 mt 2224 1833 L
/c38 { 1.000000 0.250000 0.000000 sr} bdef
c38
-76 -148 99 -56 2125 1889 3 MP
PP
0 sg
2125 1889 mt 2224 1833 L
2224 1833 mt 2148 1685 L
c14
-75 99 98 -39 2089 1349 3 MP
PP
0 sg
2089 1349 mt 2187 1310 L
2187 1310 mt 2112 1409 L
c16
98 -44 -75 -44 2194 1392 3 MP
PP
0 sg
2194 1392 mt 2119 1348 L
2119 1348 mt 2217 1304 L
c16
-76 -8 98 -44 2119 1348 3 MP
PP
0 sg
2119 1348 mt 2217 1304 L
2217 1304 mt 2141 1296 L
c8
99 -49 -76 -274 2185 3522 3 MP
PP
0 sg
2185 3522 mt 2109 3248 L
2109 3248 mt 2208 3199 L
/c39 { 0.000000 0.125000 1.000000 sr} bdef
c39
-76 -267 99 -49 2109 3248 3 MP
PP
0 sg
2109 3248 mt 2208 3199 L
2208 3199 mt 2132 2932 L
c9
99 -33 -76 242 2105 2011 3 MP
PP
0 sg
2105 2011 mt 2029 2253 L
2029 2253 mt 2128 2220 L
c30
99 -60 -76 -205 2178 2332 3 MP
PP
0 sg
2178 2332 mt 2102 2127 L
2102 2127 mt 2201 2067 L
/c40 { 1.000000 0.687500 0.000000 sr} bdef
c40
-76 -178 99 -60 2102 2127 3 MP
PP
0 sg
2102 2127 mt 2201 2067 L
2201 2067 mt 2125 1889 L
c13
99 -36 -76 132 2112 1409 3 MP
PP
0 sg
2112 1409 mt 2036 1541 L
2036 1541 mt 2135 1505 L
c31
98 -47 -75 -80 2171 1519 3 MP
PP
0 sg
2171 1519 mt 2096 1439 L
2096 1439 mt 2194 1392 L
c13
-76 132 99 -38 2013 1447 3 MP
PP
0 sg
2013 1447 mt 2112 1409 L
2112 1409 mt 2036 1541 L
c14
99 -38 -76 98 2089 1349 3 MP
PP
0 sg
2089 1349 mt 2013 1447 L
2013 1447 mt 2112 1409 L
c21
-75 -44 98 -47 2096 1439 3 MP
PP
0 sg
2096 1439 mt 2194 1392 L
2194 1392 mt 2119 1348 L
c8
-76 -274 99 -34 2086 3556 3 MP
PP
0 sg
2086 3556 mt 2185 3522 L
2185 3522 mt 2109 3248 L
c35
98 -64 -75 -227 2155 2623 3 MP
PP
0 sg
2155 2623 mt 2080 2396 L
2080 2396 mt 2178 2332 L
/c41 { 0.812500 1.000000 0.187500 sr} bdef
c41
-76 -205 98 -64 2080 2396 3 MP
PP
0 sg
2080 2396 mt 2178 2332 L
2178 2332 mt 2102 2127 L
c12
-76 164 99 -36 2036 1541 3 MP
PP
0 sg
2036 1541 mt 2135 1505 L
2135 1505 mt 2059 1669 L
c36
98 -52 -75 -114 2148 1685 3 MP
PP
0 sg
2148 1685 mt 2073 1571 L
2073 1571 mt 2171 1519 L
c15
-75 -80 98 -52 2073 1571 3 MP
PP
0 sg
2073 1571 mt 2171 1519 L
2171 1519 mt 2096 1439 L
c21
98 -41 -75 29 2141 1296 3 MP
PP
0 sg
2141 1296 mt 2066 1325 L
2066 1325 mt 2164 1284 L
c37
98 -66 -75 -243 2132 2932 3 MP
PP
0 sg
2132 2932 mt 2057 2689 L
2057 2689 mt 2155 2623 L
/c42 { 0.250000 1.000000 0.750000 sr} bdef
c42
-75 -227 98 -66 2057 2689 3 MP
PP
0 sg
2057 2689 mt 2155 2623 L
2155 2623 mt 2080 2396 L
c11
98 -35 -75 192 2059 1669 3 MP
PP
0 sg
2059 1669 mt 1984 1861 L
1984 1861 mt 2082 1826 L
c38
98 -58 -75 -146 2125 1889 3 MP
PP
0 sg
2125 1889 mt 2050 1743 L
2050 1743 mt 2148 1685 L
/c43 { 1.000000 0.000000 0.000000 sr} bdef
c43
-75 -114 98 -58 2050 1743 3 MP
PP
0 sg
2050 1743 mt 2148 1685 L
2148 1685 mt 2073 1571 L
c27
-76 64 98 -43 1968 1368 3 MP
PP
0 sg
1968 1368 mt 2066 1325 L
2066 1325 mt 1990 1389 L
c19
99 -40 -76 64 2066 1325 3 MP
PP
0 sg
2066 1325 mt 1990 1389 L
1990 1389 mt 2089 1349 L
c16
98 -44 -76 -8 2119 1348 3 MP
PP
0 sg
2119 1348 mt 2043 1340 L
2043 1340 mt 2141 1296 L
c31
-75 29 98 -44 2043 1340 3 MP
PP
0 sg
2043 1340 mt 2141 1296 L
2141 1296 mt 2066 1325 L
c39
98 -63 -75 -253 2109 3248 3 MP
PP
0 sg
2109 3248 mt 2034 2995 L
2034 2995 mt 2132 2932 L
/c44 { 0.000000 0.687500 1.000000 sr} bdef
c44
-75 -243 98 -63 2034 2995 3 MP
PP
0 sg
2034 2995 mt 2132 2932 L
2132 2932 mt 2057 2689 L
c10
-75 219 98 -35 1984 1861 3 MP
PP
0 sg
1984 1861 mt 2082 1826 L
2082 1826 mt 2007 2045 L
c9
-76 242 98 -34 2007 2045 3 MP
PP
0 sg
2007 2045 mt 2105 2011 L
2105 2011 mt 2029 2253 L
c10
98 -34 -75 219 2082 1826 3 MP
PP
0 sg
2082 1826 mt 2007 2045 L
2007 2045 mt 2105 2011 L
c40
98 -64 -75 -174 2102 2127 3 MP
PP
0 sg
2102 2127 mt 2027 1953 L
2027 1953 mt 2125 1889 L
/c45 { 1.000000 0.312500 0.000000 sr} bdef
c45
-75 -146 98 -64 2027 1953 3 MP
PP
0 sg
2027 1953 mt 2125 1889 L
2125 1889 mt 2050 1743 L
c24
-76 98 99 -40 1990 1389 3 MP
PP
0 sg
1990 1389 mt 2089 1349 L
2089 1349 mt 2013 1447 L
c21
99 -48 -76 -43 2096 1439 3 MP
PP
0 sg
2096 1439 mt 2020 1396 L
2020 1396 mt 2119 1348 L
c21
-76 -8 99 -48 2020 1396 3 MP
PP
0 sg
2020 1396 mt 2119 1348 L
2119 1348 mt 2043 1340 L
c8
98 -54 -75 -254 2086 3556 3 MP
PP
0 sg
2086 3556 mt 2011 3302 L
2011 3302 mt 2109 3248 L
/c46 { 0.000000 0.062500 1.000000 sr} bdef
c46
-75 -253 98 -54 2011 3302 3 MP
PP
0 sg
2011 3302 mt 2109 3248 L
2109 3248 mt 2034 2995 L
c9
98 -34 -76 242 2007 2045 3 MP
PP
0 sg
2007 2045 mt 1931 2287 L
1931 2287 mt 2029 2253 L
c41
98 -70 -76 -199 2080 2396 3 MP
PP
0 sg
2080 2396 mt 2004 2197 L
2004 2197 mt 2102 2127 L
/c47 { 1.000000 0.750000 0.000000 sr} bdef
c47
-75 -174 98 -70 2004 2197 3 MP
PP
0 sg
2004 2197 mt 2102 2127 L
2102 2127 mt 2027 1953 L
c13
98 -37 -75 131 2013 1447 3 MP
PP
0 sg
2013 1447 mt 1938 1578 L
1938 1578 mt 2036 1541 L
c15
99 -54 -76 -78 2073 1571 3 MP
PP
0 sg
2073 1571 mt 1997 1493 L
1997 1493 mt 2096 1439 L
c20
-75 131 98 -39 1915 1486 3 MP
PP
0 sg
1915 1486 mt 2013 1447 L
2013 1447 mt 1938 1578 L
c24
98 -39 -75 97 1990 1389 3 MP
PP
0 sg
1990 1389 mt 1915 1486 L
1915 1486 mt 2013 1447 L
c21
-76 -43 99 -54 1997 1493 3 MP
PP
0 sg
1997 1493 mt 2096 1439 L
2096 1439 mt 2020 1396 L
c8
-75 -254 98 -33 1988 3589 3 MP
PP
0 sg
1988 3589 mt 2086 3556 L
2086 3556 mt 2011 3302 L
c42
99 -75 -76 -218 2057 2689 3 MP
PP
0 sg
2057 2689 mt 1981 2471 L
1981 2471 mt 2080 2396 L
/c48 { 0.750000 1.000000 0.250000 sr} bdef
c48
-76 -199 99 -75 1981 2471 3 MP
PP
0 sg
1981 2471 mt 2080 2396 L
2080 2396 mt 2004 2197 L
c18
-75 163 98 -37 1938 1578 3 MP
PP
0 sg
1938 1578 mt 2036 1541 L
2036 1541 mt 1961 1704 L
c11
-75 192 98 -35 1961 1704 3 MP
PP
0 sg
1961 1704 mt 2059 1669 L
2059 1669 mt 1984 1861 L
c12
98 -35 -75 163 2036 1541 3 MP
PP
0 sg
2036 1541 mt 1961 1704 L
1961 1704 mt 2059 1669 L
c43
99 -60 -76 -112 2050 1743 3 MP
PP
0 sg
2050 1743 mt 1974 1631 L
1974 1631 mt 2073 1571 L
c19
-76 -78 99 -60 1974 1631 3 MP
PP
0 sg
1974 1631 mt 2073 1571 L
2073 1571 mt 1997 1493 L
c31
98 -43 -75 28 2043 1340 3 MP
PP
0 sg
2043 1340 mt 1968 1368 L
1968 1368 mt 2066 1325 L
c44
99 -77 -76 -229 2034 2995 3 MP
PP
0 sg
2034 2995 mt 1958 2766 L
1958 2766 mt 2057 2689 L
/c49 { 0.125000 1.000000 0.875000 sr} bdef
c49
-76 -218 99 -77 1958 2766 3 MP
PP
0 sg
1958 2766 mt 2057 2689 L
2057 2689 mt 1981 2471 L
c10
-76 218 99 -35 1885 1896 3 MP
PP
0 sg
1885 1896 mt 1984 1861 L
1984 1861 mt 1908 2079 L
c11
99 -35 -76 192 1961 1704 3 MP
PP
0 sg
1961 1704 mt 1885 1896 L
1885 1896 mt 1984 1861 L
c10
99 -34 -76 218 1984 1861 3 MP
PP
0 sg
1984 1861 mt 1908 2079 L
1908 2079 mt 2007 2045 L
c45
99 -67 -76 -143 2027 1953 3 MP
PP
0 sg
2027 1953 mt 1951 1810 L
1951 1810 mt 2050 1743 L
c14
-76 -112 99 -67 1951 1810 3 MP
PP
0 sg
1951 1810 mt 2050 1743 L
2050 1743 mt 1974 1631 L
c24
-75 97 98 -42 1892 1431 3 MP
PP
0 sg
1892 1431 mt 1990 1389 L
1990 1389 mt 1915 1486 L
c27
98 -42 -76 63 1968 1368 3 MP
PP
0 sg
1968 1368 mt 1892 1431 L
1892 1431 mt 1990 1389 L
c21
98 -48 -75 -8 2020 1396 3 MP
PP
0 sg
2020 1396 mt 1945 1388 L
1945 1388 mt 2043 1340 L
c31
-75 28 98 -48 1945 1388 3 MP
PP
0 sg
1945 1388 mt 2043 1340 L
2043 1340 mt 1968 1368 L
c46
99 -74 -76 -233 2011 3302 3 MP
PP
0 sg
2011 3302 mt 1935 3069 L
1935 3069 mt 2034 2995 L
/c50 { 0.000000 0.562500 1.000000 sr} bdef
c50
-76 -229 99 -74 1935 3069 3 MP
PP
0 sg
1935 3069 mt 2034 2995 L
2034 2995 mt 1958 2766 L
c9
-76 242 99 -34 1908 2079 3 MP
PP
0 sg
1908 2079 mt 2007 2045 L
2007 2045 mt 1931 2287 L
c47
98 -75 -75 -169 2004 2197 3 MP
PP
0 sg
2004 2197 mt 1929 2028 L
1929 2028 mt 2027 1953 L
c13
-76 -143 98 -75 1929 2028 3 MP
PP
0 sg
1929 2028 mt 2027 1953 L
2027 1953 mt 1951 1810 L
c21
98 -53 -75 -44 1997 1493 3 MP
PP
0 sg
1997 1493 mt 1922 1449 L
1922 1449 mt 2020 1396 L
c21
-75 -8 98 -53 1922 1449 3 MP
PP
0 sg
1922 1449 mt 2020 1396 L
2020 1396 mt 1945 1388 L
c8
98 -62 -75 -225 1988 3589 3 MP
PP
0 sg
1988 3589 mt 1913 3364 L
1913 3364 mt 2011 3302 L
/c51 { 0.000000 0.000000 1.000000 sr} bdef
c51
-76 -233 98 -62 1913 3364 3 MP
PP
0 sg
1913 3364 mt 2011 3302 L
2011 3302 mt 1935 3069 L
c9
98 -34 -75 242 1908 2079 3 MP
PP
0 sg
1908 2079 mt 1833 2321 L
1833 2321 mt 1931 2287 L
c48
98 -83 -75 -191 1981 2471 3 MP
PP
0 sg
1981 2471 mt 1906 2280 L
1906 2280 mt 2004 2197 L
c12
-75 -169 98 -83 1906 2280 3 MP
PP
0 sg
1906 2280 mt 2004 2197 L
2004 2197 mt 1929 2028 L
c18
-76 163 99 -39 1839 1617 3 MP
PP
0 sg
1839 1617 mt 1938 1578 L
1938 1578 mt 1862 1741 L
c20
99 -39 -76 131 1915 1486 3 MP
PP
0 sg
1915 1486 mt 1839 1617 L
1839 1617 mt 1938 1578 L
c18
99 -37 -76 163 1938 1578 3 MP
PP
0 sg
1938 1578 mt 1862 1741 L
1862 1741 mt 1961 1704 L
c19
98 -60 -75 -78 1974 1631 3 MP
PP
0 sg
1974 1631 mt 1899 1553 L
1899 1553 mt 1997 1493 L
c20
-76 131 98 -42 1817 1528 3 MP
PP
0 sg
1817 1528 mt 1915 1486 L
1915 1486 mt 1839 1617 L
c24
98 -42 -75 97 1892 1431 3 MP
PP
0 sg
1892 1431 mt 1817 1528 L
1817 1528 mt 1915 1486 L
c15
-75 -44 98 -60 1899 1553 3 MP
PP
0 sg
1899 1553 mt 1997 1493 L
1997 1493 mt 1922 1449 L
c49
98 -90 -75 -205 1958 2766 3 MP
PP
0 sg
1958 2766 mt 1883 2561 L
1883 2561 mt 1981 2471 L
c11
-75 -191 98 -90 1883 2561 3 MP
PP
0 sg
1883 2561 mt 1981 2471 L
1981 2471 mt 1906 2280 L
c11
-76 192 99 -37 1862 1741 3 MP
PP
0 sg
1862 1741 mt 1961 1704 L
1961 1704 mt 1885 1896 L
c14
98 -69 -75 -110 1951 1810 3 MP
PP
0 sg
1951 1810 mt 1876 1700 L
1876 1700 mt 1974 1631 L
c27
-75 -78 98 -69 1876 1700 3 MP
PP
0 sg
1876 1700 mt 1974 1631 L
1974 1631 mt 1899 1553 L
c27
-76 63 99 -47 1869 1415 3 MP
PP
0 sg
1869 1415 mt 1968 1368 L
1968 1368 mt 1892 1431 L
c31
99 -47 -76 27 1945 1388 3 MP
PP
0 sg
1945 1388 mt 1869 1415 L
1869 1415 mt 1968 1368 L
c50
98 -93 -75 -210 1935 3069 3 MP
PP
0 sg
1935 3069 mt 1860 2859 L
1860 2859 mt 1958 2766 L
/c52 { 0.000000 1.000000 1.000000 sr} bdef
c52
-75 -205 98 -93 1860 2859 3 MP
PP
0 sg
1860 2859 mt 1958 2766 L
1958 2766 mt 1883 2561 L
c10
-75 217 98 -35 1787 1931 3 MP
PP
0 sg
1787 1931 mt 1885 1896 L
1885 1896 mt 1810 2113 L
c11
98 -35 -75 190 1862 1741 3 MP
PP
0 sg
1862 1741 mt 1787 1931 L
1787 1931 mt 1885 1896 L
c10
98 -34 -75 217 1885 1896 3 MP
PP
0 sg
1885 1896 mt 1810 2113 L
1810 2113 mt 1908 2079 L
c13
98 -79 -76 -139 1929 2028 3 MP
PP
0 sg
1929 2028 mt 1853 1889 L
1853 1889 mt 1951 1810 L
c33
-75 -110 98 -79 1853 1889 3 MP
PP
0 sg
1853 1889 mt 1951 1810 L
1951 1810 mt 1876 1700 L
c24
-75 97 98 -46 1794 1477 3 MP
PP
0 sg
1794 1477 mt 1892 1431 L
1892 1431 mt 1817 1528 L
c27
98 -46 -75 62 1869 1415 3 MP
PP
0 sg
1869 1415 mt 1794 1477 L
1794 1477 mt 1892 1431 L
c21
99 -52 -76 -9 1922 1449 3 MP
PP
0 sg
1922 1449 mt 1846 1440 L
1846 1440 mt 1945 1388 L
c15
-76 27 99 -52 1846 1440 3 MP
PP
0 sg
1846 1440 mt 1945 1388 L
1945 1388 mt 1869 1415 L
c51
98 -91 -76 -204 1913 3364 3 MP
PP
0 sg
1913 3364 mt 1837 3160 L
1837 3160 mt 1935 3069 L
/c53 { 0.000000 0.437500 1.000000 sr} bdef
c53
-75 -210 98 -91 1837 3160 3 MP
PP
0 sg
1837 3160 mt 1935 3069 L
1935 3069 mt 1860 2859 L
c9
-75 242 98 -34 1810 2113 3 MP
PP
0 sg
1810 2113 mt 1908 2079 L
1908 2079 mt 1833 2321 L
c12
99 -90 -76 -162 1906 2280 3 MP
PP
0 sg
1906 2280 mt 1830 2118 L
1830 2118 mt 1929 2028 L
c29
-76 -139 99 -90 1830 2118 3 MP
PP
0 sg
1830 2118 mt 1929 2028 L
1929 2028 mt 1853 1889 L
c15
99 -60 -76 -44 1899 1553 3 MP
PP
0 sg
1899 1553 mt 1823 1509 L
1823 1509 mt 1922 1449 L
c15
-76 -9 99 -60 1823 1509 3 MP
PP
0 sg
1823 1509 mt 1922 1449 L
1922 1449 mt 1846 1440 L
c11
99 -101 -76 -180 1883 2561 3 MP
PP
0 sg
1883 2561 mt 1807 2381 L
1807 2381 mt 1906 2280 L
c9
99 -33 -76 241 1810 2113 3 MP
PP
0 sg
1810 2113 mt 1734 2354 L
1734 2354 mt 1833 2321 L
c30
-76 -162 99 -101 1807 2381 3 MP
PP
0 sg
1807 2381 mt 1906 2280 L
1906 2280 mt 1830 2118 L
c18
-75 161 98 -40 1741 1657 3 MP
PP
0 sg
1741 1657 mt 1839 1617 L
1839 1617 mt 1764 1778 L
c20
98 -40 -76 129 1817 1528 3 MP
PP
0 sg
1817 1528 mt 1741 1657 L
1741 1657 mt 1839 1617 L
c18
98 -37 -75 161 1839 1617 3 MP
PP
0 sg
1839 1617 mt 1764 1778 L
1764 1778 mt 1862 1741 L
c27
99 -69 -76 -78 1876 1700 3 MP
PP
0 sg
1876 1700 mt 1800 1622 L
1800 1622 mt 1899 1553 L
c19
-76 -44 99 -69 1800 1622 3 MP
PP
0 sg
1800 1622 mt 1899 1553 L
1899 1553 mt 1823 1509 L
c52
99 -110 -76 -188 1860 2859 3 MP
PP
0 sg
1860 2859 mt 1784 2671 L
1784 2671 mt 1883 2561 L
c35
-76 -180 99 -110 1784 2671 3 MP
PP
0 sg
1784 2671 mt 1883 2561 L
1883 2561 mt 1807 2381 L
c11
-75 190 98 -37 1764 1778 3 MP
PP
0 sg
1764 1778 mt 1862 1741 L
1862 1741 mt 1787 1931 L
c33
98 -81 -75 -108 1853 1889 3 MP
PP
0 sg
1853 1889 mt 1778 1781 L
1778 1781 mt 1876 1700 L
c43
-76 -78 98 -81 1778 1781 3 MP
PP
0 sg
1778 1781 mt 1876 1700 L
1876 1700 mt 1800 1622 L
c36
-75 62 98 -51 1771 1466 3 MP
PP
0 sg
1771 1466 mt 1869 1415 L
1869 1415 mt 1794 1477 L
c15
98 -51 -75 26 1846 1440 3 MP
PP
0 sg
1846 1440 mt 1771 1466 L
1771 1466 mt 1869 1415 L
c53
98 -116 -75 -185 1837 3160 3 MP
PP
0 sg
1837 3160 mt 1762 2975 L
1762 2975 mt 1860 2859 L
c32
-76 -188 98 -116 1762 2975 3 MP
PP
0 sg
1762 2975 mt 1860 2859 L
1860 2859 mt 1784 2671 L
c10
-76 217 99 -36 1688 1967 3 MP
PP
0 sg
1688 1967 mt 1787 1931 L
1787 1931 mt 1711 2148 L
c10
99 -35 -76 217 1787 1931 3 MP
PP
0 sg
1787 1931 mt 1711 2148 L
1711 2148 mt 1810 2113 L
c29
98 -95 -75 -134 1830 2118 3 MP
PP
0 sg
1830 2118 mt 1755 1984 L
1755 1984 mt 1853 1889 L
c11
99 -36 -76 189 1764 1778 3 MP
PP
0 sg
1764 1778 mt 1688 1967 L
1688 1967 mt 1787 1931 L
/c54 { 1.000000 0.375000 0.000000 sr} bdef
c54
-75 -108 98 -95 1755 1984 3 MP
PP
0 sg
1755 1984 mt 1853 1889 L
1853 1889 mt 1778 1781 L
c33
-76 95 99 -50 1695 1527 3 MP
PP
0 sg
1695 1527 mt 1794 1477 L
1794 1477 mt 1718 1572 L
c36
99 -50 -76 61 1771 1466 3 MP
PP
0 sg
1771 1466 mt 1695 1527 L
1695 1527 mt 1794 1477 L
c24
99 -44 -76 95 1794 1477 3 MP
PP
0 sg
1794 1477 mt 1718 1572 L
1718 1572 mt 1817 1528 L
c15
98 -59 -75 -10 1823 1509 3 MP
PP
0 sg
1823 1509 mt 1748 1499 L
1748 1499 mt 1846 1440 L
c19
-75 26 98 -59 1748 1499 3 MP
PP
0 sg
1748 1499 mt 1846 1440 L
1846 1440 mt 1771 1466 L
c9
-76 241 99 -35 1711 2148 3 MP
PP
0 sg
1711 2148 mt 1810 2113 L
1810 2113 mt 1734 2354 L
c30
98 -110 -75 -153 1807 2381 3 MP
PP
0 sg
1807 2381 mt 1732 2228 L
1732 2228 mt 1830 2118 L
/c55 { 1.000000 0.812500 0.000000 sr} bdef
c55
-75 -134 98 -110 1732 2228 3 MP
PP
0 sg
1732 2228 mt 1830 2118 L
1830 2118 mt 1755 1984 L
c20
-76 129 99 -44 1718 1572 3 MP
PP
0 sg
1718 1572 mt 1817 1528 L
1817 1528 mt 1741 1657 L
c19
98 -70 -75 -43 1800 1622 3 MP
PP
0 sg
1800 1622 mt 1725 1579 L
1725 1579 mt 1823 1509 L
c19
-75 -10 98 -70 1725 1579 3 MP
PP
0 sg
1725 1579 mt 1823 1509 L
1823 1509 mt 1748 1499 L
c35
98 -126 -75 -164 1784 2671 3 MP
PP
0 sg
1784 2671 mt 1709 2507 L
1709 2507 mt 1807 2381 L
c9
98 -34 -75 240 1711 2148 3 MP
PP
0 sg
1711 2148 mt 1636 2388 L
1636 2388 mt 1734 2354 L
/c56 { 0.687500 1.000000 0.312500 sr} bdef
c56
-75 -153 98 -126 1709 2507 3 MP
PP
0 sg
1709 2507 mt 1807 2381 L
1807 2381 mt 1732 2228 L
c18
-75 160 98 -42 1643 1699 3 MP
PP
0 sg
1643 1699 mt 1741 1657 L
1741 1657 mt 1666 1817 L
c18
98 -39 -75 160 1741 1657 3 MP
PP
0 sg
1741 1657 mt 1666 1817 L
1666 1817 mt 1764 1778 L
c43
98 -83 -76 -76 1778 1781 3 MP
PP
0 sg
1778 1781 mt 1702 1705 L
1702 1705 mt 1800 1622 L
c20
98 -42 -75 127 1718 1572 3 MP
PP
0 sg
1718 1572 mt 1643 1699 L
1643 1699 mt 1741 1657 L
c36
-75 -43 98 -83 1702 1705 3 MP
PP
0 sg
1702 1705 mt 1800 1622 L
1800 1622 mt 1725 1579 L
c32
98 -139 -76 -165 1762 2975 3 MP
PP
0 sg
1762 2975 mt 1686 2810 L
1686 2810 mt 1784 2671 L
c49
-75 -164 98 -139 1686 2810 3 MP
PP
0 sg
1686 2810 mt 1784 2671 L
1784 2671 mt 1709 2507 L
c11
-76 189 98 -39 1666 1817 3 MP
PP
0 sg
1666 1817 mt 1764 1778 L
1764 1778 mt 1688 1967 L
c54
99 -99 -76 -104 1755 1984 3 MP
PP
0 sg
1755 1984 mt 1679 1880 L
1679 1880 mt 1778 1781 L
c33
-76 -76 99 -99 1679 1880 3 MP
PP
0 sg
1679 1880 mt 1778 1781 L
1778 1781 mt 1702 1705 L
c43
-76 61 99 -58 1672 1524 3 MP
PP
0 sg
1672 1524 mt 1771 1466 L
1771 1466 mt 1695 1527 L
c19
99 -58 -76 25 1748 1499 3 MP
PP
0 sg
1748 1499 mt 1672 1524 L
1672 1524 mt 1771 1466 L
c9
-75 240 98 -35 1613 2183 3 MP
PP
0 sg
1613 2183 mt 1711 2148 L
1711 2148 mt 1636 2388 L
c10
98 -35 -75 216 1688 1967 3 MP
PP
0 sg
1688 1967 mt 1613 2183 L
1613 2183 mt 1711 2148 L
c55
99 -117 -76 -127 1732 2228 3 MP
PP
0 sg
1732 2228 mt 1656 2101 L
1656 2101 mt 1755 1984 L
c10
-75 216 98 -37 1590 2004 3 MP
PP
0 sg
1590 2004 mt 1688 1967 L
1688 1967 mt 1613 2183 L
c11
98 -37 -76 187 1666 1817 3 MP
PP
0 sg
1666 1817 mt 1590 2004 L
1590 2004 mt 1688 1967 L
c29
-76 -104 99 -117 1656 2101 3 MP
PP
0 sg
1656 2101 mt 1755 1984 L
1755 1984 mt 1679 1880 L
c38
-75 93 98 -55 1597 1582 3 MP
PP
0 sg
1597 1582 mt 1695 1527 L
1695 1527 mt 1620 1620 L
c29
-75 127 98 -48 1620 1620 3 MP
PP
0 sg
1620 1620 mt 1718 1572 L
1718 1572 mt 1643 1699 L
c33
98 -48 -75 93 1695 1527 3 MP
PP
0 sg
1695 1527 mt 1620 1620 L
1620 1620 mt 1718 1572 L
c19
99 -69 -76 -11 1725 1579 3 MP
PP
0 sg
1725 1579 mt 1649 1568 L
1649 1568 mt 1748 1499 L
c43
98 -55 -75 58 1672 1524 3 MP
PP
0 sg
1672 1524 mt 1597 1582 L
1597 1582 mt 1695 1527 L
c27
-76 25 99 -69 1649 1568 3 MP
PP
0 sg
1649 1568 mt 1748 1499 L
1748 1499 mt 1672 1524 L
c56
99 -138 -76 -141 1709 2507 3 MP
PP
0 sg
1709 2507 mt 1633 2366 L
1633 2366 mt 1732 2228 L
c30
-76 -127 99 -138 1633 2366 3 MP
PP
0 sg
1633 2366 mt 1732 2228 L
1732 2228 mt 1656 2101 L
c29
99 -46 -76 125 1620 1620 3 MP
PP
0 sg
1620 1620 mt 1544 1745 L
1544 1745 mt 1643 1699 L
c36
98 -82 -75 -44 1702 1705 3 MP
PP
0 sg
1702 1705 mt 1627 1661 L
1627 1661 mt 1725 1579 L
c36
-76 -11 98 -82 1627 1661 3 MP
PP
0 sg
1627 1661 mt 1725 1579 L
1725 1579 mt 1649 1568 L
c49
98 -159 -75 -144 1686 2810 3 MP
PP
0 sg
1686 2810 mt 1611 2666 L
1611 2666 mt 1709 2507 L
c9
99 -33 -76 238 1613 2183 3 MP
PP
0 sg
1613 2183 mt 1537 2421 L
1537 2421 mt 1636 2388 L
c35
-76 -141 98 -159 1611 2666 3 MP
PP
0 sg
1611 2666 mt 1709 2507 L
1709 2507 mt 1633 2366 L
c22
-76 187 99 -40 1567 1857 3 MP
PP
0 sg
1567 1857 mt 1666 1817 L
1666 1817 mt 1590 2004 L
c18
99 -40 -76 158 1643 1699 3 MP
PP
0 sg
1643 1699 mt 1567 1857 L
1567 1857 mt 1666 1817 L
c33
98 -101 -75 -74 1679 1880 3 MP
PP
0 sg
1679 1880 mt 1604 1806 L
1604 1806 mt 1702 1705 L
c25
-76 158 99 -46 1544 1745 3 MP
PP
0 sg
1544 1745 mt 1643 1699 L
1643 1699 mt 1567 1857 L
c24
-75 -44 98 -101 1604 1806 3 MP
PP
0 sg
1604 1806 mt 1702 1705 L
1702 1705 mt 1627 1661 L
c10
-75 214 98 -39 1492 2043 3 MP
PP
0 sg
1492 2043 mt 1590 2004 L
1590 2004 mt 1515 2218 L
c22
98 -39 -75 186 1567 1857 3 MP
PP
0 sg
1567 1857 mt 1492 2043 L
1492 2043 mt 1590 2004 L
c10
98 -35 -75 214 1590 2004 3 MP
PP
0 sg
1590 2004 mt 1515 2218 L
1515 2218 mt 1613 2183 L
c29
98 -122 -75 -99 1656 2101 3 MP
PP
0 sg
1656 2101 mt 1581 2002 L
1581 2002 mt 1679 1880 L
c13
-75 -74 98 -122 1581 2002 3 MP
PP
0 sg
1581 2002 mt 1679 1880 L
1679 1880 mt 1604 1806 L
c45
-76 91 99 -64 1498 1646 3 MP
PP
0 sg
1498 1646 mt 1597 1582 L
1597 1582 mt 1521 1673 L
c14
99 -64 -76 55 1574 1591 3 MP
PP
0 sg
1574 1591 mt 1498 1646 L
1498 1646 mt 1597 1582 L
c38
99 -53 -76 91 1597 1582 3 MP
PP
0 sg
1597 1582 mt 1521 1673 L
1521 1673 mt 1620 1620 L
c14
-75 58 98 -67 1574 1591 3 MP
PP
0 sg
1574 1591 mt 1672 1524 L
1672 1524 mt 1597 1582 L
c27
98 -67 -75 23 1649 1568 3 MP
PP
0 sg
1649 1568 mt 1574 1591 L
1574 1591 mt 1672 1524 L
c9
-76 238 98 -35 1515 2218 3 MP
PP
0 sg
1515 2218 mt 1613 2183 L
1613 2183 mt 1537 2421 L
c30
98 -148 -75 -117 1633 2366 3 MP
PP
0 sg
1633 2366 mt 1558 2249 L
1558 2249 mt 1656 2101 L
c12
-75 -99 98 -148 1558 2249 3 MP
PP
0 sg
1558 2249 mt 1656 2101 L
1656 2101 mt 1581 2002 L
c34
-76 125 99 -53 1521 1673 3 MP
PP
0 sg
1521 1673 mt 1620 1620 L
1620 1620 mt 1544 1745 L
c36
98 -82 -76 -11 1627 1661 3 MP
PP
0 sg
1627 1661 mt 1551 1650 L
1551 1650 mt 1649 1568 L
c43
-75 23 98 -82 1551 1650 3 MP
PP
0 sg
1551 1650 mt 1649 1568 L
1649 1568 mt 1574 1591 L
c35
98 -176 -76 -124 1611 2666 3 MP
PP
0 sg
1611 2666 mt 1535 2542 L
1535 2542 mt 1633 2366 L
c11
-75 -117 98 -176 1535 2542 3 MP
PP
0 sg
1535 2542 mt 1633 2366 L
1633 2366 mt 1558 2249 L
c30
-75 155 98 -50 1446 1795 3 MP
PP
0 sg
1446 1795 mt 1544 1745 L
1544 1745 mt 1469 1900 L
c25
98 -43 -75 155 1544 1745 3 MP
PP
0 sg
1544 1745 mt 1469 1900 L
1469 1900 mt 1567 1857 L
c24
99 -101 -76 -44 1604 1806 3 MP
PP
0 sg
1604 1806 mt 1528 1762 L
1528 1762 mt 1627 1661 L
c34
98 -50 -75 122 1521 1673 3 MP
PP
0 sg
1521 1673 mt 1446 1795 L
1446 1795 mt 1544 1745 L
c24
-76 -11 99 -101 1528 1762 3 MP
PP
0 sg
1528 1762 mt 1627 1661 L
1627 1661 mt 1551 1650 L
c22
-75 186 98 -43 1469 1900 3 MP
PP
0 sg
1469 1900 mt 1567 1857 L
1567 1857 mt 1492 2043 L
c13
99 -125 -76 -71 1581 2002 3 MP
PP
0 sg
1581 2002 mt 1505 1931 L
1505 1931 mt 1604 1806 L
c54
-76 -44 99 -125 1505 1931 3 MP
PP
0 sg
1505 1931 mt 1604 1806 L
1604 1806 mt 1528 1762 L
c10
99 -36 -76 211 1492 2043 3 MP
PP
0 sg
1492 2043 mt 1416 2254 L
1416 2254 mt 1515 2218 L
c12
99 -155 -76 -92 1558 2249 3 MP
PP
0 sg
1558 2249 mt 1482 2157 L
1482 2157 mt 1581 2002 L
c47
-76 -71 99 -155 1482 2157 3 MP
PP
0 sg
1482 2157 mt 1581 2002 L
1581 2002 mt 1505 1931 L
c13
-75 87 98 -75 1400 1721 3 MP
PP
0 sg
1400 1721 mt 1498 1646 L
1498 1646 mt 1423 1733 L
c45
98 -60 -75 87 1498 1646 3 MP
PP
0 sg
1498 1646 mt 1423 1733 L
1423 1733 mt 1521 1673 L
c43
98 -79 -75 20 1551 1650 3 MP
PP
0 sg
1551 1650 mt 1476 1670 L
1476 1670 mt 1574 1591 L
c33
-76 55 98 -79 1476 1670 3 MP
PP
0 sg
1476 1670 mt 1574 1591 L
1574 1591 mt 1498 1646 L
c9
98 -34 -76 237 1515 2218 3 MP
PP
0 sg
1515 2218 mt 1439 2455 L
1439 2455 mt 1537 2421 L
c11
98 -189 -75 -104 1535 2542 3 MP
PP
0 sg
1535 2542 mt 1460 2438 L
1460 2438 mt 1558 2249 L
c9
-76 237 99 -36 1416 2254 3 MP
PP
0 sg
1416 2254 mt 1515 2218 L
1515 2218 mt 1439 2455 L
c48
-76 -92 98 -189 1460 2438 3 MP
PP
0 sg
1460 2438 mt 1558 2249 L
1558 2249 mt 1482 2157 L
c40
-75 122 98 -60 1423 1733 3 MP
PP
0 sg
1423 1733 mt 1521 1673 L
1521 1673 mt 1446 1795 L
c24
98 -98 -75 -14 1528 1762 3 MP
PP
0 sg
1528 1762 mt 1453 1748 L
1453 1748 mt 1551 1650 L
c33
-75 20 98 -98 1453 1748 3 MP
PP
0 sg
1453 1748 mt 1551 1650 L
1551 1650 mt 1476 1670 L
c26
-76 183 99 -46 1370 1946 3 MP
PP
0 sg
1370 1946 mt 1469 1900 L
1469 1900 mt 1393 2083 L
c30
99 -46 -76 151 1446 1795 3 MP
PP
0 sg
1446 1795 mt 1370 1946 L
1370 1946 mt 1469 1900 L
c22
99 -40 -76 183 1469 1900 3 MP
PP
0 sg
1469 1900 mt 1393 2083 L
1393 2083 mt 1492 2043 L
c54
98 -125 -75 -44 1505 1931 3 MP
PP
0 sg
1505 1931 mt 1430 1887 L
1430 1887 mt 1528 1762 L
c30
-76 151 99 -56 1347 1851 3 MP
PP
0 sg
1347 1851 mt 1446 1795 L
1446 1795 mt 1370 1946 L
c40
99 -56 -76 118 1423 1733 3 MP
PP
0 sg
1423 1733 mt 1347 1851 L
1347 1851 mt 1446 1795 L
c54
-75 -14 98 -125 1430 1887 3 MP
PP
0 sg
1430 1887 mt 1528 1762 L
1528 1762 mt 1453 1748 L
c23
-76 211 99 -40 1393 2083 3 MP
PP
0 sg
1393 2083 mt 1492 2043 L
1492 2043 mt 1416 2254 L
c47
98 -157 -75 -69 1482 2157 3 MP
PP
0 sg
1482 2157 mt 1407 2088 L
1407 2088 mt 1505 1931 L
c40
-75 -44 98 -157 1407 2088 3 MP
PP
0 sg
1407 2088 mt 1505 1931 L
1505 1931 mt 1430 1887 L
c33
98 -75 -76 51 1476 1670 3 MP
PP
0 sg
1476 1670 mt 1400 1721 L
1400 1721 mt 1498 1646 L
c9
-75 235 98 -37 1318 2291 3 MP
PP
0 sg
1318 2291 mt 1416 2254 L
1416 2254 mt 1341 2489 L
c9
98 -34 -75 235 1416 2254 3 MP
PP
0 sg
1416 2254 mt 1341 2489 L
1341 2489 mt 1439 2455 L
c48
98 -197 -76 -84 1460 2438 3 MP
PP
0 sg
1460 2438 mt 1384 2354 L
1384 2354 mt 1482 2157 L
c23
98 -37 -75 208 1393 2083 3 MP
PP
0 sg
1393 2083 mt 1318 2291 L
1318 2291 mt 1416 2254 L
c41
-75 -69 98 -197 1384 2354 3 MP
PP
0 sg
1384 2354 mt 1482 2157 L
1482 2157 mt 1407 2088 L
c47
-76 118 98 -70 1325 1803 3 MP
PP
0 sg
1325 1803 mt 1423 1733 L
1423 1733 mt 1347 1851 L
c13
98 -70 -75 82 1400 1721 3 MP
PP
0 sg
1400 1721 mt 1325 1803 L
1325 1803 mt 1423 1733 L
c33
99 -95 -76 17 1453 1748 3 MP
PP
0 sg
1453 1748 mt 1377 1765 L
1377 1765 mt 1476 1670 L
c54
-76 51 99 -95 1377 1765 3 MP
PP
0 sg
1377 1765 mt 1476 1670 L
1476 1670 mt 1400 1721 L
c54
99 -123 -76 -16 1430 1887 3 MP
PP
0 sg
1430 1887 mt 1354 1871 L
1354 1871 mt 1453 1748 L
c13
-76 17 99 -123 1354 1871 3 MP
PP
0 sg
1354 1871 mt 1453 1748 L
1453 1748 mt 1377 1765 L
c26
98 -42 -75 179 1370 1946 3 MP
PP
0 sg
1370 1946 mt 1295 2125 L
1295 2125 mt 1393 2083 L
c40
99 -158 -76 -43 1407 2088 3 MP
PP
0 sg
1407 2088 mt 1331 2045 L
1331 2045 mt 1430 1887 L
c26
-75 179 98 -51 1272 1997 3 MP
PP
0 sg
1272 1997 mt 1370 1946 L
1370 1946 mt 1295 2125 L
c30
98 -51 -75 146 1347 1851 3 MP
PP
0 sg
1347 1851 mt 1272 1997 L
1272 1997 mt 1370 1946 L
c40
-76 -16 99 -158 1331 2045 3 MP
PP
0 sg
1331 2045 mt 1430 1887 L
1430 1887 mt 1354 1871 L
c9
-76 231 99 -38 1219 2329 3 MP
PP
0 sg
1219 2329 mt 1318 2291 L
1318 2291 mt 1242 2522 L
c23
99 -38 -76 204 1295 2125 3 MP
PP
0 sg
1295 2125 mt 1219 2329 L
1219 2329 mt 1318 2291 L
c9
99 -33 -76 231 1318 2291 3 MP
PP
0 sg
1318 2291 mt 1242 2522 L
1242 2522 mt 1341 2489 L
c23
-75 208 98 -42 1295 2125 3 MP
PP
0 sg
1295 2125 mt 1393 2083 L
1393 2083 mt 1318 2291 L
c41
98 -202 -75 -64 1384 2354 3 MP
PP
0 sg
1384 2354 mt 1309 2290 L
1309 2290 mt 1407 2088 L
/c57 { 0.875000 1.000000 0.125000 sr} bdef
c57
-76 -43 98 -202 1309 2290 3 MP
PP
0 sg
1309 2290 mt 1407 2088 L
1407 2088 mt 1331 2045 L
c29
-75 82 98 -90 1302 1811 3 MP
PP
0 sg
1302 1811 mt 1400 1721 L
1400 1721 mt 1325 1803 L
c54
98 -90 -75 46 1377 1765 3 MP
PP
0 sg
1377 1765 mt 1302 1811 L
1302 1811 mt 1400 1721 L
c41
-75 146 98 -64 1249 1915 3 MP
PP
0 sg
1249 1915 mt 1347 1851 L
1347 1851 mt 1272 1997 L
c47
98 -64 -76 112 1325 1803 3 MP
PP
0 sg
1325 1803 mt 1249 1915 L
1249 1915 mt 1347 1851 L
c13
98 -117 -75 11 1354 1871 3 MP
PP
0 sg
1354 1871 mt 1279 1882 L
1279 1882 mt 1377 1765 L
c12
-76 112 99 -83 1226 1886 3 MP
PP
0 sg
1226 1886 mt 1325 1803 L
1325 1803 mt 1249 1915 L
c29
99 -83 -76 75 1302 1811 3 MP
PP
0 sg
1302 1811 mt 1226 1886 L
1226 1886 mt 1325 1803 L
c29
-75 46 98 -117 1279 1882 3 MP
PP
0 sg
1279 1882 mt 1377 1765 L
1377 1765 mt 1302 1811 L
c35
-76 173 98 -57 1174 2054 3 MP
PP
0 sg
1174 2054 mt 1272 1997 L
1272 1997 mt 1196 2170 L
c26
99 -45 -76 173 1272 1997 3 MP
PP
0 sg
1272 1997 mt 1196 2170 L
1196 2170 mt 1295 2125 L
c40
98 -154 -75 -20 1331 2045 3 MP
PP
0 sg
1331 2045 mt 1256 2025 L
1256 2025 mt 1354 1871 L
c41
98 -57 -75 139 1249 1915 3 MP
PP
0 sg
1249 1915 mt 1174 2054 L
1174 2054 mt 1272 1997 L
c47
-75 11 98 -154 1256 2025 3 MP
PP
0 sg
1256 2025 mt 1354 1871 L
1354 1871 mt 1279 1882 L
c23
-76 204 99 -45 1196 2170 3 MP
PP
0 sg
1196 2170 mt 1295 2125 L
1295 2125 mt 1219 2329 L
c57
98 -201 -76 -44 1309 2290 3 MP
PP
0 sg
1309 2290 mt 1233 2246 L
1233 2246 mt 1331 2045 L
c57
-75 -20 98 -201 1233 2246 3 MP
PP
0 sg
1233 2246 mt 1331 2045 L
1331 2045 mt 1256 2025 L
c12
98 -74 -75 103 1226 1886 3 MP
PP
0 sg
1226 1886 mt 1151 1989 L
1151 1989 mt 1249 1915 L
c29
99 -110 -76 39 1279 1882 3 MP
PP
0 sg
1279 1882 mt 1203 1921 L
1203 1921 mt 1302 1811 L
c55
-76 75 99 -110 1203 1921 3 MP
PP
0 sg
1203 1921 mt 1302 1811 L
1302 1811 mt 1226 1886 L
c48
-75 139 98 -74 1151 1989 3 MP
PP
0 sg
1151 1989 mt 1249 1915 L
1249 1915 mt 1174 2054 L
c47
99 -148 -76 5 1256 2025 3 MP
PP
0 sg
1256 2025 mt 1180 2030 L
1180 2030 mt 1279 1882 L
c12
-76 39 99 -148 1180 2030 3 MP
PP
0 sg
1180 2030 mt 1279 1882 L
1279 1882 mt 1203 1921 L
c32
-75 198 98 -50 1098 2220 3 MP
PP
0 sg
1098 2220 mt 1196 2170 L
1196 2170 mt 1121 2368 L
c35
98 -50 -76 166 1174 2054 3 MP
PP
0 sg
1174 2054 mt 1098 2220 L
1098 2220 mt 1196 2170 L
c23
98 -39 -75 198 1196 2170 3 MP
PP
0 sg
1196 2170 mt 1121 2368 L
1121 2368 mt 1219 2329 L
c57
98 -197 -75 -24 1233 2246 3 MP
PP
0 sg
1233 2246 mt 1158 2222 L
1158 2222 mt 1256 2025 L
c41
-76 5 98 -197 1158 2222 3 MP
PP
0 sg
1158 2222 mt 1256 2025 L
1256 2025 mt 1180 2030 L
c9
98 -34 -75 227 1219 2329 3 MP
PP
0 sg
1219 2329 mt 1144 2556 L
1144 2556 mt 1242 2522 L
c30
-75 103 98 -101 1128 1987 3 MP
PP
0 sg
1128 1987 mt 1226 1886 L
1226 1886 mt 1151 1989 L
c55
98 -101 -75 66 1203 1921 3 MP
PP
0 sg
1203 1921 mt 1128 1987 L
1128 1987 mt 1226 1886 L
c9
-75 227 98 -39 1121 2368 3 MP
PP
0 sg
1121 2368 mt 1219 2329 L
1219 2329 mt 1144 2556 L
c11
-76 131 99 -90 1052 2079 3 MP
PP
0 sg
1052 2079 mt 1151 1989 L
1151 1989 mt 1075 2120 L
c48
99 -66 -76 131 1151 1989 3 MP
PP
0 sg
1151 1989 mt 1075 2120 L
1075 2120 mt 1174 2054 L
c12
98 -138 -75 29 1180 2030 3 MP
PP
0 sg
1180 2030 mt 1105 2059 L
1105 2059 mt 1203 1921 L
c30
99 -90 -76 92 1128 1987 3 MP
PP
0 sg
1128 1987 mt 1052 2079 L
1052 2079 mt 1151 1989 L
c30
-75 66 98 -138 1105 2059 3 MP
PP
0 sg
1105 2059 mt 1203 1921 L
1203 1921 mt 1128 1987 L
c42
98 -55 -75 155 1075 2120 3 MP
PP
0 sg
1075 2120 mt 1000 2275 L
1000 2275 mt 1098 2220 L
c42
-76 166 99 -66 1075 2120 3 MP
PP
0 sg
1075 2120 mt 1174 2054 L
1174 2054 mt 1098 2220 L
c41
98 -189 -76 -3 1158 2222 3 MP
PP
0 sg
1158 2222 mt 1082 2219 L
1082 2219 mt 1180 2030 L
c48
-75 29 98 -189 1082 2219 3 MP
PP
0 sg
1082 2219 mt 1180 2030 L
1180 2030 mt 1105 2059 L
c9
99 -33 -76 221 1121 2368 3 MP
PP
0 sg
1121 2368 mt 1045 2589 L
1045 2589 mt 1144 2556 L
c35
-75 118 98 -110 954 2189 3 MP
PP
0 sg
 954 2189 mt 1052 2079 L
1052 2079 mt  977 2197 L
c11
98 -77 -75 118 1052 2079 3 MP
PP
0 sg
1052 2079 mt  977 2197 L
 977 2197 mt 1075 2120 L
c30
99 -126 -76 54 1105 2059 3 MP
PP
0 sg
1105 2059 mt 1029 2113 L
1029 2113 mt 1128 1987 L
c56
-76 92 99 -126 1029 2113 3 MP
PP
0 sg
1029 2113 mt 1128 1987 L
1128 1987 mt 1052 2079 L
c32
98 -42 -75 190 1098 2220 3 MP
PP
0 sg
1098 2220 mt 1023 2410 L
1023 2410 mt 1121 2368 L
c28
-76 221 98 -42 1023 2410 3 MP
PP
0 sg
1023 2410 mt 1121 2368 L
1121 2368 mt 1045 2589 L
c49
-75 155 98 -77 977 2197 3 MP
PP
0 sg
 977 2197 mt 1075 2120 L
1075 2120 mt 1000 2275 L
c48
98 -176 -75 16 1082 2219 3 MP
PP
0 sg
1082 2219 mt 1007 2235 L
1007 2235 mt 1105 2059 L
c11
-76 54 98 -176 1007 2235 3 MP
PP
0 sg
1007 2235 mt 1105 2059 L
1105 2059 mt 1029 2113 L
c37
-75 190 98 -55 1000 2275 3 MP
PP
0 sg
1000 2275 mt 1098 2220 L
1098 2220 mt 1023 2410 L
c56
98 -110 -75 76 1029 2113 3 MP
PP
0 sg
1029 2113 mt  954 2189 L
 954 2189 mt 1052 2079 L
c28
98 -34 -76 213 1023 2410 3 MP
PP
0 sg
1023 2410 mt  947 2623 L
 947 2623 mt 1045 2589 L
c52
-76 142 99 -93 878 2290 3 MP
PP
0 sg
 878 2290 mt  977 2197 L
 977 2197 mt  901 2339 L
c49
99 -64 -76 142 977 2197 3 MP
PP
0 sg
 977 2197 mt  901 2339 L
 901 2339 mt 1000 2275 L
c11
98 -159 -76 37 1007 2235 3 MP
PP
0 sg
1007 2235 mt  931 2272 L
 931 2272 mt 1029 2113 L
c35
99 -93 -76 101 954 2189 3 MP
PP
0 sg
 954 2189 mt  878 2290 L
 878 2290 mt  977 2197 L
c35
-75 76 98 -159 931 2272 3 MP
PP
0 sg
 931 2272 mt 1029 2113 L
1029 2113 mt  954 2189 L
c37
99 -45 -76 180 1000 2275 3 MP
PP
0 sg
1000 2275 mt  924 2455 L
 924 2455 mt 1023 2410 L
c28
-76 213 99 -45 924 2455 3 MP
PP
0 sg
 924 2455 mt 1023 2410 L
1023 2410 mt  947 2623 L
c44
-76 180 99 -64 901 2339 3 MP
PP
0 sg
 901 2339 mt 1000 2275 L
1000 2275 mt  924 2455 L
c52
98 -74 -75 123 878 2290 3 MP
PP
0 sg
 878 2290 mt  803 2413 L
 803 2413 mt  901 2339 L
c35
98 -140 -75 57 931 2272 3 MP
PP
0 sg
 931 2272 mt  856 2329 L
 856 2329 mt  954 2189 L
c49
-76 101 98 -140 856 2329 3 MP
PP
0 sg
 856 2329 mt  954 2189 L
 954 2189 mt  878 2290 L
c28
98 -34 -75 202 924 2455 3 MP
PP
0 sg
 924 2455 mt  849 2657 L
 849 2657 mt  947 2623 L
c44
98 -48 -75 164 901 2339 3 MP
PP
0 sg
 901 2339 mt  826 2503 L
 826 2503 mt  924 2455 L
c39
-75 202 98 -48 826 2503 3 MP
PP
0 sg
 826 2503 mt  924 2455 L
 924 2455 mt  849 2657 L
c50
-75 164 98 -74 803 2413 3 MP
PP
0 sg
 803 2413 mt  901 2339 L
 901 2339 mt  826 2503 L
c32
-75 123 98 -116 780 2406 3 MP
PP
0 sg
 780 2406 mt  878 2290 L
 878 2290 mt  803 2413 L
c49
98 -116 -76 77 856 2329 3 MP
PP
0 sg
 856 2329 mt  780 2406 L
 780 2406 mt  878 2290 L
c39
99 -33 -76 187 826 2503 3 MP
PP
0 sg
 826 2503 mt  750 2690 L
 750 2690 mt  849 2657 L
c50
99 -55 -76 145 803 2413 3 MP
PP
0 sg
 803 2413 mt  727 2558 L
 727 2558 mt  826 2503 L
c46
-76 187 99 -55 727 2558 3 MP
PP
0 sg
 727 2558 mt  826 2503 L
 826 2503 mt  750 2690 L
c32
98 -90 -75 97 780 2406 3 MP
PP
0 sg
 780 2406 mt  705 2503 L
 705 2503 mt  803 2413 L
c53
-76 145 98 -90 705 2503 3 MP
PP
0 sg
 705 2503 mt  803 2413 L
 803 2413 mt  727 2558 L
c46
98 -34 -75 166 727 2558 3 MP
PP
0 sg
 727 2558 mt  652 2724 L
 652 2724 mt  750 2690 L
c53
98 -62 -76 117 705 2503 3 MP
PP
0 sg
 705 2503 mt  629 2620 L
 629 2620 mt  727 2558 L
c51
-75 166 98 -62 629 2620 3 MP
PP
0 sg
 629 2620 mt  727 2558 L
 727 2558 mt  652 2724 L
c51
98 -33 -75 137 629 2620 3 MP
PP
0 sg
 629 2620 mt  554 2757 L
 554 2757 mt  652 2724 L
gr


end %%Color Dict

eplot
%%EndObject

epage
end

showpage

%%Trailer
%%EOF
