0.001,0.00012501
0.051123,0.0064246
0.10125,0.012791
0.15137,0.019224
0.20149,0.025726
0.25161,0.032298
0.30174,0.03894
0.35186,0.045654
0.40198,0.052441
0.45211,0.059303
0.50223,0.066239
0.55235,0.073253
0.60247,0.080344
0.6526,0.087514
0.70272,0.094764
0.75284,0.1021
0.80296,0.10951
0.85309,0.11701
0.90321,0.1246
0.95333,0.13227
1.0035,0.14003
1.0536,0.14788
1.1037,0.15583
1.1538,0.16387
1.2039,0.172
1.2541,0.18023
1.3042,0.18856
1.3543,0.19698
1.4044,0.20551
1.4546,0.21415
1.5047,0.22289
1.5548,0.23173
1.6049,0.24069
1.6551,0.24976
1.7052,0.25894
1.7553,0.26824
1.8054,0.27765
1.8555,0.28719
1.9057,0.29685
1.9558,0.30663
2.0059,0.31654
2.056,0.32658
2.1062,0.33675
2.1563,0.34706
2.2064,0.3575
2.2565,0.36809
2.3066,0.37881
2.3568,0.38969
2.4069,0.40071
2.457,0.41188
2.5071,0.42321
2.5573,0.43469
2.6074,0.44634
2.6575,0.45815
2.7076,0.47013
2.7578,0.48228
2.8079,0.49461
2.858,0.50711
2.9081,0.5198
2.9582,0.53267
3.0084,0.54574
3.0585,0.559
3.1086,0.57246
3.1587,0.58613
3.2089,0.6
3.259,0.61409
3.3091,0.62839
3.3592,0.64292
3.4094,0.65768
3.4595,0.67267
3.5096,0.6879
3.5597,0.70337
3.6098,0.7191
3.66,0.73508
3.7101,0.75133
3.7602,0.76785
3.8103,0.78464
3.8605,0.80172
3.9106,0.81909
3.9607,0.83675
4.0108,0.85472
4.0609,0.87301
4.1111,0.89162
4.1612,0.91055
4.2113,0.92983
4.2614,0.94946
4.3116,0.96944
4.3617,0.98979
4.4118,1.0105
4.4619,1.0316
4.5121,1.0531
4.5622,1.0751
4.6123,1.0974
4.6624,1.1202
4.7125,1.1434
4.7627,1.1671
4.8128,1.1913
4.8629,1.2159
4.913,1.2411
4.9632,1.2668
5.0133,1.293
5.0634,1.3197
5.1135,1.347
5.1636,1.375
5.2138,1.4035
5.2639,1.4326
5.314,1.4624
5.3641,1.4929
5.4143,1.524
5.4644,1.5559
5.5145,1.5885
5.5646,1.6218
5.6148,1.656
5.6649,1.691
5.715,1.7268
5.7651,1.7635
5.8152,1.8011
5.8654,1.8397
5.9155,1.8792
5.9656,1.9198
6.0157,1.9614
6.0659,2.0042
6.116,2.048
6.1661,2.0931
6.2162,2.1394
6.2664,2.187
6.3165,2.236
6.3666,2.2864
6.4167,2.3382
6.4668,2.3916
6.517,2.4465
6.5671,2.5032
6.6172,2.5616
6.6673,2.6218
6.7175,2.684
6.7676,2.7482
6.8177,2.8145
6.8678,2.883
6.9179,2.9538
6.9681,3.0271
7.0182,3.103
7.0683,3.1816
7.1184,3.2631
7.1686,3.3476
7.2187,3.4354
7.2688,3.5265
7.3189,3.6212
7.3691,3.7197
7.4192,3.8222
7.4693,3.9291
7.5194,4.0405
7.5695,4.1568
7.6197,4.2782
7.6698,4.4053
7.7199,4.5382
7.77,4.6775
7.8202,4.8236
7.8703,4.9771
7.9204,5.1385
7.9705,5.3084
8.0206,5.4875
8.0708,5.6767
8.1209,5.8766
8.171,6.0885
8.2211,6.3131
8.2713,6.552
8.3214,6.8062
8.3715,7.0776
8.4216,7.3677
8.4718,7.6786
8.5219,8.0127
8.572,8.3726
8.6221,8.7615
8.6722,9.1829
8.7224,9.6412
8.7725,10.141
8.8226,10.689
8.8727,11.293
8.9229,11.96
8.973,12.702
9.0231,13.531
9.0732,14.465
9.1234,15.525
9.1735,16.737
9.2236,18.137
9.2737,19.773
9.3238,21.71
9.374,24.038
9.4241,26.89
9.4742,30.466
9.5243,35.079
9.5745,41.26
9.6246,49.969
9.6747,63.158
9.7248,85.479
9.7749,131.44
9.8251,280.86
9.8752,-2249.9
9.9253,-226.88
9.9754,-120.06
10.026,-81.895
10.076,-62.298
10.126,-50.368
10.176,-42.343
10.226,-36.575
10.276,-32.229
10.326,-28.837
10.376,-26.116
10.427,-23.884
10.477,-22.022
10.527,-20.443
10.577,-19.089
10.627,-17.913
10.677,-16.884
10.727,-15.974
10.777,-15.166
10.828,-14.442
10.878,-13.79
10.928,-13.199
10.978,-12.663
11.028,-12.172
11.078,-11.723
11.128,-11.309
11.178,-10.927
11.229,-10.573
11.279,-10.244
11.329,-9.9382
11.379,-9.6524
11.429,-9.3851
11.479,-9.1344
11.529,-8.8989
11.579,-8.6772
11.629,-8.4681
11.68,-8.2707
11.73,-8.0839
11.78,-7.9069
11.83,-7.739
11.88,-7.5794
11.93,-7.4277
11.98,-7.2831
12.03,-7.1453
12.081,-7.0138
12.131,-6.888
12.181,-6.7678
12.231,-6.6527
12.281,-6.5423
12.331,-6.4365
12.381,-6.3349
12.431,-6.2373
12.482,-6.1435
12.532,-6.0532
12.582,-5.9662
12.632,-5.8824
12.682,-5.8016
12.732,-5.7237
12.782,-5.6484
12.832,-5.5757
12.883,-5.5054
12.933,-5.4375
12.983,-5.3717
13.033,-5.308
13.083,-5.2464
13.133,-5.1866
13.183,-5.1286
13.233,-5.0724
13.284,-5.0178
13.334,-4.9649
13.384,-4.9134
13.434,-4.8634
13.484,-4.8148
13.534,-4.7676
13.584,-4.7216
13.634,-4.6768
13.685,-4.6333
13.735,-4.5908
13.785,-4.5495
13.835,-4.5092
13.885,-4.47
13.935,-4.4317
13.985,-4.3943
14.035,-4.3579
14.086,-4.3223
14.136,-4.2876
14.186,-4.2537
14.236,-4.2205
14.286,-4.1882
14.336,-4.1565
14.386,-4.1256
14.436,-4.0954
14.486,-4.0658
14.537,-4.0369
14.587,-4.0085
14.637,-3.9808
14.687,-3.9537
14.737,-3.9271
14.787,-3.9011
14.837,-3.8756
14.887,-3.8507
14.938,-3.8262
14.988,-3.8022
15.038,-3.7787
15.088,-3.7557
15.138,-3.7331
15.188,-3.7109
15.238,-3.6891
15.288,-3.6678
15.339,-3.6468
15.389,-3.6263
15.439,-3.6061
15.489,-3.5863
15.539,-3.5668
15.589,-3.5477
15.639,-3.5289
15.689,-3.5105
15.74,-3.4923
15.79,-3.4745
15.84,-3.457
15.89,-3.4398
15.94,-3.4229
15.99,-3.4062
16.04,-3.3899
16.09,-3.3738
16.141,-3.3579
16.191,-3.3424
16.241,-3.327
16.291,-3.3119
16.341,-3.2971
16.391,-3.2825
16.441,-3.2681
16.491,-3.254
16.542,-3.24
16.592,-3.2263
16.642,-3.2128
16.692,-3.1995
16.742,-3.1863
16.792,-3.1734
16.842,-3.1607
16.892,-3.1481
16.943,-3.1358
16.993,-3.1236
17.043,-3.1116
17.093,-3.0998
17.143,-3.0881
17.193,-3.0766
17.243,-3.0652
17.293,-3.0541
17.343,-3.043
17.394,-3.0322
17.444,-3.0214
17.494,-3.0108
17.544,-3.0004
17.594,-2.9901
17.644,-2.9799
17.694,-2.9699
17.744,-2.96
17.795,-2.9503
17.845,-2.9406
17.895,-2.9311
17.945,-2.9217
17.995,-2.9125
18.045,-2.9033
18.095,-2.8943
18.145,-2.8854
18.196,-2.8765
18.246,-2.8678
18.296,-2.8593
18.346,-2.8508
18.396,-2.8424
18.446,-2.8341
18.496,-2.8259
18.546,-2.8179
18.597,-2.8099
18.647,-2.802
18.697,-2.7942
18.747,-2.7865
18.797,-2.7789
18.847,-2.7714
18.897,-2.7639
18.947,-2.7566
18.998,-2.7493
19.048,-2.7422
19.098,-2.7351
19.148,-2.728
19.198,-2.7211
19.248,-2.7143
19.298,-2.7075
19.348,-2.7008
19.399,-2.6941
19.449,-2.6876
19.499,-2.6811
19.549,-2.6747
19.599,-2.6684
19.649,-2.6621
19.699,-2.6559
19.749,-2.6497
19.8,-2.6437
19.85,-2.6377
19.9,-2.6317
19.95,-2.6258
20,-2.62
